<?xml version="1.0" encoding="UTF-8" standalone="no"?>
<svg
   xmlns:dc="http://purl.org/dc/elements/1.1/"
   xmlns:cc="http://creativecommons.org/ns#"
   xmlns:rdf="http://www.w3.org/1999/02/22-rdf-syntax-ns#"
   xmlns:svg="http://www.w3.org/2000/svg"
   xmlns="http://www.w3.org/2000/svg"
   viewBox="0 0 2659.5461 2294.4744"
   height="2294.4744"
   width="2659.5461"
   id="svg886"
   version="1.1">
  <metadata
     id="metadata892">
    <rdf:RDF>
      <cc:Work
         rdf:about="">
        <dc:format>image/svg+xml</dc:format>
        <dc:type
           rdf:resource="http://purl.org/dc/dcmitype/StillImage" />
        <dc:title></dc:title>
      </cc:Work>
    </rdf:RDF>
  </metadata>
  <defs
     id="defs890" />
  <path
     id="path1982"
     d="m 1598.28,2293.2447 c -9.4849,-2.063 -23.2889,-8.8478 -33.1516,-16.2944 -10.514,-7.9384 -19.6911,-17.8221 -34.9617,-37.6539 -6.7761,-8.8 -13.3666,-17.2862 -14.6456,-18.8582 l -2.3254,-2.8583 -7.9579,1.6184 c -12.2428,2.4899 -30.8753,3.5928 -42.3913,2.5092 -19.2161,-1.8081 -32.0794,-7.6057 -44.8548,-20.2166 -17.1749,-16.9538 -26.3558,-36.0232 -33.0729,-68.6945 -4.7215,-22.9653 -7.3534,-44.417 -11.6554,-95 -5.3022,-62.3438 -10.76,-99.0165 -20.5491,-138.0756 -9.8357,-39.2453 -18.5536,-63.0605 -41.8867,-114.4244 -27.0243,-59.4894 -32.1248,-76.2978 -32.1475,-105.9395 -0.012,-15.8049 1.8565,-28.1068 6.8445,-45.0605 1.9418,-6.6 3.7306,-12.9312 3.975,-14.0694 0.3424,-1.5941 -1.1323,-3.3594 -6.4197,-7.6852 -10.6804,-8.738 -24.9632,-24.0086 -48.3981,-51.7454 -40.7431,-48.2221 -50.4843,-61.644 -68.9478,-95 -48.146,-86.9798 -63.658,-132.238 -70.4341,-205.5 -1.8356,-19.8467 -2.8512,-23.5 -6.5327,-23.5 -1.4725,0 -3.4207,-0.8215 -4.3293,-1.8255 -1.5625,-1.7266 -8.9491,-24.5578 -11.6226,-35.9245 -1.1192,-4.7585 -1.4918,-5.25 -3.9801,-5.25 -4.9701,0 -5.7377,-2.1493 -6.4285,-18 -0.5355,-12.2875 -3.7918,-33.0611 -7.1452,-45.5819 -0.3429,-1.2805 -38.1264,2.8369 -65.98154,7.1903 -15.4923,2.4212 -20.856,2.8088 -38.5,2.7821 -18.7658,-0.028 -22.6149,-0.3594 -45.5,-3.9138 -37.1751,-5.7738 -52.29388,-5.5388 -97.5,1.516 -10.175,1.5879 -24.125,3.3844 -31,3.9922 -6.875,0.6079 -19.925,1.9493 -29,2.981 -9.075,1.0316 -19.65,2.16 -23.5,2.5074 -17.9015,1.6154 -54.98259,5.7364 -63.9107,7.1027 -7.86554,1.2037 -10.54819,2.0546 -13,4.1237 -3.66122,3.0897 -14.66341,8.5109 -21.17428,10.4333 -3.81322,1.1259 -4.98806,2.0722 -6.66361,5.367 -1.11881,2.2 -4.06429,6.25 -6.54552,9 -2.48123,2.75 -6.01686,7.3397 -7.85696,10.1994 -1.8401,2.8597 -3.95426,5.5597 -4.69813,6 -0.80416,0.476 -1.59345,3.4626 -1.94684,7.3666 -1.81117,20.0088 -15.66469,32.6611 -30.49765,27.8533 -0.85552,-0.2773 -2.92173,3.6451 -6.1004,11.5807 -13.41983,33.5028 -44.86211,96.1398 -85.08486,169.5 -12.55756,22.9031 -51.64108,100.4976 -73.53864,146 -7.27874,15.125 -24.82193,51.35 -38.98485,80.5 -43.11545,88.7398 -42.46595,87.3596 -53.15605,112.9601 -5.85323,14.0172 -7.49991,16.5399 -10.7965,16.5399 -6.0718,0 -5.88912,-4.5304 0.83164,-20.6246 10.59488,-25.3714 10.06354,-24.2412 52.12427,-110.8754 13.61823,-28.05 31.38799,-64.725 39.48836,-81.5 25.38916,-52.5782 61.08692,-123.5208 74.724,-148.5 44.4682,-81.4527 71.59396,-135.6792 85.77584,-171.4725 8.57899,-21.6523 9.4064,-18.1688 -8.62289,-36.3037 -8.45142,-8.501 -22.27596,-20.9695 -30.72119,-27.708 -17.48866,-13.9541 -26.03422,-22.2732 -39.99737,-38.937 -14.45275,-17.2483 -16.51797,-20.2416 -41.29159,-59.8488 -23.49905,-37.5695 -31.88578,-49.9932 -37.04257,-54.8733 l -3.01866,-2.8567 -1.64038,2.5 c -0.90221,1.375 -5.72623,7.9213 -10.72004,14.5474 -12.56501,16.672 -24.53839,33.7328 -49.44401,70.4526 -11.75088,17.325 -23.9074,35.1 -27.01448,39.5 -14.72746,20.8558 -43.33477,60.3678 -52.49125,72.5 -5.60381,7.425 -26.53278,35.325 -46.50882,62 -36.41374,48.6251 -49.38107,65.1502 -83.96346,107 -21.853625,26.4461 -40.328885,50.0039 -81.752505,104.2426 -22.33114,29.2396 -31.02502,39.9113 -32.8972,40.3812 -3.43564,0.8623 -6.88588,-2.4616 -6.00266,-5.7828 1.09466,-4.1163 82.52848,-109.7791 111.172915,-144.2502 31.80457,-38.274 53.60609,-66.2019 98.0406,-125.5908 25.30771,-33.825 50.02107,-67.125 54.91858,-74 4.89751,-6.875 13.17808,-18.3404 18.40128,-25.4787 5.22319,-7.1382 16.07974,-22.6632 24.12567,-34.5 8.04592,-11.8367 21.52185,-31.6463 29.94652,-44.0213 8.42466,-12.375 21.32366,-30.5703 28.66443,-40.434 12.86746,-17.2899 13.28442,-18.003 11.60841,-19.8541 -1.45046,-1.6019 -1.73845,-3.9321 -1.73845,-14.066 0,-15.86753 2.25717,-22.50073 10.44893,-30.70643 5.44506,-5.4544 5.92198,-5.6929 17.08601,-8.5456 0.84422,-0.2157 3.03006,-3.4301 4.85742,-7.143 4.35801,-8.855 10.92635,-18.8639 27.10889,-41.3089 28.58274,-39.64393 42.71046,-55.72219 87.37814,-99.442 30.17006,-29.52984 62.61479,-62.82529 90.13655,-92.5 4.33582,-4.675 19.20992,-20.2 33.05355,-34.5 28.01838,-28.94204 37.00026,-38.85852 60.46291,-66.75433 8.85775,-10.53138 20.35874,-23.60152 25.55775,-29.04475 l 9.45275,-9.89679 -0.51557,-4.65206 c -1.59419,-14.38468 -2.52292,-59.03945 -1.57095,-75.53372 2.29436,-39.75288 7.87057,-60.09179 31.57876,-115.18174 7.36731,-17.11919 15.902,-38.50823 18.96597,-47.5312 6.82856,-20.10919 11.64492,-30.23177 19.29096,-40.54399 10.70769,-14.44145 20.36872,-20.65554 32.11313,-20.65554 16.92433,0 26.6973,12.46905 27.8429,35.52392 l 0.5332,10.7298 8.6094,-7.87146 c 4.7351,-4.3293 14.2343,-13.16169 21.1093,-19.62753 6.875,-6.46584 22.175,-20.1258 34,-30.35547 40.3212,-34.88144 53.7397,-43.10514 70.33414,-43.10514 6.2162,0 8.3157,0.47246 13.275,2.98733 3.24,1.64304 5.9521,2.99304 6.0269,3 0.075,0.007 2.0632,-3.24983 4.4187,-7.23733 9.273,-15.69832 31.5856,-46.93714 44.5085,-62.31437 16.3346,-19.43691 37.9383,-40.63075 52.7439,-51.74311 26.7883,-20.106055 83.9806,-52.701745 116.6929,-66.507035 38.3913,-16.20195 77.6257,-27.86299 114.5,-34.0311099 35.2461,-5.895769 59.0155,-8.01333498 99,-8.81969998 52.8303,-1.065426 108.4179,4.41224298 149.536,14.73546988 57.4802,14.43114 108.284,40.1686 154.6412,78.34206 15.2071,12.522555 41.5459,39.226615 50.3779,51.076695 18.4242,24.72 42.2608,67.06277 53.3652,94.79649 12.0812,30.17368 18.1789,54.95376 26.0133,105.71461 11.0757,71.76141 13.6496,104.22901 11.704,147.6363 -3.0091,67.13281 -9.0373,101.53654 -28.6248,163.3637 -17.5524,55.40361 -21.3605,73.72524 -23.4867,113 -0.6313,11.66085 -1.6283,21.10803 -2.4801,23.5 -0.8138,2.28513 -2.1913,14.50357 -3.2132,28.5 -2.1012,28.77981 -2.3883,91.1654 -0.4967,107.9161 1.0181,9.0157 0.9706,10.7299 -0.353,12.75 -2.1124,3.224 -5.9646,3.0549 -8.2022,-0.3601 l -1.7652,-2.694 -0.8073,3.944 c -0.444,2.1692 -0.9613,11.4891 -1.1495,20.7109 -0.3754,18.3948 -0.9077,20.2024 -5.7402,19.4932 -1.924,-0.2824 -2.9494,0.081 -3.2907,1.1648 -1.4085,4.4752 -3.5553,28.98823 -3.3967,38.78423 0.1274,7.865 -0.2,11.6687 -1.0973,12.75 -1.7351,2.0907 -6.6665,1.9625 -8.0474,-0.2091 -0.9547,-1.5013 -1.0433,-1.3947 -0.6238,0.75 0.2689,1.375 0.7951,5.0549 1.1693,8.1776 l 0.6802,5.6775 7.1439,1.1671 c 19.0588,3.1136 51.0184,10.6209 77.1438,18.1211 28.5038,8.183 48.0647,14.977 99.5,34.5589 15.125,5.7582 50.45,18.9346 78.5,29.2809 28.05,10.3462 62.025,23.0843 75.5,28.3069 13.475,5.2225 49.7,19.2484 80.5,31.1686 106.0633,41.0485 126.9947,49.6665 206.327,84.9494 68.553,30.4889 86.7589,39.0233 132.673,62.1932 57.5343,29.0339 90.6199,46.6937 92.3433,49.2893 1.132,1.7049 1.2022,2.7142 0.323,4.6439 -1.9731,4.3304 -5.8357,3.2624 -25.0014,-6.9129 -80.0246,-42.486 -117.6596,-60.7234 -209.5668,-101.5534 -71.7032,-31.8544 -97.3618,-42.4718 -176.5981,-73.0753 -23.925,-9.2406 -62.85,-24.3217 -86.5,-33.5135 -23.65,-9.1918 -64.15,-24.4894 -90,-33.9946 -25.85,-9.5053 -65,-24.1178 -87,-32.4724 -22,-8.3546 -47.875,-17.8663 -57.5,-21.1371 -32.7141,-11.1173 -74.2005,-22.1804 -102.8421,-27.4248 l -14.342,-2.6261 -2.2224,2.0879 c -1.2223,1.1483 -2.9112,2.0878 -3.753,2.0878 -2.2002,0 -4.8288,-3.2538 -4.9108,-6.0787 -0.039,-1.3317 -0.3973,-3.2524 -0.7971,-4.2682 -0.6599,-1.6771 -0.8487,-1.7001 -2.0521,-0.25 -1.5806,1.9044 -5.4211,2.0983 -6.8689,0.3469 -2.1424,-2.5916 -4.4094,-9.8259 -3.8178,-12.1831 1.3365,-5.3249 8.3074,-3.6104 11.2159,2.7586 l 1.4497,3.1745 -0.5832,-4.5 c -1.2471,-9.6217 -1.4173,-10 -4.499,-10 -1.8257,0 -3.428,-0.8056 -4.4205,-2.2225 -1.6548,-2.3625 -2.1443,-10.2963 -0.6908,-11.1946 0.4762,-0.2943 0.6483,-1.6735 0.3823,-3.0648 -1.1365,-5.9451 5.8105,-7.6139 10.1629,-2.4414 2.943,3.4976 3.2326,5.6899 1.1207,8.4822 -1.951,2.5795 -1.9071,3.7991 0.1091,3.0254 0.9025,-0.3463 2.7025,0.066 4,0.9161 l 2.3591,1.5457 v -8.0904 c 0,-7.431 -0.1515,-8.0424 -1.8591,-7.5004 -2.77,0.8791 -4.867,-0.2761 -7.1207,-3.9226 -2.273,-3.6778 -2.6125,-7.5404 -0.8202,-9.33273 1.9674,-1.9674 5.7392,-1.3687 8.2162,1.30413 l 2.3208,2.5041 0.6205,-3.7541 c 0.9888,-5.98223 0.8944,-6.29773 -1.6075,-5.37293 -6.981,2.5804 -9.1913,-3.3296 -6.2963,-16.8351 1.4577,-6.8 3.5741,-9.4367 7.0551,-8.7893 1.7858,0.3322 1.9666,-0.069 1.629,-3.609 -0.9557,-10.0212 6.8644,-45.8923 10.9536,-50.2451 1.53,-1.6286 2.6102,-4.8309 3.5814,-10.6173 1.0893,-6.4899 1.9255,-8.76259 3.8589,-10.48743 2.3701,-2.11439 2.4687,-2.69152 2.4779,-14.5 0.017,-22.31187 3.8304,-83.92648 6.0832,-98.29797 0.5173,-3.3 1.598,-13.425 2.4016,-22.5 1.6438,-18.56378 2.103,-22.34596 4.0064,-33 0.737,-4.125 1.1372,-8.625 0.8894,-10 -0.2477,-1.375 1.1469,-11.5 3.0991,-22.5 4.8333,-27.23273 10.0702,-63.17376 11.5838,-79.5 1.5658,-16.88842 1.586,-65.74833 0.035,-85 -3.4423,-42.73207 -13.2816,-91.28783 -20.6844,-102.07517 -1.3494,-1.96634 -3.3033,-6.63971 -4.3419,-10.38527 -1.2507,-4.51037 -2.7439,-7.52423 -4.4219,-8.92483 -2.017,-1.68365 -2.8504,-3.84744 -4.0882,-10.61473 -0.855,-4.675 -2.7341,-12.20522 -4.1757,-16.73383 -1.5976,-5.01879 -2.3759,-9.21036 -1.9933,-10.73477 0.8827,-3.51703 4.4705,-4.14686 9.3735,-1.64551 4.3782,2.23356 4.4997,2.51776 10.742,25.11411 4.0592,14.69416 6.0011,20.73062 9.9214,30.84116 5.1381,13.25164 8.1597,24.17011 12.0821,43.65884 4.6181,22.94519 6.1664,33.84466 8.0486,56.65957 2.767,33.53878 1.7007,91.77884 -2.0635,112.70392 -1.0561,5.87053 3.8931,-10.43175 8.0036,-26.36349 10.9816,-42.56349 15.8028,-85.16686 15.8995,-140.5 0.07,-39.83744 -1.7247,-58.92872 -11.4663,-122 -6.7211,-43.51489 -10.2828,-59.84976 -18.6263,-85.42604 -8.8752,-27.20624 -21.9827,-54.36563 -40.785,-84.50872 -18.5555,-29.74742 -32.6342,-46.56812 -56.5324,-67.54294 -63.7202,-55.925505 -133.9725,-86.207565 -221.5,-95.476935 -62.1523,-6.5820799 -124.2321,-5.0528899 -181.1509,4.46223 -60.7112,10.1491 -113.9259,29.72689 -173.3491,63.77549 -46.3305,26.546675 -59.1726,36.000655 -86.0799,63.369665 -24.2546,24.67072 -50.6855,59.5829 -67.6615,89.37322 -2.8003,4.91395 -3.047,5.96612 -2.2277,9.5 2.3484,10.12891 -0.2035,24.01718 -7.0411,38.32007 -2.2741,4.75707 -3.9898,9.83257 -3.9898,11.80293 0,1.90128 -1.204,7.47905 -2.6756,12.39503 -1.4716,4.91599 -2.4358,9.17791 -2.1428,9.47095 0.293,0.29303 13.3096,-7.18994 28.9256,-16.62884 61.6572,-37.2678 89.3063,-47.10669 116.3052,-41.38699 43.3696,9.1878 46.0122,51.2513 5.4327,86.47493 -14.7239,12.78062 -38.6721,29.38968 -89.0685,61.77276 -6.2029,3.98575 -16.0026,11.33789 -21.7773,16.3381 -15.2635,13.21659 -25.5884,20.75266 -40.3868,29.47822 -31.20534,18.39945 -32.05184,18.97914 -32.23304,22.07298 -0.092,1.57514 -1.3336,7.41895 -2.7587,12.98625 -5.4612,21.33558 -9.8873,52.21954 -11.5909,80.87764 -1.0833,18.223 -1.3858,50.81078 -0.4801,51.71646 0.3024,0.30239 4.6899,-0.53047 9.75,-1.85079 12.5603,-3.27735 35.34064,-7.79301 52.16074,-10.33965 7.6783,-1.16253 14.0143,-2.20646 14.0801,-2.31985 0.066,-0.1134 2.2755,-4.25617 4.9106,-9.20617 2.6351,-4.95 6.3499,-11.1375 8.2551,-13.75 l 3.464,-4.75 h -2.5621 c -3.4711,0 -6.1923,-4.04014 -4.6553,-6.91194 1.3257,-2.47712 8.5222,-7.40276 24.7323,-16.92793 12.0963,-7.10782 16.5717,-8.50328 19.1148,-5.96013 3.2524,3.25239 0.072,7.85019 -8.3855,12.12257 -2.6411,1.33419 -3.021,1.99876 -2.6371,4.6142 0.4074,2.77588 -0.511,3.99391 -10.0355,13.30937 -7.0674,6.9122 -11.8731,12.62736 -14.7466,17.53692 -2.3444,4.00568 -4.0365,7.5091 -3.7602,7.78537 0.2763,0.27627 7.4803,0.0144 16.009,-0.58201 11.2197,-0.78454 19.0661,-0.77967 28.3813,0.0176 22.5981,1.93415 21.6943,1.65971 93.8746,28.50598 13.75,5.11409 30.4,11.19339 37,13.50957 37.183,13.04886 49.6963,20.0158 66.5,37.02481 7.7506,7.84529 9.0047,9.78069 27.1873,41.95561 5.7501,10.175 16.088,27.05 22.9733,37.5 6.8852,10.45 12.9521,19.79825 13.4821,20.77388 0.5299,0.97564 6.1888,4.17835 12.5752,7.11715 17.5514,8.07654 25.2282,12.47121 41.4565,23.73222 18.0048,12.4937 34.1943,28.0639 38.7987,37.31463 5.2747,10.59738 3.8584,18.01712 -5.3103,27.81913 -8.5723,9.16449 -18.0447,11.91495 -26.6641,7.74235 -2.5054,-1.21284 -8.3939,-6.55499 -14.9541,-13.56657 -10.0936,-10.78831 -19.3341,-18.43278 -22.2812,-18.43278 -2.0782,0 -1.5342,1.09682 5.2086,10.5 9.3452,13.03252 18.6108,28.95706 21.3974,36.77492 2.0028,5.61898 2.222,7.22938 1.2687,9.32158 -0.9433,2.0702 -1.7408,2.4724 -4.3952,2.2163 -2.5854,-0.2494 -3.5782,-1.0223 -4.8972,-3.8128 -6.3604,-13.45549 -9.9915,-19.97897 -17.1263,-30.76776 -4.462,-6.74726 -8.4198,-12.14726 -8.795,-12 -0.3753,0.14727 -2.5404,1.95743 -4.8115,4.02257 l -4.1292,3.75482 5.7842,7.27881 c 10.3929,13.07833 18.22,31.07596 21.7278,49.96096 2.6173,14.0906 1.2955,18.9189 -4.7631,17.3983 -2.782,-0.6982 -4.0852,-3.5972 -5.236,-11.6477 -2.7699,-19.3769 -11.881,-40.16627 -22.3993,-51.10995 -6.4916,-6.7541 -6.7229,-6.89005 -11.7232,-6.89005 -2.8056,0 -7.4853,-0.45216 -10.3994,-1.00481 -6.2733,-1.18972 -7.2921,-0.72788 -3.1358,1.42148 5.2659,2.72307 15.7515,12.27578 21.9986,20.04145 7.1947,8.94358 12.207,18.84788 15.6395,30.90378 3.0077,10.5638 3.1782,14.7352 0.6944,16.9831 -2.7135,2.4557 -4.7327,2.0302 -7.5697,-1.595 l -2.5433,-3.25 -9.7791,0.043 c -7.9949,0.035 -12.8811,0.8046 -26.7792,4.2154 -21.8451,5.361 -33.6513,7.2322 -45.662,7.2372 -17.638,0.01 -29.0641,-3.3168 -42.6917,-12.42 -13.1024,-8.7524 -21.1086,-19.3901 -25.1688,-33.4413 l -2.2911,-7.92924 -4.0932,-0.65327 c -5.4849,-0.8754 -8.5932,-3.04705 -8.5932,-6.00381 0,-4.42894 2.381,-5.61987 9.8481,-4.92588 l 6.7047,0.62314 6.4736,-4.50311 c 8.2808,-5.76022 18.5293,-10.86636 27.7236,-13.81282 7.5957,-2.43415 9.5313,-4.08276 4,-3.4068 -1.7875,0.21845 -6.2979,0.6242 -10.0231,0.90166 -12.1494,0.90494 -25.7088,5.7506 -36.888,13.18252 -7.1344,4.74292 -11.1643,5.44785 -13.1353,2.29769 -2.0365,-3.25485 0.1001,-6.6207 7.1983,-11.33958 8.3418,-5.54561 15.4914,-8.7893 26.9595,-12.23124 7.111,-2.13424 11.3286,-2.67957 23.8508,-3.08391 9.1268,-0.2947 18.5275,-0.0201 23.5,0.68653 8.0644,1.14599 22.2546,4.18976 26.2878,5.63869 1.1,0.39518 -0.025,-0.75084 -2.5,-2.54671 -8.0714,-5.85665 -18.8616,-17.22291 -23.5456,-24.80275 -0.3081,-0.4986 -16.8481,3.63678 -22.7741,5.69405 -3.2008,1.1112 -8.8111,3.60881 -12.4673,5.55025 -3.6561,1.94144 -7.6426,3.52989 -8.8588,3.52989 -3.2364,0 -5.6226,-2.79442 -4.8874,-5.72355 0.5447,-2.17053 0.3619,-2.36012 -1.6777,-1.73958 -5.2189,1.58783 -20.8478,10.34199 -34.1098,19.10588 -7.788,5.14649 -14.677,9.35725 -15.3089,9.35725 -0.6318,0 -2.2021,-0.8529 -3.4895,-1.89533 -4.2552,-3.44568 -1.9393,-6.44181 12.6266,-16.33522 22.3887,-15.20676 52.9142,-28.51823 73.2425,-31.93933 7.2887,-1.22663 8.676,-2.40174 5.726,-4.85004 -2.2757,-1.88867 -12.4583,-0.61874 -23.5644,2.93884 -5.1995,1.66556 -16.5639,6.67244 -25.2541,11.1264 -25.062,12.84489 -32.4135,14.98403 -38.7108,11.26411 -3.6265,-2.14222 -5.3638,-6.27262 -4.5231,-10.75375 0.9946,-5.30183 9.4305,-13.73211 21.9959,-21.98134 16.9141,-11.10423 22.2321,-13.80936 47.9479,-24.38998 1.6777,-0.69031 1.3376,-1.46815 -3.3494,-7.66059 -7.9192,-10.46269 -8.8579,-10.99998 -19.4934,-11.15706 -6.9325,-0.10238 -12.7707,-1.07944 -25.1835,-4.21456 -27.5709,-6.96364 -60.1469,-18.23683 -73.2244,-25.33991 -4.0608,-2.20563 -9.3519,-5.05699 -11.758,-6.33634 l -4.3748,-2.32609 -4.242,2.33733 c -6.7605,3.72512 -20.4524,8.14168 -30.6846,9.89785 -5.1935,0.89138 -9.7595,2.13319 -10.1466,2.75958 -1.5082,2.44028 -4.0773,23.19657 -4.9664,40.12443 -1.1248,21.41349 -2.1165,24.731 -7.3933,24.731 h -3.551 v 5.25 c 0,2.8875 -0.2121,11.1 -0.4664,18.25 -0.517,14.53468 0.5509,11.34422 2.4986,-7.46488 0.596,-5.75568 1.5636,-11.04318 2.1502,-11.75 1.459,-1.75799 6.2985,-1.62046 7.828,0.22247 1.3872,1.67149 1.4316,10.43542 0.1011,19.96885 -0.8121,5.81879 -0.7548,6.0505 2.1714,8.78403 2.953,2.75845 2.9942,2.93389 2.3534,10.02356 -0.3587,3.96878 -0.9376,11.55348 -1.2865,16.85488 l -0.6343,9.63891 2.6501,-0.50658 c 5.4064,-1.03352 5.9167,0.61607 5.1613,16.68681 -0.8472,18.02495 0.3738,27.18135 4.0496,30.36665 1.9997,1.7329 2.6543,3.4972 3.2189,8.6753 0.6481,5.9444 0.9224,6.5296 3.2087,6.8458 4.5024,0.6228 5.2819,2.0538 4.7472,8.7149 -0.4189,5.2179 -0.2157,6.2902 1.3808,7.2872 1.5875,0.9914 1.872,2.4432 1.872,9.5522 0,8.1654 0.067,8.3998 2.5659,9.0271 2.9262,0.7344 4.8242,4.5478 5.867,11.788 0.7904,5.4871 -0.3412,5.0947 19.5671,6.785 24.7585,2.102 49.7247,5.1486 61.4634,7.50023 l 11.9634,2.3967 8.2671,-5.61573 8.2672,-5.6156 -4.57,-4.8857 c -9.0505,-9.6756 -15.3714,-28.5271 -15.3841,-45.8809 -0.01,-11.4886 1.1878,-15.659 4.7477,-16.5525 5.1628,-1.2958 5.6946,0.071 6.3288,16.2585 0.6238,15.9238 2.182,22.5349 7.7197,32.7536 2.6356,4.8634 9.4881,11.6412 11.7695,11.6412 0.667,0 7.6735,-3.1378 15.57,-6.9729 31.4698,-15.2838 56.2305,-21.372 77.2204,-18.987 14.9377,1.6974 25.0952,6.2942 34.3509,15.5458 l 5.214,5.2117 7.4677,-7.8163 c 4.1072,-4.299 8.2276,-9.3159 9.1566,-11.1488 2.6001,-5.1304 4.4994,-6.8325 7.6241,-6.8325 2.0995,0 3.1763,0.6799 4.0243,2.5412 0.9692,2.127 0.7862,3.3085 -1.1225,7.25 -2.6327,5.4364 -11.1981,16.221 -17.4877,22.0186 -3.5928,3.3117 -4.4498,4.8243 -5.0101,8.8427 -1.0593,7.59663 -5.8069,16.09513 -14.2804,25.56233 -4.29,4.7932 -13.9216,15.6041 -21.4035,24.0242 -15.1535,17.0537 -21.8626,23.2285 -32.8965,30.2766 -4.125,2.6349 -14.925,10.4187 -24,17.2972 -16.615,12.5935 -19.4644,14.2242 -37.2233,21.3026 -13.4073,5.3439 -22.8594,6.6358 -53.7767,7.3501 -14.575,0.3367 -28.5882,0.8712 -31.1405,1.1877 -4.4606,0.5531 -4.6639,0.722 -5.2454,4.3584 -0.3327,2.0807 -0.3212,6.4974 0.026,9.815 0.6195,5.9275 0.6826,6.0305 3.6444,5.9463 3.9903,-0.1135 5.379,2.008 6.2482,9.5447 0.5105,4.427 1.3533,6.8253 2.9682,8.4466 2.5564,2.5666 3.4934,6.1969 3.5132,13.6108 0.021,7.7743 0.7466,9.665 3.3365,8.6898 5.2985,-1.9951 7.3322,0.8861 10.1885,14.4352 0.9276,4.4 2.2283,9.0456 2.8904,10.3236 1.0744,2.0736 1.3444,2.1543 2.5098,0.75 1.4789,-1.7819 4.3347,-2.0327 6.9865,-0.6135 2.4498,1.3111 5.5386,8.8904 7.6482,18.7674 1.6077,7.5269 1.9385,8.1821 3.8852,7.6935 3.5174,-0.8828 7.3163,3.0021 9.1865,9.3946 0.9147,3.1264 1.9342,10.6344 2.2656,16.6844 l 0.6025,11 1.2944,-7.6163 c 1.3578,-7.9892 3.7042,-11.8837 7.1597,-11.8837 3.4808,0 5.3116,2.9378 4.6297,7.4291 -2.3983,15.7967 -3.5608,25.9022 -3.5777,31.0984 -0.023,6.9519 -1.8894,10.4725 -5.5532,10.4725 -4.6225,0 -5.8422,-3.7425 -5.0769,-15.5786 l 0.6781,-10.4889 -2.0338,2.0338 c -2.3994,2.3994 -3.9519,2.5446 -6.5926,0.6162 -1.6918,-1.2354 -1.9846,-2.9199 -2.2801,-13.1182 l -0.3389,-11.7009 -1.8964,3.1183 c -2.0238,3.328 -4.4388,3.926 -7.3267,1.8143 -1.3575,-0.9926 -2.1194,-4.0369 -3.191,-12.75 -0.7743,-6.2953 -1.9192,-14.0477 -2.5442,-17.2276 -1.0499,-5.3415 -1.2653,-5.665 -2.8289,-4.25 -2.7073,2.4501 -6.6409,1.9052 -8.7961,-1.2184 -2.1904,-3.1746 -5.6191,-11.7336 -7.3109,-18.25 -1.0329,-3.9782 -1.2653,-4.2426 -2.0048,-2.2799 -1.1365,3.0161 -5.452,4.0162 -7.8736,1.8247 -1.9323,-1.7487 -4.0495,-11.1079 -4.0495,-17.9015 0,-2.979 -0.4644,-3.8694 -2.4029,-4.6064 -1.3215,-0.5024 -2.784,-1.5038 -3.25,-2.2252 -0.4659,-0.7214 -1.0721,-7.3867 -1.3471,-14.8117 l -0.5,-13.5 -2.646,-0.3064 c -1.4554,-0.1685 -3.3713,-1.1077 -4.2577,-2.0872 -1.8738,-2.0705 -4.0162,-16.9183 -3.0656,-21.2463 0.606,-2.759 0.4928,-2.8599 -3.2012,-2.8534 -2.1062,0 -14.1795,0.9006 -26.8295,1.9933 -12.65,1.0927 -23.3375,1.9897 -23.75,1.9933 -1.4021,0.012 -0.7563,5.9967 1.8091,16.7649 1.4075,5.908 2.8259,13.8164 3.152,17.5743 0.5137,5.9204 0.8982,6.9486 2.8801,7.7022 3.1491,1.1973 4.0182,3.2106 5.381,12.4653 1.2547,8.5213 3.8775,19.736 7.1916,30.75 1.8663,6.2027 2.2538,6.75 4.7786,6.75 1.5112,0 3.4176,0.7875 4.2364,1.75 1.4527,1.7075 7.9299,20.522 9.2951,27 0.5729,2.7181 1.1376,3.25 3.4506,3.25 4.2299,0 5.8602,2.7333 8.088,13.5607 1.1248,5.4666 2.4518,11.5143 2.949,13.4393 3.2564,12.6092 2.9605,11.9991 5.827,12.0153 1.4913,0.01 3.2591,0.3633 3.9283,0.7885 1.4536,0.9237 6.6567,12.1361 9.8359,21.1962 1.5402,4.389 2.8763,6.6147 4.1141,6.8532 1.0083,0.1943 2.5902,1.0239 3.5154,1.8436 1.4085,1.248 7.9725,15.1897 10.201,21.6667 0.4542,1.3202 1.2677,1.6995 2.7906,1.3013 5.544,-1.4498 8.4263,3.8051 12.2508,22.3352 1.419,6.875 2.8594,13.625 3.201,15 l 0.621,2.5 0.9448,-2.7042 c 1.6059,-4.5966 8.3318,-4.9448 9.2557,-0.4791 0.2484,1.2008 1.0989,5.5583 1.89,9.6833 2.089,10.8931 7.056,22.9132 13.4441,32.5346 3.0763,4.6334 5.6864,8.321 5.8003,8.1948 0.114,-0.1262 -0.7546,-3.9518 -1.93,-8.5014 -1.9522,-7.5564 -2.0053,-8.5081 -0.6128,-11 2.8983,-5.1866 9.9613,-3.3843 9.9613,2.5418 0,2.0991 3.027,13.5882 5.5472,21.0545 0.3533,1.0466 0.7771,0.9942 2.0214,-0.25 3.0902,-3.0902 7.2664,-1.1201 8.8856,4.1917 0.3799,1.2464 2.2231,5.5825 4.0959,9.636 2.7404,5.9313 3.9424,7.5048 6.1577,8.0608 3.4455,0.8648 15.6268,13.3752 20.2922,20.8406 1.925,3.0803 3.785,5.6221 4.1334,5.6485 0.3483,0.026 0.8633,-0.8314 1.1444,-1.9064 0.2823,-1.0792 1.7534,-2.2662 3.2854,-2.6507 3.3772,-0.8476 6.4368,2.2853 6.4368,6.591 0,1.5203 0.2787,4.1576 0.6193,5.8606 0.5231,2.6157 0.901,2.9455 2.4342,2.125 2.7556,-1.4748 3.5771,-1.2346 7.4704,2.1837 4.5506,3.9955 7.9265,8.9541 14.0551,20.6445 l 4.8753,9.2996 1.096,-6.6971 c 1.0985,-6.7128 3.6027,-10.4021 7.0605,-10.4021 1.8958,0 5.3892,3.634 5.3892,5.6061 0,0.8833 1.0827,2.4577 2.406,3.4986 1.6822,1.3232 2.6028,3.3237 3.0603,6.6502 0.3599,2.6167 1.4442,6.5478 2.4095,8.7359 l 1.7552,3.9783 5.4951,-10.9846 c 3.0223,-6.0415 8.0906,-15.8226 11.2629,-21.7358 4.0998,-7.642 5.3836,-10.8736 4.4394,-11.174 -0.7306,-0.2326 -3.1284,-0.9679 -5.3284,-1.6341 -6.2314,-1.887 -11.05,-4.6048 -12.7418,-7.1868 -4.3052,-6.5707 -10.4432,-33.6849 -9.3835,-41.4514 0.315,-2.3087 2.4258,-8.5349 4.6906,-13.836 2.5962,-6.0765 4.1233,-11.1772 4.1322,-13.8024 0.01,-2.2902 -2.073,-10.914 -4.6241,-19.164 -20.1132,-65.0446 -25.7226,-85.8115 -25.9305,-96 l -0.1429,-7 6.2559,-9 c 3.4407,-4.95 7.8408,-11.0963 9.7779,-13.6583 l 3.522,-4.6584 -9.6717,-5.0916 c -5.3194,-2.8005 -9.8109,-5.0917 -9.9811,-5.0917 -0.1702,0 -1.1977,2.0082 -2.2835,4.4627 -2.4975,5.6462 -6.4151,7.1255 -9.3316,3.5237 -1.3736,-1.6964 -1.6947,-3.1344 -1.2012,-5.3811 0.5708,-2.5988 0.4533,-2.8834 -0.7708,-1.8675 -0.7944,0.6593 -2.5105,3.4751 -3.8137,6.2575 -2.3665,5.0525 -5.1655,6.9235 -8.464,5.6577 -1.7617,-0.676 -4.6115,3.0812 -8.0745,10.6454 -1.3595,2.9694 -3.4007,6.2396 -4.5361,7.2671 -1.8835,1.7046 -2.2991,1.737 -4.7459,0.3698 -3.9871,-2.2278 -3.8052,-5.458 0.8283,-14.7155 4.8376,-9.6652 9.6582,-15.2198 13.2086,-15.2198 1.8982,0 3.2792,-1.2357 5.8677,-5.25 1.8619,-2.8875 3.5249,-5.5372 3.6956,-5.8882 0.1706,-0.351 -2.6299,-2.2823 -6.2233,-4.2919 -5.2406,-2.9307 -6.9187,-3.4475 -8.4803,-2.6118 -1.0707,0.573 -4.8407,1.0419 -8.3777,1.0419 -7.6004,0 -10.6154,-1.8306 -13.0543,-7.9261 -3.7998,-9.4966 -9.2378,-45.5248 -7.6873,-50.9309 2.3439,-8.1727 12.2993,-16.2376 32.2566,-26.1311 28.6217,-14.1886 78.1592,-27.0652 137.2844,-35.6851 17.1437,-2.4994 21.7356,-2.7728 47,-2.7984 24.8085,-0.025 28.3646,0.171 31.1983,1.7205 7.9166,4.3291 11.4334,12.9935 16.3199,40.2078 2.9517,16.4385 2.4812,18.8673 -5.2571,27.1395 -5.5166,5.8973 -6.4415,6.4984 -9.5823,6.2278 -2.4152,-0.2081 -3.8016,0.2163 -4.5422,1.3903 -0.5862,0.9294 -0.8568,1.8434 -0.6012,2.0311 0.2555,0.1878 4.0646,2.7968 8.4646,5.798 l 8,5.4566 19,-0.1013 c 36.696,-0.1956 43.2863,-3.6355 60.4325,-31.5431 6.295,-10.246 7.5948,-11.442 11.3975,-10.4876 3.6971,0.9279 4.3257,4.4263 1.7149,9.544 l -2.1138,4.1434 2.5344,-0.5277 c 1.394,-0.2902 3.6586,-0.7611 5.0326,-1.0463 3.6337,-0.7543 7.1791,-6.8241 9.6169,-16.4644 2.6562,-10.5036 2.2092,-19.527 -1.4832,-29.9421 -2.4165,-6.8164 -2.5075,-7.6157 -1.109,-9.75 1.8543,-2.8301 5.5315,-3.0274 7.8882,-0.4232 2.851,3.1503 6.6133,15.5763 7.2172,23.8362 0.9909,13.5555 -3.7564,29.944 -10.939,37.7636 -3.7268,4.0573 -4.9619,4.721 -11.1892,6.0123 -3.85,0.7983 -8.6497,1.4593 -10.666,1.4688 -3.0412,0.014 -4.1629,0.6565 -6.5822,3.7674 -1.6039,2.0625 -3.2249,4.2828 -3.6022,4.9339 -0.4666,0.8053 1.9725,1.9949 7.6268,3.7195 8.2753,2.5242 18.8516,8.8818 20.0738,12.0668 0.3229,0.8414 1.6401,1.5298 2.9272,1.5298 2.8914,0 13.0132,5.9733 17.7226,10.4589 2.8526,2.7169 4.0807,3.2423 6.6394,2.8401 2.5828,-0.406 3.8645,0.1615 7.2282,3.2004 2.2488,2.0316 5.089,5.3124 6.3117,7.2906 l 2.2229,3.5968 0.8242,-3.1807 c 1.6567,-6.3936 8.6691,-4.701 11.7957,2.8472 1.0178,2.4571 1.5873,2.7748 4.0809,2.2761 2.4426,-0.4885 3.448,0.021 6.3975,3.2409 2.9786,3.2518 3.4995,3.5119 3.4995,1.7476 0,-5.4023 7.6111,-5.8375 9.9305,-0.5679 0.8046,1.828 2.173,3.25 3.1275,3.25 3.3952,0 4.2189,2.5526 3.4549,10.706 -0.9554,10.1955 -1.8046,12.2023 -5.474,12.9362 -1.6467,0.3294 -3.5092,1.2196 -4.1389,1.9783 -1.5921,1.9183 -5.302,1.7235 -7.0552,-0.3705 -0.8059,-0.9625 -2.2819,-4.45 -3.28,-7.75 -0.9982,-3.3 -2.3792,-6.8099 -3.0689,-7.7999 -1.1645,-1.6713 -1.2995,-1.6188 -1.8902,0.7348 -0.3881,1.5462 -1.5688,2.7687 -3.0278,3.1349 -2.8471,0.7146 -6.5779,-1.0465 -6.5779,-3.105 0,-1.7285 -1.1677,-1.8971 -2.6782,-0.3866 -0.593,0.593 -2.3631,0.9305 -3.9335,0.75 -2.3304,-0.2679 -3.4714,-1.4459 -6.2063,-6.4083 -3.27,-5.9334 -3.4491,-6.0781 -7.4247,-6 -3.8328,0.075 -4.2987,-0.242 -7.8725,-5.3637 -2.0892,-2.994 -5.8194,-7.4645 -8.2893,-9.9344 -4.1558,-4.1558 -4.6844,-4.4023 -7.0901,-3.3062 -3.8152,1.7383 -5.0661,1.4868 -7.7885,-1.5656 -13.6765,-15.3349 -14.7627,-16.1472 -25.6128,-19.1539 -4.0672,-1.1271 -8.1344,-2.7185 -9.0383,-3.5365 -1.4695,-1.3299 -2.1155,-1.1715 -6.1046,1.4976 -2.4537,1.6416 -6.7633,3.6648 -9.5771,4.4958 -12.8251,3.7878 -42.5492,5.6671 -54.4976,3.4455 -3.9906,-0.742 -7.6791,-2.5828 -14.2331,-7.1034 -4.8656,-3.3561 -9.1981,-5.7179 -9.6279,-5.2485 -0.4297,0.4694 -5.1585,7.3784 -10.5084,15.3534 l -9.7271,14.5 2.7718,2 c 12.2436,8.8345 19.6385,17.1256 20.8331,23.3578 0.2786,1.4532 1.0199,5.2744 1.6473,8.4916 l 1.1409,5.8494 2.7132,-2.5994 c 3.2242,-3.089 6.1444,-3.3169 8.5429,-0.6666 3.5412,3.913 -1.4211,12.0672 -7.3436,12.0672 -2.6242,0 -2.6299,-0.1712 0.5234,15.6374 l 2.6205,13.1373 16.6303,0.4827 c 11.0168,0.3197 20.6807,1.2322 28.6302,2.7032 17.0614,3.1572 31.7556,3.1697 41.5411,0.035 6.4449,-2.0643 8.3072,-3.2392 13.6989,-8.6429 6.1532,-6.1668 6.2102,-6.2747 4.0983,-7.7539 -1.8761,-1.3141 -2.3986,-1.3203 -4.2125,-0.05 -3.1031,2.1734 -4.011,1.8756 -10.3401,-3.3915 -6.2451,-5.1972 -22.778,-17.1581 -23.7168,-17.1581 -0.3129,0 -0.5689,0.6646 -0.5689,1.4769 0,0.8124 -1.104,2.2004 -2.4534,3.0845 -2.2326,1.4629 -2.9304,1.4685 -7.75,0.063 -9.6958,-2.8269 -19.7966,-10.2758 -19.7966,-14.599 0,-5.136 4.6673,-6.6485 9.2916,-3.011 3.7214,2.9273 13.626,7.9853 15.6368,7.9853 1.3493,0 1.629,-0.6557 1.2836,-3.0092 -0.9173,-6.2498 4.8852,-8.109 9.4209,-3.0185 3.0608,3.4352 16.6117,13.0277 18.4037,13.0277 0.6653,0 3.7418,1.3166 6.8365,2.9259 3.0948,1.6092 7.2019,3.505 9.1269,4.2129 6.9402,2.5521 12.8145,9.4291 19.1009,22.3612 8.7293,17.9574 10.8185,20.8435 17.3115,23.9152 6.7357,3.1865 8.4089,5.6823 6.1356,9.1519 -2.8778,4.3921 -11.4193,2.1577 -19.435,-5.084 l -4.113,-3.7158 v 3.8938 c 0,4.8502 -2.3247,8.3389 -5.5567,8.3389 -3.0798,0 -3.0839,1.4188 -0.023,8.0259 2.4927,5.3803 2.4364,7.5584 -0.2515,9.7241 -2.2864,1.8423 -3.9697,1.5403 -6.7146,-1.2045 -3.4416,-3.4417 -3.0978,-0.7336 0.5455,4.2958 3.4544,4.7686 3.7503,7.1697 1.1713,9.5037 -2.4081,2.1793 -4.3507,2.0883 -7.4488,-0.3487 -3.1724,-2.4953 -7.7225,-11.4469 -7.7225,-15.1926 0,-3.7749 3.4514,-7.1582 6.5173,-6.3887 2.2244,0.5583 2.2965,0.4226 1.4134,-2.6567 -1.2795,-4.4613 -1.1677,-12.1441 0.2211,-15.192 1.2356,-2.7119 4.1066,-4.1427 5.9843,-2.9822 0.8478,0.524 1.0188,-1.1756 0.6445,-6.4065 -0.3689,-5.1562 -0.125,-7.6686 0.8846,-9.11 1.1999,-1.7131 1.1768,-2.51 -0.1661,-5.7241 l -1.5602,-3.7339 -2.6127,3.6721 c -8.0027,11.2475 -28.3215,17.6238 -49.8945,15.6575 l -8.8531,-0.8069 -3.5393,4.0975 c -3.9813,4.6093 -9.0285,11.8827 -9.035,13.0202 0,0.4125 1.1103,0.75 2.4726,0.75 1.5155,0 3.0913,0.9376 4.0597,2.4155 1.479,2.2573 1.4223,2.7322 -0.8654,7.25 -1.8962,3.7445 -5.6712,14.3637 -5.6712,15.9531 0,0.1406 1.5151,0.01 3.3668,-0.2907 2.747,-0.4458 3.6674,-0.1171 5,1.7854 0.8983,1.2824 1.6332,3.9948 1.6332,6.0274 0,5.5982 0.799,6.9478 3.6847,6.2236 1.6747,-0.4203 3.3625,0.034 5.2145,1.4031 1.735,1.2827 3.6739,1.8457 5.2913,1.5365 3.707,-0.7086 8.2757,2.0598 11.7624,7.1276 3.2001,4.6512 3.86,8.3556 1.8471,10.3685 -2.2517,2.2517 -5.8047,1.3062 -9.2585,-2.4639 -3.1306,-3.4172 -3.4686,-3.5518 -5.0205,-2 -2.378,2.378 -5.2518,2.0574 -7.984,-0.8907 -2.3047,-2.4868 -2.3849,-2.5001 -3.0189,-0.5023 -0.7986,2.5161 -4.6117,3.6124 -7.391,2.1249 -2.1432,-1.147 -3.6714,-5.4642 -4.7692,-13.4732 -0.5206,-3.7982 -0.9521,-4.5714 -2.251,-4.0334 -3.5321,1.4629 -4.6894,1.4736 -6.6069,0.061 -1.7461,-1.2863 -1.9809,-2.5302 -1.8498,-9.7979 0.098,-5.4098 0.8645,-10.417 2.1903,-14.3008 1.1221,-3.287 1.9545,-6.0107 1.8498,-6.0527 -3.2922,-1.3203 -5.6887,-3.9545 -5.6805,-6.2441 0.013,-3.5916 3.8105,-11.5772 8.2729,-17.3961 3.1028,-4.046 3.3563,-4.764 1.899,-5.379 -0.9249,-0.3904 -9.0435,-0.9365 -18.0413,-1.2136 -15.6695,-0.4827 -16.3366,-0.4245 -15.8172,1.3789 0.2982,1.0356 2.1706,8.4079 4.1608,16.3829 4.0071,16.057 8.0924,29.9606 9.2575,31.5064 0.4172,0.5535 2.8493,2.5785 5.4047,4.5 8.6843,6.53 9.1577,7.6997 15.8681,39.2094 5.4499,25.591 5.3908,26.7267 -1.8521,35.6097 l -3.5268,4.3255 4.8419,4.1745 c 13.0565,11.2567 51.0915,42.6254 59.2797,48.8898 9.2052,7.0425 9.2688,7.0714 11.3739,5.1834 1.1644,-1.0443 3.6443,-5.0271 5.5109,-8.8507 1.8667,-3.8237 3.9484,-7.3043 4.6261,-7.7347 3.2904,-2.0901 7.7328,0.5002 7.7313,4.5081 -10e-4,2.7511 -5.131,13.6737 -8.4911,18.0791 l -2.5494,3.3424 2.6247,1.7198 c 1.4436,0.9459 9.4893,8.4287 17.8794,16.6285 8.3901,8.1999 15.73,14.9088 16.311,14.9088 1.7479,0 9.12,-8.8956 15.9245,-19.2156 11.2191,-17.0152 25.1668,-49.2585 32.84,-75.9175 3.2276,-11.2134 3.4016,-12.4377 1.9218,-13.5197 -0.895,-0.6544 -2.1895,-3.3628 -2.8769,-6.0185 l -1.2497,-4.8287 -1.6668,5.5 c -0.9168,3.025 -2.1496,9.775 -2.7397,15 -1.5297,13.5454 -1.8688,14.442 -5.599,14.8062 -2.296,0.2242 -3.5378,-0.2676 -4.6365,-1.8363 -1.2525,-1.7881 -1.8471,-1.957 -3.5961,-1.021 -1.4685,0.786 -2.6741,0.8118 -4.0297,0.086 -1.0638,-0.5694 -2.2567,-1.0352 -2.6508,-1.0352 -0.3941,0 -0.437,4.2562 -0.095,9.4581 0.5107,7.7744 0.3468,9.7326 -0.9206,11 -3.6086,3.6086 -9.399,0.2938 -9.399,-5.3806 0,-4.0115 -1.7036,-1.349 -7.0234,10.9767 -2.6857,6.2227 -5.6118,11.7217 -6.5023,12.2201 -2.6795,1.4995 -6.3748,-0.03 -7.1054,-2.9405 -0.7869,-3.1354 0.3973,-6.7436 6.258,-19.067 3.5478,-7.46 4.8984,-9.3605 7.033,-9.8963 1.4707,-0.3691 3.4617,-0.1511 4.491,0.4917 1.6556,1.0339 1.8516,0.8137 1.873,-2.1037 0.039,-5.3063 1.7371,-11.1092 3.6711,-12.5438 0.9928,-0.7364 2.9554,-1.1146 4.3614,-0.8405 2.4363,0.4749 2.6345,0.1654 4.2203,-6.5919 1.8854,-8.0335 4.6911,-11.7823 8.8182,-11.7823 2.2285,0 2.8684,-0.5566 3.3948,-2.953 1.4662,-6.6755 7.2528,-10.1616 10.8674,-6.547 0.825,0.825 1.6912,1.5 1.9247,1.5 0.2336,0 0.7143,-3.4256 1.0682,-7.6123 0.883,-10.4456 4.3802,-24.775 6.7962,-27.8465 2.2801,-2.8986 4.9935,-3.2587 7.2852,-0.9669 1.8141,1.8141 1.9014,1.6682 3.6371,-6.0743 0.6165,-2.75 1.3155,-10.175 1.5534,-16.5 0.3465,-9.2118 0.7637,-11.7487 2.0965,-12.75 4.5223,-3.3974 7.8543,-0.1175 8.8889,8.75 0.7214,6.183 0.7985,6.3293 1.5792,3 0.4514,-1.925 1.1643,-11.4488 1.5843,-21.164 0.6699,-15.497 1.0041,-17.9298 2.7239,-19.8301 1.3139,-1.4519 2.8174,-2.0403 4.5599,-1.7846 l 2.5995,0.3816 -0.4572,-10.2802 c -0.5246,-11.7963 0.6049,-15.9839 4.5806,-16.9817 1.3997,-0.3513 3.4042,-0.084 4.4992,0.5998 1.9136,1.195 1.9534,1.0319 1.2807,-5.2495 -0.8135,-7.5961 1.0902,-29.8113 2.9389,-34.2954 1.7108,-4.1497 5.0317,-4.9588 8.0332,-1.9573 l 2.3091,2.3091 1.6923,-9.1239 c 0.9307,-5.0181 2.0383,-13.4404 2.4612,-18.7163 0.4229,-5.2759 1.2886,-10.5634 1.9236,-11.75 1.3731,-2.5657 5.6164,-2.8909 8.1229,-0.6226 1.5752,1.4256 1.746,1.0283 2.3965,-5.573 0.3852,-3.9093 0.3867,-12.2016 0,-18.4271 l -0.697,-11.3193 2.5853,-1.6939 c 1.422,-0.9317 3.0551,-1.4036 3.6293,-1.0488 1.4263,0.8815 1.3633,-0.017 -1.0986,-15.6717 -2.0261,-12.8833 -2.0549,-13.8507 -0.4828,-16.25 0.9193,-1.4031 2.3886,-2.5511 3.2651,-2.5511 1.1696,0 1.4286,-0.5985 0.9735,-2.25 -1.5526,-5.634 -2.6334,-22.1355 -2.0278,-30.959 0.7427,-10.8199 2.234,-13.5551 6.77,-12.4166 1.702,0.4271 2.6182,0.1369 3.0403,-0.9633 0.7901,-2.059 0.7639,-18.7073 -0.046,-29.1086 -0.6148,-7.898 -0.7333,-8.2085 -3.244,-8.5 -2.0278,-0.2354 -3.2616,-1.5556 -5.5622,-5.9518 -2.5686,-4.9082 -2.801,-5.9904 -1.7714,-8.25 1.6252,-3.567 6.307,-3.5867 9.0983,-0.038 2.4989,3.1768 4.4995,9.0308 3.752,10.9787 -0.4143,1.0799 0.2246,1.4588 2.4599,1.4588 4.6285,0 6.0785,4.569 6.6645,21 0.7263,20.3655 -1.7354,29.8088 -7.484,28.7099 -1.7909,-0.3423 -2.4307,0.1107 -2.9222,2.0687 -0.903,3.5979 0.4389,23.6987 2.0325,30.4451 1.154,4.8856 1.1442,6.0203 -0.067,7.75 -0.7806,1.1144 -2.2938,2.0263 -3.3626,2.0263 -2.3831,0 -2.3836,-0.1254 0.057,14 3.0075,17.4084 2.6187,20 -3.0001,20 h -2.6001 l 0.8525,8.25 c 1.2273,11.8765 -1.3792,38.3816 -4.3136,43.8646 -1.2331,2.304 -4.4,3.2441 -6.7294,1.9974 -1.7438,-0.9333 -2.0805,0.2272 -5.1327,17.6946 -1.7966,10.2814 -3.4878,19.5083 -3.7583,20.5044 -0.718,2.6439 -4.5773,4.1559 -7.1261,2.7919 -1.1334,-0.6066 -2.3816,-1.1029 -2.7737,-1.1029 -0.3922,0 -0.4039,4.7823 -0.026,10.6273 0.5955,9.2105 0.4611,10.8769 -1.0077,12.5 -2.2434,2.4789 -4.8464,2.367 -7.3458,-0.3159 l -2.039,-2.1885 v 9.3566 c 0,5.1462 0.4973,12.2121 1.105,15.7021 1.3957,8.0147 0.6791,11.0835 -2.7916,11.9546 -2.1187,0.5317 -3.1274,0.1188 -4.9848,-2.0405 l -2.3286,-2.7072 v 9.332 c 0,9.8395 -1.427,23.7654 -3.0725,29.9845 -1.7616,6.6577 -6.0374,8.7401 -9.7543,4.7505 -1.8915,-2.0303 -1.9096,-2.0017 -2.5997,4.0976 -0.9015,7.9679 -5.1488,22.751 -7.4548,25.9469 -1.1717,1.624 -2.4254,6.88 -3.5776,15 -6.6309,46.7276 -31.2144,106.1711 -54.1562,130.951 l -5.4298,5.8648 5.6315,7.8421 c 16.6996,23.2546 21.9239,44.3583 23.9733,96.8421 0.6169,15.799 0.8459,17.3179 3.2413,21.5 8.1548,14.2378 17.4643,25.0293 32.4073,37.5668 11.7317,9.8431 19.1179,14.6927 46.2915,30.394 28.0054,16.1819 34.7766,20.8058 44.2679,30.2288 16.9678,16.8457 44.1438,64.2265 69.5795,121.3104 20.6802,46.4114 32.2256,71.1646 36.7439,78.7778 7.3732,12.4238 35.7691,39.2131 46.5409,43.9076 1.5773,0.6874 4.5698,2.67 6.6501,4.4058 4.6448,3.8756 13.5824,7.4088 18.7416,7.4088 8.8607,0 12.3545,3.8007 12.4285,13.5202 l 0.048,6.2535 14.5789,11.3631 c 14.7541,11.4997 21.9399,17.2196 88.4211,70.3825 20.35,16.2732 48.3644,38.6053 62.2542,49.6268 26.9054,21.3494 28.753,23.4052 24.2858,27.0226 -1.2439,1.0072 -2.8598,1.8313 -3.591,1.8313 -1.5598,0 -7.9753,-4.8406 -34.449,-25.9924 -10.725,-8.569 -35.5278,-28.3887 -55.1172,-44.0438 -81.4771,-65.113 -100.8437,-80.3867 -101.2329,-79.8383 -0.1462,0.206 -1.5652,3.5001 -3.1535,7.3202 -1.5883,3.8201 -3.6011,7.659 -4.473,8.5309 -0.8718,0.8718 -3.0979,4.2713 -4.9468,7.5543 -16.3812,29.0874 -62.8212,65.1747 -99.5766,77.3784 -4.95,1.6436 -14.3112,4.0583 -20.8027,5.3661 l -11.8026,2.3779 12.8804,16.9234 c 7.0843,9.3078 20.158,26.3073 29.0527,37.7767 8.8947,11.4694 16.1722,21.6748 16.1722,22.6786 0,4.7789 -6.2087,6.5081 -9.7591,2.718 -3.2947,-3.517 -48.61,-62.3033 -55.0098,-71.3627 l -5.7311,-8.1128 -5.2972,-0.5698 c -10.0323,-1.0793 -15.9645,-6.4092 -17.7259,-15.9259 -0.3787,-2.0466 -2.0607,-5.8716 -3.7377,-8.5 -1.677,-2.6283 -5.5007,-8.8288 -8.4972,-13.7788 -7.3855,-12.2005 -12.5834,-18.8055 -18.5178,-23.5305 -2.742,-2.1832 -5.3054,-3.9695 -5.6965,-3.9695 -0.3911,0 -1.2767,1.9125 -1.968,4.25 -0.6913,2.3375 -3.0105,7.625 -5.1538,11.75 -11.0731,21.3114 -21.9673,29.0272 -57.9059,41.0117 -10.175,3.393 -19.1433,6.5291 -19.9296,6.969 -0.9306,0.5206 -2.9364,8.3922 -5.7457,22.548 -9.2447,46.5837 -19.3104,66.4916 -40.7526,80.6003 -11.3902,7.4947 -28.7235,10.4402 -43.0721,7.3193 z m 23.644,-10.8913 c 8.8846,-1.8831 14.1057,-4.6997 21.1281,-11.3979 14.7049,-14.0261 21.6164,-31.2678 29.7274,-74.1591 1.7161,-9.075 3.3482,-17.286 3.6267,-18.2467 0.8685,-2.9952 8.1969,-6.4233 27.875,-13.0395 23.1226,-7.7744 26.9646,-9.4435 35.0992,-15.2482 7.6028,-5.4252 12.1615,-11.1474 17.4826,-21.9445 4.4814,-9.0933 6.8742,-18.9935 6.8996,-28.5473 0.017,-6.2662 -1.5508,-21.7828 -2.5294,-25.0384 -0.633,-2.1059 -27.9032,-10.7029 -36.5167,-11.5119 -7.2835,-0.6842 -22.219,0.8389 -31.4365,3.2058 -11.4409,2.9377 -25.099,8.5796 -45,18.5885 -30.8981,15.5396 -46.4988,21.2391 -74.5,27.2173 -32.2608,6.8876 -58.7339,8.7243 -87.456,6.0676 -20.7189,-1.9165 -27.6747,-1.6541 -37.5782,1.4177 -12.8242,3.9776 -36.5301,22.5018 -41.1105,32.1243 -4.4326,9.312 -4.3636,8.2719 -1.0216,15.4135 6.6169,14.14 19.798,29.7682 30.2462,35.8615 11.9897,6.9923 27.6925,9.498 48.3927,7.7221 7.1651,-0.6147 15.9524,-1.8122 19.5274,-2.661 13.4378,-3.1907 11.8444,-3.7259 20.1676,6.7738 4.0744,5.14 11.6098,14.8766 16.7453,21.637 28.1764,37.0916 53.3652,51.4598 80.2311,45.7654 z m -18.4095,-15.5977 c -4.889,-1.2133 -10.6597,-4.184 -14.6501,-7.5418 -14.5276,-12.2241 -9.7746,-39.259 9.0401,-51.4195 13.6605,-8.8293 29.0976,-7.774 39.0195,2.6673 6.5486,6.8914 8.356,11.6188 8.356,21.8561 0,8.1627 -0.3103,9.6516 -3.2597,15.6424 -3.4516,7.0109 -8.1861,11.983 -15.3657,16.1368 -4.9957,2.8903 -16.7603,4.242 -23.1401,2.6587 z m 20.7596,-13.9552 c 6.3085,-4.3404 9.6669,-10.5214 10.2659,-18.8943 0.514,-7.1841 -0.7625,-11.1566 -5.127,-15.9548 -7.1691,-7.8816 -21.1293,-6.6587 -30.456,2.668 -4.2694,4.2694 -8.1914,13.1495 -8.155,18.4645 0.034,5.0576 3.3234,11.1448 7.374,13.6482 5.4313,3.3567 8.4612,4.0617 15.3715,3.5764 4.9119,-0.3449 7.232,-1.1037 10.7266,-3.508 z m 228.8488,-81.0278 c 28.3275,-5.6441 51.5029,-17.0107 77.6555,-38.0871 11.7296,-9.4528 28.2146,-26.3742 33.5025,-34.3892 4.4535,-6.7503 10.1615,-20.0114 11.1492,-25.9022 0.5791,-3.4542 0.7998,-3.703 1.9227,-2.1674 1.1893,1.6265 1.3358,1.6089 2.3478,-0.2821 0.5937,-1.1092 1.0794,-2.895 1.0794,-3.9683 0,-1.0732 0.6722,-3.2403 1.4938,-4.8157 2.316,-4.4407 1.9276,-5.3662 -2.2438,-5.3472 -3.5996,0.016 -3.8487,0.2448 -6.2105,5.6968 -3.2669,7.5415 -15.3546,20.2861 -19.2405,20.2861 -3.0711,0 -5.9652,-3.3593 -5.0524,-5.8648 0.3276,-0.8994 3.217,-4.4624 6.4209,-7.9179 5.2154,-5.625 9.8325,-12.6656 9.8325,-14.9937 0,-0.4708 -4.1499,-3.5262 -9.222,-6.7898 -19.2206,-12.3674 -36.1758,-26.5113 -47.1012,-39.2917 -9.1629,-10.7186 -13.4796,-19.2993 -44.2686,-87.9975 -28.1358,-62.7782 -53.8691,-107.844 -70.6893,-123.7955 -8.8316,-8.3755 -12.1831,-10.6021 -41.2189,-27.3844 -27.1491,-15.6917 -34.5125,-20.5249 -46.2429,-30.353 -8.7286,-7.3129 -21.3344,-19.9658 -26.513,-26.6117 l -2.7272,-3.5 0.5604,10.5 c 1.63,30.5427 5.9211,60.1878 12.3304,85.1848 5.6705,22.1158 8.9102,31.8152 10.6268,31.8152 0.7961,0 5.7745,-2.25 11.0629,-5 10.021,-5.2109 13.3432,-5.9814 15.3524,-3.5605 2.5703,3.097 0.8283,6.7837 -4.7979,10.1544 -5.2769,3.1615 -5.3101,3.2113 -2.5,3.7428 1.5665,0.2963 5.5481,0.8219 8.8481,1.168 12.3083,1.2909 16.1227,3.3982 14.8639,8.2117 -0.8541,3.2659 -4.5637,4.388 -10.607,3.2082 -2.8913,-0.5644 -13.8069,-1.4266 -24.2569,-1.916 -22.3566,-1.0469 -35.2029,-3.1915 -60,-10.0163 -22.878,-6.2967 -32.0633,-7.7107 -58.0349,-8.9345 -21.157,-0.997 -32.4116,-2.3139 -51.5803,-6.0355 -5.7116,-1.1089 -11.8306,-2.0176 -13.5978,-2.0193 -1.7671,0 -5.3671,-0.8512 -8,-1.8879 -8.8994,-3.5042 -20.9013,-5.3495 -32.2636,-4.9606 -9.5721,0.3276 -11.2482,0.6816 -17.2764,3.6493 -11.0616,5.4456 -15.5834,13.3371 -13.6308,23.7886 3.322,17.7819 24.7753,35.2418 55.7325,45.3582 15.6731,5.1217 24.6177,6.3476 43.6513,5.9827 39.5958,-0.7591 43.5206,-0.6098 49.7355,1.8913 7.7576,3.122 15.1785,8.2865 28.2645,19.6704 6.05,5.263 16.175,13.1269 22.5,17.4754 19.0683,13.1094 20.345,14.2748 29.1309,26.5931 11.9274,16.7226 40.7805,45.2457 60.2874,59.5977 13.3825,9.8461 33.3419,18.4304 55.3602,23.8098 6.7087,1.6391 9.5711,2.8137 10.335,4.2411 1.5826,2.9572 0.2568,6.6569 -2.6468,7.3856 -3.1569,0.7923 -17.7633,-2.7034 -31.5714,-7.556 l -10.6048,-3.7268 1.4025,4.5926 c 4.5124,14.7766 8.2512,36.9497 8.2875,49.1496 l 0.02,6.5572 6.4383,4.7273 c 10.381,7.6222 15.5827,14.0774 29.0278,36.0224 l 4.8181,7.8641 4.1079,-0.5859 c 13.3323,-1.9014 13.2074,-1.8999 14.9268,-0.1804 3.7401,3.7401 0.5335,7.8939 -7.7203,10.001 -3.2457,0.8287 -6.1313,1.7366 -6.4124,2.0177 -1.016,1.016 1.8501,5.599 4.0557,6.4853 3.9785,1.5987 18.6072,1.1013 29.101,-0.9895 z m -437.535,-44.579 c 15.3596,-12.7408 30.2533,-19.6199 45.3294,-20.9364 4.3655,-0.3813 14.054,0 23.8001,0.948 26.8414,2.5982 44.8628,1.8625 73.0626,-2.9823 33.8308,-5.8122 52.8176,-12.2566 86.6237,-29.401 22.3725,-11.346 42.057,-18.7137 56.3763,-21.1009 17.2552,-2.8767 34.6571,-1.1333 50.8737,5.0967 2.9556,1.1355 5.5999,1.8383 5.8763,1.562 0.2764,-0.2764 -0.9853,-5.0452 -2.8037,-10.5973 l -3.3062,-10.0947 -8.132,-5.3007 c -16.6644,-10.8624 -52.8549,-44.8204 -64.0412,-60.0907 -3.2232,-4.4 -7.4594,-10.1683 -9.4136,-12.8185 -2.5043,-3.396 -7.8339,-7.7369 -18.0533,-14.7039 -7.975,-5.4369 -19,-13.8048 -24.5,-18.5954 -13.9764,-12.1737 -20.6489,-16.92 -27.2674,-19.3964 -5.5241,-2.0668 -6.6621,-2.1155 -33.7248,-1.4453 -23.2974,0.577 -29.5214,0.4287 -37.0078,-0.8818 -37.6544,-6.5912 -69.6774,-25.5338 -80.9164,-47.8645 -9.3296,-18.5368 -4.1742,-36.3378 13.2068,-45.6018 13.1021,-6.9833 31.4725,-7.9812 51.7096,-2.8088 11.3582,2.9031 46.2816,9.6164 50.0254,9.6164 3.474,0 3.1961,-2.4182 -1.0988,-9.5588 -6.0914,-10.1275 -11.3412,-16.4606 -25.1231,-30.3069 -7.3169,-7.3512 -13.3035,-13.9887 -13.3035,-14.75 0,-1.7739 3.5874,-5.3843 5.35,-5.3843 2.4575,0 9.015,5.5538 19.9194,16.8705 16.1367,16.7469 25.9887,31.1589 27.5434,40.2922 l 0.7383,4.3373 16.4745,0.7297 c 19.7962,0.8768 33.7188,2.7951 48.4744,6.6789 6.05,1.5924 11.0858,2.8161 11.1906,2.7193 0.4079,-0.3762 -14.5685,-35.5334 -18.1233,-42.5447 -6.0365,-11.906 -14.5915,-25.1835 -19.7676,-30.6798 -6.5185,-6.9217 -6.3892,-12.4034 0.2926,-12.4034 2.0054,0 4.1035,1.5243 8.2237,5.9746 10.7997,11.665 22.4991,33.3593 35.6066,66.0254 l 7.0219,17.5 11.1631,2.2813 c 6.1397,1.2547 11.3094,2.135 11.4883,1.9561 0.1788,-0.1788 -0.9977,-4.4388 -2.6145,-9.4665 -13.0573,-40.6033 -19.9523,-88.315 -19.9819,-138.2709 -0.011,-17.9025 -1.5683,-49.9093 -2.8934,-59.4534 -0.4546,-3.2744 -1.3462,-6.1266 -1.9814,-6.3384 -0.6352,-0.2117 -4.4106,-3.117 -8.3898,-6.4563 -23.2633,-19.5219 -40.0818,-24.21 -61.5256,-17.1501 -8.2447,2.7144 -22.2441,10.0224 -38.2093,19.946 -19.0861,11.8635 -45.646,25.0367 -61.1517,30.3301 -24.9788,8.5273 -45.4582,11.6052 -76.8483,11.5499 -21.0954,-0.037 -21.8387,-0.1104 -39.5,-3.8902 -23.5144,-5.0325 -36.9685,-5.459 -45.5,-1.4422 -3.025,1.4242 -8.8936,5.2911 -13.0413,8.5932 -8.5932,6.8412 -22.3569,22.6968 -25.1152,28.9323 -1.7176,3.883 -1.7483,4.7003 -0.4138,11.0363 3.4063,16.1732 9.1972,31.0734 29.087,74.8428 20.8744,45.9361 29.1221,67.5753 38.0298,99.7779 11.7807,42.5889 18.9777,87.0776 24.4633,151.2221 2.8471,33.2923 5.7807,62.0756 7.5931,74.5 1.41,9.6659 5.8754,32.7382 6.931,35.8113 0.2712,0.7898 2.4655,-1.1099 5.5161,-4.7757 2.7862,-3.3479 8.0772,-8.5851 11.7579,-11.6383 z m 7.7289,-122.7008 c -3.9701,-6.0591 -9.1178,-27.6845 -11.7109,-49.1965 -1.9593,-16.2551 -1.6738,-63.9809 0.4985,-83.3049 4.4316,-39.4224 15.735,-84.6182 28.7629,-115.0065 8.4983,-19.8229 21.6566,-43.0481 31.1543,-54.9894 8.5896,-10.7995 16.9048,-15.6528 20.5584,-11.9992 2.7447,2.7447 1.2677,5.9104 -6.05,12.968 -3.9875,3.8457 -6.35,6.6744 -5.25,6.2858 17.8523,-6.3059 30.2967,-8.4551 48.9262,-8.4498 16.3241,0 28.6117,1.7602 41.2668,5.8957 10.5093,3.4343 21.9522,8.4693 24.5113,10.7852 2.5893,2.3432 2.2536,5.969 -0.7339,7.9264 -2.4218,1.5868 -2.8161,1.5265 -9.25,-1.416 -16.8177,-7.6913 -28.2545,-10.8255 -44.1718,-12.105 -27.6796,-2.225 -55.3983,4.0063 -71.6525,16.1077 -10.3779,7.7264 -26.2589,45.0919 -36.4076,85.6613 -8.3138,33.2348 -11.796,58.6809 -12.6773,92.6407 -0.9116,35.1274 2.0498,64.1499 8.7588,85.8389 2.8419,9.1874 2.9389,9.9986 1.4637,12.25 -2.0461,3.1227 -5.9866,3.1757 -7.9969,0.1076 z M 1317.2716,1654.244 c 11.4653,-7.4156 16.5371,-8.938 29.5084,-8.8574 9.4278,0.058 14.7435,0.7721 29.5,3.9603 l 18,3.889 23,-0.023 c 50.6348,-0.05 78.5525,-8.6514 131.8227,-40.6121 31.7309,-19.0377 44.2223,-23.925 61.0487,-23.8853 14.1959,0.033 27.3618,4.9818 41.4445,15.5767 4.0238,3.0273 7.5074,5.5041 7.7414,5.5041 0.6649,0 -4.0267,-12.0238 -6.8422,-17.5354 -9.0844,-17.7838 -38.6262,-48.3777 -68.2151,-70.6447 -21.9081,-16.4868 -74.0754,-60.3546 -87,-73.1588 l -8,-7.9254 -15.5,0.5719 c -23.1866,0.8556 -50.0258,7.0668 -75.864,17.5568 -17.0012,6.9024 -22.3539,10.0796 -22.7169,13.4846 -0.16,1.5007 -3.7668,9.3486 -8.0152,17.4398 -4.2483,8.0912 -15.4537,29.7862 -24.9008,48.2112 -9.4471,18.425 -20.2091,39.0697 -23.9155,45.8771 -8.5147,15.6385 -14.5876,29.3904 -14.5876,33.0329 0,1.5512 -0.9405,4.0159 -2.0899,5.4772 -4.5363,5.767 -10.813,31.5652 -12.4357,51.1128 l -0.6641,8 11.3449,-11.5885 c 6.2396,-6.3737 14.041,-13.3325 17.3364,-15.4639 z m -18.5614,-55.4476 c 1.8011,-4.125 8.4036,-17.0405 14.6723,-28.7011 6.2686,-11.6605 11.3975,-21.7501 11.3975,-22.4212 0,-0.6711 -0.7556,-2.0551 -1.6791,-3.0756 -1.6186,-1.7886 -1.7252,-1.7458 -2.9582,1.1866 -2.6272,6.2483 -8.6106,4.8519 -10.5679,-2.4663 -1.047,-3.9144 -1.5642,-4.5224 -3.8472,-4.5224 -3.5378,0 -4.6714,-1.4598 -12.2985,-15.8373 -6.7395,-12.7042 -11.4114,-19.7337 -12.4351,-18.7101 -0.3212,0.3213 1.5599,4.8178 4.1802,9.9923 2.6224,5.1787 4.6162,10.4069 4.435,11.6295 -0.4736,3.1957 -3.1153,4.5607 -6.5264,3.3724 -2.2016,-0.7669 -3.7681,-2.9334 -7.3028,-10.0997 -4.0044,-8.1187 -4.8274,-9.1632 -7.4728,-9.4852 -2.5279,-0.3077 -3.2615,-1.1102 -4.9014,-5.3619 -4.3868,-11.3737 -8.5706,-19.3596 -13.1034,-25.0115 -6.8176,-8.5008 -6.7652,-8.4629 -6.0087,-4.3438 0.9091,4.9498 -0.7649,7.8553 -4.5258,7.8553 -3.5857,0 -5.4524,-2.5466 -6.964,-9.5 -1.407,-6.4723 -5.6965,-19.2973 -7.5254,-22.5 l -1.4276,-2.5 -0.035,3.6786 c -0.041,4.2105 -2.1397,6.8214 -5.4844,6.8214 -3.4283,0 -4.6312,-2.1476 -5.6218,-10.0365 -0.4916,-3.9151 -1.3879,-8.9534 -1.9919,-11.1962 -1.0774,-4.0014 -1.1204,-4.0328 -2.2905,-1.6726 -0.8141,1.6422 -2.1969,2.5033 -4.3588,2.7141 -2.8071,0.2738 -3.6903,-0.3503 -7.7828,-5.5 -2.5389,-3.1948 -6.6593,-9.968 -9.1564,-15.0515 -4.4827,-9.126 -4.562,-9.2156 -6.2757,-7.0992 -1.3216,1.632 -2.368,1.9847 -4.3862,1.4782 -3.4828,-0.8742 -4.9244,-3.9078 -8.1435,-17.1363 -3.584,-14.7281 -3.2767,-13.9662 -5.0422,-12.501 -0.8213,0.6816 -2.5547,0.9534 -3.9105,0.6131 -2.7173,-0.682 -4.0382,-3.9025 -5.023,-12.2469 -0.7847,-6.6486 -3.9955,-18.8645 -6.4846,-24.6714 -1.9245,-4.4897 -2.0091,-4.548 -4.9704,-3.4303 -4.3792,1.653 -6.6517,-0.7951 -8.0172,-8.6367 -0.5963,-3.4242 -1.7607,-8.5038 -2.5875,-11.288 -1.3625,-4.5881 -1.7384,-5.0174 -4.0114,-4.5829 -3.186,0.609 -5.0713,-0.9775 -7.9536,-6.6931 -2.5384,-5.0337 -8.9773,-24.4153 -10.0705,-30.3128 -0.3823,-2.0625 -1.0667,-3.75 -1.5209,-3.75 -0.4542,0 -0.5935,1.6875 -0.3095,3.75 4.9715,36.1087 13.9252,68.9758 27.5804,101.2421 11.6416,27.5084 41.1416,83.4116 56.1082,106.3264 11.4559,17.5398 17.2123,24.8468 54.1077,68.6815 8.1013,9.625 18.845,21.9622 23.8748,27.416 10.2687,11.1342 23.7062,23.028 24.6927,21.8558 0.3572,-0.4245 2.1231,-4.1468 3.9243,-8.2718 z m 60.9169,-117.5637 c 0.9257,-2.0318 0.9071,-2.4144 -0.09,-1.8443 -2.688,1.5377 -3.7134,2.6705 -3.1876,3.5213 0.9529,1.5419 2.0712,0.9696 3.2771,-1.677 z m -11.7933,-6.0029 c 10.8267,-11.2052 42.5211,-26.9393 71.0995,-35.2961 38.351,-11.2145 70.8005,-13.1476 95.3467,-5.6801 2.75,0.8366 5.1013,1.526 5.225,1.532 0.9692,0.047 -8.8312,-43.401 -10.311,-45.7111 -0.7828,-1.222 -3.8239,-3.9953 -6.758,-6.1629 -6.6908,-4.9428 -8.191,-8.2902 -14.649,-32.6882 -6.4096,-24.2153 -11.1281,-45.3931 -15.5798,-69.927 -2.3028,-12.6913 -4.3439,-21.1732 -5.5852,-23.2104 -2.2071,-3.6222 -10.1077,-10.2159 -16.842,-14.0559 -9.4028,-5.3617 -11.3572,-9.3498 -6.3642,-12.9869 1.4496,-1.056 9.9101,-12.681 18.8011,-25.8334 l 16.1653,-23.9134 h 4.0468 c 2.2257,-7e-4 4.8297,-0.6511 5.7868,-1.4454 1.6414,-1.3623 1.6271,-1.4859 -0.2522,-2.1811 -9.5819,-3.5446 -60.833,-3.5059 -87.6836,0.066 -36.5465,4.8619 -75.3529,15.6047 -101.1125,27.991 -12.1285,5.8319 -25.2611,14.0058 -28.7411,17.8889 -1.8297,2.0416 -1.8064,2.0881 1.799,3.5945 2.009,0.8394 9.1431,4.6187 15.8537,8.3983 6.7105,3.7797 18.83,10.3795 26.9322,14.6663 11.7195,6.2007 15.1441,8.4937 16.75,11.2156 1.1103,1.8818 2.0187,4.206 2.0187,5.165 0,0.959 -3.0777,5.7708 -6.8393,10.6929 -10.8449,14.1905 -14.1607,19.4528 -14.1607,22.4739 0,6.2162 9.7205,41.5442 24.4814,88.9753 8.2076,26.3733 8.3017,28.9685 1.6123,44.4883 -4.1249,9.5699 -4.2767,10.2766 -3.6266,16.8749 1.1139,11.3045 6.1288,28.6368 8.2857,28.6368 0.4702,0 2.4056,-1.605 4.301,-3.5666 z m 2.1462,-63.6334 c -1.8836,-1.8836 -1.4105,-5.2603 1.05,-7.4937 10.3028,-9.3516 39.4587,-20.6918 65.1841,-25.3534 24.9209,-4.5158 60.5412,-6.642 65.6316,-3.9177 2.4144,1.2921 2.5844,6.1802 0.2814,8.0924 -1.2099,1.0045 -6.9064,1.5489 -21.25,2.0309 -39.8211,1.3381 -75.0451,9.8129 -96.9704,23.3307 -7.3314,4.5202 -11.6829,5.5546 -13.9267,3.3108 z m -13.4397,-148.05 c -1.6281,-1.2547 -2.099,-2.7561 -1.8788,-5.99 0.165,-2.423 15.76,-10.0862 30.0978,-14.7898 20.1844,-6.6216 56.8152,-12.8399 60.8306,-10.3265 2.2219,1.3909 2.7297,6.6636 0.7963,8.2682 -0.8228,0.6828 -8.1583,2.122 -16.3011,3.1981 -25.0519,3.3109 -44.2859,8.6004 -61.4431,16.8974 -9.107,4.404 -9.7552,4.5509 -12.1017,2.7426 z m 177.6897,182.3624 c -0.5225,-0.4882 -2.075,-1.2191 -3.45,-1.6242 l -2.5,-0.7366 2.4368,2.6374 c 1.6457,1.7813 2.7656,2.3086 3.45,1.6242 0.6384,-0.6384 0.6618,-1.3415 0.063,-1.9008 z M 581.23437,1221.7023 c 2.35592,-2.0685 4.02479,-4.7804 5.0348,-8.1815 2.51912,-8.4828 1.99442,-12.1128 -3.42357,-23.6851 -6.14881,-13.1333 -6.77195,-17.0557 -3.02787,-19.0595 3.8395,-2.0549 5.8941,-0.214 10.16369,9.1063 2.24587,4.9027 4.37229,8.9139 4.72537,8.9139 0.35307,0 1.3895,-1.2375 2.30317,-2.75 0.91367,-1.5125 4.12133,-5.546 7.12813,-8.9634 3.00679,-3.4174 5.74163,-7.4674 6.07741,-9 0.71768,-3.2757 -0.7215,-11.6419 -2.8993,-16.8541 -2.83348,-6.7815 -1.57113,-10.4325 3.60706,-10.4325 3.50661,0 5.34796,2.6031 8.01315,11.328 1.98787,6.5076 2.20911,6.8001 4.71465,6.2325 1.44589,-0.3276 5.98815,-2.2752 10.0939,-4.328 9.1526,-4.5763 12.38977,-8.7659 14.43986,-18.6881 1.44934,-7.0147 3.24188,-9.5444 6.76322,-9.5444 0.9822,0 2.52817,1.133 3.43549,2.5177 1.43625,2.192 1.49494,3.3042 0.4536,8.5972 -0.65784,3.3438 -1.04653,6.2291 -0.86377,6.4118 0.18277,0.1828 5.05152,-0.279 10.81945,-1.0261 9.53272,-1.2348 18.02643,-2.1458 65.48715,-7.024 45.81902,-4.7095 62.55228,-6.6494 76.79512,-8.9029 38.05972,-6.0218 59.17978,-6.5978 85.70488,-2.3376 44.1512,7.0911 59.2724,7.3002 100,1.383 50.34444,-7.3144 113.82634,-12.9395 170.50004,-15.1081 35.8821,-1.3729 39.2013,-1.7585 50,-5.8078 14.9199,-5.5947 20.8875,-9.0127 36.8576,-21.1102 9.1499,-6.9312 19.706,-14.5699 23.4581,-16.9748 3.752,-2.405 8.2912,-6.228 10.0871,-8.4955 1.7959,-2.2675 4.1008,-4.1227 5.1221,-4.1227 1.1331,0 6.3714,-5.1651 13.4381,-13.25 6.3696,-7.2875 15.6197,-17.6673 20.5558,-23.0663 9.7546,-10.6695 13.4838,-16.2593 14.4659,-21.68373 1.3462,-7.4351 -10.2585,-18.9061 -23.4223,-23.1524 -8.4225,-2.7168 -26.7225,-2.9084 -38.4303,-0.4022 -24.347,5.2117 -73.2007,29.00823 -85.3995,41.59783 -1.797,1.8546 -3.7514,5.1911 -4.343,7.4144 -0.5916,2.2233 -1.7785,4.8299 -2.6376,5.7924 -2.2364,2.5056 -5.9174,2.1903 -7.7898,-0.6673 -1.5278,-2.3318 -1.1812,-5.9396 1.1559,-12.0298 0.8971,-2.3378 -19.2791,-5.3095 -64.6181,-9.5175 -31.1516,-2.8912 -40.7647,-4.1917 -89.0686,-12.04933 -19.5043,-3.1728 -44.41184,-12.7523 -61.06084,-23.4843 -15.756,-10.1562 -34.4501,-28.1515 -48.182,-46.3807 -12.4217,-16.48997 -21.1992,-32.29589 -30.3326,-54.6211 -2.9252,-7.15 -5.636,-12.92053 -6.0241,-12.82339 -0.758,0.18971 -2.125,3.44015 -8.9408,21.25915 -2.4058,6.28967 -4.9405,11.79527 -5.6326,12.23469 -2.2924,1.45531 -5.6241,0.85959 -7.11754,-1.27267 -1.89828,-2.71017 -0.79286,-6.59407 8.08244,-28.39778 3.5821,-8.8 7.2017,-18.025 8.0436,-20.5 0.8419,-2.475 2.292,-5.4 3.2225,-6.5 0.9305,-1.1 3.6325,-5.59192 6.0044,-9.98203 6.3884,-11.82435 23.9315,-40.66348 26.3794,-43.36529 2.7819,-3.07042 6.2092,-4.77212 24.5263,-12.1774 16.7172,-6.75848 26.6053,-11.9733 35.1923,-18.5597 7.6799,-5.89072 15.6109,-14.78594 16.4044,-18.39888 0.3624,-1.65001 -0.097,-7.39127 -1.0206,-12.75836 -2.2641,-13.15525 -0.6114,-17.51316 6.0113,-15.85096 2.7014,0.67801 2.6885,0.63946 4.5639,13.59262 1.6842,11.63231 2.1876,12.68932 6.65154,13.96485 14.0561,4.01647 43.4083,5.18008 62.0173,2.45856 11.8996,-1.74029 26.4142,-6.15812 33.1341,-10.08513 3.6651,-2.1418 4.904,-3.75399 7.8318,-10.19128 4.047,-8.89844 5.816,-11.147 8.7694,-11.147 5.336,0 5.865,4.87156 1.5687,14.44725 -2.6991,6.01582 -2.8156,6.69115 -1.25,7.25069 0.9495,0.33935 4.6798,2.34754 8.2897,4.46266 12.6042,7.38506 43.8136,18.53227 70.8895,25.31992 29.4222,7.37586 30.8069,7.28293 52.316,-3.51067 7.6391,-3.83342 14.7536,-6.96985 15.8102,-6.96985 2.2835,0 5.9209,3.37884 5.9209,5.5 0,0.825 -0.8931,2.39315 -1.9848,3.48477 -1.9797,1.97969 -1.9777,1.98644 0.75,2.63789 3.9318,0.93897 5.2348,2.25819 5.2348,5.29978 0,4.19728 -1.7025,5.07354 -9.95,5.12111 -7.6948,0.0444 -15.588,1.16107 -16.8043,2.37739 -0.3712,0.37124 -0.2409,1.30052 0.2897,2.06505 9.0155,12.9917 25.9926,39.15109 32.4617,50.0192 13.5912,22.83304 20.8233,30.77061 36.7669,40.35297 14.1493,8.50398 32.0227,12.86138 41.6729,10.15952 5.6687,-1.58714 12.2918,-7.21068 14.677,-12.46187 2.4773,-5.45405 2.4304,-16.10778 -0.1147,-26.05907 -3.7356,-14.60589 -12.0018,-29.7673 -35.9825,-65.99674 -9.809,-14.8191 -14.066,-21.98447 -30.9842,-52.15262 -7.5757,-13.50867 -13.0028,-20.16956 -23.5325,-28.88234 -12.9602,-10.72382 -22.7262,-15.42433 -58,-27.91603 -8.8,-3.1164 -25.45,-9.1929 -37,-13.50334 -64.289,-23.99257 -65.0342,-24.22126 -85.0563,-26.10543 -28.0821,-2.64264 -80.5644,4.26002 -132.44374,17.41948 -38.893,9.86541 -61.1279,14.0821 -88.6536,16.81254 -13.6695,1.35596 -15.3464,0.8811 -15.3464,-4.34573 0,-3.91696 3.3464,-5.20916 17.5,-6.75771 10.3861,-1.13634 32.6965,-4.39345 38.781,-5.66168 l 2.7809,-0.57965 -4.1056,-2.97409 c -11.6297,-8.42451 -17.8206,-18.385 -21.495,-34.58297 -4.4375,-19.56199 -4.0248,-20.70504 17.4268,-48.27043 19.3868,-24.91213 24.6955,-32.93616 34.3941,-51.98562 8.2353,-16.17529 10.9031,-19.77728 19.2178,-25.94755 4.9483,-3.67209 24.4084,-15.60539 36.00004,-22.07586 13.6325,-7.60971 25.891,-16.56261 43.2951,-31.62029 5.2494,-4.54163 13.9972,-11.09547 19.4396,-14.56409 83.6758,-53.32953 105.6142,-71.56656 112.7361,-93.71579 5.3727,-16.70897 0.064,-27.53136 -16.8136,-34.27788 -4.9032,-1.95996 -7.4565,-2.25998 -19.1572,-2.25101 -12.9762,0.01 -13.9268,0.15624 -24.5,3.77025 -13.0824,4.47168 -39.2289,16.99634 -52.5,25.14848 -5.225,3.20959 -19.625,11.89228 -32,19.29486 -12.375,7.40258 -30.6,19.18933 -40.50004,26.19278 -23.0775,16.32549 -41.6748,28.58722 -85,56.04313 -38.9757,24.69954 -45.4698,29.25888 -53.65991,37.67354 -8.93636,9.18132 -26.70309,32.0691 -34.1183,43.95249 -3.72802,5.97441 -13.12652,23.68756 -20.88555,39.36256 -26.06237,52.65187 -42.68476,82.90317 -51.98205,94.60283 -4.78528,6.02177 -6.39664,7.39717 -8.66623,7.39717 -5.6676,0 -6.73764,-4.25517 -2.6009,-10.34293 2.29491,-3.37727 2.42257,-3.99634 1.13048,-5.48213 -0.80111,-0.92122 -1.65649,-2.32355 -1.90084,-3.11629 -0.27665,-0.89754 -5.09032,4.00732 -12.75832,13 -6.77273,7.94274 -18.44403,21.63246 -25.93622,30.42159 -14.83462,17.40259 -24.05433,27.32226 -51.60205,55.51976 -9.94053,10.175 -27.47039,28.625 -38.95524,41 -11.48485,12.375 -43.23909,44.775 -70.56496,72 -55.94349,55.73696 -67.04018,68.27486 -95.41427,107.8064 -14.23932,19.8386 -21.3351,30.6858 -25.48941,38.9653 -2.85701,5.6939 -2.98335,6.3207 -1.37156,6.8048 4.98882,1.4983 6.78326,3.0673 7.08815,6.1975 0.2541,2.6087 -0.1539,3.4243 -2.17347,4.3445 -2.98897,1.3618 -7.85671,0.5747 -13.15687,-2.1274 -4.67595,-2.384 -6.64343,-2.4764 -10.48045,-0.4922 -5.54178,2.8658 -10.53217,12.1616 -11.00586,20.5011 -0.30052,5.29083 -0.11972,5.98463 1.40688,5.39883 2.36899,-0.909 9.22707,3.3091 15.00971,9.2319 7.98641,8.1799 14.89264,18.3014 40.34093,59.1218 32.49583,52.1251 47.4665,70.1977 79.74631,96.27 17.37712,14.0355 45.72615,41.8119 47.53826,46.5781 0.52896,1.3913 0.96174,4.0003 0.96174,5.7978 0,1.7976 0.3,3.5683 0.66667,3.9349 1.66926,1.6693 6.481,0.4759 9.78774,-2.4274 z M 789.22109,725.37101 c -2.96637,-2.17819 -2.48055,-13.71816 1.01353,-24.07464 5.09708,-15.10781 13.51684,-28.5 17.91814,-28.5 5.80485,0 6.03385,5.21908 0.61431,14 -5.56221,9.01207 -9.7802,20.43801 -10.5608,28.60773 -0.9862,10.32156 -3.97985,13.6423 -8.98518,9.96691 z m -84.52705,-31.17817 c -1.82921,-2.20406 -1.4396,-7.21005 1.43808,-18.47764 3.4785,-13.62007 6.30874,-19.79562 9.43148,-20.57937 3.12801,-0.78509 5.61338,0.6716 6.03946,3.53976 0.17771,1.19623 -0.82768,5.65027 -2.23419,9.89787 -1.40651,4.2476 -3.2868,11.32291 -4.17843,15.72291 -0.89162,4.4 -2.31848,8.7875 -3.17079,9.75 -1.93714,2.18757 -5.57135,2.26023 -7.32561,0.14647 z m 569.79186,512.74466 c 31.0232,-20.7744 91.2929,-38.0488 147.2251,-42.1974 18.105,-1.3428 48.645,-0.8091 61.8795,1.0815 4.5708,0.6529 8.5817,0.916 8.9131,0.5845 0.8224,-0.8224 -2.3321,-18.5055 -4.8417,-27.141 -1.1239,-3.8673 -2.8826,-8.1423 -3.9083,-9.5 l -1.8648,-2.4687 -28.3044,0.062 c -25.5044,0.055 -30.085,0.3298 -46.3044,2.7748 -26.211,3.9512 -69.8203,12.9302 -87.6425,18.0454 -32.2573,9.2582 -56.7702,20.5977 -67.309,31.1364 -3.5708,3.5709 -3.6817,3.8921 -3.0532,8.8437 1.6828,13.2585 3.7281,26.5253 4.6809,30.3638 l 1.0489,4.2256 6.6375,-5.8272 c 3.6506,-3.205 9.43,-7.6972 12.8433,-9.9829 z M 1084.78,989.87817 c 0,-2.4324 -1.4346,-4.0818 -3.5503,-4.0818 -3.9428,0 -5.4497,-3.4992 -5.4497,-12.6551 0,-7.4081 -0.201,-8.2739 -2.0573,-8.8631 -2.7452,-0.8713 -4.1613,-4.7766 -2.9179,-8.0469 1.348,-3.5457 1.2195,-5.4349 -0.3698,-5.4349 -2.9205,0 -4.4917,-3.5463 -5.1992,-11.7355 -0.6159,-7.1287 -1.0862,-8.6275 -3.4996,-11.1529 -3.346,-3.5013 -4.4562,-9.6953 -4.4562,-24.86209 0,-9.68168 -0.1142,-10.25046 -2.0589,-10.25 -1.1323,2.7e-4 -2.8892,-0.6067 -3.9041,-1.34883 -1.6247,-1.18795 -1.8185,-2.65289 -1.6212,-12.25 0.1232,-5.99537 0.5579,-13.98151 0.966,-17.74696 0.7036,-6.49285 0.6268,-6.89007 -1.4892,-7.69456 -1.2272,-0.46656 -2.6872,-1.66073 -3.2446,-2.65372 -1.3685,-2.4378 -1.8324,-0.86042 -2.5158,8.55448 -0.4157,5.72706 -0.1806,7.89964 1.0597,9.79267 1.4241,2.17333 1.4786,4.90749 0.5114,25.64008 -0.8836,18.94193 -1.5404,25.01203 -3.5738,33.02653 -2.4614,9.7019 -2.4681,9.8422 -0.5603,11.75 2.3256,2.3256 2.3394,2.8768 0.3729,14.9308 -1.6205,9.9336 -2.3483,27.4272 -1.1892,28.5862 0.3705,0.3705 8.4703,1.9261 17.9996,3.4569 27.1841,4.367 26.7475,4.3174 26.7475,3.0387 z m -55.9784,-16.8318 c 0.012,-4.8125 0.6169,-12.7091 1.3445,-17.548 1.2454,-8.283 1.2149,-8.8559 -0.5216,-9.7852 -2.5484,-1.3639 -2.3641,-6.2704 0.6728,-17.9168 2.5018,-9.5941 4.3563,-24 3.0896,-24 -0.3776,0 -2.5261,0.93844 -4.7743,2.08542 -9.4397,4.81578 -20.8515,3.17108 -29.24194,-4.2145 -5.4614,-4.80735 -11.551,-16.50016 -14.7754,-28.37092 -3.1969,-11.76946 -3.1792,-35.81835 0.04,-54.74365 3.325,-19.54575 2.8207,-28.02498 -2.7925,-46.95279 l -4.3583,-14.69645 -4.4033,3.02956 c -8.6121,5.92528 -17.0109,10.1699 -32.7775,16.56537 -8.7868,3.56424 -17.1759,7.10087 -18.6423,7.85917 -2.8003,1.44809 -19.5875,27.99441 -28.9537,45.78588 l -4.9159,9.33781 2.358,6.90755 c 14.3424,42.01535 34.9623,74.56015 63.13,99.63945 11.6168,10.3431 21.4357,16.9402 33.9425,22.8054 13.05514,6.1222 32.81294,12.6759 38.80754,12.8725 l 2.75,0.09 0.022,-8.75 z m 783.4357,-1.3191 c -0.9404,-1.5215 -2.4428,-1.0568 -1.8211,0.5634 0.3153,0.8218 0.9836,1.2407 1.4849,0.9309 0.5013,-0.3099 0.6526,-0.9823 0.3362,-1.4943 z m -507.8383,-29.4624 c 4.8846,-0.8423 16.531,-3.4142 25.881,-5.7153 13.5071,-3.3243 18.8718,-4.191 26.1101,-4.2185 l 9.1102,-0.035 -1.889,-5.4904 c -2.8845,-8.384 -9.0081,-17.845 -16.0074,-24.73181 l -6.3239,-6.22221 -0.14,6.72221 c -0.2907,13.96051 -6.5078,23.71491 -19.0729,29.92491 -7.0052,3.4621 -8.4103,3.7884 -17.8165,4.1365 -21.017,0.778 -36.8861,-7.9396 -44.7775,-24.5984 -2.855,-6.027 -3.1931,-7.69384 -3.1931,-15.7408 0,-4.95 0.3597,-10.29186 0.7994,-11.8708 0.767,-2.75483 0.6863,-2.84404 -2,-2.2083 -4.6455,1.09939 -19.286,8.39895 -24.4531,12.19196 -5.6883,4.17555 -5.8927,5.4133 -2.4573,14.87764 3.1675,8.7265 6.7994,13.7807 14.4335,20.0861 7.8852,6.5127 16.1976,10.994 23.8116,12.8369 7.8875,1.9092 27.0716,1.937 37.9849,0.055 z m 13.1408,-19.5864 c 7.2861,-3.5117 10.6027,-7.6744 12.3557,-15.5077 1.1533,-5.15359 0.9985,-6.72471 -1.8107,-18.3744 -0.5699,-2.36342 -1.9608,-3.95057 -3.4919,-3.98469 -0.378,-0.008 -0.4472,1.46345 -0.1539,3.27081 1.3702,8.44374 -5.7162,19.24838 -14.1623,21.59318 -6.0006,1.6659 -14.4406,1.3294 -19.0381,-0.759 -10.5451,-4.78994 -14.2996,-17.67093 -8.4773,-29.08366 1.1103,-2.17633 2.0187,-4.18864 2.0187,-4.4718 0,-1.20312 -6.7854,0.86281 -10.0736,3.06706 -11.163,7.48322 -10.86,26.3678 0.6069,37.8348 10.1818,10.1817 28.605,12.9807 42.2265,6.4154 z m -293.4601,-26.5364 c 1.7601,-0.90987 4.8797,-3.04737 6.9323,-4.75 4.5084,-3.73979 5.1266,-8.52065 1.5886,-12.28662 -2.1097,-2.24575 -2.1408,-2.60918 -0.9726,-11.38318 0.6637,-4.98485 1.4901,-14.01687 1.8365,-20.07115 l 0.6298,-11.00779 -3.7967,2.57652 c -5.9049,4.00718 -11.1581,3.17266 -13.8684,-2.20312 -3.6328,-7.20525 -2.6402,-28.37544 1.9707,-42.0353 2.4063,-7.12867 2.6278,-8.69048 1.6134,-11.37794 -2.4969,-6.61495 -8.0186,-14.54372 -14.8227,-21.2841 -7.24354,-7.17571 -8.02334,-8.70549 -9.24694,-18.14029 l -0.6637,-5.11727 -4.4098,4.95447 -4.4099,4.95447 5.4099,18.6628 c 5.3544,18.47179 5.409,18.79585 5.3317,31.6628 -0.05,8.24533 -0.723,16.10882 -1.8414,21.5 -2.5621,12.35091 -3.2051,34.49157 -1.2922,44.5 4.8253,25.24716 16.87784,37.63466 30.01144,30.8457 z m 412.7602,-20.60711 c 1.8457,-1.24378 4.8811,-4.26128 6.7454,-6.70556 4.1848,-5.48666 3.9377,-8.56815 -1.3227,-16.49328 -5.243,-7.89896 -16.0072,-17.52365 -32.9065,-29.42317 -13.81,-9.72417 -35.0736,-21.95239 -36.2052,-20.8208 -0.278,0.27795 0.5917,2.6876 1.9326,5.35479 3.7417,7.44294 7.6385,19.58066 8.9671,27.93115 l 1.1997,7.54059 6.5149,3.06595 c 5.3372,2.51176 9.1074,5.66394 20.8576,17.43885 15.902,15.93529 17.4179,16.69346 24.2171,12.11148 z M 1211.28,822.86221 c 19.377,-9.58109 29.7583,-13.56576 41.7631,-16.03004 l 5.763,-1.18302 -1.7377,-2.94174 c -0.9558,-1.61796 -2.6491,-4.04946 -3.7631,-5.40335 l -2.0253,-2.46162 -9.9556,3.95105 c -5.4756,2.17307 -13.8739,5.95378 -18.663,8.40157 -15.9562,8.15561 -36.8814,22.80839 -36.8814,25.82608 0,1.90985 5.6197,-0.32897 25.5,-10.15893 z m -177.5,-2.3278 c 0,-0.47084 -0.3767,-0.62328 -0.837,-0.33876 -1.5337,0.94785 -5.163,-2.47918 -5.163,-4.87522 0,-1.29939 0.6345,-4.98637 1.4099,-8.19329 1.8212,-7.53107 2.8408,-16.33098 1.6606,-14.33077 -2.4854,4.21216 -4.995,14.55355 -5.6264,23.18433 -0.9645,13.18425 -0.457,14.21065 4.5897,9.28264 2.1814,-2.13007 3.9662,-4.2581 3.9662,-4.72893 z m 11.3866,-25.98804 c 0.2918,-2.8875 0.7812,-10.65 1.0876,-17.25 0.3065,-6.6 1.3692,-16.8375 2.3617,-22.75 1.7442,-10.39034 1.7436,-10.75 -0.016,-10.75 -1.0011,0 -1.8202,0.60586 -1.8202,1.34636 0,0.7405 -0.7124,2.7745 -1.5832,4.51999 -1.0619,2.12858 -1.7168,6.87161 -1.9888,14.40364 -1.2792,35.4179 -1.2783,35.73001 0.094,35.73001 0.875,0 1.5163,-1.80596 1.8643,-5.25 z m -12.749,-41.41268 c -0.076,-0.0895 -2.2904,2.6668 -4.9216,6.12505 l -4.784,6.28773 4.0199,7.37495 c 2.211,4.05622 4.0972,8.27495 4.1916,9.37495 0.094,1.1 0.5001,-4.975 0.9017,-13.5 0.4015,-8.525 0.6681,-15.5732 0.5924,-15.66268 z m -6.4597,-7.43252 c 2.3873,-1.27764 6.7834,1.1896 6.8924,3.86825 0.059,1.45032 0.2079,1.40658 0.9297,-0.27305 2.0783,-4.83648 1.6817,-5.07046 -10.7694,-6.35367 -6.4732,-0.66713 -12.7732,-1.47545 -14,-1.79628 -2.0206,-0.52841 -2.2306,-0.22293 -2.2306,3.24547 0,3.15816 0.744,4.58684 4.2477,8.15682 l 4.2476,4.32804 4.3632,-5.06431 c 2.3997,-2.78538 5.2434,-5.53545 6.3194,-6.11127 z m -77.79064,-119.48689 6.2983,-1.58209 0.6302,-29.16791 c 0.8553,-39.58474 3.4077,-64.63735 9.7833,-96.02605 1.6599,-8.17197 2.8618,-15.01428 2.671,-15.20512 -0.1909,-0.19084 -3.6873,6.27032 -7.77,14.35814 -8.8857,17.60291 -18.6138,32.35066 -35.0958,53.20512 -19.3883,24.53184 -19.2866,24.29822 -16.4537,37.76497 3.7419,17.78879 10.6558,27.28705 24.9354,34.25614 4.4627,2.17801 8.2465,3.96426 8.4085,3.96945 0.162,0.005 3.1287,-0.7025 6.5928,-1.57265 z M 766.32954,566.26455 c 6.45799,-12.0825 16.99496,-32.76818 23.41548,-45.96818 17.73232,-36.45601 26.38658,-50.8429 43.02032,-71.5172 11.86918,-14.75237 20.7112,-23.8573 29.71232,-30.59575 3.9587,-2.9636 22.4087,-15.0147 41,-26.78021 18.5912,-11.76551 40.3729,-25.69502 48.4037,-30.95446 l 14.6014,-9.56263 8.7337,-12.79488 c 4.8036,-7.03718 13.6524,-19.99487 19.664,-28.79487 18.08254,-26.46959 25.58494,-43.76049 24.70304,-56.93344 -0.504,-7.52833 -2.2944,-11.30821 -6.8035,-14.36327 -3.0658,-2.07718 -4.437,-2.32993 -11.0526,-2.03733 -8.99784,0.39796 -15.37634,3.28878 -29.44744,13.34583 -11.4935,8.2148 -45.4064,37.48611 -70.489,60.84134 -33.7063,31.38511 -83.99229,80.81635 -90.68833,89.14687 -13.46129,16.74716 -22.25648,32.85436 -28.67467,52.51375 -4.66171,14.27914 -12.51927,49.63021 -18.66782,83.98625 -2.80529,15.675 -5.76545,31.10557 -6.57813,34.29015 -0.81269,3.18458 -1.21084,7.23458 -0.88478,9 0.45798,2.47976 0.0117,3.99326 -1.96222,6.65413 -1.40528,1.89435 -2.55505,4.13198 -2.55505,4.97251 0,2.42914 1.80292,-0.60041 14.54958,-24.44861 z m -3.57814,-80.96818 c 9.72519,-43.47492 16.49713,-60.47274 33.86404,-85 3.3521,-4.73417 16.74867,-19.22775 32.81629,-35.50354 31.1454,-31.54892 28.95269,-27.77979 28.16301,-48.41032 -0.37281,-9.73987 -0.8054,-12.04668 -3.16252,-16.86446 -2.22074,-4.53902 -3.57479,-5.98986 -7.25139,-7.76967 -9.13732,-4.4233 -19.25961,0.45146 -29.43556,14.17577 -7.67231,10.34763 -11.64201,18.69093 -18.49707,38.87608 -3.04589,8.96883 -11.56579,30.31356 -18.9331,47.43275 -19.35752,44.98044 -25.527,64.2848 -28.94315,90.56339 -2.06339,15.8726 -2.97569,40.39282 -2.05193,55.15048 l 0.77303,12.34952 4.20405,-23 c 2.31224,-12.65 6.11667,-31.55 8.4543,-42 z M 997.91926,328.6431 c 1.787,-1.23583 2.77184,-2.95913 3.04924,-5.33603 0.2255,-1.93089 0.292,-3.5107 0.148,-3.5107 -0.1441,0 -2.13874,2.76362 -4.43254,6.14138 -4.1098,6.05188 -3.9883,6.31794 1.2353,2.70535 z m 618.19634,1190.5427 c -1.5205,-2.3205 -1.5809,-3.5002 -0.544,-10.6144 1.1933,-8.187 4.5226,-16.9463 7.6175,-20.0412 3.1366,-3.1366 9.5909,-1.7278 9.5909,2.0935 0,0.785 -1.3564,4.1826 -3.0143,7.5502 -2.0704,4.2056 -3.2094,8.3148 -3.6375,13.1227 -0.7874,8.8451 -1.6322,10.4998 -5.3603,10.4998 -2.0677,0 -3.4501,-0.7757 -4.6523,-2.6106 z M 1575.28,1395.2304 c -2.75,-1.3245 -6.1374,-2.4141 -7.5275,-2.4211 -3.3527,-0.017 -6.9725,-2.649 -6.9725,-5.0696 0,-2.842 3.571,-5.9433 6.8434,-5.9433 3.7973,0 13.5135,3.4059 17.1953,6.0275 2.0445,1.4559 2.9613,2.9544 2.9613,4.8406 0,5.6486 -4.277,6.5265 -12.5,2.5659 z m 11.5,-8.6484 c -1.375,-0.5981 -5.875,-2.2571 -10,-3.6866 -6.7314,-2.3327 -7.533,-2.887 -7.8223,-5.4095 -0.448,-3.9073 1.4024,-5.6895 5.9072,-5.6895 4.5163,0 13.6606,3.2254 17.3321,6.1134 3.1919,2.5107 3.353,6.2338 0.3605,8.3299 -2.5537,1.7887 -2.465,1.7834 -5.7775,0.3423 z m -354.4681,-41.7504 c -2.7743,-3.0655 -4.5875,-12.3449 -5.2265,-26.7465 -0.5012,-11.2987 -0.3453,-13.5789 1.0773,-15.75 2.076,-3.1683 7.0235,-3.5168 8.5821,-0.6044 0.5694,1.0638 1.0352,6.3317 1.0352,11.7063 0,5.3747 0.7359,14.1891 1.6352,19.5876 1.5543,9.3295 1.5466,9.9134 -0.155,11.7936 -2.2729,2.5116 -4.6833,2.5162 -6.9483,0.013 z m -15.7249,-24.7852 c -0.8267,-0.9625 -1.8151,-2.6231 -2.1966,-3.6902 -0.9724,-2.7201 -0.7281,-28.1319 0.3221,-33.5005 1.3179,-6.737 5.2507,-8.8761 9.15,-4.9768 1.8051,1.8051 1.9848,2.7708 1.3493,7.25 -0.4032,2.8421 -0.7102,11.4675 -0.6822,19.1675 0.053,14.6976 -0.7071,17.5 -4.7496,17.5 -0.9295,0 -2.3664,-0.7875 -3.193,-1.75 z m 24.5832,-8.7772 c -1.4592,-2.227 -1.5143,-3.4442 -0.4641,-10.25 2.071,-13.421 3.7476,-18.1028 6.7528,-18.8571 3.2966,-0.8274 5.7167,0.629 6.1704,3.7133 0.5195,3.5322 -2.9151,23.075 -4.5116,25.671 -1.8934,3.0786 -5.8389,2.941 -7.9475,-0.2772 z m 274.176,-24.7228 c -1.3999,-1.2375 -3.8411,-4.6515 -5.4248,-7.5866 l -2.8794,-5.3366 -0.4662,5.6218 c -0.2564,3.092 -0.9566,6.1122 -1.556,6.7116 -1.7106,1.7106 -6.4479,1.2757 -7.9118,-0.7263 -1.8801,-2.5712 -1.727,-13.4192 0.2287,-16.2114 1.7949,-2.5626 5.6196,-2.9199 7.4642,-0.6973 1.1345,1.367 1.4407,1.367 2.9512,0 2.4969,-2.2596 6.671,-1.9037 8.5013,0.7248 5.6018,8.0444 8.5266,13.2413 8.5266,15.1505 0,4.8479 -5.1551,6.1318 -9.4338,2.3495 z m 177.9905,-14.9725 c -1.2297,-1.7556 -1.5567,-5.1751 -1.5567,-16.2775 0,-15.3848 0.9261,-18.5 5.5,-18.5 2.6413,0 5.5,3.3382 5.5,6.4225 0,1.5381 0.2667,1.7108 1.2,0.7775 1.6577,-1.6577 5.3541,-1.5031 7.1565,0.2994 2.0499,2.0499 3.2043,11.9743 1.7613,15.1414 -1.5546,3.4119 -6.9893,3.0175 -8.8303,-0.6408 -1.1385,-2.2624 -1.2594,-1.8797 -1.2728,4.0275 -0.017,7.4429 -1.7907,10.9725 -5.5147,10.9725 -1.3326,0 -3.0741,-0.9815 -3.9433,-2.2225 z m 22.4433,-27.7775 c -2.3529,-2.3529 -2.3079,-1.5562 -0.8754,-15.5 1.3483,-13.1241 2.7352,-16.5 6.7786,-16.5 4.6147,0 5.3959,1.8949 4.6299,11.23 -1.1383,13.8705 -2.3711,20.175 -4.2081,21.52 -2.3955,1.7539 -4.0129,1.5621 -6.325,-0.75 z m 14.9141,-18.6035 c -1.7519,-2.111 -2.5485,-19.3425 -1.0257,-22.188 0.6943,-1.2973 2.3153,-2.2001 4.3007,-2.3952 3.1608,-0.3108 3.1973,-0.3779 4.5264,-8.3133 2.041,-12.1864 5.1861,-24.7009 6.8435,-27.2304 2.0935,-3.1951 7.0954,-3.1223 8.5749,0.1249 0.86,1.8875 0.5438,4.6933 -1.493,13.25 -1.4213,5.9705 -3.2078,14.7822 -3.9702,19.5815 -1.5183,9.5588 -2.7023,11.774 -6.2931,11.774 -2.2747,0 -2.3776,0.2999 -2.3776,6.9286 0,4.9653 -0.4453,7.3738 -1.5714,8.5 -2.0296,2.0296 -5.8169,2.0134 -7.5145,-0.032 z m 25.6698,-59.7217 c -2.1584,-2.1584 -2.3763,-3.432 -3.0373,-17.75 -0.4645,-10.0621 -0.3479,-16.3712 0.3353,-18.1469 1.3906,-3.6142 5.6286,-4.7449 8.0933,-2.1591 1.5264,1.6013 1.8919,4.5086 2.4569,19.541 0.6606,17.5791 0.6533,17.667 -1.6067,19.25 -2.9719,2.0815 -3.4855,2.021 -6.2415,-0.735 z m 10.7454,-37.7455 c -1.4241,-1.4241 -0.5046,-36.8944 1.0054,-38.783 0.6994,-0.8747 2.3516,-1.1835 4.6696,-0.8726 l 3.5872,0.4812 -0.7427,-6.9517 c -0.4086,-3.8234 -0.3425,-8.0048 0.1469,-9.2919 1.7268,-4.5417 8.3461,-4.0087 9.5323,0.7676 0.8925,3.5939 2.0072,16.0291 1.656,18.4733 -0.449,3.1243 -3.7582,4.7628 -6.8105,3.3721 l -2.3735,-1.0814 v 11.4293 c 0,13.4022 -1.3771,21.1241 -4.0193,22.5382 -2.418,1.294 -5.3115,1.2588 -6.6514,-0.081 z m -185.6386,-6.1793 c -1.0545,-0.7792 -2.8352,-5.9583 -4.7277,-13.75 -1.6698,-6.875 -7.5129,-26.0597 -12.9846,-42.6328 -9.9168,-30.0362 -15.0886,-48.8966 -18.6105,-67.86723 -2.8272,-15.2286 -2.6381,-54.1763 0.3288,-67.7137 2.715,-12.3881 7.9118,-23.19807 14.6138,-30.39836 5.6981,-6.12171 9.7612,-7.37792 12.3615,-3.82181 2.0744,2.83684 1.6738,3.92229 -3.723,10.08952 -6.1498,7.02775 -10.1483,15.22875 -12.6008,25.84435 -2.6545,11.4901 -2.6832,52.823 -0.046,66 3.917,19.57043 8.301,35.31883 18.2633,65.60733 9.5095,28.912 15.4297,49.6814 15.433,54.1427 0,2.0486 -3.4151,5.75 -5.3076,5.75 -0.7198,0 -2.0701,-0.5625 -3.0004,-1.25 z M 1463.8388,987.85387 c -1.0325,-0.6533 -1.7887,-4.8336 -2.667,-14.7432 -0.6743,-7.6072 -2.1993,-17.6525 -3.389,-22.3228 -2.3004,-9.0301 -8.4513,-22.5267 -12.5289,-27.4915 l -2.464,-3 v 6.0275 c -0.01,7.291 -1.8296,10.4725 -6.0027,10.4725 -1.5863,0 -3.2158,-0.5364 -3.621,-1.192 -0.4052,-0.6556 -1.0323,-4.9137 -1.3936,-9.4623 -0.5723,-7.2057 -1.1408,-9.0543 -4.417,-14.3622 -4.192,-6.79161 -4.2313,-9.84933 -0.1607,-12.51648 3.2615,-2.13704 6.0024,-1.2323 13.6759,4.51435 17.1754,12.86253 28.3866,36.68693 30.933,65.73423 1.2952,14.774 0.2631,19.3026 -4.3913,19.2691 -1.1702,-0.01 -2.7761,-0.4257 -3.5688,-0.9272 z m 204.9412,-23.1358 c -26.115,-6.1258 -32.423,-9.8583 -27.6629,-16.368 1.551,-2.1211 3.1272,-1.9372 15.1629,1.769 4.4,1.3549 13.0949,3.6084 19.3219,5.0076 6.2271,1.3993 11.9646,3.0775 12.75,3.7294 3.4719,2.8814 -0.036,9.0477 -5.0444,8.8672 -1.1151,-0.04 -7.6525,-1.3925 -14.5275,-3.0052 z m -51.25,-29.0018 c -5.3616,-3.1229 0.9067,-14.9496 21.25,-40.09367 l 3.5,-4.32595 -5.5,3.89553 c -8.8688,6.28154 -26.4423,21.32169 -29.643,25.36969 -1.624,2.054 -4.1877,5.872 -5.6971,8.4845 -2.2558,3.9046 -3.2488,4.75 -5.5796,4.75 -10.5816,0 -3.6691,-15.4176 13.7346,-30.63365 33.0593,-28.90375 62.6406,-43.58266 108.2874,-53.73463 20.4613,-4.55066 33.9109,-6.02271 55.5428,-6.07915 18.4495,-0.0481 20.3222,0.10777 22.25,1.85242 2.423,2.19286 2.7522,5.81294 0.6846,7.52888 -0.9679,0.80325 -8.6932,1.29692 -24.25,1.54966 -12.5563,0.204 -24.4047,0.76954 -26.3297,1.25676 l -3.5,0.88585 5.5,1.79963 c 6.4507,2.11071 32.2768,15.26374 35.0746,17.86319 1.0712,0.99529 1.9254,3.11358 1.9254,4.77475 0,2.30694 -0.6002,3.214 -2.64,3.98952 -2.1849,0.83068 -3.6358,0.48548 -8.4158,-2.00225 l -5.7758,-3.00597 -2.0499,6.07 c -2.8043,8.30415 -8.1525,17.59429 -13.6467,23.70509 -8.9168,9.9177 -26.6242,19.3862 -42.7253,22.8462 -11.0183,2.3677 -32.2656,2.088 -48.7263,-0.6414 -16.017,-2.6559 -20.5313,-2.3781 -29.4912,1.8147 -6.9816,3.2671 -10.7616,3.8378 -13.779,2.0803 z m 93.6289,-14.8889 c 8.8889,-2.2734 21.3489,-8.3769 28.2708,-13.8483 7.9474,-6.28212 15.4024,-18.77123 17.7738,-29.77593 0.6445,-2.99106 0.4751,-3.17815 -5.1285,-5.66405 -8.8805,-3.93962 -15.6058,-5.61883 -25.4927,-6.36519 l -9.0355,-0.68209 3.1428,4.33848 c 11.7814,16.26376 5.3166,37.46631 -14.4727,47.46608 -5.42,2.7388 -6.8094,3 -15.9579,3 -9.3041,0 -10.4978,-0.2347 -16.6848,-3.2806 -8.2697,-4.0711 -14.9599,-11.16803 -16.8323,-17.85551 l -1.3276,-4.74182 -5.4002,5.93896 c -6.8966,7.58477 -16.6773,20.32917 -16.0687,20.93777 0.2569,0.2568 2.0093,0.025 3.8942,-0.5159 4.9385,-1.4163 9.3452,-1.2306 23.1687,0.9764 6.7494,1.0776 14.0717,2.1564 16.2717,2.3975 7.7055,0.8442 26.5398,-0.4488 33.8789,-2.3258 z m -9.8789,-14.42124 c 5.5894,-2.65018 11.8331,-8.65435 13.4405,-12.92486 1.6566,-4.40155 1.2508,-10.65822 -0.9917,-15.29067 -2.5572,-5.28249 -9.5486,-11.08644 -12.761,-10.59358 l -2.3122,0.35475 2.4937,2.31107 c 3.4108,3.16099 5.0057,9.42727 3.6659,14.40298 -2.1203,7.87405 -7.6638,12.14176 -15.7355,12.1141 -8.512,-0.0292 -15.906,-5.88652 -17.2545,-13.66878 l -0.6611,-3.81477 -2.1883,3.5 c -2.5856,4.13538 -2.893,10.75115 -0.6969,14.99797 5.0367,9.73993 21.5393,14.04633 33.0011,8.61179 z m -109.1037,-19.98124 c -6.1378,-2.78631 -9.7835,-11.22059 -11.2939,-26.12852 -1.551,-15.30931 0.092,-17.09924 29.903,-32.58071 11.822,-6.13937 28.6946,-14.90377 37.4946,-19.47644 28.0878,-14.59503 54.7131,-24.87225 76.3693,-29.47818 8.9113,-1.89528 12.4267,-2.13373 25,-1.69574 16.5043,0.57492 22.9728,1.97989 34.1307,7.4133 10.6727,5.19714 17.635,12.58517 23.6188,25.06308 5.5471,11.56728 6.5572,17.58273 3.5706,21.2652 -1.7275,2.13008 -2.794,2.47177 -7.3875,2.36677 -3.2571,-0.0745 -7.7152,-1.11631 -11.3352,-2.64902 -3.2817,-1.38947 -8.6667,-3.66277 -11.9667,-5.05179 -20.7995,-8.75481 -55.4979,-3.02079 -88.5,14.62489 -5.225,2.79372 -16.7,9.42045 -25.5,14.72605 -23.5004,14.16861 -46.1008,26.53555 -53.7657,29.42062 -8.589,3.2329 -16.218,4.05082 -20.338,2.18049 z m 15.9392,-12.03037 c 7.222,-2.71837 34.4745,-17.74652 57.8599,-31.90637 36.9762,-22.38901 63.7411,-31.69178 91.1801,-31.69178 13.2754,0 22.3625,2.00325 33.5963,7.40633 7.0193,3.37606 10.0282,4.29575 10.0282,3.06522 0,-0.29065 -1.5768,-3.85116 -3.5039,-7.91226 -8.3528,-17.60188 -23.8103,-25.57693 -49.9961,-25.79477 -12.8762,-0.10711 -18.1049,0.71332 -34.5,5.41339 -20.4085,5.85059 -43.05,15.70444 -73,31.77046 -9.075,4.86808 -22.8,12.06512 -30.5,15.99342 -7.7,3.9283 -14.8654,8.00133 -15.9231,9.05118 -2.1395,2.12361 -2.3323,9.59172 -0.4647,18.00703 2.1275,9.58677 4.5238,10.62541 15.2233,6.59815 z m -124.1628,-17.34815 c -0.4938,-0.9625 -1.1671,-4.78131 -1.4963,-8.48624 -0.3479,-3.91557 -1.8701,-9.91177 -3.6352,-14.31994 -3.2374,-8.08497 -3.0377,-10.67539 0.92,-11.93149 4.7544,-1.50901 8.7706,4.20925 12.1004,17.22856 2.3443,9.16598 2.4543,14.07753 0.3817,17.0366 -1.923,2.74544 -6.9571,3.03304 -8.2706,0.47251 z m 55.3987,-0.82143 c -4.2604,-4.26038 1.2004,-18.75957 10.8464,-28.79866 5.727,-5.96042 9.0022,-7.0671 12.0108,-4.05848 2.6582,2.65823 1.7892,5.20907 -3.873,11.36807 -5.857,6.37093 -8.8769,11.49797 -10.049,17.0605 -0.4057,1.925 -1.1907,4.0625 -1.7445,4.75 -1.3995,1.73723 -5.3067,1.56258 -7.1907,-0.32143 z M 1058.2526,549.76609 c -3.4195,-3.77845 -1.1191,-6.74146 10.9455,-14.09833 22.6666,-13.82183 27.9911,-15.71242 30.5876,-10.86081 1.8845,3.52138 -0.7319,6.25835 -11.8285,12.37323 -5.8724,3.2361 -13.6627,7.8486 -17.3117,10.25 -7.4015,4.87096 -9.7057,5.30527 -12.3929,2.33591 z m 16.7274,-28.16972 c -1.3342,-1.33421 -1.5663,-4.72879 -0.4347,-6.35722 1.2233,-1.76031 15.9923,-12.61223 28.9552,-21.27558 13.42,-8.96883 17.4138,-10.16131 19.4038,-5.79369 1.7552,3.85229 -0.2318,5.99143 -14.4144,15.51792 -7.2654,4.88023 -16.3089,11.17611 -20.0966,13.99085 -6.9358,5.15425 -10.992,6.33898 -13.4133,3.91772 z m 9.2042,-25.3059 c -1.4232,-2.17206 -1.4647,-2.93809 -0.3113,-5.75 3.0038,-7.32336 26.8643,-27.52585 55.0953,-46.64891 11.061,-7.49241 14.8549,-8.60122 17.1082,-4.99997 1.9064,3.04695 -0.078,6.47681 -6.0266,10.41696 -23.5658,15.60877 -49.3814,36.07631 -53.7421,42.60869 -1.6078,2.40852 -3.5953,4.94163 -4.4166,5.62913 -2.4352,2.03834 -5.9206,1.47036 -7.7069,-1.2559 z m 396.1672,-17.06553 c -1.9882,-1.98819 -1.9502,-3.328 0.3381,-11.92857 4.457,-16.75112 7.0905,-41.31005 7.0905,-66.12216 0,-14.07836 0.043,-14.35992 2.4329,-15.92586 2.9878,-1.95768 6.1679,-0.63223 7.615,3.17392 2.0442,5.37684 0.5395,41.34763 -2.5674,61.3741 -2.226,14.34778 -5.5576,27.07714 -7.6291,29.14864 -2.2653,2.26525 -5.1825,2.37743 -7.28,0.27993 z m -37.8619,-12.67857 c -0.9199,-0.6875 -3.5199,-5.52472 -5.7775,-10.74937 -12.9865,-30.05268 -32.5297,-61.63887 -52.5129,-84.87257 -9.1502,-10.63857 -24.7281,-26.04678 -29.7487,-29.42474 -5.3974,-3.63149 -1.5272,-10.70058 4.9737,-9.08472 4.0178,0.99865 26.4575,23.2364 38.2254,37.8814 17.5606,21.85395 29.6194,41.08305 43.2706,69 4.6799,9.57046 7.5856,14.59354 7.2307,12.5 -1.5141,-8.93278 -5.7282,-23.78179 -8.5235,-30.03321 -3.3695,-7.53576 -3.3069,-11.36877 0.204,-12.48307 5.5106,-1.74901 11.2239,7.99583 16.015,27.31581 5.3498,21.57291 5.0299,25.62046 -1.9771,25.01677 -2.9084,-0.25057 -3.6274,0.0599 -3.9108,1.68834 -0.3702,2.12823 -2.8338,4.49536 -4.6784,4.49536 -0.6148,0 -1.8705,-0.5625 -2.7905,-1.25 z m 27.3024,-0.72771 c -0.5821,-1.08774 -1.505,-6.82524 -2.0508,-12.75 -3.2368,-35.13635 -18.7746,-100.79794 -29.1258,-123.0833 -3.1865,-6.86031 -3.0535,-9.80278 0.5026,-11.11835 3.621,-1.33954 6.4887,0.86757 9.5394,7.34189 13.8776,29.45152 35.3829,132.54441 29.2024,139.99146 -1.891,2.2785 -6.7676,2.04778 -8.0678,-0.3817 z m 31.7381,-0.10239 c -2.7007,-1.57303 -2.1581,-4.96302 3.3262,-20.77994 6.3766,-18.39016 17.325,-56.38937 19.4027,-67.34219 1.874,-9.87903 3.9665,-12.72755 8.2495,-11.22984 2.3615,0.82579 2.8173,1.59981 3.0806,5.23123 0.5359,7.39169 -10.1354,47.01581 -21.1952,78.70084 -5.3171,15.23261 -7.89,18.31686 -12.8638,15.4199 z m 17.45,-4.1199 c -3.4086,-3.40856 1.6093,-14.78495 18.342,-41.58454 14.4043,-23.0703 20.7491,-29.70852 25.013,-26.16978 2.8776,2.38813 1.5331,6.30584 -5.6466,16.45432 -7.9607,11.25224 -17.3498,26.60914 -24.4558,40 -2.6268,4.95 -5.4479,9.7875 -6.2693,10.75 -1.7227,2.01891 -5.2376,2.29574 -6.9833,0.55 z m -417.748,-7.23294 c -2.1173,-3.23132 -0.6831,-5.89833 4.6289,-8.60833 2.2077,-1.12629 10.8318,-6.56628 19.1647,-12.08887 20.4452,-13.55005 25.7526,-16.16966 48.646,-24.01036 31.401,-10.75443 56.1408,-14.607 103.6084,-16.13427 l 7,-0.22523 -7.0834,-2.24272 c -18.087,-5.72666 -49.7502,-11.47528 -73.4166,-13.32916 -8.9789,-0.70334 -15.3567,-1.67621 -16.75,-2.55503 -3.0495,-1.92347 -2.9392,-5.87541 0.2218,-7.94654 2.2051,-1.44485 4.012,-1.4941 16.75,-0.45653 18.8462,1.5351 52.4547,7.21255 68.1343,11.50984 12.0477,3.30191 36.6756,12.72044 50.8929,19.46313 5.1369,2.43622 6.9038,3.81775 7.3972,5.78367 1.5097,6.0149 -3.7204,7.75942 -11.9574,3.98842 -5.0982,-2.33406 -6.1738,-2.42702 -30.2375,-2.61309 -53.7594,-0.41571 -82.126,3.91556 -121.2021,18.50615 -13.4918,5.03771 -18.6877,7.79528 -34.7708,18.45365 -19.2627,12.76554 -23.1169,14.93821 -26.4994,14.93821 -2.0034,0 -3.4381,-0.77105 -4.527,-2.43294 z m 451.5832,-11.50132 c -0.5694,-1.06384 -1.0352,-2.55509 -1.0352,-3.31389 0,-3.46074 17.7258,-26.38661 33.248,-43.00185 5.4686,-5.85357 8.8978,-7.20424 11.552,-4.55 2.811,2.81103 1.3215,6.55004 -5.5733,13.9906 -9.1326,9.85537 -21.7367,25.07673 -24.9754,30.16146 -1.4531,2.28137 -3.5325,5.16044 -4.621,6.39794 -2.4884,2.8292 -7.1581,3.00074 -8.5951,0.31574 z m 23.779,-3.57428 c -1.4514,-3.18531 -1.1117,-3.82133 9.9734,-18.67399 10.1631,-13.61747 23.4641,-28.74819 26.9314,-30.63632 2.0572,-1.12024 2.7878,-1.07912 4.8514,0.27305 4.1888,2.74455 3.1546,5.70457 -5.1604,14.77042 -4.1745,4.55146 -11.6084,13.67538 -16.5198,20.27538 -12.3247,16.56223 -12.265,16.5 -15.836,16.5 -2.3359,0 -3.378,-0.61649 -4.24,-2.50854 z m -169.403,-0.91597 c -1.1185,-0.78348 -3.77,-4.27098 -5.8922,-7.75 -6.6668,-10.92959 -17.0106,-24.05136 -24.9082,-31.59794 -6.1089,-5.83731 -7.6108,-7.85311 -7.6108,-10.21482 0,-3.94337 3.0411,-5.65255 7.0805,-3.97939 4.5303,1.87652 20.6826,19.41854 28.5308,30.98567 11.198,16.50415 12.2996,19.52912 8.1662,22.42429 -2.7153,1.90184 -2.8355,1.9048 -5.3663,0.13219 z m 200.7888,-9.77549 c -2.7743,-2.77432 -1.2063,-6.25826 7.2654,-16.14267 4.6397,-5.41346 14.1956,-18.36686 21.2352,-28.78533 13.0059,-19.24822 15.345,-21.58303 19.2042,-19.16839 3.8558,2.41254 2.5726,6.04913 -7.4682,21.16489 -18.3117,27.56719 -31.9674,44.1315 -36.3822,44.1315 -1.4599,0 -3.1944,-0.54 -3.8544,-1.2 z m -251.5535,-11.05 c -15.9696,-11.35242 -20.3184,-14.15712 -30.6465,-19.76519 -17.8488,-9.69172 -38.0518,-22.21301 -39.1492,-24.26366 -1.4858,-2.77614 1.4336,-6.72115 4.9738,-6.72115 1.6918,0 7.4512,2.85245 14.7269,7.29374 6.5717,4.01155 18.2485,10.76891 25.9485,15.01635 7.7,4.24745 17.9375,10.63613 22.75,14.19707 4.8125,3.56094 8.75,6.19152 8.75,5.84572 0,-1.76659 -12.1458,-17.13922 -17.6683,-22.3624 -7.0735,-6.68999 -8.0492,-9.81906 -3.9079,-12.53251 2.1634,-1.41751 2.7326,-1.42845 5.2981,-0.10179 6.794,3.5133 26.1636,27.44433 27.9634,34.5486 0.9133,3.605 -0.8857,5.59522 -5.0575,5.59522 -2.7311,0 -3.6289,0.41537 -3.6285,1.67857 8e-4,2.00182 -2.6083,4.82143 -4.4615,4.82143 -0.7257,0 -3.3767,-1.4625 -5.8913,-3.25 z m 292.5535,-10.95 c -2.1998,-2.19977 -1.242,-5.39638 3.4082,-11.37521 7.7181,-9.92333 21.3918,-34.97203 21.3918,-39.18742 0,-1.76676 3.6695,-4.23737 6.2936,-4.23737 3.8575,0 5.2653,3.17927 3.7184,8.39747 -3.2429,10.9393 -17.8336,36.51044 -25.3071,44.35253 -3.2368,3.39641 -7.2853,4.26959 -9.5049,2.05 z m 157.5302,-6.21268 c -1.5665,-1.56648 -3.0556,-23.00644 -2.0897,-30.08732 0.3001,-2.2 0.048,-7.55836 -0.5593,-11.90746 -0.9389,-6.71988 -0.8744,-8.25928 0.43,-10.25 2.0123,-3.07111 5.9632,-3.07441 7.9732,-0.007 2.5509,3.89306 5.3371,35.05531 4.0022,44.76128 -1.0378,7.54571 -5.9385,11.30807 -9.7564,7.49015 z m -124.1588,-5.15875 c -2.2501,-2.25015 -2.0662,-3.11633 2.8791,-13.55593 5.5164,-11.64522 7.5452,-19.24433 7.5642,-28.33274 0.01,-3.87194 0.5819,-8.1649 1.2751,-9.5399 1.5502,-3.07515 5.2266,-3.7476 7.7927,-1.42537 2.6586,2.40602 2.6335,15.30595 -0.05,25.79919 -2.0513,8.02029 -8.9136,23.73254 -11.7192,26.8327 -2.0026,2.21289 -5.6463,2.3174 -7.7417,0.22205 z m 76.6511,-0.98527 c -2.8205,-1.97555 -2.7893,-3.92906 0.2648,-16.61325 1.3681,-5.68153 2.8752,-14.92715 3.3492,-20.54584 0.474,-5.61868 1.4348,-10.90618 2.1351,-11.75 1.7725,-2.13567 5.3741,-1.91467 7.5247,0.46172 1.5821,1.74821 1.7295,3.20657 1.1873,11.75 -0.8117,12.79076 -5.9606,34.12001 -8.8121,36.50407 -2.5562,2.13722 -2.8589,2.14758 -5.649,0.1933 z m -43.7409,-2.10456 c -1.8007,-1.80069 -1.7169,-2.78232 1.1383,-13.33874 1.3205,-4.88206 1.7697,-10.48262 1.8044,-22.5 0.042,-14.47915 -0.2155,-16.94237 -2.7089,-25.9141 -1.5154,-5.45275 -4.7713,-14.6903 -7.2354,-20.52789 -5.781,-13.69597 -5.7653,-18.05801 0.065,-18.05801 3.0971,0 4.9647,2.5246 9.354,12.6447 9.1758,21.15591 12.6501,38.01682 11.7152,56.8553 -0.633,12.75553 -3.2279,25.73534 -5.9869,29.94601 -1.9445,2.96767 -5.6632,3.37522 -8.1457,0.89273 z m 19.7038,-7.02256 c -3.1698,-1.26809 -3.0619,-4.89427 0.4508,-15.15397 1.9845,-5.79612 4.0366,-14.50173 4.7903,-20.32133 0.9898,-7.64372 1.7717,-10.51265 3.1371,-11.51104 2.5063,-1.83268 3.1547,-1.70241 6.0782,1.22108 2.4247,2.42472 2.5157,2.90711 1.8386,9.75 -1.258,12.71254 -6.8421,31.06074 -10.5952,34.81388 -1.8918,1.89183 -3.2555,2.17925 -5.6998,1.20138 z m 53.2037,-0.35067 c -3.2022,-1.21077 -3.4647,-3.13962 -1.8686,-13.7285 2.6293,-17.44349 1.8822,-31.41965 -2.7237,-50.9505 -2.131,-9.03605 -2.1365,-9.25363 -0.287,-11.29734 2.8426,-3.14102 6.6129,-2.26812 8.6854,2.01083 3.8344,7.91686 6.2005,23.59982 6.1857,41 -0.022,26.17738 -2.8932,35.64956 -9.9918,32.96551 z"
     style="fill:#000000" />
</svg>
