<?xml version="1.0" encoding="UTF-8" standalone="no"?>
<svg
   xmlns:dc="http://purl.org/dc/elements/1.1/"
   xmlns:cc="http://creativecommons.org/ns#"
   xmlns:rdf="http://www.w3.org/1999/02/22-rdf-syntax-ns#"
   xmlns:svg="http://www.w3.org/2000/svg"
   xmlns="http://www.w3.org/2000/svg"
   version="1.1"
   id="Layer_1"
   x="0px"
   y="0px"
   viewBox="0 0 435.44821 550.68622"
   xml:space="preserve"
   width="435.44821"
   height="550.68622"><metadata
   id="metadata87"><rdf:RDF><cc:Work
       rdf:about=""><dc:format>image/svg+xml</dc:format><dc:type
         rdf:resource="http://purl.org/dc/dcmitype/StillImage" /><dc:title></dc:title></cc:Work></rdf:RDF></metadata><defs
   id="defs85" />
<style
   type="text/css"
   id="style2">
	.st0{fill:#B3B3B3;}
	.st1{fill:#231F20;}
	.st2{fill:#4A4B4C;}
</style>
<g
   id="Layer_2_00000041284424032334221980000013903786788111517853_"
   transform="translate(-182.56257,-35.14898)">
</g>
<g
   id="g80"
   transform="translate(-182.56257,-35.14898)">
	<path
   class="st0"
   d="m 442.7,537.2 c -3.7,0.4 -7.5,0.7 -11.3,1.1 -7.6,0.7 -15.2,1.4 -22.8,2.1 -7.6,0.7 -15.2,1.3 -22.8,1.8 -7.1,0.5 -14.3,1.4 -21.5,1.5 -5.6,0.1 -12,-0.6 -16.3,-4.6 -1.1,-1 -2.2,-2.4 -2.1,-4 0,-1.4 0.9,-2.5 1.9,-3.4 2.4,-2.1 5.6,-3.2 8.4,-4.5 3.4,-1.6 6.8,-3.2 10.2,-4.9 3.3,-1.6 6.5,-3.2 10.1,-4.1 7.3,-2 15.1,-1 22.5,-0.4 8.2,0.6 16.5,1.4 24.4,3.9 1.6,0.5 3.2,1 4.8,1.6 0.2,0.1 0.4,0.1 0.6,0.2 1.5,0.6 2.9,1.2 4.4,1.9 1.7,0.5 3.3,1.1 4.9,1.8 1.7,0.8 3.3,1.7 4.8,2.8 0.6,0.5 1.3,0.9 1.9,1.5 0.2,0.2 0.3,0.5 0.4,0.7 0.1,0 0.1,0 0.2,0 0.3,0.8 0.6,1.7 0.6,2.5 -0.2,1.8 -1.7,2.3 -3.3,2.5 z"
   id="path5" />
	<path
   class="st0"
   d="m 463.2,90.5 c 0.9,1.1 2,2.3 3.2,3 0.2,0.3 0.4,0.5 0.7,0.6 0.8,0.5 2.2,0.4 2.8,-0.5 0.1,-0.2 0.2,-0.3 0.3,-0.5 v 0 c 0,0 0,-0.1 0.1,-0.1 2.9,-5.4 3.3,-11.5 3.4,-17.6 0.1,-7.2 0.3,-14.4 0.2,-21.6 -0.1,-4 0.2,-8.2 -0.6,-12.2 -0.2,-1.2 -1.8,-1.2 -2.1,0 -0.8,3.4 -0.7,6.9 -0.9,10.4 -0.2,3.4 -0.3,6.8 -0.5,10.2 -0.2,6.5 0,13.1 -0.6,19.6 -0.1,0.6 -0.1,1.1 -0.2,1.7 -0.4,0 -0.9,0.1 -1.4,0.4 -0.6,0.3 -1,0.7 -1.5,1.2 -0.2,0.2 -0.4,0.5 -0.5,0.7 -0.6,0.6 -1.2,1.1 -1.8,1.7 -1,0.7 -1.4,2 -0.6,3 z"
   id="path7" />
	<path
   class="st0"
   d="m 306.3,84.1 c 0,1.1 0.1,2.1 0.2,3.2 v 0.1 c -0.1,1.8 -0.2,3.6 0,5.4 0.4,3.8 2.8,7 6.2,8.5 0.6,0.3 1.2,0.2 1.7,0 0.2,1 1.3,1.7 2.3,1.5 1.2,-0.1 1.8,-1.2 1.8,-2.3 0,-2.6 0,-5.3 -0.1,-7.9 0.2,-1.9 0.2,-3.8 -0.1,-5.7 -0.2,-1.1 -1.2,-2 -2.4,-1.9 -0.1,0 -0.2,0 -0.3,0.1 -0.3,-0.5 -0.8,-0.9 -1.5,-1 -0.6,-0.1 -1.3,0.1 -1.7,0.5 -0.1,-0.5 -0.2,-1 -0.3,-1.6 -0.1,-0.7 -0.5,-1.3 -1.1,-1.6 0.3,-6.9 0.6,-13.9 0.9,-20.8 0.2,-4 0.4,-8 0.5,-12 0.1,-1.2 -0.6,-2.3 -1.8,-2.5 -1.2,-0.2 -2.3,0.7 -2.5,1.8 -1.7,11.9 -2.3,24.1 -1.8,36.2 z"
   id="path9" />
	<g
   id="Layer_1_00000022548523102834637610000015549270983554490028_">
		<g
   id="g25">
			<g
   id="g23">
				<g
   id="g21">
					<g
   id="g19">
						<path
   class="st0"
   d="m 334.4,39.3 c -0.3,1.4 -0.6,2.7 -0.8,4.1 0,0.1 -0.1,0.3 -0.1,0.4 -0.6,0.2 -1,0.8 -1.2,1.5 -2.6,9.5 -5.1,18.9 -7.7,28.4 -0.3,0.5 -0.6,1.1 -0.9,1.6 -0.5,0.9 -1,1.8 -1.6,2.6 -0.7,-0.3 -1.6,-0.1 -2.2,0.8 -0.2,0.1 -0.3,0.2 -0.4,0.4 -1.2,1.5 -2.7,2.8 -4.2,4 0.8,6.4 1.7,12.8 2.1,19.2 0.8,-0.8 1.6,-1.6 2.3,-2.5 3.1,-4 4.9,-8.8 6.2,-13.6 0.3,-1.1 0.6,-2.2 0.8,-3.3 0.4,-1.6 0.7,-3.2 1,-4.9 0.1,-0.4 0,-0.8 -0.2,-1.1 0.2,-0.6 0.3,-1.1 0.5,-1.7 0.7,-1.2 1.3,-2.4 2,-3.7 3.6,-7.3 4.8,-15.2 5.7,-23.2 0.4,-1.2 0.8,-2.3 1.1,-3.5 0.4,-1.4 0.7,-2.9 1,-4.3 0,-0.1 0,-0.2 0.1,-0.3 -1.1,-0.4 -2.3,-0.7 -3.5,-0.9 z"
   id="path11" />
						<path
   class="st0"
   d="m 465,82.9 c -0.7,-1 -1.4,-1.9 -2.1,-2.9 -1.6,-2.3 -3.2,-4.6 -4.7,-7 -0.7,-1.1 -1.4,-2.2 -2,-3.4 0,-0.1 0,-0.2 -0.1,-0.3 -1.5,-4.4 -3,-8.7 -4.4,-13.1 -0.3,-2.3 -0.7,-4.7 -1.1,-7 -0.1,-0.7 -0.6,-1.2 -1.4,-1.2 -0.1,0 -0.1,0 -0.2,0 -0.6,-1.9 -1.2,-3.9 -1.8,-5.8 0.4,-0.4 0.7,-1 0.6,-1.6 -0.2,-1.1 -0.4,-2.3 -0.7,-3.4 -1.6,-0.1 -3.2,-0.2 -4.8,-0.3 -0.4,0 -0.8,0 -1.2,0 -0.1,0.3 -0.2,0.6 -0.1,1 2.3,9.5 5,18.9 8.1,28.2 0.2,0.7 0.5,1.3 0.7,2 0.2,0.9 0.4,1.7 0.7,2.6 1.7,6.1 4.3,12.2 8.1,17.2 1.1,1.4 2.3,2.8 3.7,4 0.8,0.7 1.8,1.3 2.9,1.4 0,-0.6 -0.1,-1.2 -0.1,-1.8 -0.2,-2.8 -0.2,-5.7 -0.1,-8.6 z"
   id="path13" />
						<g
   id="g17">
							<path
   class="st1"
   d="m 607.8,107.8 c -1.1,-5.2 -2.5,-10.3 -3.9,-15.4 -1.4,-5.1 -2.9,-10.3 -4.4,-15.4 -3,-10.1 -6.1,-20.1 -9.5,-30.1 -0.8,-2.5 -1.7,-4.9 -2.6,-7.3 -0.8,-2.2 -4.1,-0.8 -3.4,1.4 6.3,19.6 12.6,39.2 17.8,59.1 2.4,9.3 4.7,19.2 2.7,28.8 -0.8,4.1 -2.5,8 -6.3,10 -1.9,1 -3.9,1.7 -6,2.5 -1,0.6 -2.1,1 -3.2,1.2 0.1,-0.1 0.2,-0.3 0.4,-0.4 0.1,-0.2 0.3,-0.4 0.4,-0.6 0.1,-0.2 0.2,-0.4 0.2,-0.5 0.1,-0.3 0,-0.6 -0.2,-0.7 -0.3,-0.2 -0.6,-0.1 -0.8,0.1 -0.1,0.1 -0.3,0.3 -0.4,0.4 -0.1,0.1 -0.2,0.3 -0.3,0.4 -0.2,0.3 -0.5,0.5 -0.7,0.8 -0.1,0.1 -0.2,0.3 -0.3,0.4 l -0.1,0.1 c 0,0 -0.1,0.1 0,0 -0.1,0.1 -0.1,0.1 -0.2,0.2 -0.2,0.2 -0.4,0.3 -0.6,0.5 0.6,-0.8 1.2,-1.7 1.6,-2.7 1.4,-3.5 1.3,-7.8 0.7,-11.5 -0.1,-0.5 -0.9,-0.5 -0.9,0 -0.1,3.5 0.3,7.1 -1.1,10.4 -0.5,1.3 -1.3,2.5 -2.2,3.5 -0.5,0.5 -1.1,1 -1.7,1.4 -0.1,0 -0.1,0.1 -0.2,0.1 -0.5,0.2 -0.9,0.3 -1.4,0.4 -0.1,0.1 -0.2,0.2 -0.3,0.3 v 0 c -16.9,4.9 -34.5,7.1 -52.1,6.3 -6.7,-0.3 -13.5,-0.9 -20.1,-2.2 -0.6,0 -1.2,-0.1 -1.7,-0.2 -0.7,-0.2 -1.4,-0.4 -2,-0.6 -1,-0.8 -1.8,-1.8 -2.6,-2.8 -1.7,-2.3 -2.8,-4.8 -4.3,-7.2 -0.4,-0.7 -1.5,0 -1.2,0.7 1.2,3 2.9,6.2 5.3,8.7 -0.1,0 -0.1,0 -0.2,0 -0.6,-0.1 -1.2,-0.3 -1.7,-0.6 -6.1,-2 -12.1,-5.1 -16.6,-9.7 -6,-6.1 -8.6,-14.3 -9.6,-22.7 -1.1,-9.7 -0.6,-19.6 0.1,-29.4 0.1,-1.2 0.2,-2.4 0.3,-3.6 0.1,-1.2 -0.1,-2.5 -0.1,-3.7 0,-0.1 0,-0.1 -0.1,-0.2 0.6,-7.8 0.3,-15.6 0.4,-23.5 0,-2.5 0.1,-5 0.3,-7.4 0.2,-2.6 0.5,-5.1 0.5,-7.7 0,-1 -1.7,-1.2 -2,-0.3 -0.4,1.4 -0.7,2.8 -1,4.3 0,-1.9 -0.1,-3.8 -0.4,-5.7 0,-0.3 -0.3,-0.5 -0.6,-0.4 0,-0.5 0,-1 -0.1,-1.4 -0.2,-0.8 -1.4,-1.1 -1.7,-0.2 -0.6,1.6 -0.4,3.5 -0.5,5.2 -0.1,1.7 -0.2,3.5 -0.3,5.2 -0.2,3.5 -0.4,7 -0.5,10.6 -0.1,3.6 -0.3,7.2 -0.2,10.8 0.1,3.3 0.6,6.7 -0.3,10 -0.3,1.2 -0.7,2.9 -1.9,3.7 -0.3,0.2 -0.7,0.3 -1.1,0.3 -4.6,-5.2 -7.8,-11.5 -10.2,-18.1 -3,-8.2 -4.7,-16.9 -6.5,-25.4 0,-0.1 0,-0.2 -0.1,-0.3 -1.9,-0.2 -3.8,-0.3 -5.7,-0.4 -0.1,0 -0.1,0 -0.2,0 l 0.3,0.9 c -0.1,0.1 -0.2,0.1 -0.4,0.2 -0.1,-0.4 -0.2,-0.8 -0.3,-1.2 -1.3,0 -2.5,0 -3.7,0.1 1.3,5 2.7,10 4.1,15 3.3,12.2 6.7,24.3 10.1,36.4 3,10.5 6.7,21.1 7.9,32 0.2,2 0.3,4.1 0.3,6.2 0.1,0 0.2,0 0.3,0.1 0,0.1 -0.1,0.1 -0.1,0.2 -0.4,0.8 -0.9,1.6 -1.3,2.4 -1.3,1.2 -3.1,2 -4.6,2.5 -4,1.3 -8.4,1.4 -12.6,1.6 -8.8,0.3 -17.4,1.6 -25.9,4.1 -4.2,1.2 -8.4,2.7 -12.4,4.4 -4,1.7 -7.8,3.9 -11.8,5.7 -1.9,0.8 -3.8,1.5 -5.9,1.8 -2.2,0.3 -4.5,0 -6.7,-0.2 -2.3,-0.2 -4.6,-0.5 -6.8,-0.2 -2.2,0.3 -4.3,1.1 -6.4,1.7 -5.1,1.3 -10.4,-0.3 -15.4,-1.2 -2.6,-0.5 -5.2,-0.9 -7.7,-1.3 -1.8,-0.3 -3.5,-0.7 -5.2,-1 -2.4,-1.9 -4.5,-4.2 -6.3,-6.8 -6.4,-9.2 -6.5,-20.9 -5.4,-31.6 2.5,-23 8.5,-45.5 14,-67.9 -0.1,0 -0.1,0 -0.2,0 -1.4,-0.4 -2.9,-0.8 -4.3,-1.1 -0.3,1.5 -0.7,3 -1,4.4 -0.6,2.5 -1.2,5.1 -1.8,7.6 -0.1,-0.2 -0.1,-0.3 -0.2,-0.5 -0.1,-0.4 -0.2,-0.8 -0.4,-1.1 v -0.1 c 0.8,-3.5 1.5,-7.1 2.3,-10.6 -0.8,-0.2 -1.6,-0.3 -2.3,-0.5 -1.1,5.4 -2.3,10.7 -3.5,16 0,0.1 -0.1,0.3 -0.1,0.4 -0.2,0.1 -0.3,0.3 -0.3,0.6 0,0.1 0.1,0.2 0.1,0.4 -1.8,7.8 -3.6,16.2 -8.9,22.4 -1.2,1.4 -2.6,2.6 -4,3.7 -0.1,0 -0.3,0 -0.4,0.1 -0.4,0.1 -0.9,0.2 -1.1,-0.1 -0.4,-0.6 -0.4,-1.8 -0.4,-2.4 -0.1,-0.9 -0.2,-1.9 -0.2,-2.8 -0.2,-3.7 0.2,-7.4 0.5,-11.1 0.3,-3.8 0.4,-7.5 0.4,-11.3 0,-3.8 0.1,-7.7 -0.5,-11.4 -0.2,-1.3 -2.4,-1.5 -2.5,0 -0.1,3.3 0.2,6.7 0.3,10 0,0.1 0,0.3 0,0.4 -0.2,0.2 -0.4,0.3 -0.5,0.5 -0.2,0.2 -0.3,0.4 -0.5,0.6 -0.3,0.4 -0.6,0.8 -1,1.1 v 0 l -0.1,0.1 c 0.1,-1.4 0.2,-2.7 0.2,-4.1 0.1,0 0.3,0 0.4,-0.1 0.1,0 0.1,-0.1 0.2,-0.1 0.1,-0.1 0.2,-0.2 0.3,-0.4 0.1,-0.2 0.2,-0.4 0.2,-0.5 0,-0.1 0.1,-0.2 0.1,-0.3 0,-0.1 0,-0.2 -0.1,-0.3 0,-0.1 -0.1,-0.2 -0.2,-0.3 -0.1,-0.1 -0.2,-0.1 -0.3,-0.2 -0.1,0 -0.1,0 -0.2,-0.1 -0.1,0 -0.2,0 -0.3,0 0,-1 0.1,-2 0.1,-3 0,-0.8 -1.3,-0.8 -1.4,0 0,0.5 -0.1,1 -0.1,1.4 -0.6,-0.6 -1.7,-0.4 -1.9,0.6 -0.9,4.9 -1.4,10 -1.8,15 -0.4,4.9 -0.8,9.8 -1,14.7 -0.2,4.1 -0.5,8.4 0,12.6 -0.9,2.8 -1.3,5.7 -1.7,8.6 -0.5,3.8 -0.8,7.6 -1.4,11.4 -0.6,3.7 -1.4,7.3 -2.9,10.7 -1.4,3.1 -3.4,6 -5.8,8.5 -5.5,5.6 -12.5,8.8 -19.9,10.8 0.8,-0.8 1.6,-1.8 2.2,-2.7 1.6,-2.4 2.8,-5.6 2.4,-8.4 -0.1,-0.6 -1,-0.6 -1.1,0 -0.2,1.3 -0.4,2.7 -0.9,4 -0.4,1.3 -1,2.5 -1.8,3.6 -0.7,1.1 -1.6,2.1 -2.6,3 -0.4,0.3 -0.8,0.6 -1.1,0.9 0.4,-0.5 0.8,-1.1 1,-1.7 0.1,-0.3 0,-0.7 -0.3,-0.9 -0.3,-0.2 -0.7,-0.1 -0.9,0.2 -0.3,0.5 -0.7,1 -1.1,1.5 -0.2,0.2 -0.4,0.5 -0.6,0.7 -0.1,0.1 -0.2,0.2 -0.3,0.3 -0.1,0.1 -0.1,0.1 -0.2,0.2 0,0 0,0 -0.1,0.1 0,0 -0.1,0.1 0,0 -0.1,0.1 -0.2,0.2 -0.2,0.4 -5.7,1.1 -11.5,1.7 -17,2.2 -8.1,0.7 -16.4,1.2 -24.5,-0.3 -7.8,-1.4 -14.7,-4.9 -21.1,-9.5 -1.3,-0.9 -2.5,-1.9 -3.8,-2.8 -0.4,-0.8 -0.8,-1.7 -1.1,-2.6 -0.5,-1.2 -0.9,-2.4 -1.2,-3.6 -0.4,-1.3 -0.6,-2.6 -1.2,-3.8 -0.4,-0.9 -1.7,-0.6 -1.7,0.4 0.1,1.4 0.4,2.7 0.8,4 0.3,0.8 0.5,1.7 0.8,2.5 -0.6,-0.5 -1.2,-1.1 -1.8,-1.6 -2.6,-2.4 -5,-5.2 -6.3,-8.6 -2.8,-6.9 -1.6,-14.8 -0.8,-22 0.9,-8.1 1.8,-16.2 3.3,-24.1 1.5,-7.9 3.6,-15.6 6.3,-23.1 0.7,-1.9 1.4,-3.7 2.2,-5.5 0.9,-2.2 -2.3,-3.4 -3.3,-1.4 -7.8,15 -10.2,32.1 -12.1,48.6 -0.9,7.9 -2.4,16.2 -0.9,24.1 0.8,4 2.3,7.8 4.9,11 2.5,3.2 5.6,5.8 8.8,8.3 6.3,5.1 13.2,9.7 21,12.2 8.3,2.6 17.1,2.9 25.7,2.4 8.6,-0.5 17.3,-1.3 25.7,-3.1 7.7,-1.7 15.2,-4.6 21.5,-9.5 2.9,-2.2 5.5,-4.8 7.5,-7.8 2.2,-3.2 3.7,-6.8 4.7,-10.6 1.8,-6.7 2,-13.8 2.6,-20.7 0.9,1.8 2.2,3.5 4.1,4.6 1.6,1 3.5,1.7 5.4,1.7 0.5,0.1 0.9,0.2 1.4,0.2 0.4,0 0.9,-0.1 1.3,-0.2 0,0.1 0,0.2 0,0.3 2.9,-2.2 5.1,-5 6.8,-8.2 -1.9,11.3 -3.8,23.3 -1,34.6 1.7,6.8 5.2,12.9 10.2,17.5 0,0.6 3.4,2.1 3.7,2 1.6,0.3 3.2,0.5 4.8,0.9 2.5,0.5 4.9,1 7.4,1.4 4.7,0.9 9.6,2.2 14.3,1.8 2.4,-0.2 4.6,-0.9 6.8,-1.6 2.2,-0.6 4.5,-0.7 6.8,-0.5 2.4,0.2 4.8,0.6 7.2,0.6 2.2,0 4.3,-0.4 6.4,-1.2 4.2,-1.5 8.1,-4 12.2,-5.8 4.1,-1.9 8.4,-3.5 12.7,-4.8 8.7,-2.6 17.7,-3.7 26.7,-4 4.9,-0.2 10,-0.3 14.7,-2.3 3.4,-1.4 7.9,-5.1 6.9,-9.2 -0.1,-6.2 -1.4,-12.4 -3,-18.3 -1.7,-6.7 -3.7,-13.4 -5.6,-20.1 0.6,0.8 1.2,1.6 1.9,2.4 0,0.1 0.1,0.2 0.1,0.3 0.7,0.8 1.4,1.5 2.2,2.1 1.7,1.5 3.5,2.9 5.5,4 0,-0.1 0,-0.2 0,-0.3 0.2,0 0.5,0.1 0.7,0.1 1.7,0.1 3.2,-0.7 4.3,-1.9 0.1,-0.1 0.2,-0.3 0.3,-0.4 0,0.2 0,0.3 0,0.5 -0.4,5.1 -0.5,10.3 -0.3,15.4 0.3,9 1.8,18.4 7,26.1 6.2,9.3 16.5,14.2 27.2,16.9 0.7,0.5 1.4,0.8 2.4,0.9 0.3,0 0.6,0 0.8,-0.2 4.4,0.9 8.8,1.5 13,1.9 19.9,1.9 40.1,0.1 59.4,-5.2 4.7,-1.3 9.4,-2.8 13.9,-4.5 4.4,-1.7 9,-3.4 11.5,-7.6 2.5,-4.2 3.4,-9.4 3.6,-14.2 0.2,-5.5 -0.4,-10.6 -1.5,-15.6 z M 331.7,53.1 c 0.1,0.3 0.3,0.7 0.4,1 0,0.1 0.1,0.2 0.2,0.3 -0.1,0.3 -0.2,0.6 -0.2,0.9 -0.2,-0.5 -0.4,-1.1 -0.5,-1.6 0,-0.1 0.1,-0.4 0.1,-0.6 z m -0.6,2.9 c 0.2,0.5 0.3,1 0.5,1.5 -0.1,0.6 -0.3,1.2 -0.4,1.9 -0.2,-0.5 -0.3,-1 -0.5,-1.5 0.2,-0.6 0.3,-1.3 0.4,-1.9 z m -11.5,27 c 0,-0.3 0.1,-0.5 0.1,-0.8 4.7,-4.6 7.5,-10.6 9.3,-17 0.4,-1.6 0.8,-3.2 1.2,-4.8 0.1,0.1 0.1,0.3 0.2,0.4 0.1,0.4 0.2,0.7 0.4,1.1 -0.2,0 -0.5,0.1 -0.6,0.4 -1.6,7.4 -4.5,14.6 -9.2,20.5 -0.5,0.6 -1,1.3 -1.6,1.9 0.1,-0.5 0.1,-1.1 0.2,-1.7 z M 309.3,59.2 c 0,-0.4 0.1,-0.9 0.1,-1.3 0.5,-0.3 0.9,-0.6 1.3,-1 0.3,-0.3 0.7,-0.6 0.9,-1 0,1 0,2 -0.1,3.1 v 0 c -0.1,0.1 -0.2,0.2 -0.3,0.3 -0.2,0.2 -0.4,0.4 -0.6,0.6 -0.4,0.4 -0.7,0.7 -1.1,1 -0.1,0.1 -0.3,0.2 -0.4,0.4 0.1,-0.8 0.1,-1.4 0.2,-2.1 z m -0.2,3.4 c 0.4,-0.3 0.8,-0.6 1.2,-0.9 0.4,-0.3 0.8,-0.7 1.2,-1 0,0 0,0 0.1,-0.1 0,0.9 -0.1,1.7 -0.1,2.6 -0.2,3.3 -0.5,6.6 -0.7,9.9 0,0.1 0,0.3 0,0.4 -0.1,0.1 -0.1,0.2 -0.2,0.3 -0.4,0.5 -0.8,1 -1.3,1.4 -0.2,0.2 -0.5,0.4 -0.7,0.7 0,-4.4 0.2,-8.8 0.5,-13.3 z m -0.9,15 c 0.6,-0.3 1.2,-0.7 1.8,-1.2 0.2,-0.1 0.3,-0.3 0.5,-0.5 0,0.4 0,0.8 0,1.2 -0.2,0.3 -0.4,0.7 -0.7,1 -0.4,0.6 -0.9,1.2 -1.4,1.8 -0.1,0.1 -0.2,0.2 -0.3,0.3 0,-0.8 0.1,-1.7 0.1,-2.6 z m -0.2,5 c 0.6,-0.5 1.2,-1 1.8,-1.6 0.3,-0.3 0.6,-0.7 0.9,-1 0.1,1 0.3,2 0.6,2.9 0.5,1.6 1.8,2.5 3.5,2.5 0.4,0 0.7,-0.1 1,-0.2 0,0.1 0,0.1 0,0.2 0.1,-0.1 0.2,-0.1 0.3,-0.2 0.7,-0.5 1.4,-1 2.1,-1.5 -0.1,0.5 -0.1,1 -0.2,1.6 -0.1,0.5 -0.2,1.1 -0.3,1.6 -0.5,0.5 -1,1 -1.5,1.5 0,0.1 0,0.2 0,0.4 -0.6,0.5 -1.2,1.1 -1.9,1.5 -1.3,0.8 -2.8,0.8 -4,-0.1 -2.4,-1.8 -2.5,-4.9 -2.3,-7.6 z m 4.4,17.1 c -0.2,-0.2 -0.5,-0.2 -0.7,-0.1 -0.1,-0.1 -0.3,-0.2 -0.4,-0.3 -2.9,-2 -4,-5.3 -4.4,-8.6 -0.1,-1.3 -0.2,-2.6 -0.2,-3.9 0.4,2.2 1.5,4.1 3.6,5.1 1.5,0.7 3.1,0.5 4.5,-0.3 0.6,-0.4 1.3,-0.9 1.8,-1.4 0.1,-0.1 0.1,-0.1 0.2,-0.2 -0.1,0.2 -0.1,0.5 -0.2,0.7 -0.5,1.8 -1.1,3.5 -1.7,5.2 -0.6,1.4 -1.2,2.8 -1.7,4.3 -0.4,-0.2 -0.6,-0.4 -0.8,-0.5 z m 12,-11.4 c -1.3,4.4 -3.4,8.7 -6.4,12.1 -0.9,0.1 -1.9,0.3 -2.8,0.3 -0.2,0 -0.4,-0.1 -0.5,-0.1 1.6,-2.5 2.6,-5.4 3.3,-8.2 0,0 0,-0.1 0.1,-0.1 0.8,-1.7 1.6,-3.6 2.1,-5.4 0.1,-0.1 0.2,-0.2 0.3,-0.3 0.1,0 0.2,0 0.3,-0.1 2.5,-2.8 4.5,-6.1 6.2,-9.4 0.6,-1.3 1.2,-2.6 1.7,-4 -0.8,2.7 -1.5,5.4 -2.3,8.1 -0.4,1.5 -0.9,3 -1.2,4.5 -0.4,0.7 -0.6,1.6 -0.8,2.6 z m 140.5,-4 c 0.5,0.1 1,0 1.5,-0.1 -0.4,0.4 -0.9,0.7 -1.5,0.8 0,-0.2 0,-0.4 0,-0.7 z m -8.7,-11 c 0.2,0.4 0.4,0.8 0.7,1.2 -0.2,0.2 -0.3,0.4 -0.4,0.6 l -0.3,0.5 c -0.2,-0.4 -0.4,-0.8 -0.5,-1.2 0.1,-0.4 0.3,-0.7 0.5,-1.1 z m -1.1,-2.1 c 0.1,0.1 0.1,0.3 0.2,0.4 -0.2,0.2 -0.4,0.4 -0.5,0.7 0,-0.1 -0.1,-0.2 -0.1,-0.3 0.1,-0.3 0.2,-0.5 0.4,-0.8 z m -0.9,-1.9 c -0.1,0.2 -0.2,0.4 -0.3,0.5 -0.2,-0.6 -0.4,-1.3 -0.6,-1.9 -0.5,-1.5 -1,-3 -1.5,-4.5 0.7,1.9 1.5,3.9 2.4,5.9 z m -4,-11.1 c -0.1,-0.4 -0.3,-0.8 -0.4,-1.2 -1.5,-4.9 -2.9,-9.8 -4.3,-14.7 0.3,-0.2 0.5,-0.4 0.8,-0.6 1.1,5.5 2.3,11 3.9,16.5 z m -5.6,-20.1 c 0.3,-0.2 0.5,-0.4 0.8,-0.6 0.2,0.8 0.3,1.6 0.5,2.4 -0.2,0.1 -0.4,0.2 -0.6,0.3 -0.1,0.1 -0.2,0.2 -0.4,0.3 -0.2,-0.7 -0.4,-1.5 -0.6,-2.2 0.1,-0.1 0.2,-0.1 0.3,-0.2 z m -1.4,3.9 c -0.2,-0.9 -0.5,-1.8 -0.7,-2.7 0.1,-0.1 0.2,-0.1 0.4,-0.2 0.2,0.8 0.5,1.7 0.7,2.5 -0.1,0.2 -0.3,0.3 -0.4,0.4 z m 8.9,31.1 c -1.2,-4 -2.1,-8.1 -3.2,-12.2 -0.1,-0.3 -0.2,-0.5 -0.5,-0.6 -0.1,-0.4 -0.1,-0.8 -0.2,-1.1 -0.3,-1.3 -0.7,-2.5 -1.1,-3.8 -0.8,-2.5 -1.5,-4.9 -2.3,-7.4 v -0.1 c -0.4,-1.4 -0.7,-2.8 -1.1,-4.1 l 0.1,-0.1 c 0.1,-0.1 0.2,-0.2 0.3,-0.2 1.2,4.1 2.4,8.2 3.6,12.3 1.1,3.8 2.3,7.5 3.5,11.2 0.5,1.6 1,3.2 1.6,4.8 0,0 0,0 0,0.1 -0.2,0.4 -0.4,0.8 -0.7,1.2 z m 0.8,2.4 c -0.1,-0.2 -0.1,-0.3 -0.2,-0.5 0.3,-0.4 0.6,-0.8 0.8,-1.2 0,0.1 0.1,0.2 0.1,0.3 -0.2,0.4 -0.5,0.9 -0.7,1.4 z M 463.1,91 c -0.6,-0.3 -1.1,-0.7 -1.7,-1 -3.5,-3.5 -5.9,-7.7 -7.7,-12.3 0.3,-0.5 0.5,-1 0.8,-1.5 0.2,0.5 0.5,1.1 0.7,1.6 1.3,2.6 2.9,4.9 4.8,7.1 -0.1,0.3 0,0.6 0.4,0.7 0.2,0.1 0.3,0.1 0.5,0.2 0.7,0.7 1.3,1.4 2.1,2 0,0.1 0,0.2 0,0.2 0,0.3 0,0.7 0,1 0.1,0.3 0.2,0.7 0.2,1 0.1,0.5 0.3,0.9 0.5,1.4 -0.2,-0.2 -0.4,-0.3 -0.6,-0.4 z m 0.2,-5.9 c -0.5,-0.2 -0.9,-0.4 -1.4,-0.6 -1.8,-2 -3.4,-4.2 -4.7,-6.6 -0.2,-0.3 -0.3,-0.7 -0.5,-1 0.3,-0.4 0.5,-0.7 0.8,-1.1 0.1,0 0.1,-0.1 0.1,-0.1 1.3,2.1 2.7,4.2 4.3,6.1 0.2,0.9 1,1.7 1.9,2.1 0.3,0.4 0.7,0.7 1,1.1 -0.5,0.2 -1,0.2 -1.5,0.1 z m 6.6,2.6 c -0.3,1.6 -0.8,3.7 -2.2,4.6 -0.4,0.3 -0.9,0.4 -1.4,0.4 -0.3,-0.2 -0.6,-0.3 -0.9,-0.5 v 0 c 0,-0.1 0,-0.2 0,-0.4 -0.1,-0.2 -0.2,-0.4 -0.2,-0.6 -0.2,-0.6 -0.4,-1.2 -0.6,-1.8 -0.1,-0.2 -0.1,-0.4 -0.2,-0.6 0.2,0.2 0.5,0.4 0.7,0.6 0,-0.4 0,-0.7 -0.1,-1.1 0.4,0.1 0.7,0 1.1,0 1.1,-0.3 2,-1 2.8,-1.8 0.9,-1 1.5,-2.3 1.8,-3.6 -0.2,1.7 -0.5,3.2 -0.8,4.8 z m 0.8,-36.2 c 0,-0.7 0,-1.5 0,-2.3 0,-1.7 0.1,-3.4 0.1,-5 0.1,2.5 0,4.9 -0.1,7.3 z m 1,11.8 c 0,1 0,2 0,3.1 -0.1,-1.5 -0.3,-3 -0.5,-4.5 0.2,-1.5 0.4,-2.9 0.6,-4.4 -0.1,2 -0.1,3.9 -0.1,5.8 z"
   id="path15" />
						</g>
					</g>
				</g>
			</g>
		</g>
	</g>
	<path
   class="st0"
   d="m 471.7,310.6 c 0.9,1.1 2,2.3 3.2,3 0.2,0.3 0.4,0.5 0.7,0.6 0.8,0.5 2.2,0.4 2.8,-0.5 0.1,-0.2 0.2,-0.3 0.3,-0.5 v 0 c 0,0 0,-0.1 0.1,-0.1 2.9,-5.4 3.3,-11.5 3.4,-17.6 0.1,-7.2 0.3,-14.4 0.2,-21.6 -0.1,-4 0.2,-8.2 -0.6,-12.2 -0.2,-1.2 -1.8,-1.2 -2.1,0 -0.8,3.4 -0.7,6.9 -0.9,10.4 -0.2,3.4 -0.3,6.8 -0.5,10.2 -0.2,6.5 0,13.1 -0.6,19.6 -0.1,0.6 -0.1,1.1 -0.2,1.7 -0.4,0 -0.9,0.1 -1.4,0.4 -0.6,0.3 -1,0.7 -1.5,1.2 -0.2,0.2 -0.4,0.5 -0.5,0.7 -0.6,0.6 -1.2,1.1 -1.8,1.7 -1,0.7 -1.4,2 -0.6,3 z"
   id="path28" />
	<path
   class="st0"
   d="m 314.8,303.2 c 0,1.1 0.1,2.1 0.2,3.2 v 0.1 c -0.1,1.8 -0.2,3.6 0,5.4 0.4,3.8 2.8,7 6.2,8.5 0.6,0.3 1.2,0.2 1.7,0 0.2,1 1.3,1.7 2.3,1.5 1.2,-0.1 1.8,-1.2 1.8,-2.3 0,-2.6 0,-5.3 -0.1,-7.9 0.2,-1.9 0.2,-3.8 -0.1,-5.7 -0.2,-1.1 -1.2,-2 -2.4,-1.9 -0.1,0 -0.2,0 -0.3,0.1 -0.3,-0.5 -0.8,-0.9 -1.5,-1 -0.6,-0.1 -1.3,0.1 -1.7,0.5 -0.1,-0.5 -0.2,-1 -0.3,-1.6 -0.1,-0.7 -0.5,-1.3 -1.1,-1.6 0.3,-6.9 0.6,-13.9 0.9,-20.8 0.2,-4 0.4,-8 0.5,-12 0.1,-1.2 -0.6,-2.3 -1.8,-2.5 -1.2,-0.2 -2.3,0.7 -2.5,1.8 -1.7,11.9 -2.3,24.1 -1.8,36.2 z"
   id="path30" />
	<g
   id="Layer_1_00000034798009174235347600000012073234226449782414_">
		<g
   id="g44">
			<g
   id="g42">
				<g
   id="g40">
					<g
   id="g38">
						<path
   class="st0"
   d="m 343,259.5 c -0.3,1.4 -0.6,2.7 -0.8,4.1 0,0.1 -0.1,0.3 -0.1,0.4 -0.6,0.2 -1,0.8 -1.2,1.5 -2.6,9.5 -5.1,18.9 -7.7,28.4 -0.3,0.5 -0.6,1.1 -0.9,1.6 -0.5,0.9 -1,1.8 -1.6,2.6 -0.7,-0.3 -1.6,-0.1 -2.2,0.8 -0.2,0.1 -0.3,0.2 -0.4,0.4 -1.2,1.5 -2.7,2.8 -4.2,4 0.8,6.4 1.7,12.8 2.1,19.2 0.8,-0.8 1.6,-1.6 2.3,-2.5 3.1,-4 4.9,-8.8 6.2,-13.6 0.3,-1.1 0.6,-2.2 0.8,-3.3 0.4,-1.6 0.7,-3.2 1,-4.9 0.1,-0.4 0,-0.8 -0.2,-1.1 0.2,-0.6 0.3,-1.1 0.5,-1.7 0.7,-1.2 1.3,-2.4 2,-3.7 3.6,-7.3 4.8,-15.2 5.7,-23.2 0.4,-1.2 0.8,-2.3 1.1,-3.5 0.4,-1.4 0.7,-2.9 1,-4.3 0,-0.1 0,-0.2 0.1,-0.3 -1.1,-0.4 -2.3,-0.7 -3.5,-0.9 z"
   id="path32" />
						<path
   class="st0"
   d="m 473.6,303.1 c -0.7,-1 -1.4,-1.9 -2.1,-2.9 -1.6,-2.3 -3.2,-4.6 -4.7,-7 -0.7,-1.1 -1.4,-2.2 -2,-3.4 0,-0.1 0,-0.2 -0.1,-0.3 -1.5,-4.4 -3,-8.7 -4.4,-13.1 -0.3,-2.3 -0.7,-4.7 -1.1,-7 -0.1,-0.7 -0.6,-1.2 -1.4,-1.2 -0.1,0 -0.1,0 -0.2,0 -0.6,-1.9 -1.2,-3.9 -1.8,-5.8 0.4,-0.4 0.7,-1 0.6,-1.6 -0.2,-1.1 -0.4,-2.3 -0.7,-3.4 -1.6,-0.1 -3.2,-0.2 -4.8,-0.3 -0.4,0 -0.8,0 -1.2,0 -0.1,0.3 -0.2,0.6 -0.1,1 2.3,9.5 5,18.9 8.1,28.2 0.2,0.7 0.5,1.3 0.7,2 0.2,0.9 0.4,1.7 0.7,2.6 1.7,6.1 4.3,12.2 8.1,17.2 1.1,1.4 2.3,2.8 3.7,4 0.8,0.7 1.8,1.3 2.9,1.4 0,-0.6 -0.1,-1.2 -0.1,-1.8 -0.2,-2.8 -0.2,-5.7 -0.1,-8.6 z"
   id="path34" />
						<path
   class="st1"
   d="m 616.4,328 c -1.1,-5.2 -2.5,-10.3 -3.9,-15.4 -1.4,-5.1 -2.9,-10.3 -4.4,-15.4 -3,-10.1 -6.1,-20.1 -9.5,-30.1 -0.8,-2.5 -1.7,-4.9 -2.6,-7.3 -0.8,-2.2 -4.1,-0.8 -3.4,1.4 6.3,19.6 12.6,39.2 17.8,59.1 2.4,9.3 4.7,19.2 2.7,28.8 -0.8,4.1 -2.5,8 -6.3,10 -1.9,1 -3.9,1.7 -6,2.5 -1,0.6 -2.1,1 -3.2,1.2 0.1,-0.1 0.2,-0.3 0.4,-0.4 0.1,-0.2 0.3,-0.4 0.4,-0.6 0.1,-0.2 0.2,-0.4 0.2,-0.5 0.1,-0.3 0,-0.6 -0.2,-0.7 -0.3,-0.2 -0.6,-0.1 -0.8,0.1 -0.1,0.1 -0.3,0.3 -0.4,0.4 -0.1,0.1 -0.2,0.3 -0.3,0.4 -0.2,0.3 -0.5,0.5 -0.7,0.8 -0.1,0.1 -0.2,0.3 -0.3,0.4 l -0.1,0.1 c 0,0 -0.1,0.1 0,0 -0.1,0.1 -0.1,0.1 -0.2,0.2 -0.2,0.2 -0.4,0.3 -0.6,0.5 0.6,-0.8 1.2,-1.7 1.6,-2.7 1.4,-3.5 1.3,-7.8 0.7,-11.5 -0.1,-0.5 -0.9,-0.5 -0.9,0 -0.1,3.5 0.3,7.1 -1.1,10.4 -0.5,1.3 -1.3,2.5 -2.2,3.5 -0.5,0.5 -1.1,1 -1.7,1.4 -0.1,0 -0.1,0.1 -0.2,0.1 -0.5,0.2 -0.9,0.3 -1.4,0.4 -0.1,0.1 -0.2,0.2 -0.3,0.3 -16.9,4.9 -34.5,7.1 -52.1,6.3 -6.7,-0.3 -13.5,-0.9 -20.1,-2.2 -0.6,0 -1.2,-0.1 -1.7,-0.2 -0.7,-0.2 -1.4,-0.4 -2,-0.6 -1,-0.8 -1.8,-1.8 -2.6,-2.8 -1.7,-2.3 -2.8,-4.8 -4.3,-7.2 -0.4,-0.7 -1.5,0 -1.2,0.7 1.2,3 2.9,6.2 5.3,8.7 -0.1,0 -0.1,0 -0.2,0 -0.6,-0.1 -1.2,-0.3 -1.7,-0.6 -6.1,-2 -12.1,-5.1 -16.6,-9.7 -6,-6.1 -8.6,-14.3 -9.6,-22.7 -1.1,-9.7 -0.6,-19.6 0.1,-29.4 0.1,-1.2 0.2,-2.4 0.3,-3.6 0.1,-1.2 -0.1,-2.5 -0.1,-3.7 0,-0.1 0,-0.1 -0.1,-0.2 0.6,-7.8 0.3,-15.6 0.4,-23.5 0,-2.5 0.1,-5 0.3,-7.4 0.2,-2.6 0.5,-5.1 0.5,-7.7 0,-1 -1.7,-1.2 -2,-0.3 -0.4,1.4 -0.7,2.8 -1,4.3 0,-1.9 -0.1,-3.8 -0.4,-5.7 0,-0.3 -0.3,-0.5 -0.6,-0.4 0,-0.5 0,-1 -0.1,-1.4 -0.2,-0.8 -1.4,-1.1 -1.7,-0.2 -0.6,1.6 -0.4,3.5 -0.5,5.2 -0.1,1.7 -0.2,3.5 -0.3,5.2 -0.2,3.5 -0.4,7 -0.5,10.6 -0.1,3.6 -0.3,7.2 -0.2,10.8 0.1,3.3 0.6,6.7 -0.3,10 -0.3,1.2 -0.7,2.9 -1.9,3.7 -0.3,0.2 -0.7,0.3 -1.1,0.3 -4.6,-5.2 -7.8,-11.5 -10.2,-18.1 -3,-8.2 -4.7,-16.9 -6.5,-25.4 0,-0.1 0,-0.2 -0.1,-0.3 -1.9,-0.2 -3.8,-0.3 -5.7,-0.4 -0.1,0 -0.1,0 -0.2,0 l 0.3,0.9 c -0.1,0.1 -0.2,0.1 -0.4,0.2 -0.1,-0.4 -0.2,-0.8 -0.3,-1.2 -1.3,0 -2.5,0 -3.7,0.1 1.3,5 2.7,10 4.1,15 3.3,12.2 6.7,24.3 10.1,36.4 2,7.2 4.4,14.4 6.1,21.7 -0.4,0.8 -0.9,1.5 -1.7,2 -1.9,1.4 -4.5,1.1 -6.6,0.5 -4.7,-1.3 -9.4,-3.6 -13.6,-6 -2.1,-1.2 -4.1,-2.4 -6.6,-2.3 -2.6,0.1 -5.1,0.8 -7.7,0.9 -5.2,0.2 -10.3,-0.5 -15.4,-1.2 -5.2,-0.7 -10.4,-1.3 -15.6,-1 -5.1,0.2 -10.3,1 -15.3,2 -2.4,0.5 -4.7,1.1 -6.9,2 -2.3,0.9 -4.3,2.3 -6.4,3.6 -4,2.8 -8.4,5.1 -12.9,7 -2.7,1.1 -5.2,1.5 -8.1,0.8 -2.6,-0.6 -4.9,-1 -7.5,-0.2 -3.4,1.1 -6.1,4 -7.9,7.2 -0.7,-5.5 -0.5,-11.2 0.1,-16.6 2.5,-23 8.5,-45.5 14,-67.9 -0.1,0 -0.1,0 -0.2,0 -1.4,-0.4 -2.9,-0.8 -4.3,-1.1 -0.3,1.5 -0.7,3 -1,4.4 -0.6,2.5 -1.2,5.1 -1.8,7.6 -0.1,-0.2 -0.1,-0.3 -0.2,-0.5 -0.1,-0.4 -0.2,-0.8 -0.4,-1.1 v -0.1 c 0.8,-3.5 1.5,-7.1 2.3,-10.6 -0.8,-0.2 -1.6,-0.3 -2.3,-0.5 -1.1,5.4 -2.3,10.7 -3.5,16 0,0.1 -0.1,0.3 -0.1,0.4 -0.2,0.1 -0.3,0.3 -0.3,0.6 0,0.1 0.1,0.2 0.1,0.4 -1.8,7.8 -3.6,16.2 -8.9,22.4 -1.2,1.4 -2.6,2.6 -4,3.7 -0.1,0 -0.3,0 -0.4,0.1 -0.4,0.1 -0.9,0.2 -1.1,-0.1 -0.4,-0.6 -0.4,-1.8 -0.4,-2.4 -0.1,-0.9 -0.2,-1.9 -0.2,-2.8 -0.2,-3.7 0.2,-7.4 0.5,-11.1 0.3,-3.8 0.4,-7.5 0.4,-11.3 0,-3.8 0.1,-7.7 -0.5,-11.4 -0.2,-1.3 -2.4,-1.5 -2.5,0 -0.1,3.3 0.2,6.7 0.3,10 v 0.4 c -0.2,0.2 -0.4,0.3 -0.5,0.5 -0.2,0.2 -0.3,0.4 -0.5,0.6 -0.3,0.4 -0.6,0.8 -1,1.1 l -0.1,0.1 c 0.1,-1.4 0.2,-2.7 0.2,-4.1 0.1,0 0.3,0 0.4,-0.1 0.1,0 0.1,-0.1 0.2,-0.1 0.1,-0.1 0.2,-0.2 0.3,-0.4 0.1,-0.2 0.2,-0.4 0.2,-0.5 0,-0.1 0.1,-0.2 0.1,-0.3 0,-0.1 0,-0.2 -0.1,-0.3 0,-0.1 -0.1,-0.2 -0.2,-0.3 -0.1,-0.1 -0.2,-0.1 -0.3,-0.2 -0.1,0 -0.1,0 -0.2,-0.1 h -0.3 c 0,-1 0.1,-2 0.1,-3 0,-0.8 -1.3,-0.8 -1.4,0 0,0.5 -0.1,1 -0.1,1.4 -0.6,-0.6 -1.7,-0.4 -1.9,0.6 -0.9,4.9 -1.4,10 -1.8,15 -0.4,4.9 -0.8,9.8 -1,14.7 -0.2,4.1 -0.5,8.4 0,12.6 -0.9,2.8 -1.3,5.7 -1.7,8.6 -0.5,3.8 -0.8,7.6 -1.4,11.4 -0.6,3.7 -1.4,7.3 -2.9,10.7 -1.4,3.1 -3.4,6 -5.8,8.5 -5.5,5.6 -12.5,8.8 -19.9,10.8 0.8,-0.8 1.6,-1.8 2.2,-2.7 1.6,-2.4 2.8,-5.6 2.4,-8.4 -0.1,-0.6 -1,-0.6 -1.1,0 -0.2,1.3 -0.4,2.7 -0.9,4 -0.4,1.3 -1,2.5 -1.8,3.6 -0.7,1.1 -1.6,2.1 -2.6,3 -0.4,0.3 -0.8,0.6 -1.1,0.9 0.4,-0.5 0.8,-1.1 1,-1.7 0.1,-0.3 0,-0.7 -0.3,-0.9 -0.3,-0.2 -0.7,-0.1 -0.9,0.2 -0.3,0.5 -0.7,1 -1.1,1.5 -0.2,0.2 -0.4,0.5 -0.6,0.7 -0.1,0.1 -0.2,0.2 -0.3,0.3 -0.1,0.1 -0.1,0.1 -0.2,0.2 0,0 0,0 -0.1,0.1 -0.1,0.1 -0.2,0.2 -0.2,0.4 -5.7,1.1 -11.5,1.7 -17,2.2 -8.1,0.7 -16.4,1.2 -24.5,-0.3 -7.8,-1.4 -14.7,-4.9 -21.1,-9.5 -1.3,-0.9 -2.5,-1.9 -3.8,-2.8 -0.4,-0.8 -0.8,-1.7 -1.1,-2.6 -0.5,-1.2 -0.9,-2.4 -1.2,-3.6 -0.4,-1.3 -0.6,-2.6 -1.2,-3.8 -0.4,-0.9 -1.7,-0.6 -1.7,0.4 0.1,1.4 0.4,2.7 0.8,4 0.3,0.8 0.5,1.7 0.8,2.5 -0.6,-0.5 -1.2,-1.1 -1.8,-1.6 -2.6,-2.4 -5,-5.2 -6.3,-8.6 -2.8,-6.9 -1.6,-14.8 -0.8,-22 0.9,-8.1 1.8,-16.2 3.3,-24.1 1.5,-7.9 3.6,-15.6 6.3,-23.1 0.7,-1.9 1.4,-3.7 2.2,-5.5 0.9,-2.2 -2.3,-3.4 -3.3,-1.4 -7.8,15 -10.2,32.1 -12.1,48.6 -0.9,7.9 -2.4,16.2 -0.9,24.1 0.8,4 2.3,7.8 4.9,11 2.5,3.2 5.6,5.8 8.8,8.3 6.3,5.1 13.2,9.7 21,12.2 8.3,2.6 17.1,2.9 25.7,2.4 8.6,-0.5 17.3,-1.3 25.7,-3.1 7.7,-1.7 15.2,-4.6 21.5,-9.5 2.9,-2.2 5.5,-4.8 7.5,-7.8 2.2,-3.2 3.7,-6.8 4.7,-10.6 1.8,-6.7 2,-13.8 2.6,-20.7 0.9,1.8 2.2,3.5 4.1,4.6 1.6,1 3.5,1.7 5.4,1.7 0.5,0.1 0.9,0.2 1.4,0.2 0.4,0 0.9,-0.1 1.3,-0.2 v 0.3 c 2.9,-2.2 5.1,-5 6.8,-8.2 -1.9,11.3 -3.8,23.3 -1,34.6 0.1,0.6 0.3,1.2 0.5,1.7 0.2,-0.2 0.3,-0.3 0.5,-0.5 0.2,0.3 0.4,0.5 0.7,0.6 9,3.5 18.8,3.5 28.2,1.9 2.4,-0.4 4.9,-1 7.3,-1.6 2.2,-0.6 4.8,-1.9 7,-1.1 4.6,1.5 9.1,3.1 13.8,4.2 9.3,2.3 19.1,3.2 28.5,0.8 4.7,-1.2 9,-3.7 13.6,-5.1 4.7,-1.5 9.6,-2 14.3,-3.3 4.8,-1.3 9.3,-3.4 13.4,-6.1 4,-2.6 8,-6 10.4,-10.1 0.2,-0.4 0.2,-0.7 -0.1,-1.1 0.3,-0.8 0.4,-1.5 0.4,-2.4 0,-0.8 -0.3,-1.6 -0.5,-2.4 -0.2,-0.5 -0.4,-1.1 -0.8,-1.6 -1.5,-5.9 -3.3,-11.7 -4.9,-17.6 0.6,0.8 1.2,1.6 1.9,2.4 0,0.1 0.1,0.2 0.1,0.3 0.7,0.8 1.4,1.5 2.2,2.1 1.7,1.5 3.5,2.9 5.5,4 v -0.3 c 0.2,0 0.5,0.1 0.7,0.1 1.7,0.1 3.2,-0.7 4.3,-1.9 0.1,-0.1 0.2,-0.3 0.3,-0.4 v 0.5 c -0.4,5.1 -0.5,10.3 -0.3,15.4 0.1,2 0.2,19.2 7,26.1 7.8,8 16.5,14.2 27.2,16.9 0.7,0.5 1.4,0.8 2.4,0.9 0.3,0 0.6,0 0.8,-0.2 4.4,0.9 8.8,1.5 13,1.9 19.9,1.9 40.1,0.1 59.4,-5.2 4.7,-1.3 9.4,-2.8 13.9,-4.5 4.4,-1.7 9,-3.4 11.5,-7.6 2.5,-4.2 3.4,-9.4 3.6,-14.2 0.1,-5.4 -0.5,-10.5 -1.6,-15.5 z M 340.3,273.3 c 0.1,0.3 0.3,0.7 0.4,1 0,0.1 0.1,0.2 0.2,0.3 -0.1,0.3 -0.2,0.6 -0.2,0.9 -0.2,-0.5 -0.4,-1.1 -0.5,-1.6 0,-0.1 0.1,-0.4 0.1,-0.6 z m -0.6,2.9 c 0.2,0.5 0.3,1 0.5,1.5 -0.1,0.6 -0.3,1.2 -0.4,1.9 -0.2,-0.5 -0.3,-1 -0.5,-1.5 0.2,-0.6 0.3,-1.3 0.4,-1.9 z m -11.5,27 c 0,-0.3 0.1,-0.5 0.1,-0.8 4.7,-4.6 7.5,-10.6 9.3,-17 0.4,-1.6 0.8,-3.2 1.2,-4.8 0.1,0.1 0.1,0.3 0.2,0.4 0.1,0.4 0.2,0.7 0.4,1.1 -0.2,0 -0.5,0.1 -0.6,0.4 -1.6,7.4 -4.5,14.6 -9.2,20.5 -0.5,0.6 -1,1.3 -1.6,1.9 0.1,-0.5 0.1,-1.1 0.2,-1.7 z m -10.3,-23.8 c 0,-0.4 0.1,-0.9 0.1,-1.3 0.5,-0.3 0.9,-0.6 1.3,-1 0.3,-0.3 0.7,-0.6 0.9,-1 0,1 0,2 -0.1,3.1 l -0.9,0.9 c -0.4,0.4 -0.7,0.7 -1.1,1 -0.1,0.1 -0.3,0.2 -0.4,0.4 0.1,-0.8 0.1,-1.4 0.2,-2.1 z m -0.2,3.4 c 0.4,-0.3 0.8,-0.6 1.2,-0.9 0.4,-0.3 0.8,-0.7 1.2,-1 0,0 0,0 0.1,-0.1 0,0.9 -0.1,1.7 -0.1,2.6 -0.2,3.3 -0.5,6.6 -0.7,9.9 v 0.4 c -0.1,0.1 -0.1,0.2 -0.2,0.3 -0.4,0.5 -0.8,1 -1.3,1.4 -0.2,0.2 -0.5,0.4 -0.7,0.7 0,-4.4 0.2,-8.8 0.5,-13.3 z m -0.9,15 c 0.6,-0.3 1.2,-0.7 1.8,-1.2 0.2,-0.1 0.3,-0.3 0.5,-0.5 v 1.2 c -0.2,0.3 -0.4,0.7 -0.7,1 -0.4,0.6 -0.9,1.2 -1.4,1.8 l -0.3,0.3 c 0,-0.8 0.1,-1.7 0.1,-2.6 z m -0.2,5 c 0.6,-0.5 1.2,-1 1.8,-1.6 0.3,-0.3 0.6,-0.7 0.9,-1 0.1,1 0.3,2 0.6,2.9 0.5,1.6 1.8,2.5 3.5,2.5 0.4,0 0.7,-0.1 1,-0.2 0,0.1 0,0.1 0,0.2 0.1,-0.1 0.2,-0.1 0.3,-0.2 l 2.1,-1.5 c -0.1,0.5 -0.1,1 -0.2,1.6 -0.1,0.5 -0.2,1.1 -0.3,1.6 l -1.5,1.5 v 0.4 c -0.6,0.5 -1.2,1.1 -1.9,1.5 -1.3,0.8 -2.8,0.8 -4,-0.1 -2.4,-1.8 -2.5,-4.9 -2.3,-7.6 z m 4.4,17.1 c -0.2,-0.2 -0.5,-0.2 -0.7,-0.1 -0.1,-0.1 -0.3,-0.2 -0.4,-0.3 -2.9,-2 -4,-5.3 -4.4,-8.6 -0.1,-1.3 -0.2,-2.6 -0.2,-3.9 0.4,2.2 1.5,4.1 3.6,5.1 1.5,0.7 3.1,0.5 4.5,-0.3 0.6,-0.4 1.3,-0.9 1.8,-1.4 0.1,-0.1 0.1,-0.1 0.2,-0.2 -0.1,0.2 -0.1,0.5 -0.2,0.7 -0.5,1.8 -1.1,3.5 -1.7,5.2 -0.6,1.4 -1.2,2.8 -1.7,4.3 -0.4,-0.2 -0.6,-0.4 -0.8,-0.5 z m 12.8,-14 c -0.4,0.7 -0.6,1.6 -0.8,2.6 -1.3,4.4 -3.4,8.7 -6.4,12.1 -0.9,0.1 -1.9,0.3 -2.8,0.3 -0.2,0 -0.4,-0.1 -0.5,-0.1 1.6,-2.5 2.6,-5.4 3.3,-8.2 0,0 0,-0.1 0.1,-0.1 0.8,-1.7 1.6,-3.6 2.1,-5.4 0.1,-0.1 0.2,-0.2 0.3,-0.3 0.1,0 0.2,0 0.3,-0.1 2.5,-2.8 4.5,-6.1 6.2,-9.4 0.6,-1.3 1.2,-2.6 1.7,-4 -0.8,2.7 -1.5,5.4 -2.3,8.1 -0.4,1.5 -0.9,3 -1.2,4.5 z m 125.1,33.2 c -3.5,2.4 -7.3,4.3 -11.3,5.6 -4.4,1.5 -9.1,2.1 -13.6,3.2 -2.3,0.6 -4.6,1.3 -6.7,2.2 -2.2,0.9 -4.3,2 -6.6,2.8 -8.8,3.1 -18.5,2.6 -27.5,0.6 -4.6,-1 -9,-2.3 -13.5,-3.9 -2.4,-0.8 -4.4,-1.6 -7,-1 -2.2,0.6 -4.5,1.2 -6.7,1.7 -9.6,2.2 -19.8,3 -29.2,-0.1 0.1,-0.2 0.3,-0.3 0.3,-0.6 1.2,-3.5 3.5,-7.5 7.4,-8.2 2.4,-0.4 4.7,0.7 7.1,0.9 2.5,0.3 5,-0.3 7.3,-1.3 4.5,-1.8 9,-4.2 13,-7 2.1,-1.5 4.2,-3 6.6,-4 2.3,-0.9 4.7,-1.5 7.1,-1.9 5.2,-1 10.6,-1.8 15.9,-1.9 5.3,-0.1 10.5,0.7 15.7,1.3 5.2,0.7 10.4,1.2 15.7,0.7 2.5,-0.2 5.3,-1.3 7.7,-0.4 2.3,0.9 4.5,2.4 6.7,3.5 2.5,1.3 5.1,2.4 7.7,3.4 2.3,0.8 4.7,1.6 7.2,1.5 -1,1.2 -2.1,2 -3.3,2.9 z m 14.6,-34.6 c 0.5,0.1 1,0 1.5,-0.1 -0.4,0.4 -0.9,0.7 -1.5,0.8 z m -8.7,-11 c 0.2,0.4 0.4,0.8 0.7,1.2 -0.2,0.2 -0.3,0.4 -0.4,0.6 l -0.3,0.5 c -0.2,-0.4 -0.4,-0.8 -0.5,-1.2 0.1,-0.4 0.3,-0.7 0.5,-1.1 z m -1.1,-2.1 c 0.1,0.1 0.1,0.3 0.2,0.4 -0.2,0.2 -0.4,0.4 -0.5,0.7 0,-0.1 -0.1,-0.2 -0.1,-0.3 0.1,-0.3 0.2,-0.5 0.4,-0.8 z m -0.9,-1.9 c -0.1,0.2 -0.2,0.4 -0.3,0.5 -0.2,-0.6 -0.4,-1.3 -0.6,-1.9 l -1.5,-4.5 c 0.7,1.9 1.5,3.9 2.4,5.9 z m -4,-11.1 c -0.1,-0.4 -0.3,-0.8 -0.4,-1.2 -1.5,-4.9 -2.9,-9.8 -4.3,-14.7 0.3,-0.2 0.5,-0.4 0.8,-0.6 1.1,5.5 2.3,11 3.9,16.5 z m -5.6,-20.1 c 0.3,-0.2 0.5,-0.4 0.8,-0.6 0.2,0.8 0.3,1.6 0.5,2.4 -0.2,0.1 -0.4,0.2 -0.6,0.3 -0.1,0.1 -0.2,0.2 -0.4,0.3 -0.2,-0.7 -0.4,-1.5 -0.6,-2.2 0.1,-0.1 0.2,-0.1 0.3,-0.2 z m -1.4,3.9 c -0.2,-0.9 -0.5,-1.8 -0.7,-2.7 0.1,-0.1 0.2,-0.1 0.4,-0.2 0.2,0.8 0.5,1.7 0.7,2.5 -0.1,0.2 -0.3,0.3 -0.4,0.4 z m 8.9,31.1 c -1.2,-4 -2.1,-8.1 -3.2,-12.2 -0.1,-0.3 -0.2,-0.5 -0.5,-0.6 -0.1,-0.4 -0.1,-0.8 -0.2,-1.1 -0.3,-1.3 -0.7,-2.5 -1.1,-3.8 -0.8,-2.5 -1.5,-4.9 -2.3,-7.4 v -0.1 c -0.4,-1.4 -0.7,-2.8 -1.1,-4.1 l 0.1,-0.1 c 0.1,-0.1 0.2,-0.2 0.3,-0.2 1.2,4.1 2.4,8.2 3.6,12.3 1.1,3.8 2.3,7.5 3.5,11.2 0.5,1.6 1,3.2 1.6,4.8 0,0 0,0 0,0.1 -0.2,0.4 -0.4,0.8 -0.7,1.2 z m 0.8,2.4 c -0.1,-0.2 -0.1,-0.3 -0.2,-0.5 0.3,-0.4 0.6,-0.8 0.8,-1.2 0,0.1 0.1,0.2 0.1,0.3 -0.2,0.4 -0.5,0.9 -0.7,1.4 z m 10.2,15.5 c -0.6,-0.3 -1.1,-0.7 -1.7,-1 -3.5,-3.5 -5.9,-7.7 -7.7,-12.3 0.3,-0.5 0.5,-1 0.8,-1.5 0.2,0.5 0.5,1.1 0.7,1.6 1.3,2.6 2.9,4.9 4.8,7.1 -0.1,0.3 0,0.6 0.4,0.7 0.2,0.1 0.3,0.1 0.5,0.2 0.7,0.7 1.3,1.4 2.1,2 0,0.1 0,0.2 0,0.2 v 1 c 0.1,0.3 0.2,0.7 0.2,1 0.1,0.5 0.3,0.9 0.5,1.4 -0.2,-0.2 -0.4,-0.3 -0.6,-0.4 z m 0.2,-5.9 c -0.5,-0.2 -0.9,-0.4 -1.4,-0.6 -1.8,-2 -3.4,-4.2 -4.7,-6.6 -0.2,-0.3 -0.3,-0.7 -0.5,-1 0.3,-0.4 0.5,-0.7 0.8,-1.1 0.1,0 0.1,-0.1 0.1,-0.1 1.3,2.1 2.7,4.2 4.3,6.1 0.2,0.9 1,1.7 1.9,2.1 0.3,0.4 0.7,0.7 1,1.1 -0.5,0.2 -1,0.2 -1.5,0.1 z m 6.6,2.6 c -0.3,1.6 -0.8,3.7 -2.2,4.6 -0.4,0.3 -0.9,0.4 -1.4,0.4 -0.3,-0.2 -0.6,-0.3 -0.9,-0.5 V 312 c -0.1,-0.2 -0.2,-0.4 -0.2,-0.6 -0.2,-0.6 -0.4,-1.2 -0.6,-1.8 -0.1,-0.2 -0.1,-0.4 -0.2,-0.6 0.2,0.2 0.5,0.4 0.7,0.6 0,-0.4 0,-0.7 -0.1,-1.1 0.4,0.1 0.7,0 1.1,0 1.1,-0.3 2,-1 2.8,-1.8 0.9,-1 1.5,-2.3 1.8,-3.6 -0.2,1.7 -0.5,3.2 -0.8,4.8 z m 0.8,-36.2 v -2.3 c 0,-1.7 0.1,-3.4 0.1,-5 0.1,2.5 0,4.9 -0.1,7.3 z m 1,11.8 v 3.1 c -0.1,-1.5 -0.3,-3 -0.5,-4.5 0.2,-1.5 0.4,-2.9 0.6,-4.4 -0.1,2 -0.1,3.9 -0.1,5.8 z"
   id="path36" />
					</g>
				</g>
			</g>
		</g>
	</g>
	<path
   class="st1"
   d="m 449.5,337 c 0,-0.2 -0.1,-0.4 -0.3,-0.3 -7.4,0.4 -14.5,-3 -21.8,-3.9 -3.7,-0.5 -7.4,-0.5 -11.1,-0.6 -3.9,-0.1 -7.9,-0.3 -11.8,-0.4 -6.6,-0.2 -13.3,-0.6 -19.9,0.6 -3.1,0.6 -6.2,1.4 -9,2.8 -2.9,1.4 -5.4,3.3 -8,5.1 -2.8,1.9 -5.7,3.5 -9.1,3.9 -3,0.3 -6.3,0.4 -8.3,3 -0.6,0.8 -0.1,1.8 0.8,2 6.2,1.4 12.4,-0.6 18.4,-2.2 3.2,-0.9 6.4,-1.7 9.7,-1.8 3.6,-0.2 7.1,0.3 10.6,0.9 7,1.2 14,2.4 21.1,3.1 3.4,0.3 6.8,0.5 10.2,0 3.3,-0.5 6.5,-1.2 9.7,-2 6.7,-1.6 13.5,-3.6 19,-7.8 0.7,-0.8 0.4,-1.9 -0.2,-2.4 z m -27.3,9.2 c -3.4,0.6 -6.8,0.7 -10.2,0.4 -6.9,-0.6 -13.8,-1.7 -20.6,-2.9 -6.6,-1.2 -13,-1.7 -19.6,-0.1 -5.6,1.4 -11.3,3.7 -17.1,3.5 1.5,-0.4 3.2,-0.4 4.7,-0.5 2.9,-0.4 5.5,-1.6 8,-3.2 2.5,-1.6 4.9,-3.6 7.5,-5.1 2.8,-1.7 6,-2.8 9.2,-3.4 6.5,-1.4 13.1,-1.3 19.7,-1 7.4,0.3 14.9,0.2 22.3,0.9 7.2,0.7 14,3.5 21.2,2.9 -4.7,3.4 -10.2,5.2 -15.7,6.6 -3.2,0.6 -6.3,1.3 -9.4,1.9 z"
   id="path47" />
	<path
   class="st0"
   d="m 422.2,346.2 c -3.4,0.6 -6.8,0.7 -10.2,0.4 -6.9,-0.6 -13.8,-1.7 -20.6,-2.9 -6.6,-1.2 -13,-1.7 -19.6,-0.1 -5.6,1.4 -11.3,3.7 -17.1,3.5 1.5,-0.4 3.2,-0.4 4.7,-0.5 2.9,-0.4 5.5,-1.6 8,-3.2 2.5,-1.6 4.9,-3.6 7.5,-5.1 2.8,-1.7 6,-2.8 9.2,-3.4 6.5,-1.4 13.1,-1.3 19.7,-1 7.4,0.3 14.9,0.2 22.3,0.9 7.2,0.7 14,3.5 21.2,2.9 -4.7,3.4 -10.2,5.2 -15.7,6.6 -3.2,0.6 -6.3,1.3 -9.4,1.9 z"
   id="path49" />
	<path
   class="st0"
   d="m 471.7,520.8 c 0.9,1.1 2,2.3 3.2,3 0.2,0.3 0.4,0.5 0.7,0.6 0.8,0.5 2.2,0.4 2.8,-0.5 0.1,-0.2 0.2,-0.3 0.3,-0.5 v 0 c 0,0 0,-0.1 0.1,-0.1 2.9,-5.4 3.3,-11.5 3.4,-17.6 0.1,-7.2 0.3,-14.4 0.2,-21.6 -0.1,-4 0.2,-8.2 -0.6,-12.2 -0.2,-1.2 -1.8,-1.2 -2.1,0 -0.8,3.4 -0.7,6.9 -0.9,10.4 -0.2,3.4 -0.3,6.8 -0.5,10.2 -0.2,6.5 0,13.1 -0.6,19.6 -0.1,0.6 -0.1,1.1 -0.2,1.7 -0.4,0 -0.9,0.1 -1.4,0.4 -0.6,0.3 -1,0.7 -1.5,1.2 -0.2,0.2 -0.4,0.5 -0.5,0.7 -0.6,0.6 -1.2,1.1 -1.8,1.7 -1,0.7 -1.4,2 -0.6,3 z"
   id="path51" />
	<path
   class="st0"
   d="m 314.8,513.4 c 0,1.1 0.1,2.1 0.2,3.2 v 0.1 c -0.1,1.8 -0.2,3.6 0,5.4 0.4,3.8 2.8,7 6.2,8.5 0.6,0.3 1.2,0.2 1.7,0 0.2,1 1.3,1.7 2.3,1.5 1.2,-0.1 1.8,-1.2 1.8,-2.3 0,-2.6 0,-5.3 -0.1,-7.9 0.2,-1.9 0.2,-3.8 -0.1,-5.7 -0.2,-1.1 -1.2,-2 -2.4,-1.9 -0.1,0 -0.2,0 -0.3,0.1 -0.3,-0.5 -0.8,-0.9 -1.5,-1 -0.6,-0.1 -1.3,0.1 -1.7,0.5 -0.1,-0.5 -0.2,-1 -0.3,-1.6 -0.1,-0.7 -0.5,-1.3 -1.1,-1.6 0.3,-6.9 0.6,-13.9 0.9,-20.8 0.2,-4 0.4,-8 0.5,-12 0.1,-1.2 -0.6,-2.3 -1.8,-2.5 -1.2,-0.2 -2.3,0.7 -2.5,1.8 -1.7,11.9 -2.3,24.1 -1.8,36.2 z"
   id="path53" />
	<g
   id="Layer_1_00000080921804276617489990000004684593396674337417_">
		<g
   id="g69">
			<g
   id="g67">
				<g
   id="g65">
					<g
   id="g63">
						<path
   class="st0"
   d="m 343,469.6 c -0.3,1.4 -0.6,2.7 -0.8,4.1 0,0.1 -0.1,0.3 -0.1,0.4 -0.6,0.2 -1,0.8 -1.2,1.5 -2.6,9.5 -5.1,18.9 -7.7,28.4 -0.3,0.5 -0.6,1.1 -0.9,1.6 -0.5,0.9 -1,1.8 -1.6,2.6 -0.7,-0.3 -1.6,-0.1 -2.2,0.8 -0.2,0.1 -0.3,0.2 -0.4,0.4 -1.2,1.5 -2.7,2.8 -4.2,4 0.8,6.4 1.7,12.8 2.1,19.2 0.8,-0.8 1.6,-1.6 2.3,-2.5 3.1,-4 4.9,-8.8 6.2,-13.6 0.3,-1.1 0.6,-2.2 0.8,-3.3 0.4,-1.6 0.7,-3.2 1,-4.9 0.1,-0.4 0,-0.8 -0.2,-1.1 0.2,-0.6 0.3,-1.1 0.5,-1.7 0.7,-1.2 1.3,-2.4 2,-3.7 3.6,-7.3 4.8,-15.2 5.7,-23.2 0.4,-1.2 0.8,-2.3 1.1,-3.5 0.4,-1.4 0.7,-2.9 1,-4.3 0,-0.1 0,-0.2 0.1,-0.3 -1.1,-0.4 -2.3,-0.7 -3.5,-0.9 z"
   id="path55" />
						<path
   class="st0"
   d="m 473.6,513.2 c -0.7,-1 -1.4,-1.9 -2.1,-2.9 -1.6,-2.3 -3.2,-4.6 -4.7,-7 -0.7,-1.1 -1.4,-2.2 -2,-3.4 0,-0.1 0,-0.2 -0.1,-0.3 -1.5,-4.4 -3,-8.7 -4.4,-13.1 -0.3,-2.3 -0.7,-4.7 -1.1,-7 -0.1,-0.7 -0.6,-1.2 -1.4,-1.2 -0.1,0 -0.1,0 -0.2,0 -0.6,-1.9 -1.2,-3.9 -1.8,-5.8 0.4,-0.4 0.7,-1 0.6,-1.6 -0.2,-1.1 -0.4,-2.3 -0.7,-3.4 -1.6,-0.1 -3.2,-0.2 -4.8,-0.3 -0.4,0 -0.8,0 -1.2,0 -0.1,0.3 -0.2,0.6 -0.1,1 2.3,9.5 5,18.9 8.1,28.2 0.2,0.7 0.5,1.3 0.7,2 0.2,0.9 0.4,1.7 0.7,2.6 1.7,6.1 4.3,12.2 8.1,17.2 1.1,1.4 2.3,2.8 3.7,4 0.8,0.7 1.8,1.3 2.9,1.4 0,-0.6 -0.1,-1.2 -0.1,-1.8 -0.2,-2.8 -0.2,-5.7 -0.1,-8.6 z"
   id="path57" />
						<path
   class="st1"
   d="m 348.7,471.5 c -1.4,-0.4 -2.9,-0.8 -4.3,-1.1 -0.3,1.5 -0.7,3 -1,4.4 -0.6,2.5 -1.2,5.1 -1.8,7.6 -0.1,-0.2 -0.1,-0.3 -0.2,-0.5 -0.1,-0.4 -0.2,-0.8 -0.4,-1.1 v -0.1 c 0.8,-3.5 1.5,-7.1 2.3,-10.6 -0.8,-0.2 -1.6,-0.3 -2.3,-0.5 -1.1,5.4 -2.3,10.7 -3.5,16 0,0.1 -0.1,0.3 -0.1,0.4 -0.2,0.1 -0.3,0.3 -0.3,0.6 0,0.1 0.1,0.2 0.1,0.4 -1.8,7.8 -3.6,16.2 -8.9,22.4 -1.2,1.4 -2.6,2.6 -4,3.7 -0.1,0 -0.3,0 -0.4,0.1 -0.4,0.1 -0.9,0.2 -1.1,-0.1 -0.4,-0.6 -0.4,-1.8 -0.4,-2.4 -0.1,-0.9 -0.2,-1.9 -0.2,-2.8 -0.2,-3.7 0.2,-7.4 0.5,-11.1 0.3,-3.8 0.4,-7.5 0.4,-11.3 0,-3.8 0.1,-7.7 -0.5,-11.4 -0.2,-1.3 -2.4,-1.5 -2.5,0 -0.1,3.3 0.2,6.7 0.3,10 v 0.4 c -0.2,0.2 -0.4,0.3 -0.5,0.5 -0.2,0.2 -0.3,0.4 -0.5,0.6 -0.3,0.4 -0.6,0.8 -1,1.1 l -0.1,0.1 c 0.1,-1.4 0.2,-2.7 0.2,-4.1 0.1,0 0.3,0 0.4,-0.1 0.1,0 0.1,-0.1 0.2,-0.1 0.1,-0.1 0.2,-0.2 0.3,-0.4 0.1,-0.2 0.2,-0.4 0.2,-0.5 0,-0.1 0.1,-0.2 0.1,-0.3 0,-0.1 0,-0.2 -0.1,-0.3 0,-0.1 -0.1,-0.2 -0.2,-0.3 -0.1,-0.1 -0.2,-0.1 -0.3,-0.2 -0.1,0 -0.1,0 -0.2,-0.1 h -0.3 c 0,-1 0.1,-2 0.1,-3 0,-0.8 -1.3,-0.8 -1.4,0 0,0.5 -0.1,1 -0.1,1.4 -0.6,-0.6 -1.7,-0.4 -1.9,0.6 -0.9,4.9 -1.4,10 -1.8,15 -0.4,4.9 -0.8,9.8 -1,14.7 -0.2,4.1 -0.5,8.4 0,12.6 -0.9,2.8 -1.3,5.7 -1.7,8.6 -0.5,3.8 -0.8,7.6 -1.4,11.4 -0.6,3.7 -1.4,7.3 -2.9,10.7 -1.4,3.1 -3.4,6 -5.8,8.5 -5.5,5.6 -12.5,8.8 -19.9,10.8 0.8,-0.8 1.6,-1.8 2.2,-2.7 1.6,-2.4 2.8,-5.6 2.4,-8.4 -0.1,-0.6 -1,-0.6 -1.1,0 -0.2,1.3 -0.4,2.7 -0.9,4 -0.4,1.3 -1,2.5 -1.8,3.6 -0.7,1.1 -1.6,2.1 -2.6,3 -0.4,0.3 -0.8,0.6 -1.1,0.9 0.4,-0.5 0.8,-1.1 1,-1.7 0.1,-0.3 0,-0.7 -0.3,-0.9 -0.3,-0.2 -0.7,-0.1 -0.9,0.2 -0.3,0.5 -0.7,1 -1.1,1.5 -0.2,0.2 -0.4,0.5 -0.6,0.7 -0.1,0.1 -0.2,0.2 -0.3,0.3 -0.1,0.1 -0.1,0.1 -0.2,0.2 0,0 0,0 -0.1,0.1 -0.1,0.1 -0.2,0.2 -0.2,0.4 -5.7,1.1 -11.5,1.7 -17,2.2 -8.1,0.7 -16.4,1.2 -24.5,-0.3 -7.8,-1.4 -14.7,-4.9 -21.1,-9.5 -1.3,-0.9 -2.5,-1.9 -3.8,-2.8 -0.4,-0.8 -0.8,-1.7 -1.1,-2.6 -0.5,-1.2 -0.9,-2.4 -1.2,-3.6 -0.4,-1.3 -0.6,-2.6 -1.2,-3.8 -0.4,-0.9 -1.7,-0.6 -1.7,0.4 0.1,1.4 0.4,2.7 0.8,4 0.3,0.8 0.5,1.7 0.8,2.5 -0.6,-0.5 -1.2,-1.1 -1.8,-1.6 -2.6,-2.4 -5,-5.2 -6.3,-8.6 -2.8,-6.9 -1.6,-14.8 -0.8,-22 0.9,-8.1 1.8,-16.2 3.3,-24.1 1.5,-7.9 3.6,-15.6 6.3,-23.1 0.7,-1.9 1.4,-3.7 2.2,-5.5 0.9,-2.2 -2.3,-3.4 -3.3,-1.4 -7.8,15 -10.2,32.1 -12.1,48.6 -0.9,7.9 -2.4,16.2 -0.9,24.1 0.8,4 2.3,7.8 4.9,11 2.5,3.2 5.6,5.8 8.8,8.3 6.3,5.1 13.2,9.7 21,12.2 8.3,2.6 17.1,2.9 25.7,2.4 8.6,-0.5 17.3,-1.3 25.7,-3.1 7.7,-1.7 15.2,-4.6 21.5,-9.5 2.9,-2.2 5.5,-4.8 7.5,-7.8 2.2,-3.2 3.7,-6.8 4.7,-10.6 1.8,-6.7 2,-13.8 2.6,-20.7 0.9,1.8 2.2,3.5 4.1,4.6 1.6,1 3.5,1.7 5.4,1.7 0.5,0.1 0.9,0.2 1.4,0.2 0.2,0 0.4,0 0.6,-0.1 0.1,0 0.2,-0.1 0.4,-0.1 0.1,0 0.2,0 0.3,-0.1 v 0 c 0.2,0 0.3,-0.1 0.5,-0.1 2.7,-2.1 4.7,-4.8 6.3,-7.8 -0.5,3.1 -1,6.2 -1.4,9.3 1.3,-0.9 2.6,-1.5 3.8,-1.8 2.8,-21.1 8.3,-41.8 13.3,-62.4 -0.1,0.1 -0.1,0.1 -0.2,0.1 z m -30.8,18 c 0,-0.4 0.1,-0.9 0.1,-1.3 0.5,-0.3 0.9,-0.6 1.3,-1 0.3,-0.3 0.7,-0.6 0.9,-1 0,1 0,2 -0.1,3.1 l -0.9,0.9 c -0.4,0.4 -0.7,0.7 -1.1,1 -0.1,0.1 -0.3,0.2 -0.4,0.4 0.1,-0.8 0.1,-1.4 0.2,-2.1 z m -0.2,3.4 c 0.4,-0.3 0.8,-0.6 1.2,-0.9 0.4,-0.3 0.8,-0.7 1.2,-1 0,0 0,0 0.1,-0.1 0,0.9 -0.1,1.7 -0.1,2.6 -0.2,3.3 -0.5,6.6 -0.7,9.9 v 0.4 c -0.1,0.1 -0.1,0.2 -0.2,0.3 -0.4,0.5 -0.8,1 -1.3,1.4 -0.2,0.2 -0.5,0.4 -0.7,0.7 0,-4.4 0.2,-8.8 0.5,-13.3 z m -0.9,15 c 0.6,-0.3 1.2,-0.7 1.8,-1.2 0.2,-0.1 0.3,-0.3 0.5,-0.5 v 1.2 c -0.2,0.3 -0.4,0.7 -0.7,1 -0.4,0.6 -0.9,1.2 -1.4,1.8 l -0.3,0.3 c 0,-0.8 0.1,-1.7 0.1,-2.6 z m -0.2,5 c 0.6,-0.5 1.2,-1 1.8,-1.6 0.3,-0.3 0.6,-0.7 0.9,-1 0.1,1 0.3,2 0.6,2.9 0.5,1.6 1.8,2.5 3.5,2.5 0.4,0 0.7,-0.1 1,-0.2 0,0.1 0,0.1 0,0.2 0.1,-0.1 0.2,-0.1 0.3,-0.2 l 2.1,-1.5 c -0.1,0.5 -0.1,1 -0.2,1.6 -0.1,0.5 -0.2,1.1 -0.3,1.6 l -1.5,1.5 v 0.4 c -0.6,0.5 -1.2,1.1 -1.9,1.5 -1.3,0.8 -2.8,0.8 -4,-0.1 -2.4,-1.8 -2.5,-4.9 -2.3,-7.6 z M 321,530 c -0.2,-0.2 -0.5,-0.2 -0.7,-0.1 -0.1,-0.1 -0.3,-0.2 -0.4,-0.3 -2.9,-2 -4,-5.3 -4.4,-8.6 -0.1,-1.3 -0.2,-2.6 -0.2,-3.9 0.4,2.2 1.5,4.1 3.6,5.1 1.5,0.7 3.1,0.5 4.5,-0.3 0.6,-0.4 1.3,-0.9 1.8,-1.4 0.1,-0.1 0.1,-0.1 0.2,-0.2 -0.1,0.2 -0.1,0.5 -0.2,0.7 -0.5,1.8 -1.1,3.5 -1.7,5.2 -0.6,1.4 -1.2,2.8 -1.7,4.3 -0.4,-0.2 -0.6,-0.4 -0.8,-0.5 z m 14,-18.5 c -0.4,1.5 -0.9,3 -1.2,4.5 -0.4,0.7 -0.6,1.6 -0.8,2.6 -1.3,4.4 -3.4,8.7 -6.4,12.1 -0.9,0.1 -1.9,0.3 -2.8,0.3 -0.2,0 -0.4,-0.1 -0.5,-0.1 1.6,-2.5 2.6,-5.4 3.3,-8.2 0,0 0,-0.1 0.1,-0.1 0.8,-1.7 1.6,-3.6 2.1,-5.4 0.1,-0.1 0.2,-0.2 0.3,-0.3 0.1,0 0.2,0 0.3,-0.1 2.5,-2.8 4.5,-6.1 6.2,-9.4 0.6,-1.3 1.2,-2.6 1.7,-4 -0.8,2.7 -1.5,5.4 -2.3,8.1 z m 3.8,-18.9 c -1.6,7.4 -4.5,14.6 -9.2,20.5 -0.5,0.6 -1,1.3 -1.6,1.9 0.1,-0.5 0.1,-1.1 0.2,-1.7 0,-0.3 0.1,-0.5 0.1,-0.8 4.7,-4.6 7.5,-10.6 9.3,-17 0.4,-1.6 0.8,-3.2 1.2,-4.8 0.1,0.1 0.1,0.3 0.2,0.4 0.1,0.4 0.2,0.7 0.4,1.1 -0.2,0 -0.5,0.1 -0.6,0.4 z m 1,-2.9 c -0.2,-0.5 -0.3,-1 -0.5,-1.5 0.2,-0.6 0.3,-1.3 0.4,-1.9 0.2,0.5 0.3,1 0.5,1.5 -0.1,0.6 -0.3,1.2 -0.4,1.9 z m 0.9,-4.1 c -0.2,-0.5 -0.4,-1.1 -0.5,-1.6 0,-0.1 0.1,-0.4 0.1,-0.6 0.1,0.3 0.3,0.7 0.4,1 0,0.1 0.1,0.2 0.2,0.3 -0.1,0.3 -0.2,0.6 -0.2,0.9 z"
   id="path59" />
						<path
   class="st1"
   d="m 616.4,538.1 c -1.1,-5.2 -2.5,-10.3 -3.9,-15.4 -1.4,-5.1 -2.9,-10.3 -4.4,-15.4 -3,-10.1 -6.1,-20.1 -9.5,-30.1 -0.8,-2.5 -1.7,-4.9 -2.6,-7.3 -0.8,-2.2 -4.1,-0.8 -3.4,1.4 6.3,19.6 12.6,39.2 17.8,59.1 2.4,9.3 4.7,19.2 2.7,28.8 -0.8,4.1 -2.5,8 -6.3,10 -1.9,1 -3.9,1.7 -6,2.5 -1,0.6 -2.1,1 -3.2,1.2 0.1,-0.1 0.2,-0.3 0.4,-0.4 0.1,-0.2 0.3,-0.4 0.4,-0.6 0.1,-0.2 0.2,-0.4 0.2,-0.5 0.1,-0.3 0,-0.6 -0.2,-0.7 -0.3,-0.2 -0.6,-0.1 -0.8,0.1 -0.1,0.1 -0.3,0.3 -0.4,0.4 -0.1,0.1 -0.2,0.3 -0.3,0.4 -0.2,0.3 -0.5,0.5 -0.7,0.8 -0.1,0.1 -0.2,0.3 -0.3,0.4 l -0.1,0.1 c 0,0 -0.1,0.1 0,0 -0.1,0.1 -0.1,0.1 -0.2,0.2 -0.2,0.2 -0.4,0.3 -0.6,0.5 0.6,-0.8 1.2,-1.7 1.6,-2.7 1.4,-3.5 1.3,-7.8 0.7,-11.5 -0.1,-0.5 -0.9,-0.5 -0.9,0 -0.1,3.5 0.3,7.1 -1.1,10.4 -0.5,1.3 -1.3,2.5 -2.2,3.5 -0.5,0.5 -1.1,1 -1.7,1.4 -0.1,0 -0.1,0.1 -0.2,0.1 -0.5,0.2 -0.9,0.3 -1.4,0.4 -0.1,0.1 -0.2,0.2 -0.3,0.3 -16.9,4.9 -34.5,7.1 -52.1,6.3 -6.7,-0.3 -13.5,-0.9 -20.1,-2.2 -0.6,0 -1.2,-0.1 -1.7,-0.2 -0.7,-0.2 -1.4,-0.4 -2,-0.6 -1,-0.8 -1.8,-1.8 -2.6,-2.8 -1.7,-2.3 -2.8,-4.8 -4.3,-7.2 -0.4,-0.7 -1.5,0 -1.2,0.7 1.2,3 2.9,6.2 5.3,8.7 -0.1,0 -0.1,0 -0.2,0 -0.6,-0.1 -1.2,-0.3 -1.7,-0.6 -6.1,-2 -12.1,-5.1 -16.6,-9.7 -6,-6.1 -8.6,-14.3 -9.6,-22.7 -1.1,-9.7 -0.6,-19.6 0.1,-29.4 0.1,-1.2 0.2,-2.4 0.3,-3.6 0.1,-1.2 -0.1,-2.5 -0.1,-3.7 0,-0.1 0,-0.1 -0.1,-0.2 0.6,-7.8 0.3,-15.6 0.4,-23.5 0,-2.5 0.1,-5 0.3,-7.4 0.2,-2.6 0.5,-5.1 0.5,-7.7 0,-1 -1.7,-1.2 -2,-0.3 -0.4,1.4 -0.7,2.8 -1,4.3 0,-1.9 -0.1,-3.8 -0.4,-5.7 0,-0.3 -0.3,-0.5 -0.6,-0.4 0,-0.5 0,-1 -0.1,-1.4 -0.2,-0.8 -1.4,-1.1 -1.7,-0.2 -0.6,1.6 -0.4,3.5 -0.5,5.2 -0.1,1.7 -0.2,3.5 -0.3,5.2 -0.2,3.5 -0.4,7 -0.5,10.6 -0.1,3.6 -0.3,7.2 -0.2,10.8 0.1,3.3 0.6,6.7 -0.3,10 -0.3,1.2 -0.7,2.9 -1.9,3.7 -0.3,0.2 -0.7,0.3 -1.1,0.3 -4.6,-5.2 -7.8,-11.5 -10.2,-18.1 -3,-8.2 -4.7,-16.9 -6.5,-25.4 0,-0.1 0,-0.2 -0.1,-0.3 -1.9,-0.2 -3.8,-0.3 -5.7,-0.4 -0.1,0 -0.1,0 -0.2,0 l 0.3,0.9 c -0.1,0.1 -0.2,0.1 -0.4,0.2 -0.1,-0.4 -0.2,-0.8 -0.3,-1.2 -1.3,0 -2.5,0 -3.7,0.1 1.3,5 2.7,10 4.1,15 3.3,12.2 6.7,24.3 10.1,36.4 1.2,4.3 2.6,8.6 3.8,12.9 0.3,-0.1 0.7,-0.1 1.1,-0.1 0.9,0.1 1.9,0.2 2.8,0.3 -1.3,-4.9 -2.8,-9.9 -4.2,-14.8 0.6,0.8 1.2,1.6 1.9,2.4 0,0.1 0.1,0.2 0.1,0.3 0.7,0.8 1.4,1.5 2.2,2.1 1.7,1.5 3.5,2.9 5.5,4 v -0.3 c 0.2,0 0.5,0.1 0.7,0.1 1.7,0.1 3.2,-0.7 4.3,-1.9 0.1,-0.1 0.2,-0.3 0.3,-0.4 v 0.5 c -0.4,5.1 -0.5,10.3 -0.3,15.4 0.1,2 0.2,19.2 7,26.1 7.8,8 16.5,14.2 27.2,16.9 0.7,0.5 1.4,0.8 2.4,0.9 0.3,0 0.6,0 0.8,-0.2 4.4,0.9 8.8,1.5 13,1.9 19.9,1.9 40.1,0.1 59.4,-5.2 4.7,-1.3 9.4,-2.8 13.9,-4.5 4.4,-1.7 9,-3.4 11.5,-7.6 2.5,-4.2 3.4,-9.4 3.6,-14.2 0.2,-5.4 -0.4,-10.5 -1.5,-15.5 z M 473.5,514.6 c 0.5,0.1 1,0 1.5,-0.1 -0.4,0.4 -0.9,0.7 -1.5,0.8 z m -8.7,-11 c 0.2,0.4 0.4,0.8 0.7,1.2 -0.2,0.2 -0.3,0.4 -0.4,0.6 l -0.3,0.5 c -0.2,-0.4 -0.4,-0.8 -0.5,-1.2 0.1,-0.4 0.3,-0.7 0.5,-1.1 z m -1.1,-2.1 c 0.1,0.1 0.1,0.3 0.2,0.4 -0.2,0.2 -0.4,0.4 -0.5,0.7 0,-0.1 -0.1,-0.2 -0.1,-0.3 0.1,-0.3 0.2,-0.5 0.4,-0.8 z m -0.9,-1.9 c -0.1,0.2 -0.2,0.4 -0.3,0.5 -0.2,-0.6 -0.4,-1.3 -0.6,-1.9 l -1.5,-4.5 c 0.7,1.9 1.5,3.9 2.4,5.9 z m -4,-11.1 c -0.1,-0.4 -0.3,-0.8 -0.4,-1.2 -1.5,-4.9 -2.9,-9.8 -4.3,-14.7 0.3,-0.2 0.5,-0.4 0.8,-0.6 1.1,5.5 2.3,11 3.9,16.5 z m -5.6,-20.1 c 0.3,-0.2 0.5,-0.4 0.8,-0.6 0.2,0.8 0.3,1.6 0.5,2.4 -0.2,0.1 -0.4,0.2 -0.6,0.3 -0.1,0.1 -0.2,0.2 -0.4,0.3 -0.2,-0.7 -0.4,-1.5 -0.6,-2.2 0.1,-0.1 0.2,-0.1 0.3,-0.2 z m -1.4,3.9 c -0.2,-0.9 -0.5,-1.8 -0.7,-2.7 0.1,-0.1 0.2,-0.1 0.4,-0.2 0.2,0.8 0.5,1.7 0.7,2.5 -0.1,0.2 -0.3,0.3 -0.4,0.4 z m 8.9,31.1 c -1.2,-4 -2.1,-8.1 -3.2,-12.2 -0.1,-0.3 -0.2,-0.5 -0.5,-0.6 -0.1,-0.4 -0.1,-0.8 -0.2,-1.1 -0.3,-1.3 -0.7,-2.5 -1.1,-3.8 -0.8,-2.5 -1.5,-4.9 -2.3,-7.4 v -0.1 c -0.4,-1.4 -0.7,-2.8 -1.1,-4.1 l 0.1,-0.1 c 0.1,-0.1 0.2,-0.2 0.3,-0.2 1.2,4.1 2.4,8.2 3.6,12.3 1.1,3.8 2.3,7.5 3.5,11.2 0.5,1.6 1,3.2 1.6,4.8 0,0 0,0 0,0.1 -0.2,0.4 -0.4,0.8 -0.7,1.2 z m 0.8,2.4 c -0.1,-0.2 -0.1,-0.3 -0.2,-0.5 0.3,-0.4 0.6,-0.8 0.8,-1.2 0,0.1 0.1,0.2 0.1,0.3 -0.2,0.4 -0.5,0.9 -0.7,1.4 z m 10.2,15.5 c -0.6,-0.3 -1.1,-0.7 -1.7,-1 -3.5,-3.5 -5.9,-7.7 -7.7,-12.3 0.3,-0.5 0.5,-1 0.8,-1.5 0.2,0.5 0.5,1.1 0.7,1.6 1.3,2.6 2.9,4.9 4.8,7.1 -0.1,0.3 0,0.6 0.4,0.7 0.2,0.1 0.3,0.1 0.5,0.2 0.7,0.7 1.3,1.4 2.1,2 0,0.1 0,0.2 0,0.2 v 1 c 0.1,0.3 0.2,0.7 0.2,1 0.1,0.5 0.3,0.9 0.5,1.4 -0.2,-0.2 -0.4,-0.3 -0.6,-0.4 z m 0.2,-5.9 c -0.5,-0.2 -0.9,-0.4 -1.4,-0.6 -1.8,-2 -3.4,-4.2 -4.7,-6.6 -0.2,-0.3 -0.3,-0.7 -0.5,-1 0.3,-0.4 0.5,-0.7 0.8,-1.1 0.1,0 0.1,-0.1 0.1,-0.1 1.3,2.1 2.7,4.2 4.3,6.1 0.2,0.9 1,1.7 1.9,2.1 0.3,0.4 0.7,0.7 1,1.1 -0.5,0.2 -1,0.2 -1.5,0.1 z m 6.6,2.6 c -0.3,1.6 -0.8,3.7 -2.2,4.6 -0.4,0.3 -0.9,0.4 -1.4,0.4 -0.3,-0.2 -0.6,-0.3 -0.9,-0.5 v -0.4 c -0.1,-0.2 -0.2,-0.4 -0.2,-0.6 -0.2,-0.6 -0.4,-1.2 -0.6,-1.8 -0.1,-0.2 -0.1,-0.4 -0.2,-0.6 0.2,0.2 0.5,0.4 0.7,0.6 0,-0.4 0,-0.7 -0.1,-1.1 0.4,0.1 0.7,0 1.1,0 1.1,-0.3 2,-1 2.8,-1.8 0.9,-1 1.5,-2.3 1.8,-3.6 -0.2,1.7 -0.5,3.2 -0.8,4.8 z m 0.8,-36.2 v -2.3 c 0,-1.7 0.1,-3.4 0.1,-5 0.1,2.5 0,4.9 -0.1,7.3 z m 1,11.8 v 3.1 c -0.1,-1.5 -0.3,-3 -0.5,-4.5 0.2,-1.5 0.4,-2.9 0.6,-4.4 -0.1,2 -0.1,3.9 -0.1,5.8 z"
   id="path61" />
					</g>
				</g>
			</g>
		</g>
	</g>
	<path
   d="m 464.4,529.5 c -3.8,-0.8 -7.6,-1.8 -11.3,-3.2 -4.4,-1.6 -8.6,-3.4 -12.8,-5.3 -8.4,-3.7 -16.7,-7.7 -25.6,-9.9 -4.4,-1.1 -8.8,-1.6 -13.3,-1.5 -2.8,0.1 -5.5,0.5 -8.3,0.6 -2.8,0.2 -5.5,-0.1 -8.2,-0.7 -4.9,-1.1 -9.8,-2.3 -14.6,-0.1 -4.3,2 -7.5,5.5 -11.6,7.8 -5,2.7 -10.5,4.2 -15.4,6.9 -4.6,2.5 -8.8,5.9 -11.1,10.7 -0.4,0.8 -0.1,1.8 0.6,2.3 3.1,2.4 4.1,6.7 7,9.4 1.6,1.5 3.7,2.3 5.8,2.9 2.5,0.7 4.9,1.4 7.4,1.9 10.2,2.2 20.7,2.8 31.1,1.8 10.6,-1.1 20.8,-4.8 31.5,-5.3 5.4,-0.2 10.7,0.4 16.1,0.3 5.3,-0.1 10.4,-1.2 15.4,-2.8 4.8,-1.6 9.8,-3.2 14.1,-5.9 3.7,-2.3 6.7,-5.6 6.5,-10.2 -0.2,-1.8 -3.1,-1.5 -3.3,0.3 z m -5.8,7.7 c -3.8,2.1 -8.1,3.5 -12.2,4.9 -4.7,1.6 -9.5,2.6 -14.4,2.8 -5.1,0.1 -10.1,-0.4 -15.1,-0.4 -10.2,0.1 -19.9,3.6 -30,4.9 -9.8,1.3 -19.8,1 -29.6,-0.8 -2.7,-0.5 -5.3,-1.1 -8,-1.8 -2.3,-0.6 -5,-1.2 -6.9,-2.8 -1.6,-1.3 -2.5,-3.2 -3.5,-5 -0.8,-1.4 -1.6,-2.7 -2.7,-3.8 4.5,-7.6 14.3,-10 21.6,-13.8 2.2,-1.1 4.2,-2.4 6.2,-3.9 1.8,-1.4 3.5,-2.8 5.4,-4.1 1.9,-1.2 3.9,-2.1 6.2,-2.3 2.5,-0.2 5,0.5 7.5,1 2.5,0.6 5,1.1 7.6,1.1 2.8,0 5.5,-0.4 8.3,-0.6 4.5,-0.4 8.9,0 13.3,0.9 7.6,1.6 14.8,4.7 21.8,7.9 1.5,0.5 2.9,1.1 4.4,1.6 1.5,0.5 2.7,1.2 4,2.1 6.9,3 14.1,5.8 21.5,6.6 -0.9,2.5 -3.3,4.3 -5.4,5.5 z"
   id="path72" />
	<path
   class="st1"
   d="m 446.6,531.1 c -1.4,-1.2 -2.6,-2.5 -4,-3.7 -0.2,-0.2 -0.4,-0.3 -0.6,-0.5 -2,-1.2 -4.2,-2.2 -6.4,-3.1 -0.6,-0.2 -1.3,-0.5 -1.9,-0.7 -1.7,-0.6 -3.3,-1 -5,-1.3 -1,-0.4 -2.1,-0.8 -3.1,-1.2 -7.4,-2.6 -15.3,-3.7 -23.2,-4.4 -7.8,-0.7 -16,-1.8 -23.8,-0.5 -3.9,0.6 -7.5,2 -11.1,3.6 -3.8,1.7 -7.5,3.5 -11.2,5.3 -4.6,2.2 -14.4,5.3 -12.5,12.3 0.8,3.1 3.7,5.3 6.4,6.8 2.8,1.5 5.9,2.2 9,2.5 7.1,0.7 14.4,-0.3 21.5,-1 8.4,-0.8 16.8,-1.6 25.3,-2.4 8.3,-0.8 16.7,-1.5 25,-2.3 4.1,-0.4 8.3,-0.6 12.4,-1.2 3,-0.4 5,-2.4 4.3,-5.6 -0.3,-1 -0.7,-1.8 -1.1,-2.6 z m -3.9,6.1 c -3.7,0.4 -7.5,0.7 -11.3,1.1 -7.6,0.7 -15.2,1.4 -22.8,2.1 -7.6,0.7 -15.2,1.3 -22.8,1.8 -7.1,0.5 -14.3,1.4 -21.5,1.5 -5.6,0.1 -12,-0.6 -16.3,-4.6 -1.1,-1 -2.2,-2.4 -2.1,-4 0,-1.4 0.9,-2.5 1.9,-3.4 2.4,-2.1 5.6,-3.2 8.4,-4.5 3.4,-1.6 6.8,-3.2 10.2,-4.9 3.3,-1.6 6.5,-3.2 10.1,-4.1 7.3,-2 15.1,-1 22.5,-0.4 8.2,0.6 16.5,1.4 24.4,3.9 1.6,0.5 3.2,1 4.8,1.6 0.2,0.1 0.4,0.1 0.6,0.2 1.5,0.6 2.9,1.2 4.4,1.9 1.7,0.5 3.3,1.1 4.9,1.8 1.7,0.8 3.3,1.7 4.8,2.8 0.6,0.5 1.3,0.9 1.9,1.5 0.2,0.2 0.3,0.5 0.4,0.7 0.1,0 0.1,0 0.2,0 0.3,0.8 0.6,1.7 0.6,2.5 -0.2,1.8 -1.7,2.3 -3.3,2.5 z"
   id="path74" />
	<path
   d="m 422.1,528.7 c -1.2,-1.3 -3.7,-1.9 -5.4,-2.4 -9.6,-3.1 -20,-3.6 -30,-1.6 -4.4,0.9 -9.1,1.8 -13.1,3.5 -2.7,1.2 -7.9,4.4 -6.1,7.3 2,3.4 8.1,3.2 12,2.9 5.4,-0.5 10.8,-0.7 16.2,-1.2 4.3,0 8.5,-0.1 12.7,-0.6 2.4,-0.3 4.8,-0.8 7.1,-1.4 2,-0.6 4.3,-1.3 5.9,-2.6 1.2,-1.1 1.9,-2.6 0.7,-3.9 z m -4,3.7 c -3.7,1.6 -7.9,2.4 -12.1,2.9 -2.2,0.2 -4.5,0.4 -6.7,0.5 -0.1,-0.1 -0.3,-0.2 -0.6,-0.2 -2.2,0.1 -4.4,0.2 -6.6,0.4 -0.2,0 -0.5,0 -0.7,0 -3.4,0.1 -6.8,0.4 -10.1,0.9 -3.1,0.3 -6.4,0.5 -9.3,-0.4 -0.9,-0.3 -1.9,-0.7 -2.5,-1.3 -1,-1 0.1,-2.1 0.9,-2.9 1.2,-1.2 2.9,-2 4.6,-2.7 3.4,-1.4 7.1,-2.1 10.7,-2.9 8.8,-1.9 18,-2.4 26.8,-0.1 1.9,0.5 3.8,1.1 5.6,1.8 0.8,0.3 2.3,0.7 2.5,1.5 0.6,1.1 -1.4,2 -2.5,2.5 z"
   id="path76" />
	<path
   class="st2"
   d="m 418.1,532.4 c -3.7,1.6 -7.9,2.4 -12.1,2.9 -2.2,0.2 -4.5,0.4 -6.7,0.5 -0.1,-0.1 -0.3,-0.2 -0.6,-0.2 -2.2,0.1 -4.4,0.2 -6.6,0.4 -0.2,0 -0.5,0 -0.7,0 -3.4,0.1 -6.8,0.4 -10.1,0.9 -3.1,0.3 -6.4,0.5 -9.3,-0.4 -0.9,-0.3 -1.9,-0.7 -2.5,-1.3 -1,-1 0.1,-2.1 0.9,-2.9 1.2,-1.2 2.9,-2 4.6,-2.7 3.4,-1.4 7.1,-2.1 10.7,-2.9 8.8,-1.9 18,-2.4 26.8,-0.1 1.9,0.5 3.8,1.1 5.6,1.8 0.8,0.3 2.3,0.7 2.5,1.5 0.6,1.1 -1.4,2 -2.5,2.5 z"
   id="path78" />
</g>
</svg>
