<?xml version="1.0" encoding="UTF-8" standalone="no"?>
<svg
   xmlns:dc="http://purl.org/dc/elements/1.1/"
   xmlns:cc="http://creativecommons.org/ns#"
   xmlns:rdf="http://www.w3.org/1999/02/22-rdf-syntax-ns#"
   xmlns:svg="http://www.w3.org/2000/svg"
   xmlns="http://www.w3.org/2000/svg"
   version="1.1"
   id="svg9800"
   width="486.55417"
   height="413.77521"
   viewBox="0 0 486.55417 413.77521">
  <metadata
     id="metadata9806">
    <rdf:RDF>
      <cc:Work
         rdf:about="">
        <dc:format>image/svg+xml</dc:format>
        <dc:type
           rdf:resource="http://purl.org/dc/dcmitype/StillImage" />
        <dc:title></dc:title>
      </cc:Work>
    </rdf:RDF>
  </metadata>
  <defs
     id="defs9804" />
  <path
     style="fill:#000000"
     d="m 160.5,412.48737 c -3.85,-0.72881 -8.92035,-1.36066 -11.26745,-1.40411 -9.99585,-0.18504 -35.07064,-7.29747 -54.90626,-15.57409 -37.90977,-15.81826 -49.138527,-25.96021 -62.559944,-56.50491 -5.253027,-11.95493 -11.291319,-39.15369 -12.321344,-55.5 -0.311913,-4.95 -1.267448,-13.16067 -2.123411,-18.24594 -0.855963,-5.08527 -1.34089,-10.37277 -1.077616,-11.75 0.413375,-2.16243 0.122417,-2.49807 -2.132647,-2.46017 C 12.675098,251.07225 9.7,251.74052 7.5,252.5331 2.94017,254.17583 0,254.40854 0,253.1267 c 0,-2.08467 6.721505,-4.81157 25,-10.14241 4.125,-1.20304 11.55,-3.4774 16.5,-5.05413 4.95,-1.57673 15.94215,-4.21991 24.42701,-5.87373 8.48485,-1.65382 15.68485,-3.35462 16,-3.77956 0.31514,-0.42494 2.53844,-0.86306 4.94066,-0.97362 2.40223,-0.11055 4.57109,-0.40442 4.8197,-0.65303 0.24861,-0.24861 -1.57908,-3.98315 -4.06154,-8.29899 -2.48246,-4.31583 -5.46035,-10.99697 -6.61753,-14.84697 -1.15718,-3.85 -3.54365,-10.6 -5.30327,-15 -3.05884,-7.64878 -3.21491,-8.71322 -3.55484,-24.24556 -0.24115,-11.01819 -0.69368,-16.03658 -1.4064,-15.59609 -0.57797,0.3572 -4.69426,0.99951 -9.14732,1.42735 -4.45306,0.42784 -17.04186,1.93358 -27.975114,3.3461 -10.933254,1.41251 -21.345901,2.5682 -23.139216,2.5682 -3.699871,0 -8.568277,-3.32462 -6.98214,-4.76808 0.55,-0.50053 7.029424,-1.47453 14.398719,-2.16445 7.369296,-0.68991 15.694296,-1.84795 18.5,-2.57342 C 39.204424,145.77285 43.975,144.68942 47,144.09069 c 3.025,-0.59874 7.66959,-1.53052 10.32131,-2.07064 2.97138,-0.60522 6.28996,-2.23553 8.64891,-4.24891 5.39356,-4.60345 24.72141,-14.53389 32.76435,-16.83396 4.9517,-1.41606 9.8925,-1.93292 18.4773,-1.93292 8.02398,0 13.1778,-0.49554 16.348,-1.57185 2.54637,-0.86451 4.87127,-1.33035 5.16643,-1.03518 1.1249,1.1249 4.23048,-1.59694 11.23278,-9.84477 7.31987,-8.621888 12.92691,-19.668228 13.0065,-25.623888 0.0441,-3.30002 2.66944,-5.5983 12.39713,-10.8527 7.00982,-3.78635 8.93052,-4.34751 17.70665,-5.17327 12.78419,-1.2029 22.93064,0.84883 22.93064,4.63684 0,1.9234 1.01357,1.80438 3.69453,-0.43383 l 2.19454,-1.83211 -2.0651,-11.88462 c -3.65035,-21.00773 -4.49486,-22.09531 -17.82908,-22.96089 -12.49852,-0.811333 -12.48388,-0.805232 -14.77539,-6.16044 -3.14852,-7.35806 -5.46274,-16.188934 -4.73457,-18.0667116 0.60708,-1.565488 0.76309,-1.553704 2.01918,0.152506 0.74871,1.016996 2.28696,4.8419956 3.41835,8.4999996 2.21389,7.157929 3.62183,9.939955 4.55714,9.004649 0.90829,-0.908285 -1.24851,-9.813597 -3.658,-15.103733 -1.67966,-3.6877656 -2.68432,-4.7499996 -4.49254,-4.7499996 -2.95998,0 -3.06429,-2.536149 -0.16806,-4.086164 2.48014,-1.32733003 38.49976,-2.57526103 44.08545,-1.52737903 C 236.45617,1.9308704 245.2034,15.447859 251.85201,36.868102 254.1334,44.218212 256,50.785962 256,51.463112 c 0,1.8244 3.36919,4.54115 5.63174,4.54115 1.08584,0 3.75041,1.2844 5.92126,2.85422 2.17085,1.56982 7.22854,4.56056 11.2393,6.6461 7.02853,3.65471 7.43728,3.74403 11.30013,2.46917 2.20431,-0.72748 4.23599,-1.69187 4.51485,-2.14307 0.27886,-0.45121 -0.67299,-0.37173 -2.11523,0.1766 -3.38517,1.28704 -8.49205,1.28522 -8.49205,-0.003 0,-3.66492 8.8387,-7.31072 16.91633,-6.97768 2.52102,0.10394 6.75395,0.12499 9.4065,0.0468 3.34034,-0.0985 5.86294,0.50063 8.20648,1.94901 4.22032,2.60831 12.43137,11.6376 12.58584,13.84004 0.2139,3.04973 -0.31784,5.62968 -1.71918,8.34131 -1.32807,2.56984 -1.2345,2.82192 1.94888,5.25 1.83916,1.4028 4.34857,2.55054 5.57646,2.55054 3.57325,0 8.07869,5.22228 8.07869,9.364058 0,1.93485 -0.45,3.79602 -1,4.13594 -1.45792,0.90104 -1.22254,4.07042 0.40245,5.41904 0.77134,0.64016 2.1708,4.29927 3.1099,8.13135 1.86944,7.6284 1.96733,7.743 8.48765,9.93607 6.13832,2.06458 8.53559,6.77227 8.40911,16.51354 l -0.0909,7 5.4671,4.71923 c 3.00691,2.59558 9.12281,6.57568 13.5909,8.84467 4.46808,2.26899 10.14879,5.14833 12.62379,6.39853 2.475,1.25021 8.1,3.05588 12.5,4.01261 4.4,0.95673 8.99484,2.12354 10.21076,2.59292 4.07648,1.57362 28.29457,-1.89721 37.25676,-5.33948 6.41962,-2.4657 15.45235,-3.47616 16.46256,-1.84162 0.37837,0.61223 1.5614,1.11314 2.62894,1.11314 1.27431,0 1.94098,0.68694 1.94098,2 0,1.64242 -0.66667,2 -3.72879,2 -2.05083,0 -6.66333,1.10469 -10.25,2.45487 -7.90956,2.9775 -24.77077,5.5533 -36.14955,5.52238 -14.0564,-0.0382 -37.35906,-7.58645 -52.81792,-17.10891 -2.50456,-1.54278 -6.25678,-3.50682 -8.33827,-4.36454 l -3.78453,-1.5595 1.89263,3.77785 c 2.52301,5.03614 3.4104,9.01521 2.1801,9.77558 -0.55202,0.34117 -1.00367,1.65806 -1.00367,2.92643 0,3.02155 -3.34196,7.19387 -6.37114,7.95414 -1.74157,0.43711 -2.57475,1.51975 -3.02771,3.93422 -0.34371,1.83213 -1.73364,4.83392 -3.08873,6.67065 -2.74605,3.72206 -4.94253,9.51188 -4.11591,10.84937 0.9237,1.49459 -3.75276,9.6435 -10.71279,18.66746 -4.69674,6.08951 -18.2212,18.5 -20.16057,18.5 -3.24409,0 -2.06985,-2.0754 4.58755,-8.10823 3.87943,-3.51547 9.41103,-9.54177 12.29245,-13.39177 5.34297,-7.13898 11.72764,-20.20653 9.36822,-19.174 -0.69925,0.306 -4.87137,2.04534 -9.27137,3.86519 l -8,3.30881 h -24.63846 c -22.996,0 -24.78208,0.12959 -26.79303,1.94393 -1.8936,1.70848 -2.07331,1.73214 -1.48361,0.19541 0.62147,-1.61952 -0.0947,-1.70176 -9.70696,-1.11469 -5.70787,0.34862 -15.55294,1.08613 -21.87794,1.63893 -6.325,0.5528 -24.775,1.20447 -41,1.44818 -27.49618,0.41299 -30.21322,0.61839 -40,3.0239 -5.775,1.41944 -11.175,2.81081 -12,3.09192 -0.825,0.28111 -2.64979,0.62318 -4.05508,0.76016 -4.54849,0.44336 -25.25093,9.43125 -28.17383,12.23157 -1.56134,1.49586 -4.50416,5.56664 -6.53962,9.04619 -2.03545,3.47955 -3.87001,5.81888 -4.0768,5.19851 -0.20679,-0.62037 1.07144,-3.14344 2.8405,-5.60682 1.76907,-2.46338 3.03947,-4.65589 2.82311,-4.87224 -0.21635,-0.21635 -2.28897,-0.69649 -4.60582,-1.06697 C 104.09101,235.9231 103,236.08282 103,237.0389 c 0,2.01985 -6.35194,11.40955 -6.80297,10.05644 -0.22145,-0.66434 1.21863,-3.64968 3.20017,-6.6341 1.98154,-2.98442 3.6028,-5.5558 3.6028,-5.71419 0,-0.15839 -1.49325,-1.09215 -3.31834,-2.07503 -3.2632,-1.75735 -3.61601,-1.72789 -21.23225,1.7726 -9.85264,1.9578 -17.99693,3.55964 -18.09841,3.55964 -0.10148,0 -2.76395,3.7125 -5.9166,8.25 -6.849408,9.85812 -6.317637,9.2001 -6.935561,8.58217 -0.275638,-0.27564 1.503997,-3.61314 3.954745,-7.41666 2.450749,-3.80353 4.026856,-7.06531 3.502466,-7.24841 -0.52439,-0.18309 -5.116528,1.07936 -10.204745,2.80546 L 35.5,246.11517 l -5.393918,11.35559 -5.393919,11.35559 1.698384,6.83895 c 0.934111,3.76143 2.598809,8.72004 3.699329,11.01915 2.861474,5.97792 15.876614,18.73684 26.848364,26.31981 5.17264,3.575 11.37991,8.27412 13.79393,10.44248 6.87882,6.17882 12.30229,16.85088 10.34286,20.3522 -0.63462,1.134 -1.61473,-0.0896 -3.91791,-4.89118 -3.84736,-8.02087 -7.998,-12.2804 -20.65279,-21.19465 -11.28673,-7.95056 -26.138923,-22.18195 -29.439389,-28.20885 -1.487474,-2.71624 -2.005764,-3.19765 -1.614913,-1.5 0.316568,1.375 1.295831,5.65 2.176141,9.5 0.880311,3.85 3.496365,13.60521 5.813454,21.67824 3.4665,12.07772 5.172034,16.21032 9.626634,23.32584 6.272595,10.01949 32.231323,38.42979 38.412953,42.04072 2.20043,1.28536 8.88537,4.38049 14.85541,6.87806 9.78578,4.09388 16.47084,5.66096 28.61915,6.70878 0.83942,0.0724 -0.0488,0.44424 -1.97377,0.82631 l -3.5,0.69467 3,1.26262 c 16.23875,6.83449 57.1396,4.58623 89.5,-4.91966 20.88489,-6.13496 28.97648,-8.94385 36.66879,-12.72911 9.46322,-4.65669 20.59392,-11.27428 25.25803,-15.01678 l 3.42683,-2.74969 -1.92412,2.95188 c -1.91026,2.93064 -1.90973,2.94621 0.0732,2.16399 1.09851,-0.43334 4.76779,-1.22784 8.15395,-1.76556 10.55698,-1.67643 17.47045,1.56902 18.03702,8.46727 0.37053,4.51131 1.44692,9.68242 2.01545,9.68242 0.26517,0 1.77388,-0.91981 3.35269,-2.04402 2.45155,-1.74565 2.78167,-2.51201 2.26156,-5.25 -0.33496,-1.76329 -1.21975,-4.42113 -1.9662,-5.90632 -1.67692,-3.33652 -1.7496,-6.50219 -0.16144,-7.03157 1.52929,-0.50977 -2.19867,-6.69248 -7.54795,-12.51809 -4.10823,-4.47403 -3.21959,-5.60252 1.80406,-2.29101 4.45641,2.93759 10.39284,12.66868 11.75668,19.27172 l 1.1852,5.73817 1.25486,-2.98444 c 1.62159,-3.85662 2.8263,-3.77721 4.02873,0.26556 l 0.96663,3.25 7.13565,-7.20031 c 7.37722,-7.44408 9.04823,-10.82246 10.99578,-22.23079 0.85583,-5.01326 2.48131,-5.79769 3.25105,-1.5689 l 0.54607,3 1.21375,-3.39922 c 1.88166,-5.26977 1.49582,-8.175 -2.42378,-18.25043 -2.00064,-5.14269 -3.95736,-10.72019 -4.34825,-12.39443 -0.90746,-3.88679 0.48048,-7.8638 2.47701,-7.09766 1.03754,0.39814 0.81198,-0.4679 -0.75643,-2.90438 -1.70614,-2.65043 -3.14217,-3.62134 -6.07049,-4.10429 -4.16317,-0.68662 -5.58184,-2.53911 -3.6901,-4.81852 0.65889,-0.7939 0.94459,-1.85344 0.6349,-2.35452 -0.92401,-1.49509 -26.56299,-16.38773 -31.00347,-18.00865 -2.43458,-0.88871 -7.82736,-1.53313 -13.24959,-1.5833 -8.88851,-0.0822 -9.37422,0.0349 -17.38742,4.19464 -4.53392,2.35358 -8.42514,4.09759 -8.64716,3.87557 -1.15544,-1.15545 5.38221,-6.70712 10.88673,-9.24484 5.39356,-2.48658 7.50529,-2.89849 14.7918,-2.88527 11.30668,0.0205 17.03172,1.93305 31.25828,10.44235 6.46705,3.86812 12.22039,7.03295 12.78518,7.03295 0.5648,0 2.16522,0.74585 3.5565,1.65745 2.39303,1.56798 2.63842,1.54861 4.54583,-0.3588 l 2.01625,-2.01624 -3.16696,-0.63339 c -4.56137,-0.91228 -3.23023,-3.09519 2.08309,-3.41601 2.43201,-0.14685 11.39683,0.0781 19.92183,0.5 12.77022,0.63191 15.5,1.03116 15.5,2.26699 0,0.89299 -1.11285,1.62805 -2.75,1.81642 -2.71003,0.31183 -3.71932,2.46647 -1.73098,3.69533 1.63988,1.0135 5.66282,9.58299 7.52574,16.03096 1.04251,3.60837 3.19969,7.73161 5.471,10.45729 2.06242,2.475 4.42956,6.075 5.26031,8 0.83075,1.925 2.18825,4.38775 3.01667,5.47278 1.37073,1.7953 1.74704,1.84389 4.18319,0.5401 1.99481,-1.06759 2.56542,-2.01626 2.23919,-3.72278 -0.63733,-3.33398 0.30425,-2.75323 4.78488,2.95126 5.45481,6.94476 13.74873,11.37866 24.93783,13.33168 4.75745,0.8304 9.86767,2.02799 11.35604,2.66131 l 2.70613,1.1515 -2.95031,0.39283 c -4.46103,0.59397 -18.10718,-1.66007 -23.15835,-3.82526 -2.46007,-1.05451 -6.8601,-4.17505 -9.77785,-6.93453 -5.07898,-4.80349 -5.37548,-4.93937 -6.95925,-3.18933 -0.90983,1.00536 -1.65424,2.07526 -1.65424,2.37757 0,0.30231 2.58486,2.51688 5.74413,4.92126 8.70204,6.62274 11.17754,10.19697 7.92644,11.44453 -3.01105,1.15545 -24.44468,-13.70119 -28.48799,-19.74634 -1.47542,-2.2059 -4.08014,-5.65679 -5.78826,-7.66865 -1.70813,-2.01186 -3.69367,-4.78293 -4.41232,-6.15793 -2.41202,-4.61497 -7.33865,-10.04776 -11.77844,-12.98856 -4.87771,-3.23086 -13.29216,-6.34245 -15.78554,-5.83735 -1.39559,0.28271 -1.33218,0.67679 0.47842,2.97327 1.14799,1.45605 3.20001,6.8054 4.56006,11.88745 2.28042,8.52121 2.42587,10.37694 1.86944,23.85264 -0.37064,8.97621 -1.11444,15.62704 -1.92834,17.24267 -2.15108,4.26997 -6.4456,8.86988 -8.28101,8.86988 -0.93809,0 -3.36815,2.18005 -5.40013,4.84456 -4.87814,6.39664 -13.11889,13.86944 -19.80991,17.96383 -4.35525,2.66508 -6.1522,3.21611 -9.24123,2.8338 -2.76931,-0.34274 -5.17116,0.19669 -8.64522,1.94161 -4.57461,2.29769 -9.0201,3.16865 -9.0201,1.76722 0,-0.35694 1.575,-2.1786 3.5,-4.04814 4.11447,-3.99593 4.23882,-4.92218 1.25,-9.31117 -3.66156,-5.37688 -4.83802,-5.67495 -10.88946,-2.7589 -2.9483,1.42072 -10.53554,4.91302 -16.86054,7.76065 -6.325,2.84764 -15.325,6.91252 -20,9.03307 -4.675,2.12055 -11.875,4.81625 -16,5.99044 -4.125,1.1742 -10.61296,3.0366 -14.41769,4.13868 -7.31497,2.11886 -10.85858,2.8135 -30.08231,5.89689 -13.75432,2.20613 -14.54556,2.22033 -24,0.43057 z m 22,-4.46571 c 15.43497,-2.25986 24.50953,-4.22264 35.49159,-7.67664 15.19585,-4.77929 12.68913,-5.4418 -3.13015,-0.82728 -12.5061,3.64806 -37.53326,8.40317 -45.19091,8.5862 -3.50445,0.0838 -3.77125,0.2212 -1.67053,0.86053 1.375,0.41847 3.625,0.60812 5,0.42146 1.375,-0.18666 5.65,-0.80059 9.5,-1.36427 z m -109,-28.0174 c -1.86806,-2.06418 -5.13176,-2.83123 -3.95669,-0.92992 0.54675,0.88466 3.79511,2.62134 5.36168,2.86653 0.22274,0.0349 -0.4095,-0.83661 -1.40499,-1.93661 z M 275,377.39727 c 0,-0.21615 -0.675,-0.39301 -1.5,-0.39301 -0.825,0 -1.5,0.43588 -1.5,0.96862 0,0.53273 0.675,0.70959 1.5,0.39301 0.825,-0.31659 1.5,-0.75246 1.5,-0.96862 z M 64,370.25626 c -3.025,-2.56305 -8.56255,-7.71583 -12.305668,-11.45062 -7.187801,-7.17183 -7.324773,-7.13635 -1.87567,0.4858 3.433785,4.80315 16.383468,15.75121 18.533578,15.66886 C 68.98351,374.9361 67.025,372.81931 64,370.25626 Z m 280.38156,-13.80394 c 0.34149,-0.88992 0.17385,-1.29132 -0.39301,-0.94098 -0.5437,0.33602 -0.98855,1.0344 -0.98855,1.55194 0,1.43843 0.71677,1.12146 1.38156,-0.61096 z m 24.98007,-52.94806 c 0.67461,-1.75801 -0.19882,-4.5 -1.43344,-4.5 -1.64795,0 -2.9049,3.62329 -1.68139,4.8468 1.54931,1.54931 2.42462,1.45186 3.11483,-0.3468 z m -3.83698,-5.17796 c 1.7457,-2.66427 1.73647,-2.69463 -1.80436,-5.93956 -1.9975,-1.83057 -5.20645,-3.57066 -7.31386,-3.96601 -3.17609,-0.59584 -4.03627,-0.35688 -5.58064,1.55034 -2.23469,2.75973 -2.30012,3.91394 -0.26609,4.69447 0.94374,0.36215 2.71676,-0.51002 4.48957,-2.20848 1.61143,-1.54385 3.16232,-2.57454 3.44643,-2.29043 0.28411,0.28411 -0.3862,1.33354 -1.48957,2.33208 -2.29173,2.07399 -2.68352,5.50555 -0.62857,5.50555 0.75765,0 1.93775,0.675 2.62244,1.5 1.89429,2.28248 4.57431,1.79863 6.52465,-1.17796 z m -21.98245,-5.66747 c 1.73048,0.66404 6.72163,-3.41866 5.86796,-4.79993 -0.29051,-0.47005 -2.26898,-0.85464 -4.3966,-0.85464 -2.98803,0 -4.34008,0.59964 -5.94098,2.63486 -2.74439,3.48893 -2.61594,4.52222 0.41874,3.36844 1.37022,-0.52096 3.19312,-0.67789 4.05088,-0.34873 z M 32.622756,247.29368 c -0.710026,-0.71002 -6.6242,2.01485 -6.638069,3.05841 -0.0092,0.69201 -0.36827,0.59475 -0.899075,-0.24355 C 23.593177,247.75156 21,249.63989 21,253.08366 v 3.14217 l 2.049463,-2.36079 2.049464,-2.36078 -1.549464,3.20034 c -1.536824,3.17424 -2.118046,10.39774 -0.932057,11.58373 0.339574,0.33958 2.796843,-3.72815 5.460598,-9.0394 2.663756,-5.31124 4.708894,-9.79111 4.544752,-9.95525 z M 120.0541,222.97666 c 2.18594,-1.11518 6.11529,-2.17761 8.73191,-2.36095 2.61662,-0.18335 8.3477,-1.89997 12.73574,-3.81472 17.93623,-7.8266 38.56818,-10.17519 91.97825,-10.47013 77.27529,-0.42673 90.59307,-0.80929 96,-2.75767 10.41332,-3.75241 18.85967,-9.0107 19.71142,-12.27138 0.43893,-1.68031 -0.71035,-1.79957 -17.62093,-1.82846 -16.79415,-0.0287 -18.55079,-0.20785 -24.51403,-2.5 -8.44004,-3.24419 -9.35301,-5.40046 -1.94462,-4.59286 2.95249,0.32186 9.41816,1.00171 14.36816,1.5108 4.95,0.50908 11.26464,1.24385 14.03253,1.63282 5.80603,0.81592 16.4581,-1.46571 20.46747,-4.38405 1.375,-1.00083 3.51876,-3.31665 4.7639,-5.14626 2.52268,-3.7068 2.34175,-5.14522 -1.47387,-11.71787 l -2.45467,-4.22832 -3.87784,1.97832 c -3.44119,1.75557 -5.91743,1.97833 -21.99101,1.97833 -16.713,0 -18.08697,-0.13528 -17.77442,-1.75 0.24281,-1.25443 1.32552,-1.76423 3.82332,-1.80025 1.91653,-0.0276 9.86505,-0.14014 17.66339,-0.25 l 14.1788,-0.19975 3.56792,-3.36499 C 354.72272,152.5865 357,146.61987 357,139.41372 c 0,-6.3064 -0.72409,-6.90542 -9.5,-7.85922 -23.79164,-2.58575 -41.46868,-5.93132 -47.31597,-8.95507 -3.43959,-1.77869 -4.05476,-3.24625 -3.97052,-9.4723 0.0577,-4.26211 0.43621,-4.76141 14.40516,-18.999998 7.89027,-8.04258 14.35391,-15.43272 14.36364,-16.42253 0.0296,-3.01228 -2.71429,-7.31508 -7.00923,-10.99139 -3.69582,-3.16348 -4.68053,-3.5008 -10.47334,-3.5877 -3.51669,-0.0528 -7.43027,0.31985 -8.69686,0.82803 -2.25086,0.90308 -2.24076,0.92538 0.44712,0.98733 3.70167,0.0853 3.4721,1.72257 -0.5,3.56581 -2.97774,1.38181 -3.02186,1.46479 -0.52664,0.9905 2.2798,-0.43334 2.61851,-0.23061 2.07962,1.24471 -1.37595,3.76696 -5.33319,6.28599 -17.33697,11.03604 -25.10319,9.93365 -50.24589,16.00341 -66.81826,16.13075 -7.8872,0.0606 -10.23515,-0.7374 -14.14209,-4.80653 -3.90639,-4.06855 -4.85274,-7.85287 -3.21291,-12.84789 1.82193,-5.54967 4.68323,-5.8568 5.66784,-0.60839 l 0.68317,3.64161 4.92812,-4.85402 c 2.71047,-2.66971 4.9275,-5.09593 4.92673,-5.39161 -0.002,-0.85651 -11.62993,-4.03889 -14.70531,-4.02469 -3.46289,0.016 -13.90283,3.23709 -19.12254,5.89999 C 172.88363,79.144922 168,85.210322 168,91.275042 c 0,3.44271 -7.30415,17.810428 -10.62699,20.903958 -3.38902,3.15514 -19.51436,13.8319 -25.61003,16.95666 -2.34464,1.20191 -10.32096,3.9307 -17.72516,6.06397 -7.40419,2.13328 -14.15632,4.50688 -15.00473,5.27468 -0.8484,0.7678 -3.88643,1.70692 -6.75118,2.08694 -4.81763,0.63908 -5.29356,0.94827 -6.33991,4.11877 -1.5595,4.72531 -3.52486,3.6915 -3.11222,-1.63706 0.40148,-5.18433 -1.39716,-5.17531 -4.15733,0.0208 -5.09338,9.58856 2.98593,58.71996 11.21389,68.19323 1.5512,1.78597 3.35219,4.25972 4.00219,5.49722 1.40701,2.67868 3.81407,2.95609 4.33845,0.5 0.28361,-1.3284 0.80361,-0.93935 2.15842,1.6149 1.10843,2.08973 2.13948,3.01022 2.72074,2.42896 1.0593,-1.0593 -3.25525,-9.11069 -9.77471,-18.24057 -2.29272,-3.21073 -4.9246,-7.29967 -5.84862,-9.08654 -1.65872,-3.20761 -5.55452,-26.64789 -5.39601,-32.46675 l 0.0817,-3 1.8431,4 c 1.0137,2.2 2.56131,9.15342 3.43912,15.45205 1.71668,12.31773 2.9816,15.27371 10.50449,24.54795 2.2307,2.75 5.29083,6.9013 6.80029,9.2251 1.50946,2.32381 3.53198,4.49163 4.49448,4.81739 0.9625,0.32576 1.75,1.05233 1.75,1.61461 0,0.85005 3.83402,4.69992 4.78984,4.80963 0.15941,0.0183 2.07833,-0.87915 4.26426,-1.99433 z m 163.40202,-31.0434 c -0.81874,-1.32474 0.25976,-8.89135 1.55775,-10.929 0.67568,-1.06072 0.95999,0.0733 0.97082,3.87244 0.0133,4.66124 0.21388,5.20765 1.51531,4.12756 1.21377,-1.00734 1.5,-0.97346 1.5,0.17756 0,3.00509 -4.12259,5.05114 -5.54388,2.75144 z M 149.5368,188.70077 c -3.22645,-4.92418 -7.17057,-19.18678 -5.57802,-20.17103 0.4913,-0.30364 2.31666,3.84141 4.05635,9.21122 1.7397,5.36982 3.86773,10.5508 4.72897,11.5133 1.42401,1.59145 1.41802,1.75 -0.0661,1.75 -0.89756,0 -2.31112,-1.03657 -3.14124,-2.30349 z M 186.5,188.02003 c -9.85002,-0.50803 -9.9159,-0.52783 -4.39272,-1.31989 3.51522,-0.50411 8.12189,-0.36623 12.34711,0.36956 5.62437,0.97944 8.81856,0.88323 19.29989,-0.58132 8.53265,-1.19227 15.18965,-1.55289 20.76085,-1.12465 5.93595,0.45627 9.55184,0.2205 13.09283,-0.85373 5.89377,-1.78799 8.69284,-1.90814 8.17375,-0.35087 -0.98913,2.9674 -9.23433,3.97135 -34.28171,4.1742 -13.75,0.11135 -29.5,-0.0296 -35,-0.3133 z m 104.732,-6.01577 c 0,-1.925 0.2058,-2.7125 0.45733,-1.75 0.25152,0.9625 0.25152,2.5375 0,3.5 -0.25153,0.9625 -0.45733,0.175 -0.45733,-1.75 z m -37.44668,-11.86461 c -0.89344,-2.27447 -1.44719,-4.13539 -1.23055,-4.13539 0.80236,0 3.55413,6.1733 3.21084,7.20318 -0.19573,0.58717 -1.08686,-0.79333 -1.98029,-3.06779 z M 222.5,163.24238 c -4.95,-0.74004 -14.625,-2.29223 -21.5,-3.44932 -8.90712,-1.4991 -17.7622,-2.17094 -30.80775,-2.33738 -10.06926,-0.12847 -18.58176,-0.5076 -18.91667,-0.8425 -0.3349,-0.33491 6.5993,-0.60892 15.40933,-0.60892 11.83164,0 22.21778,0.78156 39.73812,2.9903 21.82056,2.75085 28.26385,4.03257 25.95539,5.16313 -0.48313,0.23661 -4.92842,-0.17528 -9.87842,-0.91531 z m 27.95888,0.69535 c -0.36253,-0.58659 -0.44468,-1.281 -0.18255,-1.54313 0.26212,-0.26213 0.74306,0.21781 1.06875,1.06653 0.67618,1.76211 0.0999,2.07206 -0.8862,0.4766 z m 35.13699,-4.82753 c -1.23367,-1.36319 -1.62746,-3.2332 -1.40499,-6.67184 0.41771,-6.45615 2.80912,-7.2827 2.80912,-0.97092 0,4.09608 0.34513,4.82623 2.99368,6.33333 1.64652,0.93692 2.99652,2.04099 3,2.45349 0.0132,1.56096 -5.75742,0.66854 -7.39781,-1.14406 z M 294.75,147.92416 c -1.87885,-1.09433 -2.36976,-2.9199 -0.78518,-2.9199 0.53065,0 1.44648,0.9 2.03518,2 1.21704,2.27406 1.15427,2.32026 -1.25,0.9199 z m -27.55,-23.1199 c -2.01356,-2.01356 -1.33439,-3.2316 0.75007,-1.34519 1.38591,1.25424 3.12169,1.65305 6,1.37856 2.22746,-0.21242 4.04993,-0.0368 4.04993,0.3902 0,1.25878 -9.48984,0.88659 -10.8,-0.42357 z m 8.42604,-11.24798 c -0.90468,-1.38072 -2.99064,-3.20632 -4.63546,-4.05689 -5.22979,-2.70443 -3.02275,-4.8338 2.43344,-2.3478 1.47283,0.67107 2.98661,2.56687 3.64672,4.56701 1.40905,4.26946 0.72162,5.14389 -1.4447,1.83768 z M 200.5,106.16258 c -3.55989,-2.17652 -6.0306,-4.96105 -5.16764,-5.82402 0.69326,-0.693258 10.60163,5.74578 10.64185,6.9157 0.0445,1.29346 -2.35612,0.81473 -5.47421,-1.09168 z m 18.26791,104.12715 c -1.50265,-0.22817 -4.20265,-0.23276 -6,-0.0102 -1.79735,0.22256 -0.56791,0.40925 2.73209,0.41486 3.3,0.006 4.77056,-0.17648 3.26791,-0.40466 z M 99.03461,134.09975 c 7.532,-1.12502 28.54897,-7.8888 30.01987,-9.66113 1.02285,-1.23246 -0.52437,-1.43436 -10.99207,-1.43436 -12.09324,0 -12.26375,0.0326 -23.27736,4.45492 -11.63387,4.67133 -14.7956,6.54508 -11.04407,6.54508 1.17754,0 2.44583,0.49325 2.81842,1.09612 0.40401,0.65369 1.94145,0.8398 3.80902,0.46109 1.72237,-0.34927 5.62215,-1.00704 8.66619,-1.46172 z M 341.3607,118.4487 c -0.90772,-2.71944 -1.74058,-5.0623 -1.85079,-5.20634 C 339.29071,112.95586 329,123.0969 329,123.5994 c 0,0.57851 12.496,0.9078 13.25556,0.3493 0.41555,-0.30555 0.0129,-2.78055 -0.89486,-5.5 z M 325,121.32994 c 0,-0.70088 1.27636,-1.93435 2.83635,-2.74105 3.08725,-1.59648 6.27566,-5.48351 10.46884,-12.7627 3.13028,-5.43402 3.26031,-6.569548 1.10471,-9.647098 -1.23885,-1.76871 -1.89308,-2.01872 -2.96176,-1.13179 -1.05341,0.87425 -2.64228,0.53728 -6.84798,-1.45233 -3.01197,-1.42489 -5.85859,-2.59071 -6.32583,-2.59071 -0.46723,0 -3.0507,2.23479 -5.74103,4.9662 l -4.89152,4.966188 3.92911,-0.59643 c 2.16101,-0.32804 4.35661,-0.987828 4.87911,-1.466198 1.49009,-1.36424 3.55,-1.01895 3.55,0.59506 0,2.159818 -2.81555,3.305598 -10.04898,4.089398 -3.61486,0.39171 -7.26541,1.4117 -8.3034,2.32004 -4.06026,3.55313 -6.09773,11.11149 -3.43833,12.75509 1.89128,1.16887 14.93155,3.95701 18.54071,3.96419 1.96979,0.004 3.25,-0.49551 3.25,-1.26786 z m -6.53901,-4.38879 c -0.36137,-0.58472 1.12893,-2.72222 3.31179,-4.75 2.18285,-2.02779 5.15955,-6.04939 6.61487,-8.93689 C 330.98616,98.098572 334,96.250662 334,99.813092 c 0,2.584718 -6.56415,13.279098 -9.78156,15.936198 -2.97942,2.46056 -4.74718,2.82651 -5.75745,1.19186 z M 243,89.586742 c 8.61338,-1.83238 17.95981,-5.0362 22.49068,-7.70948 l 3.67317,-2.16722 -2.83193,-2.43309 c -2.08784,-1.7938 -2.30643,-2.24685 -0.83192,-1.72429 4.59822,1.62959 6.8189,1.61154 10.58341,-0.086 2.1854,-0.98548 3.81564,-2.28017 3.62275,-2.87709 -0.32725,-1.0127 -22.30916,-13.43539 -23.95616,-13.53839 -0.4125,-0.0258 -0.75,0.77465 -0.75,1.77878 0,2.7128 -3.8307,5.70636 -9.77263,7.63695 -4.17085,1.35515 -7.02273,1.56735 -13.64778,1.01548 -7.6292,-0.63551 -8.42806,-0.532 -8.96929,1.16212 -0.32678,1.02287 -3.76084,5.1842 -7.63125,9.2474 -3.8704,4.06321 -6.83713,7.58762 -6.59272,7.83202 0.2444,0.2444 2.61996,1.04223 5.27902,1.77294 6.41756,1.76355 21.25365,1.80901 29.33465,0.0899 z m 23.63495,-17.35424 c -2.12578,-1.45835 -3.359,-2.82022 -2.7405,-3.02639 1.44039,-0.48013 7.31506,2.92668 7.85861,4.55732 0.61658,1.84975 -0.81394,1.42186 -5.11811,-1.53093 z M 292.5,73.004262 c 0.33992,-0.55 0.14148,-1 -0.44098,-1 -0.58246,0 -1.05902,0.45 -1.05902,1 0,0.55 0.19844,1 0.44098,1 0.24254,0 0.7191,-0.45 1.05902,-1 z m -47.58475,-8.80438 c 6.33379,-2.43241 8.29969,-6.24686 6.59245,-12.79139 -6.81181,-26.112357 -13.7515,-40.919293 -21.39122,-45.6415806 -3.40508,-2.104756 -4.6286,-2.227572 -20.93113,-2.101053 -9.52306,0.0739 -17.57187,0.391586 -17.88624,0.705957 -0.31437,0.314371 0.45056,2.947618 1.69985,5.8516586 1.24928,2.904041 2.49385,8.051056 2.76571,11.437811 l 0.49428,6.157738 7.76119,0.687022 c 8.75038,0.774585 13.07319,2.844231 15.42015,7.382757 0.84557,1.63514 2.58643,8.70824 3.8686,15.71801 1.8994,10.38429 2.68868,12.88505 4.26116,13.50095 3.40132,1.33224 12.79201,0.84071 17.3452,-0.90788 z m -5.3397,-9.36056 c -2.43033,-5.8166 -6.44199,-21.04428 -7.69139,-29.195408 -0.66265,-4.323191 -1.69518,-8.274624 -2.29449,-8.780962 -0.59932,-0.506339 -2.58376,-2.212528 -4.40988,-3.791533 -4.41373,-3.8164636 -8.13658,-4.3617236 -17.52103,-2.566183 -8.87667,1.698388 -11.49896,1.876132 -10.10876,0.68519 0.5225,-0.44761 4.84145,-1.5906846 9.59767,-2.5401656 6.94085,-1.3856 9.51545,-1.507817 13.04438,-0.619224 C 224.74535,9.1775704 232,15.00596 232,17.51755 c 0,0.763033 0.7137,1.786741 1.58601,2.274907 1.46464,0.819652 7.45379,15.855265 7.38278,18.534285 -0.0172,0.64764 -1.13986,-0.62248 -2.49488,-2.82248 -3.1431,-5.103125 -3.11565,-4.019967 0.17106,6.75 2.70913,8.87733 3.90255,10.5618 4.6051,6.5 0.35746,-2.06663 0.45634,-2.01444 1.21321,0.64043 0.91699,3.21651 -0.28209,7.71995 -2.22751,8.36593 -0.70761,0.23497 -1.87885,-1.05122 -2.66022,-2.9213 z M 197.38,17.552149 c -0.76987,-2.006257 0.60678,-4.187305 1.61416,-2.557331 0.57161,0.924887 2.4844,0.816916 8.24925,-0.465642 7.93978,-1.766431 13.06887,-1.210711 17.28592,1.872871 3.3778,2.469913 1.00157,2.737272 -4.7537,0.534856 l -5.51471,-2.110358 -7.44425,2.088858 c -8.85793,2.48554 -8.73052,2.476943 -9.43667,0.636746 z M 154,397.62047 c 0,-0.26093 2.39175,-0.97094 5.31499,-1.5778 8.59808,-1.78496 16.23667,-6.08519 32.5616,-18.33092 23.05934,-17.29738 41.39176,-26.07945 49.74083,-23.82816 2.53991,0.68487 2.21189,0.84721 -2.75933,1.36556 -10.53448,1.09845 -24.77288,8.42972 -44.08802,22.70068 -12.34681,9.12242 -20.66128,14.13083 -27.88847,16.79924 C 161.27531,396.81902 154,398.44073 154,397.62047 Z M 87.7626,376.49051 C 82.12498,374.41969 76.56428,370.2211 65.097,359.37692 54.49004,349.34632 51.043924,344.22789 51.043924,338.50426 c 0,-2.84291 0.106772,-2.76436 2.039054,1.5 1.278522,2.82159 5.693042,8.08442 11.835792,14.11021 17.25232,16.92384 24.01221,20.85346 35.99016,20.92159 5.13377,0.0292 5.4323,0.15189 3.64994,1.5 -2.44563,1.84978 -11.70476,1.82467 -16.79627,-0.0455 z M 226,371.63396 c 2.90781,-3.07301 7.48009,-6.23711 12.92259,-8.94268 7.91756,-3.93596 8.93689,-4.18702 17,-4.18702 5.45075,0 10.71259,0.65949 14.4349,1.80918 7.76498,2.39835 6.61249,3.19137 -1.80198,1.23993 -16.47596,-3.82103 -28.89767,-0.50404 -43.12519,11.5158 -3.83927,3.24353 -3.82607,3.21028 0.56968,-1.43521 z m 84.25,-17.37508 c -1.88231,-0.9368 -3.25,-2.38278 -3.25,-3.43605 0,-2.16385 0.67761,-2.21782 4,-0.31857 1.375,0.78602 4.41911,1.44508 6.76469,1.46456 3.45424,0.0287 4.94602,-0.58896 7.85,-3.25026 2.8805,-2.63978 3.58531,-4.01586 3.58531,-7 0,-4.88637 1.44705,-4.76286 2.28468,0.19501 1.72037,10.18277 -10.87106,17.50311 -21.23468,12.34531 z m -8.48774,-24.32786 c -0.95575,-0.55683 -2.23631,-1.94402 -2.84569,-3.08265 -1.09805,-2.05173 -1.08087,-2.05424 1.92216,-0.2803 3.58644,2.11856 5.03897,1.32103 7.66221,-4.20703 2.29879,-4.84433 1.31293,-9.14757 -3.48679,-15.21966 -5.36498,-6.78721 -8.71641,-7.80114 -17.09997,-5.17339 -3.5278,1.10576 -7.61954,2.01627 -9.09275,2.02337 -2.91478,0.014 -5.82143,-2.27355 -5.82143,-4.58158 0,-1.22198 0.39259,-1.19439 2.48164,0.17441 2.31659,1.51788 2.94211,1.48616 9.40523,-0.47695 3.80798,-1.15664 8.33859,-2.10298 10.06803,-2.10298 5.63079,0 11.30762,4.27381 15.9394,12 3.85422,6.42914 2.29843,16.65032 -3.11109,20.4393 -2.57419,1.80303 -3.61785,1.88752 -6.02095,0.48746 z m -81.29101,-15.16718 c 0.0262,-9.35186 -0.23049,-10.78757 -2.90129,-16.22725 -3.40422,-6.93342 -8.88143,-13.20174 -16.39767,-18.76608 -2.93024,-2.16929 -5.09992,-4.17195 -4.82151,-4.45036 2.65827,-2.65827 17.22173,8.68578 22.32065,17.38641 5.54032,9.45384 7.57608,20.89409 5.02213,28.22259 -2.24794,6.45042 -3.25227,4.52882 -3.22231,-6.16531 z M 387.5,318.00426 c 0.33992,-0.55 0.81648,-1 1.05902,-1 0.24254,0 0.44098,0.45 0.44098,1 0,0.55 -0.47656,1 -1.05902,1 -0.58246,0 -0.7809,-0.45 -0.44098,-1 z M 202.16927,315.0422 c -2.35445,-3.87158 -4.53755,-14.30222 -3.60703,-17.23403 0.53038,-1.67108 0.84691,-1.82418 1.46989,-0.71098 1.24442,2.22365 5.22961,19.97866 4.62092,20.58735 -0.2999,0.2999 -1.4176,-0.88915 -2.48378,-2.64234 z M 182,311.37229 c 0,-0.34758 0.96136,-2.18748 2.13636,-4.08867 2.94709,-4.76848 2.7782,-10.29897 -0.46411,-15.19844 -6.78649,-10.25507 -12.19539,-14.23757 -21.1031,-15.53791 C 151.81885,274.97796 137,268.86038 137,265.99172 c 0,-1.33513 -0.002,-1.33571 6.29954,1.5494 3.04767,1.39527 10.63955,3.6746 16.87084,5.06519 13.37988,2.98588 17.21561,5.19985 23.27926,13.43673 7.37258,10.01495 8.21655,16.63918 2.92168,22.93178 C 184.01436,311.7759 182,312.88069 182,311.37229 Z m 63.5,-12.28534 c -4.17309,-1.04966 -10.67775,-4.50776 -12.65207,-6.72628 -0.90864,-1.02103 -4.43424,-6.35641 -7.83467,-11.85641 -9.17528,-14.84049 -16.18705,-21.48182 -22.7136,-21.51365 -1.53981,-0.008 -3.82164,-0.28748 -5.07074,-0.62215 -3.26576,-0.87499 -0.93439,-3.36589 3.14352,-3.35862 9.73434,0.0173 18.68346,7.24126 27.23475,21.98442 7.66683,13.21827 12.30158,17.02506 23.71385,19.47753 1.58367,0.34033 2.6464,1.13833 2.42288,1.81935 -0.48155,1.46721 -4.16213,1.8225 -8.24392,0.79581 z M 62.51965,287.46294 c -2.0467,-2.49773 -6.0324,-6.09773 -8.857112,-8 -2.824713,-1.90228 -4.613816,-3.45868 -3.975786,-3.45868 2.58616,0 13.796538,9.88409 16.612938,14.64748 1.61156,2.72564 -0.15419,1.23607 -3.78004,-3.1888 z m 416.28044,-3.86751 c -2.03494,-0.72658 -5.85994,-3.12247 -8.5,-5.3242 -6.15182,-5.13044 -14.15797,-9.16069 -19.55627,-9.84449 -2.3341,-0.29566 -11.21882,-0.13132 -19.74382,0.36521 l -15.5,0.90278 -13.53562,5.65477 c -7.44458,3.11012 -14.51796,5.65476 -15.71861,5.65476 -5.00581,0 -0.3842,-3.08933 13.55473,-9.06071 l 14.67289,-6.28582 16.01331,-0.83004 c 22.82503,-1.18313 30.42019,0.67036 43.10152,10.5183 3.26804,2.53786 7.40698,4.90731 9.19764,5.26544 4.05391,0.81078 4.85925,1.97721 2.30789,3.34266 -2.32023,1.24175 -1.71467,1.27626 -6.29366,-0.35866 z m -238.18216,-3.40035 c -0.27506,-0.44506 1.88848,-2.6747 4.80786,-4.95476 5.81119,-4.5386 7.91276,-9.34566 6.69304,-15.30943 -0.56119,-2.74393 -1.11319,-3.20238 -4.18801,-3.47829 -3.12325,-0.28026 -3.67204,0.0277 -4.64571,2.60727 -1.74218,4.61556 -10.35316,6.73348 -13.71368,3.37296 -2.58325,-2.58325 -1.84105,-3.21089 3.62582,-3.06616 4.38397,0.11606 5.36809,-0.1978 6.28904,-2.00576 2.91579,-5.7241 6.71782,-6.99857 10.01371,-3.35665 0.99549,1.1 2.3994,2 3.1198,2 3.33835,0 4.51241,9.04599 1.96528,15.14214 -2.44469,5.85095 -12.08394,12.09578 -13.96715,9.04868 z m -54.98944,-14.79355 c -1.57932,-2.49134 -4.67602,-5.72388 -6.88154,-7.18343 -3.50693,-2.32078 -5.24815,-2.70344 -13.87849,-3.05009 -5.42765,-0.218 -9.86846,-0.77819 -9.86846,-1.24487 0,-2.85741 13.41797,-4.03475 20.10078,-1.76372 7.33075,2.49123 15.89922,11.13826 15.89922,16.04501 0,3.13605 -2.4008,1.88329 -5.37151,-2.8029 z m 81.81182,1.4536 c 1.75209,-5.6709 1.77483,-12.72066 0.0556,-17.22251 l -1.73712,-4.54857 -7.62937,-0.2899 c -5.61274,-0.21326 -7.62938,-0.64835 -7.62938,-1.64601 0,-0.99084 2.16442,-1.47998 8.03535,-1.81593 6.88177,-0.3938 8.25924,-0.19911 9.59487,1.35612 6.15272,7.16428 6.46069,25.0007 0.45166,26.15794 -1.54594,0.29772 -1.7427,-0.0455 -1.14157,-1.99114 z m 63.59473,-7.7854 c -1.11953,-2.09186 -0.0147,-6.34199 1.96706,-7.56677 0.80168,-0.49546 0.92274,0.38504 0.42079,3.06063 l -0.70466,3.75619 6.48758,-0.60582 c 3.56817,-0.3332 11.39407,-1.70681 17.39089,-3.05248 5.99681,-1.34566 14.89848,-2.72609 19.78149,-3.06763 6.52524,-0.45639 10.7151,-1.39275 15.80927,-3.5331 3.8121,-1.60167 6.7682,-2.42346 6.56911,-1.82619 -0.19909,0.59727 -3.81129,2.6 -8.0271,4.45051 -5.7131,2.50773 -10.02894,3.60191 -16.94729,4.2966 -5.1052,0.51263 -14.57134,2.07742 -21.03586,3.47732 -14.52478,3.14535 -20.26833,3.30692 -21.71128,0.61074 z M 83,253.51411 c 0,-1.98104 10.06872,-19.50985 11.20665,-19.50985 1.59661,0 0.64731,2.69062 -4.03455,11.43531 C 85.54396,254.08389 83,256.94795 83,253.51411 Z m -7.0922,-4.32912 c 2.3018,-4.51191 10.06126,-14.54501 10.73096,-13.87531 0.68031,0.68032 -10.59109,17.69458 -11.72209,17.69458 -0.52653,0 -0.0805,-1.71867 0.99113,-3.81927 z m -6.87184,1.23588 c -0.0198,-0.59586 1.56101,-2.84586 3.51287,-5 1.95186,-2.15414 3.0991,-3.01661 2.54944,-1.91661 -1.49814,2.99809 -6.02109,8.15842 -6.06231,6.91661 z M 116,248.40938 c 0,-1.17599 6.97127,-13.26933 8.02435,-13.92017 1.57238,-0.97178 1.1812,0.0723 -2.6142,6.97714 C 118.10796,247.47394 116,250.17916 116,248.40938 Z m 52.7758,-2.46756 c -6.99831,-0.42099 -14.42331,-1.3098 -16.5,-1.97514 -7.22531,-2.31489 -18.1625,-12.40905 -15.89849,-14.67306 0.3925,-0.39251 1.65349,-0.12671 2.80219,0.59066 2.29193,1.43134 2.43286,1.32175 5.43083,-4.22295 2.50776,-4.63808 2.67699,-2.30196 0.20224,2.79182 l -2.27893,4.69073 2.48318,1.90934 c 6.24289,4.80023 10.92151,6.09498 24.9974,6.91773 C 182.98217,242.72893 188,243.864 188,246.03944 c 0,1.043 -0.28696,1.04154 -19.2242,-0.0976 z M 134.5,245.00033 c -1.90765,-0.816 -1.8961,-0.85874 0.25,-0.92578 1.2375,-0.0387 2.475,-0.0703 2.75,-0.0703 0.85099,0 0.69853,1.43819 -0.175,1.65079 -0.45375,0.11043 -1.725,-0.18419 -2.825,-0.65472 z m -6.23097,-0.68906 c 0.97297,-0.25354 2.32297,-0.23687 3,0.0371 0.67703,0.27393 -0.11903,0.48137 -1.76903,0.46099 -1.65,-0.0204 -2.20394,-0.2445 -1.23097,-0.49804 z M 144,244.12229 c 0,-0.55 0.45,-1.27811 1,-1.61803 0.55,-0.33992 1,-0.16803 1,0.38197 0,0.55 -0.45,1.27811 -1,1.61803 -0.55,0.33992 -1,0.16803 -1,-0.38197 z m 225.62774,-3.04859 c 1.47454,-1.60161 7.83723,-3.01814 9.35191,-2.08202 0.67996,0.42024 -0.51502,1.00248 -2.81102,1.36962 -2.19659,0.35125 -4.82063,0.93084 -5.83121,1.28798 -1.41303,0.49936 -1.57695,0.36642 -0.70968,-0.57558 z M 20,239.00426 c -0.639122,-1.19421 -0.937041,-2.39629 -0.662041,-2.67129 0.275,-0.275 1.022919,0.47708 1.662041,1.67129 0.639122,1.19421 0.937041,2.39629 0.662041,2.67129 -0.275,0.275 -1.022919,-0.47708 -1.662041,-1.67129 z m 136.53777,-5.75 c 2.11758,-3.29414 7.41686,-10.35096 8.82361,-11.75 0.55303,-0.55 0.24796,0.22167 -0.67793,1.71482 -0.9259,1.49315 -1.68345,3.20703 -1.68345,3.80864 0,1.47177 -6.08837,8.97654 -7.28237,8.97654 -0.52121,0 -0.15215,-1.2375 0.82014,-2.75 z M 35.97033,227.94882 c -0.605021,-1.13049 -0.951861,-2.49997 -0.770757,-3.04328 0.181104,-0.54331 0.846199,0.38164 1.477989,2.05544 1.313918,3.48097 0.920865,4.02997 -0.707232,0.98784 z m 136.84217,-4.62767 c 0.72187,-0.28887 1.58437,-0.25335 1.91667,0.0789 0.33229,0.33229 -0.25834,0.56864 -1.3125,0.52522 -1.16495,-0.048 -1.4019,-0.28494 -0.60417,-0.60416 z m -98.85605,-2.06689 c -0.0239,-0.4125 -0.4153,-2.67219 -0.86966,-5.02154 -0.87191,-4.5083 0.15151,-6.52023 1.77428,-3.48806 0.52877,0.98803 1.27643,3.47563 1.66146,5.52801 0.57303,3.0545 0.40768,3.73159 -0.91124,3.73159 -0.88621,0 -1.63089,-0.3375 -1.65484,-0.75 z M 279.5,220.87972 c -1.65,-0.57419 -5.7,-1.62742 -9,-2.34052 -3.3,-0.7131 -4.875,-1.34487 -3.5,-1.40393 1.375,-0.0591 6.1,0.78198 10.5,1.86899 4.4,1.08701 11.02659,1.9817 14.72575,1.98819 6.41957,0.0113 6.87074,-0.14752 9.91068,-3.48819 1.75171,-1.925 3.64681,-3.5 4.21134,-3.5 0.56453,0 -0.26697,1.35 -1.84777,3 -1.5808,1.65 -2.45249,3.04768 -1.93709,3.10596 3.50159,0.39595 7.27188,-0.5911 9.24261,-2.41968 1.84128,-1.70847 2.17212,-1.79158 1.64301,-0.41275 -1.0409,2.71255 0.81656,2.04387 5.62099,-2.02353 3.89838,-3.30035 4.21973,-3.42448 2.67999,-1.03518 -2.30189,3.57198 -2.24128,3.78518 1.07618,3.78518 1.72109,0 3.74378,-0.97727 5.17431,-2.5 2.8589,-3.04316 4.48033,-3.26602 2.94936,-0.40537 -1.00068,1.86979 -0.89712,2.02356 0.96481,1.43261 1.16523,-0.36983 2.08583,-0.22066 2.08583,0.33798 0,1.49682 -3.9084,2.45217 -9.26323,2.26426 -2.61978,-0.0919 -5.99478,0.43909 -7.5,1.18006 -3.40123,1.6743 -33.26476,2.12215 -37.73677,0.56592 z m 8.5,-3.25302 c 0,-0.20765 0.7875,-0.99515 1.75,-1.75 1.58606,-1.24387 1.62143,-1.2085 0.37756,0.37756 C 288.82119,217.92001 288,218.44974 288,217.6267 Z M 48.431467,213.54001 c -0.888052,-1.35534 -1.800861,-5.29284 -2.028466,-8.75 -0.474483,-7.20708 -0.334195,-7.04273 2.956988,3.46425 2.439281,7.78731 2.0738,9.86787 -0.928522,5.28575 z"
     id="path10388" />
</svg>
