<?xml version="1.0" encoding="UTF-8" standalone="no"?>
<svg
   xmlns:dc="http://purl.org/dc/elements/1.1/"
   xmlns:cc="http://creativecommons.org/ns#"
   xmlns:rdf="http://www.w3.org/1999/02/22-rdf-syntax-ns#"
   xmlns:svg="http://www.w3.org/2000/svg"
   xmlns="http://www.w3.org/2000/svg"
   viewBox="0 0 950.24957 2211.6384"
   height="2211.6384"
   width="950.24957"
   id="svg158"
   version="1.1">
  <metadata
     id="metadata164">
    <rdf:RDF>
      <cc:Work
         rdf:about="">
        <dc:format>image/svg+xml</dc:format>
        <dc:type
           rdf:resource="http://purl.org/dc/dcmitype/StillImage" />
        <dc:title></dc:title>
      </cc:Work>
    </rdf:RDF>
  </metadata>
  <defs
     id="defs162" />
  <path
     id="path168"
     d="m 558.88242,2211.5775 c -1.191,-0.2004 -2.3857,-0.9381 -2.6548,-1.6395 -0.9135,-2.3804 6.751,-28.3482 24.6773,-83.6079 13.2144,-40.735 16.5442,-51.8717 21.5279,-72 3.4019,-13.7402 11.4934,-54.1186 14.6285,-73 0.3197,-1.925 1.45,-8.45 2.512,-14.5 2.262,-12.887 5.5786,-34.6552 6.4753,-42.5 0.3457,-3.025 0.8551,-6.85 1.132,-8.5 0.2769,-1.65 0.6968,-4.575 0.9331,-6.5 0.4313,-3.5134 2.235,-16.3256 2.9563,-21 0.2122,-1.375 0.6527,-4.75 0.9788,-7.5 0.3262,-2.75 1.2327,-9.5 2.0145,-15 2.4909,-17.5238 4.9237,-47.7014 3.7064,-45.9777 -1.7313,2.4516 -12.2968,10.518 -18.7276,14.2977 -24.5081,14.4048 -59.3101,24.3667 -96.9943,27.7642 -3.85,0.3471 -7.9,0.8189 -9,1.0484 -3.0498,0.6364 -44.5568,0.5729 -57,-0.087 -32.8339,-1.7416 -56.108,-4.8989 -88.5039,-12.0059 -8.7047,-1.9096 -46.0753,-13.1037 -53.4961,-16.0244 -3.3,-1.2988 -11.175,-4.3834 -17.5,-6.8546 -28.1714,-11.0066 -54.8902,-23.9559 -78.7609,-38.1715 -16.959,-10.0995 -58.8037,-39.6752 -74.2633,-52.489 -0.9954,-0.825 -4.1594,-3.3 -7.0313,-5.5 -4.8094,-3.6843 -29.982,-24.5081 -32.5687,-26.9421 -0.6183,-0.5819 -3.987295,-3.5329 -7.486595,-6.5579 -8.7117,-7.5309 -15.235,-13.4183 -22.6501,-20.4422 -4.2116,-3.9895 -9.8003,-7.778 -17.0061,-11.5282 -12.4745,-6.4921 -20.4825,-12.1666 -25.5883,-18.1316 -1.9978,-2.334 -3.8559,-4.0201 -4.1291,-3.7469 -1.1707,1.1707 -8.19,35.4375 -10.0064,48.8489 -0.3352,2.475 -0.7861,5.175 -1.0021,6 -0.2159,0.825 -0.6669,3.975 -1.0023,7 -0.3354,3.025 -0.8087,7.3 -1.0518,9.5 -0.2431,2.2 -0.8784,7.825 -1.4118,12.5 -4.2155003,36.9466 -5.3427003,73.2046 -5.4403003,175 -0.1105,115.2064 1.1476,164.782 5.8752003,231.5 0.2728,3.85 0.7631,10.825 1.0894,15.5 0.3264,4.675 0.747,10.3 0.9347,12.5 0.1877,2.2 0.6167,8.725 0.9533,14.5 0.3366,5.775 0.8394,12.3431 1.1174,14.5959 0.5499,4.456 -1.0607,6.8416 -4.2097,6.2351 -2.7915,-0.5375 -3.0623003,-2.6083 -5.9290003,-45.331 -0.2584,-3.85 -1.1163,-16.45 -1.9065,-28 -0.7902,-11.55 -1.7116,-27.975 -2.0477,-36.5 -0.3361,-8.525 -0.7948,-17.3 -1.0193,-19.5 -1.83890004,-18.0184 -2.76900004,-222.2888 -1.23390004,-271 0.95180004,-30.2009 2.36600004,-52.7477 4.35930004,-69.5 4.1987,-35.2875 8.6598003,-62.318 13.0021003,-78.782 1.4097,-5.3449 2.7814,-10.843 3.0483,-12.218 0.2668,-1.375 0.8346,-2.8539 1.2617,-3.2864 0.4272,-0.4326 0.2541,-3.5826 -0.3847,-7 -1.2204,-6.5298 -1.0227,-16.7041 0.4407,-22.6753 0.4769,-1.9461 2.907,-11.4326 5.4003,-21.0811 2.4933,-9.6486 4.7544,-18.6486 5.0247,-20 0.2703,-1.3515 2.7799,-11.2322 5.5768,-21.9572 2.7969,-10.725 6.2117,-24.675 7.5885,-31 7.5712,-34.784 13.8231,-57.0988 20.7324,-74 8.733,-21.3623 11.1974,-27.0107 14.9602,-34.2875 2.2147,-4.2831 5.8898,-9.9081 8.167,-12.5 4.03,-4.5871 4.1247,-4.8588 3.5594,-10.2125 -0.8917,-8.4455 0.6793,-14.436 7.211595,-27.5 3.3002,-6.6 6.3634,-12.45 6.8071,-13 2.7765,-3.4419 22.2047,-42.2879 27.0071,-54 1.8042,-4.4 3.6477,-8.9 4.0967,-10 3.3904,-8.3062 9.718,-31.9021 12.8718,-48 6.6846,-34.1193 7.9267,-38.9723 12.5414,-49 2.4992,-5.4307 9.5718,-15.3196 13.6555,-19.093 3.4259,-3.1656 9.6168,-7.1978 11.2711,-7.3411 0.5082,-0.044 0.8147,-2.7568 0.6811,-6.0284 -0.1585,-3.8855 0.6261,-9.1717 2.2626,-15.2429 5.5074,-20.4318 6.6546,-31.9736 6.6401,-66.804 -0.013,-31.4392 0.6773,-39.3276 5.0535,-57.7479 l 2.963,-12.47144 -2.2621,-6.1356 c -2.7582,-7.4816 -3.0079,-20.6453 -0.8563,-45.1357 2.5197,-28.6795 1.8828,-71.69304 -1.3622,-92 -0.2637,-1.65 -0.7605,-5.25 -1.1041,-8 -1.3962,-11.17635 -8.8628,-51.28174 -16.4765,-88.5 -4.4442,-21.725 -8.2989,-40.625 -8.566,-42 -5.2621,-27.08966 -10.5732,-48.7101 -15.8446,-64.5 -9.5525,-28.61349 -11.7643,-37.84919 -11.7631,-49.11961 5e-4,-5.01579 0.5219,-10.09312 1.1587,-11.28295 0.8301,-1.55122 0.8658,-3.07358 0.126,-5.38038 -0.5675,-1.76939 -2.4072,-10.64206 -4.0883,-19.71706 -5.4296,-29.30968 -13.8837,-69.3267 -19.62,-92.86972 -1.3896,-5.70334 -2.6889,-11.10334 -2.8874,-12 -0.1985,-0.89665 -1.0872,-4.33028 -1.975,-7.63028 -0.8878,-3.3 -3.372,-12.75 -5.5205,-21 -2.1485,-8.25 -4.8311,-18.375 -5.9613,-22.5 -2.4767,-9.03975 -7.5473,-30.30808 -10.013095,-42 -0.986,-4.675 -3.0102,-14.125 -4.4982,-21 -3.1378,-14.49716 -3.3095,-15.33836 -4.0836,-20 -0.3196,-1.925 -1.2023,-6.425 -1.9614,-10 -0.7591,-3.575 -2.0681,-10.43873 -2.9089,-15.25272 -1.4474,-8.28701 -4.0125,-22.28173 -5.0859,-27.74728 -0.27,-1.375 -0.7375,-3.85 -1.0388,-5.5 -0.3013,-1.65 -1.3957,-7.5 -2.4319,-13 -1.7647,-9.36692 -4.8403,-27.77678 -8.52,-51 -4.9276,-31.09876 -8.4544,-53.48096 -8.9817,-57 -0.5978,-3.9896 -5.9968,-34.96257 -7.5827,-43.500004 -0.4597,-2.475 -1.0876,-5.85 -1.3953,-7.5 -1.2662,-6.79002 -3.96,-18.70441 -6.7828,-30 -5.6367,-22.5555 -5.3469,-20.58091 -3.2455,-22.11754 1.5913,-1.16358 2.2036,-1.16595 3.946,-0.0153 1.1343,0.74911 2.2022,2.43545 2.373,3.74742 0.1708,1.31197 1.3717,5.9854 2.6686,10.3854 1.297,4.4 3.0979,11.825 4.0021,16.5 0.9042,4.675 2.041,9.85 2.5263,11.5 0.4852,1.65 1.1245,4.575 1.4206,6.5 0.9716,6.31697 2.4077,14.333664 4.4783,25.000004 1.1211,5.775 4.7662,28.05 8.1003,49.5 7.1581,46.0527 10.5287,66.24195 16.027,96 2.2356,12.1 4.4704,24.25 4.9662,27 2.6311,14.59481 9.194795,48.85301 10.441895,54.5 0.7896,3.575 2.1275,9.65 2.9732,13.5 1.5108,6.87738 6.5597,28.24444 10.397,44 1.7627,7.2373 4.6165,18.12535 10.3531,39.5 1.107,4.125 2.1548,8.175 2.3284,9 0.3798,1.8056 5.9969,24.28277 7.9968,32 0.7839,3.025 1.624,6.625 1.867,8 0.5465,3.09372 8.3695,41.01819 9.5919,46.5 1.1011,4.93798 2.969,14.26474 3.6292,18.12056 1.9445,11.35826 4.4345,23.59139 4.9823,24.47777 0.3599,0.58233 2.8973,-2.68906 5.6388,-7.26977 10.6771,-17.84041 19.5425,-30.95589 27.9358,-41.32856 30.8229,-38.09158 64.8833,-67.23788 108.3646,-92.73032 3.3,-1.93474 8.3814,-4.93189 11.292,-6.66032 11.6453,-6.91539 39.3794,-19.10977 57.1347,-25.12147 20.1328,-6.81669 50.7764,-15.06525 68.6142,-18.46936 4.3775,-0.83539 9.0841,-1.74876 10.4591,-2.02969 10.8025,-2.20715 53.5932,-8.0772 65.5,-8.98534 4.4,-0.33559 9.125,-0.81707 10.5,-1.06996 2.3959,-0.44064 4.9382,-0.64776 24,-1.9552 4.675,-0.32066 10.75,-0.76185 13.5,-0.98041 29.0629,-2.30987 94.8894,-2.33245 137.9786,-0.0473 28.0916,1.48976 37.2758,2.14305 42.5214,3.02463 1.375,0.23109 5.65,0.7003 9.5,1.04269 3.85,0.3424 8.8,1.00992 11,1.48339 2.2,0.47347 6.025,1.14238 8.5,1.48647 6.5262,0.9073 25.8497,5.24531 38.0316,8.53787 34.4065,9.2995 60.0934,20.58237 82.8069,36.37266 4.0362,2.80593 8.3112,5.77239 9.5,6.59213 4.8883,3.37072 17.4706,13.52284 21.8393,17.62122 2.5728,2.41359 4.971,4.38834 5.3293,4.38834 0.3584,0 0.4103,-2.5875 0.1154,-5.75 -0.881,-9.44873 -2.1796,-34.19038 -3.11,-59.25 -0.2961,-7.975 -0.7484,-19.675 -1.0052,-26 -0.2567,-6.325 -0.7201,-21.175 -1.0296,-33 -0.6708,-25.62468 -2.2876,-67.89528 -2.9452,-77 -0.2582,-3.575 -0.7135,-10.1 -1.0118,-14.5 -0.8608,-12.69774 -4.5369,-55.69697 -5.0439,-59 -0.4776,-3.11069 -0.6428,-4.65951 -2.4534,-23 -0.5973,-6.05 -1.4972,-14.6 -1.9997,-19 -1.1811,-10.34029 -2.66,-26.20173 -3.4965,-37.500004 -0.9846,-13.30045 -3.4594,-58.05096 -4.0923,-74 -0.3601,-9.075 -0.8115,-16.76416 -1.0031,-17.08703 -0.1916,-0.32287 0.3045,-1.51912 1.1024,-2.65834 1.6588,-2.36833004 5.117,-2.01324004 5.8757,0.60334 0.2619,0.90312 0.9532,12.66703 1.5362,26.14203 0.9822,22.69737 1.2899,28.08242 2.5434,44.5 0.2519,3.3 0.7165,10.275 1.0325,15.5 1.1719,19.381634 2.1455,29.703384 7.4515,79.000004 1.036,9.625 2.1589,20.65 2.4952,24.5 0.3364,3.85 0.7856,8.575 0.9984,10.5 0.3999,3.6189 0.8131,9.28392 2.48,34 1.784,26.45232 2.5158,43.16648 3.5465,81 0.2922,10.725 0.7458,24.675 1.0081,31 0.2622,6.325 0.7277,18.475 1.0344,27 0.7824,21.74461 2.4109,56.35997 2.9875,63.5 1.1626,14.39626 1.3964,26.781 0.5359,28.38886 -0.5527,1.03263 -0.578,3.33728 -0.062,5.67495 1.1452,5.19148 2.771,20.48279 3.5019,32.93619 0.3228,5.5 1.0264,16.75 1.5635,25 0.5372,8.25 1.2188,18.825 1.5147,23.5 0.2959,4.675 0.7125,10.3 0.9257,12.5 0.2133,2.2 0.6891,11.425 1.0574,20.5 0.3682,9.075 0.9949,22.35 1.3926,29.5 0.7982,14.34947 0.5395,52.11641 -0.4691,68.5 -1.953,31.72192 -2.2272,42.673 -1.8906,75.5 0.203,19.8 0.576,38.475 0.8289,41.5 0.2529,3.025 0.7139,11.8 1.0244,19.5 0.631,15.64427 1.4391,21.67292 5.2078,38.85061 4.0641,18.52416 2.1814,29.93318 -6.5874,39.92028 l -3.2308,3.6797 0.6473,9.7747 c 0.356,5.3761 0.765,11.7997 0.9089,14.2747 0.6474,11.1346 -2.0594,26.3969 -7.8921,44.5 -3.0524,9.4738 -8.3032,28.34844 -9.4587,34.00004 -2.0892,10.2188 -15.2203,60.0212 -18.0609,68.5 -1.7505,5.225 -4.5998,12.3888 -6.3317,15.9195 -3.5867,7.3119 -11.7429,16.815 -15.17,17.6751 -2.0424,0.5126 -2.8327,1.867 -4.0293,6.9054 -0.3891,1.6383 -12.1514,33.3642 -14.4592,39 -0.4505,1.1 -2.3956,5.825 -4.3226,10.5 -1.9269,4.675 -4.6856,11.425 -6.1305,15 -1.4448,3.575 -3.0496,7.4 -3.5663,8.5 -8.1286,17.3063 -36.0404,98.4994 -54.9164,159.7475 -4.8617,15.775 -10.5542,23.8716 -20.8396,29.6409 l -6.0409,3.3884 -1.2385,6.6116 c -3.2042,17.1045 -7.2904,27.082 -24.4134,59.6116 -9.4476,17.9483 -21.6037,46.8719 -20.7474,49.3657 0.2579,0.7511 -0.065,1.6955 -0.7172,2.0986 -0.6523,0.4032 -5.616,13.9636 -11.0305,30.1344 -12.6349,37.7355 -18.7596,54.9669 -23.9492,67.3804 -3.6673,8.772 -3.9848,10.1159 -2.625,11.1102 2.3544,1.7216 1.8787,3.1749 -1.8361,5.61 -5.1132,3.3518 -8.1092,14.751 -9.0151,34.3007 -0.5117,11.0418 -1.952,15.5514 -6.6909,20.9487 -3.644,4.1503 -5.0165,8.9371 -8.3582,29.1516 -6.4892,39.2533 -7.7403,51.6682 -7.9002,78.3997 -0.1446,24.1748 -0.2664,25.7129 -2.3442,29.5959 -1.799,3.3619 -2.228,5.9606 -2.3942,14.5 -0.2389,12.2791 -0.9126,19.2568 -5.0118,51.9041 -3.2921,26.2188 -3.5957,28.4924 -6.8776,51.5 -3.0016,21.0426 -2.9551,20.7347 -5.0564,33.5 -13.5855,82.534 -19.7391,108.286 -42.2948,177 -6.3549,19.3595 -10.7635,33.1508 -16.1432,50.5 -0.6822,2.2 -2.5066,8.725 -4.0543,14.5 -1.5477,5.775 -3.3005,10.9751 -3.895,11.5559 -0.5946,0.5807 -2.0555,0.8919 -3.2464,0.6915 z m -35.3346,-357.0405 c 3.575,-0.5629 8.975,-1.2805 12,-1.5945 4.7386,-0.4919 13.0069,-1.9135 24.5,-4.2121 13.6315,-2.7264 34.6614,-10.3242 48.2578,-17.4349 13.5433,-7.0829 15.3176,-8.2913 22.6867,-15.4502 9.2399,-8.9764 11.7914,-14.1787 12.3711,-25.2239 0.4801,-9.1461 -0.1714,-9.9918 -4.8156,-6.2505 -9.2067,7.4167 -25.9001,15.9417 -38,19.4059 -8.5717,2.4541 -36.1307,6.8972 -50,8.0611 -4.125,0.3462 -8.85,0.7829 -10.5,0.9706 -11.6497,1.3251 -28.4537,1.6167 -30.4861,0.529 -4.5131,-2.4153 -0.3525,-3.7845 13.4861,-4.4382 30.9281,-1.461 71.7305,-7.1406 82,-11.4144 11.232,-4.6743 28.203,-14.6212 34.656,-20.3124 2.5833,-2.2783 2.6721,-2.7391 3.246,-16.8424 0.5441,-13.372 1.0798,-19.7451 2.0384,-24.25 0.4574,-2.1497 -0.7642,-2.2697 -2.4483,-0.2404 -1.9697,2.3732 -15.4127,12.2626 -22.6264,16.6451 -14.6873,8.9228 -34.4583,14.2113 -61.3657,16.4146 -8.9537,0.7331 -51.9714,0.7474 -60.5,0.02 -2.75,-0.2346 -9.275,-0.7065 -14.5,-1.0488 -17.5103,-1.1471 -26.9069,-2.3152 -49,-6.0914 -11.876,-2.0298 -53.2926,-10.2125 -58,-11.4591 -1.925,-0.5097 -5.3,-1.2105 -7.5,-1.5573 -2.2,-0.3468 -4.242,-0.7785 -4.5377,-0.9594 -1.2092,-0.7397 -33.9696,-6.3274 -40.4623,-6.9014 -8.7206,-0.771 -32.5116,-4.1671 -42.5,-6.0667 -16.4537,-3.1294 -70.0009,-15.3052 -74.75,-16.9971 -9.2702,-3.3026 31.1523,21.6262 49.7638,30.6896 6.6276,3.2275 25.1595,11.8023 25.5071,11.8023 0.1919,0 1.6157,0.5191 3.164,1.1537 1.5483,0.6345 3.2651,1.2604 3.8151,1.3909 0.55,0.1305 5.05,2.0083 10,4.1729 4.95,2.1646 13.5,5.6457 19,7.7356 5.5,2.09 11.35,4.368 13,5.0622 1.65,0.6942 4.125,1.5873 5.5,1.9847 1.375,0.3974 3.85,1.2863 5.5,1.9754 17.5085,7.3124 39.5018,14.347 59.5,19.0311 16.3037,3.8187 16.4599,3.8775 16.8196,6.3218 0.176,1.1963 -0.2176,2.1717 -0.8763,2.1717 -4.5369,0 -45.7913,-10.9763 -56.4433,-15.0175 -1.1,-0.4173 -13.925,-5.274 -28.5,-10.7926 -53.5251,-20.2664 -73.7475,-29.2931 -104.1548,-46.4916 -3.6601,-2.0702 -7.2027,-4.4242 -7.8724,-5.2311 -0.6697,-0.807 -1.608,-1.4672 -2.085,-1.4672 -1.138,0 -13.7079,-8.1376 -16.7908,-10.8701 -1.3217,-1.1714 -2.8592,-2.1299 -3.4167,-2.1299 -0.5575,0 -0.7295,-0.2842 -0.3822,-0.6315 0.9528,-0.9527 -1.1751,-4.3685 -2.7214,-4.3685 -3.0355,0 -64.7913,-19.2236 -97.948895,-30.49 -5.4297,-1.8449 -9.4797,-2.9945 -9,-2.5546 9.6686,8.8661 46.142495,39.7306 54.491095,46.1108 2.9596,2.2618 9.5849,7.3347 14.723,11.2731 10.6782,8.1851 13.8827,10.5338 32.3122,23.6827 17.863,12.7449 22.4355,15.6885 40.8459,26.295 8.8995,5.1271 37.2702,19.683 38.364,19.683 0.2731,0 3.3404,1.3117 6.8162,2.9148 18.617,8.5865 57.189,22.7183 75.3198,27.5953 36.4302,9.7995 64.8977,14.5098 97.5,16.1329 6.875,0.3423 12.6859,0.786 12.9131,0.9861 0.9049,0.7969 56.0106,-0.4654 62.0869,-1.4222 z m 36.5,-90.7484 c 4.95,-0.3199 9.9,-0.7658 11,-0.9909 1.1,-0.225 3.8,-0.6625 6,-0.9721 8.4565,-1.19 21.309,-4.652 28.5,-7.6768 7.1212,-2.9955 20.9647,-11.2684 26.1166,-15.6072 1.3109,-1.104 5.1334,-4.2676 8.4944,-7.0302 5.3554,-4.4018 6.1854,-5.5582 6.7123,-9.3521 1.2637,-9.0984 1.7566,-12.3853 2.1035,-14.0272 0.3455,-1.6353 -2.6136,-0.3412 -12.9268,5.6534 -1.6621,0.9661 -10.7852,4.6865 -12.5,5.0975 -0.275,0.066 -1.175,0.3867 -2,0.7129 -3.9622,1.5666 -19.392,4.5928 -37,7.2567 -10.8051,1.6347 -34.862,3.4173 -36.75,2.7231 -0.6875,-0.2528 -1.25,-1.4891 -1.25,-2.7473 0,-2.1646 0.3748,-2.2878 6.9624,-2.2878 12.3417,0 41.4184,-3.5988 54.9498,-6.8011 3.6233,-0.8575 7.3244,-1.7147 8.2248,-1.905 5.6179,-1.1874 22.3241,-8.8104 27.4789,-12.5385 l 6.116,-4.4232 1.7478,-9.9859 c 0.9612,-5.4922 1.998,-10.6382 2.304,-11.4354 0.3384,-0.8819 0.1298,-1.186 -0.5327,-0.7765 -1.2483,0.7715 -10.7372,3.5423 -34.251,10.0014 -9.075,2.4929 -29.325,8.7988 -45,14.0131 -36.4362,12.1206 -64.7435,20.8052 -81.9202,25.1328 -16.0584,4.0459 -14.8772,3.8071 -37.0798,7.4953 -17.1125,2.8426 -19.7429,3.2272 -31,4.5331 -3.025,0.3509 -6.625,0.8047 -8,1.0085 -5.6728,0.8407 -30.1563,3.4215 -39,4.111 -7.3304,0.5715 -8.7007,0.8892 -6,1.3911 1.925,0.3578 15.875,3.1839 31,6.2802 43.7547,8.9573 67.3297,12.0955 100,13.3117 9.625,0.3583 17.6569,0.7841 17.8487,0.9462 0.4702,0.3975 28.4366,-0.3859 39.6513,-1.1108 z m -167.5,-29.428 c 6.325,-0.5973 12.175,-1.2869 13,-1.5323 0.825,-0.2455 7.35,-1.1434 14.5,-1.9954 47.6667,-5.6798 66.2089,-9.6691 111.5,-23.9884 6.325,-1.9997 14.875,-4.6978 19,-5.9956 4.125,-1.2979 13.575,-4.4451 21,-6.9939 23.2247,-7.9721 39.7999,-12.9131 71,-21.1646 7.5548,-1.998 15.2408,-5.6349 17.9271,-8.4827 4.2221,-4.4761 5.1072,-7.5333 5.6825,-19.6269 0.3074,-6.4629 1.1358,-14.3382 1.8408,-17.5007 0.705,-3.1625 1.0726,-5.75 0.8168,-5.75 -0.2557,0 -3.233,1.5198 -6.6161,3.3772 -37.6975,20.6976 -69.9719,32.5085 -105.1707,38.4876 -20.4536,3.4743 -30.9261,5.0982 -36.5581,5.6687 -2.9823,0.3021 -8.7973,0.9698 -12.9223,1.4837 -4.125,0.514 -21.45,2.2929 -38.5,3.9531 -17.05,1.6603 -33.025,3.216 -35.5,3.4573 -15.943,1.554 -38.1692,2.7467 -40.4618,2.1713 -2.1821,-0.5476 -2.4876,-0.9549 -1.5574,-2.0758 1.4699,-1.7711 4.248,-2.2913 16.0192,-2.9997 9.1239,-0.549 16.9611,-1.1798 25.5,-2.0524 2.2,-0.2249 7.375,-0.66 11.5,-0.967 4.125,-0.307 16.05,-1.4483 26.5,-2.5363 10.45,-1.0881 21.7,-2.2343 25,-2.5472 17.2207,-1.6328 56.6579,-7.2429 67,-9.5309 23.6629,-5.2351 29.0288,-6.7807 49,-14.1137 17.5055,-6.4277 60.5,-28.5594 60.5,-31.1428 0,-0.6358 2.0274,-5.8267 4.5054,-11.5354 4.2197,-9.7213 11.5565,-28.8406 12.9752,-33.813 0.5834,-2.0445 0.05,-1.9048 -6.9242,1.813 -4.156,2.2155 -7.5564,3.8135 -7.5564,3.5511 0,-0.2624 -2.7072,0.8343 -6.0159,2.437 -3.3088,1.6028 -6.6572,2.9142 -7.441,2.9142 -0.7838,0 -1.7032,0.45 -2.0431,1 -0.3399,0.55 -1.2714,1 -2.0699,1 -0.7986,0 -3.3595,0.8516 -5.691,1.8924 -2.3315,1.0408 -9.4141,3.7354 -15.7391,5.988 -22.1515,7.8891 -43.65,13.1343 -66,16.1027 -4.675,0.6209 -9.625,1.2924 -11,1.4921 -1.375,0.1998 -7.9,0.8497 -14.5,1.4442 -13.5844,1.2237 -43.2231,3.8512 -51.5,4.5656 -3.025,0.2611 -10.45,0.9069 -16.5,1.4351 -6.05,0.5283 -16.4,1.2597 -23,1.6255 -6.6,0.3657 -14.25,0.8379 -17,1.0492 -6.6533,0.5113 -71.039,0.4914 -75.5,-0.023 -1.925,-0.2221 -9.35,-0.7032 -16.5,-1.0691 -7.15,-0.3658 -14.35,-0.8294 -16,-1.0301 -1.65,-0.2007 -12.4092,-1.0866 -23.9093,-1.9687 -20.5681,-1.5776 -25.1052,-2.4773 -24.3123,-4.8213 0.6371,-1.8834 10.8744,-1.496 47.7216,1.8058 2.475,0.2218 9.45,0.6737 15.5,1.0042 6.05,0.3306 13.6491,0.8188 16.8868,1.0849 7.9962,0.6574 68.281,0.6361 77.6132,-0.027 4.125,-0.2933 14.475,-0.9966 23,-1.5629 34.459,-2.2891 96.5601,-7.9628 109.5,-10.0042 3.3,-0.5206 7.8,-1.1939 10,-1.4963 4.8378,-0.665 19.7576,-3.9476 28,-6.1605 8.7329,-2.3445 33.6634,-10.4374 36,-11.6861 1.1,-0.5879 2.225,-1.107 2.5,-1.1535 3.4087,-0.5767 40.1539,-16.6667 45.7814,-20.0467 0.1547,-0.093 0.4671,-1.0174 0.6941,-2.0543 0.3207,-1.4643 13.8719,-42.2002 16.0204,-48.1584 0.5098,-1.4137 -1.0692,-0.7271 -7.4959,3.2594 -1.925,1.1941 -6.425,3.7552 -10,5.6914 -3.575,1.9362 -11,5.9815 -16.5,8.9896 -18.1267,9.9141 -42.5612,20.9829 -49.1709,22.2745 -1.006,0.1966 -4.5291,1.2588 -7.8291,2.3604 -10.9861,3.6676 -39.3541,10.4678 -41.0127,9.8313 -0.8993,-0.3451 -1.4894,-1.345 -1.3112,-2.2219 0.2375,-1.1691 5.2599,-2.8621 18.8239,-6.3454 19.7758,-5.0786 34.8046,-9.7231 44.5,-13.7525 5.9375,-2.4676 27.7417,-13.2247 34.5,-17.0205 1.925,-1.0812 8,-4.3851 13.5,-7.3421 5.5,-2.9569 13.2975,-7.4184 17.3277,-9.9143 l 7.3277,-4.538 4.2598,-10.9994 c 4.7714,-12.3206 14.7042,-34.82 18.0861,-40.968 4.3982,-7.9953 12.4987,-23.5816 12.4987,-24.0487 0,-0.5489 -14.2437,9.4557 -15,10.5357 -0.275,0.3927 -7.7,5.5662 -16.5,11.4966 -15.9062,10.7192 -31.9816,19.222 -45.1246,23.8679 -8.9367,3.1589 -26.7115,8.6291 -29.9443,9.2154 -1.3906,0.2521 -4.419,1.0892 -6.7297,1.86 -10.5614,3.5233 -54.5218,13.2692 -69.7014,15.4527 -14.1067,2.0291 -15.075,2.0571 -15.6904,0.4535 -0.9603,-2.5025 0.7816,-3.2262 11.7039,-4.8625 11.4499,-1.7154 34.7083,-6.1128 39.4865,-7.4657 1.65,-0.4672 7.275,-1.8361 12.5,-3.0421 19.7594,-4.5605 52.1158,-14.3149 64.5,-19.4447 14.9052,-6.174 27.4366,-13.7328 51.3572,-30.978 8.4464,-6.0893 17.3214,-12.4215 19.7222,-14.0715 3.674,-2.5251 4.7675,-4.1081 6.9076,-10 1.3984,-3.85 3.3822,-10.8953 4.4083,-15.6562 l 1.8658,-8.6562 -12.6305,-0.7289 c -11.4994,-0.6635 -44.5281,-0.07 -59.5564,1.0695 -15.0805,1.1439 -43.3555,3.5692 -46.0742,3.9521 -4.4521,0.6269 -20.1387,2.401 -27,3.0535 -3.3,0.3138 -7.35,0.745 -9,0.9582 -1.65,0.2133 -6.6,0.6734 -11,1.0226 -4.4,0.3493 -9.575,0.7934 -11.5,0.987 -1.925,0.1937 -6.65,0.6366 -10.5,0.9844 -3.85,0.3478 -8.125,0.7947 -9.5,0.9931 -1.375,0.1984 -6.55,0.65 -11.5,1.0035 -4.95,0.3536 -21.15,1.7243 -36,3.0461 -14.85,1.3218 -36.45,3.0985 -48,3.9482 -11.55,0.8498 -23.025,1.753 -25.5,2.0072 -2.475,0.2543 -7.425,0.7178 -11,1.0302 -3.575,0.3124 -8.3,0.7765 -10.5,1.0315 -19.1502,2.2191 -31.5251,3.4325 -40,3.9222 -5.5,0.3177 -12.025,0.7815 -14.5,1.0306 -2.475,0.2491 -10.35,0.6938 -17.5,0.9882 -7.15,0.2944 -15.925,0.7454 -19.5,1.0024 -3.575,0.2569 -11.675,0.721 -18,1.0313 -6.325,0.3103 -13.7388,0.8133 -16.4751,1.1178 -15.7432,1.7518 -27.0366,2.1681 -53.7026,1.9795 l -29.6777,-0.2099 7.6777,2.1443 c 13.2379,3.6973 47.3491,11.8103 56.6777,13.4802 2.75,0.4923 6.125,1.1026 7.5,1.3562 19.0801,3.5199 76.1345,10.1472 108.5,12.6032 24.6571,1.8711 25.8905,2.0225 26.6856,3.2759 2.1631,3.4094 -0.2794,3.7523 -17.1856,2.4125 -5.225,-0.4141 -12.425,-0.9699 -16,-1.2353 -3.575,-0.2653 -8.525,-0.6972 -11,-0.9597 -2.475,-0.2625 -11.25,-1.1375 -19.5,-1.9445 -8.25,-0.807 -16.575,-1.6818 -18.5,-1.9441 -1.925,-0.2622 -9.125,-1.2055 -16,-2.0961 -25.7078,-3.3302 -34.816,-4.7064 -46.5,-7.026 -23.2854,-4.6228 -43.4419,-9.5205 -72,-17.4948 -7.7,-2.1501 -17.1143,-4.396 -20.9207,-4.9909 -3.8063,-0.5949 -7.3117,-1.3234 -7.7897,-1.6188 -0.478,-0.2954 -6.3637,-1.4129 -13.0793,-2.4832 -14.8623,-2.3688 -38.3183,-8.0231 -49.3579,-11.8983 -4.4812,-1.573 -8.4205,-2.5871 -8.7539,-2.2536 -0.3335,0.3335 -1.7047,-0.4255 -3.0471,-1.6866 l -2.440695,-2.2929 -2.98,3.2626 c -7.6139,8.3362 -26.898,55.5445 -33.2361,81.3637 l -1.1983,4.8817 5.4018,5.1437 c 2.9711,2.8291 7.8769,7.1512 10.9019,9.6046 3.025,2.4534 5.725,4.7247 6,5.0472 0.275,0.3225 4.325,3.2238 9,6.4472 13.376295,9.2232 14.306695,9.8894 16.400895,11.7439 1.0869,0.9625 2.3057,1.75 2.7085,1.75 0.4027,0 4.2553,2.1554 8.5614,4.7898 16.1388,9.8734 52.2717,24.9041 78.8292,32.7916 9.3655,2.7815 11.2801,4.0658 9.1854,6.1614 -0.99,0.9903 -2.6584,0.8269 -8.2139,-0.8044 -3.8343,-1.1259 -7.6465,-2.2132 -8.4715,-2.4163 -3.219,-0.7924 -29.7466,-10.3791 -34,-12.2871 -4.0097,-1.7987 -7.5561,-3.2645 -9,-3.72 -4.6405,-1.4639 -26.9559,-12.6869 -33.0229,-16.6082 -3.3245,-2.1487 -6.2488,-3.9068 -6.4984,-3.9068 -0.6218,0 -31.260595,-21.9369 -34.943395,-25.0189 -1.6306,-1.3646 -5.4968,-4.8441 -8.5916,-7.7322 l -5.6268,-5.2511 -2.2389,10.2511 c -1.2315,5.6381 -5.0153,21.5089 -8.4085,35.2684 l -6.1695,25.0173 3,2.5809 c 7.6872,6.6132 34.5467,21.6334 51.5,28.7995 3.025,1.2786 7.299995,3.1161 9.499995,4.0833 2.2,0.9672 7.375,2.978 11.5,4.4685 4.125,1.4905 11.55,4.2141 16.5,6.0524 12.9311,4.8023 37.7111,12.7981 43.3015,13.9722 0.9342,0.1962 3.6173,1.0481 5.9624,1.8932 2.3452,0.8451 4.3702,1.4917 4.5,1.437 0.1299,-0.055 8.3361,1.8041 18.2361,4.1307 29.009,6.8175 33.3172,7.7858 47,10.5633 13.1218,2.6635 16.989,4.3954 14.7699,6.6145 -1.1298,1.1298 -19.3564,-2.0627 -40.7699,-7.1411 -4.4,-1.0435 -9.35,-2.1327 -11,-2.4204 -3.0115,-0.525 -19.3934,-4.6543 -34.0974,-8.5947 -25.6572,-6.8756 -57.6321,-17.9869 -85.402595,-29.6773 -18.214,-7.6674 -46.9348,-23.4694 -53.6445,-29.5148 -1.1795,-1.0627 -2.3706,-1.5609 -2.647,-1.107 -0.2764,0.4539 -1.4454,5.1002 -2.5978,10.3252 -1.1524,5.225 -3.6737,15.5728 -5.603,22.9952 -4.1484,15.9603 -4.4704,23.6497 -1.4089,33.6495 2.1729,7.097 5.0891,11.7449 10.3447,16.4874 3.8339,3.4594 19.1206,12.5477 27.0565,16.0855 3.3,1.4711 9.375,4.1969 13.5,6.0573 12.0151,5.4189 22.582695,8.9973 84.499995,28.6131 38.1603,12.0894 105.2103,28.4073 130,31.6378 2.75,0.3584 6.125,0.8363 7.5,1.0619 27.9289,4.5838 62.6829,5.9282 89,3.4428 z m -152.5,-51.534 c -7.15,-1.8221 -18.4,-4.9319 -25,-6.9107 -6.6,-1.9788 -12.675,-3.7853 -13.5,-4.0145 -2.7269,-0.7577 -58.381,-19.3886 -64.5,-21.5922 -6.4215,-2.3126 -21.1974,-8.4964 -31,-12.9737 -3.3,-1.5073 -8.249995,-3.756 -10.999995,-4.9971 -20.5973,-9.2957 -23.5,-10.894 -23.5,-12.94 0,-2.242 1.9587,-2.6822 4.7636,-1.0706 0.955,0.5488 7.1364,3.4165 13.7364,6.3727 6.6,2.9563 14.474995,6.5057 17.499995,7.8877 19.444,8.883 28.5194,12.2957 65,24.4428 17.325,5.7688 32.175,10.6339 33,10.8114 0.825,0.1775 6.675,1.8978 13,3.8228 10.1465,3.0882 21.5466,6.2367 26,7.1808 11.8631,2.5149 13.9644,3.6171 11.8204,6.2006 -1.3592,1.6376 -0.9811,1.6891 -16.3204,-2.22 z m 119.5,-107.4926 c -22.0441,-0.996 -40.6058,-2.0248 -45.5,-2.5218 -25.2612,-2.5653 -25.5,-2.6125 -25.5,-5.0411 0,-1.3299 2.3252,-1.9568 6,-1.6176 1.3393,0.1235 29.0582,2.1813 49,3.6375 14.0321,1.0247 87.4452,1.4565 101,0.594 22.626,-1.4396 35.2925,-1.6368 35.6433,-0.5549 0.8934,2.7558 -1.7909,3.4404 -17.6716,4.5069 -20.7645,1.3946 -81.2183,1.9799 -102.9717,0.997 z m 87.7001,-67.625 c -0.1101,-0.1033 -2.4501,-0.4348 -5.2001,-0.7366 -18.62,-2.0433 -60.7813,-6.6888 -64.5,-7.1069 -2.475,-0.2783 -9.9,-1.2011 -16.5,-2.0507 -6.6,-0.8496 -18.3828,-1.8238 -26.184,-2.1649 -7.8011,-0.341 -14.6789,-0.926 -15.2838,-1.2999 -0.605,-0.3739 -0.8116,-1.4313 -0.4591,-2.3498 0.5407,-1.409 2.2265,-1.6688 10.7839,-1.6619 10.0516,0.01 17.646,0.6859 39.643,3.5377 8.0519,1.0439 10.4098,1.3216 16.5,1.9434 3.3,0.3369 7.35,0.7888 9,1.0044 1.65,0.2155 7.95,0.8918 14,1.5029 18.6977,1.8885 41.9606,5.0982 42.7828,5.9029 1.3394,1.3108 -0.3436,3.9716 -2.4135,3.8157 -1.083,-0.082 -2.0591,-0.2329 -2.1692,-0.3363 z m -223.0139,-26.4262 c -15.1547,-3.1292 -37.4617,-8.5173 -40.963,-9.8944 -1.2227,-0.4809 -5.5982,-1.863 -9.7232,-3.0713 -18.4288,-5.3982 -36.0653,-12.3985 -52.4996,-20.8382 -6.0497,-3.1069 -11.2247,-5.8877 -11.5,-6.1797 -0.2752,-0.2919 -3.8581,-2.5386 -7.9619,-4.9925 -9.622695,-5.754 -13.083595,-8.6955 -12.381995,-10.5238 0.8558,-2.2301 2.6578,-1.7701 8.3178,2.1233 7.424095,5.1069 20.501395,12.5193 31.793795,18.0211 5.3525,2.6079 10.864,5.3036 12.2477,5.9904 2.2499,1.1168 8.5113,3.3901 25.9842,9.4339 10.6255,3.6753 33.8318,9.8411 52.5655,13.9664 10.4074,2.2918 19.1085,4.3527 19.3356,4.5799 0.2272,0.2272 0,1.2735 -0.494,2.3252 -0.8829,1.861 -1.2757,1.836 -14.7209,-0.9403 z m 266.3138,-50.0995 c -35.3508,-1.6939 -39.7173,-2.2771 -38.7099,-5.1709 0.4456,-1.28 9.0264,-1.252 34.2099,0.1117 21.2278,1.1496 52.4606,0.647 77.3943,-1.2455 18.5306,-1.4064 22.5392,-1.471 23.2347,-0.3741 1.9895,3.1381 0.7864,3.5547 -12.629,4.3726 -5.5,0.3353 -11.0144,0.7699 -12.2542,0.9658 -9.6915,1.5316 -51.0254,2.3092 -71.2458,1.3404 z m 172.1761,-28.7232 c -1.0693,-0.678 -1.0075,-1.1557 0.3214,-2.4847 0.905,-0.9049 2.4007,-1.6571 3.3239,-1.6716 1.6054,-0.025 14.5043,-3.1064 26.1786,-6.2534 3.025,-0.8155 10.3457,-3.1389 16.2681,-5.1631 10.4811,-3.5823 15.2035,-3.9497 14.109,-1.0976 -0.418,1.0895 -5.0115,3.6518 -7.3771,4.1152 -0.275,0.054 -1.175,0.3846 -2,0.735 -6.6569,2.8272 -43.2385,12.69 -47,12.6717 -1.375,-0.01 -3.0957,-0.3898 -3.8239,-0.8515 z m -374.6761,5.9992 c 4.95,-0.5306 14.4,-1.2468 21,-1.5916 6.6,-0.3448 14.25,-0.817 17,-1.0492 5.4387,-0.4594 17.2483,-1.1193 36,-2.0117 14.5098,-0.6905 29.0805,-1.926 53,-4.494 19.4976,-2.0933 59.3458,-5.4825 77,-6.5491 6.05,-0.3655 11.225,-0.7936 11.5,-0.9512 0.275,-0.1576 4.55,-0.5749 9.5,-0.9272 4.95,-0.3524 10.575,-0.8465 12.5,-1.098 1.925,-0.2516 6.425,-0.6839 10,-0.9607 17.5215,-1.3568 54.9606,-4.7998 76,-6.9892 12.925,-1.345 26.2,-2.702 29.5,-3.0155 3.3,-0.3136 7.575,-0.7704 9.5,-1.0152 6.1554,-0.7827 25.136,-2.3494 37,-3.054 6.325,-0.3757 12.625,-0.83 14,-1.0097 3.8149,-0.4983 51.5927,-0.4675 59.226,0.038 6.4501,0.4273 6.9565,0.2906 12.3496,-3.3347 7.4792,-5.0276 10.3914,-9.6765 14.9051,-23.7942 2.0789,-6.5022 4.1429,-12.7222 4.5867,-13.8222 2.1343,-5.29 2.1997,-6.7185 0.2813,-6.138 -1.0168,0.3077 -2.9737,0.7775 -4.3487,1.0441 -1.375,0.2665 -5.751,1.1297 -9.7244,1.9182 -5.5975,1.1107 -7.5883,1.1675 -8.8403,0.252 -1.4327,-1.0475 -1.4454,-1.323 -0.1123,-2.4294 0.827,-0.6864 2.7801,-1.4538 4.3403,-1.7056 6.6871,-1.0788 20.3362,-4.7295 21.6438,-5.789 1.3401,-1.0858 3.5073,-7.4099 20.2622,-59.1281 3.7375,-11.5368 8.7197,-26.1429 11.0715,-32.4582 2.3519,-6.3153 4.1446,-11.6139 3.9839,-11.7746 -0.1607,-0.1608 -3.4046,1.2219 -7.2085,3.0727 -14.1976,6.9076 -20.3743,9.6359 -21.8155,9.6359 -0.8155,0 -1.7191,0.3826 -2.0081,0.8502 -0.6697,1.0836 -12.8406,4.8305 -18.0926,5.5698 -9.5198,1.3402 -14.4506,1.821 -25.8729,2.523 -15.8164,0.972 -109.4993,0.9521 -125.6271,-0.027 -19.2111,-1.1659 -30.6288,-1.9871 -33.1797,-2.3865 -1.2762,-0.1997 -5.6953,-0.6487 -9.8203,-0.9976 -4.125,-0.349 -11.55,-1.0562 -16.5,-1.5716 -4.95,-0.5154 -16.875,-1.2242 -26.5,-1.575 -9.625,-0.3509 -17.8973,-1.0009 -18.3828,-1.4446 -0.4855,-0.4436 -0.5851,-1.5822 -0.2214,-2.5301 0.6036,-1.5729 2.1232,-1.667 17.3828,-1.0765 9.1968,0.3559 23.6964,1.3193 32.2214,2.141 8.525,0.8216 17.975,1.7341 21,2.0277 3.025,0.2935 11.125,1.0605 18,1.7043 14.2777,1.3371 123.7983,1.7419 144.5,0.5341 26.3979,-1.5401 35.8777,-4.3323 65.735,-19.3614 3.7042,-1.8645 7.24,-3.2754 7.8573,-3.1351 0.6172,0.1402 2.9062,-4.245 5.0865,-9.745 4.0887,-10.3141 16.7489,-41.647 21.8189,-54 2.7108,-6.6049 6.1363,-15.9648 11.711,-32 3.7014,-10.6467 4.1296,-11.5 5.7699,-11.5 1.8756,0 1.8776,-0.2118 0.042,-4.6053 -1.9782,-4.7344 -4.5285,-6.795 -14.0205,-11.3282 -12.7367,-6.0829 -44.3526,-16.6016 -56,-18.6314 -1.65,-0.2875 -4.575,-0.9287 -6.5,-1.4249 -27.4631,-7.0785 -71.9031,-5.4946 -112.5,4.0096 -4.4,1.0301 -17.675,3.9511 -29.5,6.4911 -11.825,2.5399 -22.4,4.8167 -23.5,5.0594 -1.1,0.2427 -9.65,2.4179 -19,4.8337 -40.7773,10.5358 -49.4186,12.7061 -56.496,14.1894 -10.9107,2.2866 -10.7189,2.2487 -20.307,4.0135 -4.8417,0.8912 -8.6667,1.7561 -8.5,1.9219 0.7026,0.6992 27.2546,3.3553 49.803,4.982 4.675,0.3373 10.3,0.7871 12.5,0.9997 2.2,0.2126 8.275,0.6623 13.5,0.9994 5.225,0.3371 11.075,0.7764 13,0.9763 1.925,0.1998 7.775,0.6545 13,1.0104 5.225,0.3558 11.075,0.8114 13,1.0124 1.925,0.201 9.8,0.6629 17.5,1.0266 7.7,0.3636 15.2801,0.8145 16.8446,1.0019 1.5645,0.1874 11.0643,0.4412 21.1107,0.5638 16.5908,0.2026 18.3728,0.3938 19.4287,2.0845 1.9043,3.0493 -1.0467,3.3634 -25.065,2.6679 -25.9376,-0.751 -45.1846,-1.8631 -75.819,-4.3806 -3.025,-0.2486 -8.65,-0.6826 -12.5,-0.9645 -3.85,-0.2819 -9.7,-0.7322 -13,-1.0006 -3.3,-0.2685 -9.6,-0.7394 -14,-1.0464 -4.4,-0.3071 -17,-1.4205 -28,-2.4742 -11,-1.0537 -24.05,-2.1812 -29,-2.5056 -4.95,-0.3243 -9.9818,-0.7913 -11.1819,-1.0377 -1.2,-0.2464 -8.175,0.4325 -15.5,1.5088 -7.3249,1.0762 -21.4181,2.8949 -31.3181,4.0417 -32.7906,3.7981 -68.709,8.3488 -74.5,9.4389 -1.375,0.2588 -8.35,1.3935 -15.5,2.5216 -7.15,1.1281 -14.575,2.324 -16.5,2.6575 -1.925,0.3335 -4.85,0.8074 -6.5,1.0531 -1.65,0.2456 -6.825,1.0617 -11.5,1.8135 -4.675,0.7518 -12.325,1.8651 -17,2.4741 -4.675,0.6089 -16.825,2.2079 -27,3.5532 -35.0634,4.6362 -57.3265,6.7488 -85.4679,8.1106 -9.6432,0.4666 -14.387,1.095 -15.3215,2.0294 -0.7444,0.7444 -1.9339,1.3535 -2.6434,1.3535 -0.8257,0 -1.1232,0.8719 -0.8266,2.4231 0.3742,1.9575 -0.277,2.8909 -3.3887,4.8573 -2.1186,1.3388 -5.7699,4.4109 -8.114,6.8269 l -4.2622,4.3927 14.7622,0.2898 c 14.0775,0.2764 32.3753,-0.9429 64.2621,-4.2824 7.975,-0.8352 16.975,-1.762 20,-2.0595 3.025,-0.2975 8.65,-0.9648 12.5,-1.4828 55.0644,-7.4082 109.9094,-12.7664 133.5,-13.0425 25.5783,-0.2993 25,-0.3474 25,2.0774 0,1.5125 -0.6703,2.0026 -2.75,2.0108 -21.4457,0.084 -50.8657,1.6079 -66.75,3.4577 -6.6,0.7685 -14.7,1.6702 -18,2.0036 -8.4352,0.8523 -31.406,3.4755 -35,3.9969 -2.5762,0.3737 -19.9623,2.4364 -54.5,6.4657 -4.675,0.5454 -11.875,1.3305 -16,1.7446 -4.125,0.4141 -7.95,0.8034 -8.5,0.8652 -0.55,0.062 -5.5,0.4694 -11,0.9058 -5.5,0.4364 -10.9,1 -12,1.2524 -1.1,0.2524 -12.35,0.6862 -25,0.9639 -26.2631,0.5766 -24.7383,0.036 -28.5361,10.1244 -2.3968,6.3671 -3.6257,11.5462 -8.1941,34.534 -2.5237,12.6985 -2.8871,15.9845 -1.8396,16.6318 1.7865,1.1042 12.6875,2.7596 30.5698,4.6422 17.6991,1.8634 83.2857,2.667 105,1.2865 7.7,-0.4896 28.4,-2.6913 46,-4.8928 17.6,-2.2014 34.025,-4.2201 36.5,-4.4859 2.475,-0.2658 8.325,-0.9172 13,-1.4477 15.7144,-1.783 39.7281,-3.3774 41.3712,-2.7469 2.5809,0.9904 1.8944,3.4774 -1.1212,4.062 -1.5125,0.2933 -6.8,0.8018 -11.75,1.13 -13.0007,0.8622 -38.2521,3.3604 -51,5.0455 -6.05,0.7998 -16.625,2.1313 -23.5,2.9589 -6.875,0.8277 -15.425,1.9334 -19,2.4572 -18.2126,2.6685 -43.8786,3.7611 -82.5,3.5118 -37.3429,-0.2411 -64.5441,-2.214 -83.0771,-6.0256 l -3.0771,-0.6328 -1.7848,6.8404 c -2.9154,11.1733 -8.6337,29.3505 -10.7785,34.2624 -1.0995,2.5179 -3.4854,8.0121 -5.3021,12.2094 l -3.3031,7.6315 8.1614,2.5169 c 8.5366,2.6326 14.7702,4.2048 20.6613,5.211 37.3639,6.382 41.4929,6.8322 82.8662,9.0359 10.0223,0.5338 11.1338,0.8298 11.1338,2.9649 0,1.9549 -2.8421,2.6062 -9.0827,2.0814 -2.9795,-0.2505 -11.0423,-0.7218 -17.9173,-1.0472 -30.671,-1.452 -69.6394,-7.2407 -87.8101,-13.0442 -4.2294,-1.3508 -8.3649,-2.4514 -9.1899,-2.4456 -0.9278,0.01 -4.826,6.4867 -10.2189,16.9872 -4.7954,9.3373 -8.1994,16.9768 -7.5645,16.9768 0.635,0 2.0835,0.8573 3.2189,1.9052 3.6663,3.3834 14.941,8.9878 25.142,12.4974 9.7444,3.3526 35.4975,9.9957 42.4225,10.943 1.925,0.2634 6.65,0.9462 10.5,1.5173 27.2721,4.0459 69.6565,4.3378 95.5,0.6576 1.925,-0.2741 5.75,-0.729 8.5,-1.0109 4.7992,-0.4919 17.2728,-2.1876 22.5,-3.0587 1.375,-0.2291 6.0873,-0.9094 10.4718,-1.5118 4.3844,-0.6023 8.2135,-1.2446 8.5089,-1.4272 0.7976,-0.4929 37.9504,-5.6679 42.0193,-5.8528 2.8467,-0.1294 3.5555,0.2295 3.7975,1.9228 0.2712,1.8974 -0.4823,2.1924 -8.5,3.328 -10.8187,1.5324 -45.6246,6.7625 -53.7975,8.0838 -3.3,0.5336 -7.575,1.1746 -9.5,1.4246 -14.0442,1.8237 -20.1487,2.5867 -24.5,3.0622 -42.8802,4.6855 -84.9597,2.9224 -119,-4.986 -31.6903,-7.3624 -48.4676,-13.8374 -57.65,-22.2494 l -2.65,-2.4277 -3.5459,6.3413 c -6.0121,10.7515 -7.9348,15.9967 -8.3672,22.8252 -0.3138,4.9571 0.021,7.3421 1.4003,9.9685 1.6421,3.1273 2.8487,3.8046 12.8128,7.1924 20.4112,6.9398 48.5364,12.6052 76.5,15.4097 3.575,0.3586 7.85,0.8153 9.5,1.015 1.65,0.1996 8.625,0.6607 15.5,1.0244 6.875,0.3638 12.7172,0.8587 12.9827,1.0998 0.82,0.7447 48.9885,-0.5432 58.5173,-1.5645 z m 216.091,-70.9819 c -1.1536,-1.8666 2.2337,-3.873 8.409,-4.9806 3.575,-0.6412 15.5,-2.3241 26.5,-3.7396 18.4175,-2.3701 27.0285,-3.2845 46,-4.8844 7.6246,-0.643 58.7545,-0.7791 62,-0.165 1.1,0.2081 10.1,0.7033 20,1.1004 9.9,0.3971 19.35,0.8759 21,1.064 1.65,0.1881 10.6421,0.6501 19.9824,1.0267 13.9267,0.5615 17.1946,0.9748 18.1614,2.2969 0.6483,0.8867 0.9333,2.0096 0.6331,2.4953 -0.4626,0.7484 -28.8778,0.084 -37.1876,-0.8695 -1.4241,-0.1634 -10.4643,-0.6134 -20.0893,-1.0001 -9.625,-0.3866 -17.8119,-0.891 -18.1931,-1.121 -0.3812,-0.23 -13.4312,-0.4393 -29,-0.4652 -25.7272,-0.043 -35.6496,0.2749 -48.8069,1.5626 -2.475,0.2422 -7.425,0.7185 -11,1.0583 -7.2523,0.6893 -30.2225,3.6868 -45.5,5.9373 -11.9301,1.7575 -12.2354,1.7737 -12.909,0.6839 z m 221.0756,-35.7728 c -0.092,-0.069 -5.7916,-0.4399 -12.6666,-0.8241 -14.8739,-0.8313 -16.2062,-0.9391 -31.9524,-2.5863 -11.9248,-1.2475 -15.9503,-2.6945 -14.4134,-5.1812 0.592,-0.958 9.6848,-0.6378 19.8658,0.6994 11.4099,1.4986 30.7012,2.685 49.2759,3.0304 11.9482,0.2222 22.0218,0.4228 22.3856,0.4457 0.8171,0.051 0.4813,2.7321 -0.4601,3.6736 -0.5398,0.5397 -31.3559,1.254 -32.0348,0.7425 z m -486.9824,-16.0913 c -13.4832,-0.3323 -13.8082,-0.3923 -13.5,-2.4918 l 0.3158,-2.1513 59,-0.2351 c 32.45,-0.1293 60.125,-0.4415 61.5,-0.6937 1.375,-0.2522 9.475,-0.7855 18,-1.1851 8.525,-0.3995 15.725,-0.8518 16,-1.0051 0.275,-0.1532 4.325,-0.5695 9,-0.9252 4.675,-0.3556 14.7532,-1.3428 22.3961,-2.1939 11.4853,-1.2789 14.0415,-1.3179 14.7347,-0.2247 2.3427,3.6951 2.8523,3.6009 -42.1308,7.7855 -10.3573,0.9634 -20.0587,1.5382 -49.5,2.9326 -15.7007,0.7436 -72.1158,0.972 -95.8158,0.3878 z m 47.4168,-77.0944 c -0.8969,-1.676 -0.6291,-2.1416 1.8141,-3.1536 3.2915,-1.3634 2.7524,-1.2707 22.5849,-3.8836 13.8667,-1.8269 18.3983,-2.3278 33.5,-3.7026 3.025,-0.2754 9.55,-0.9189 14.5,-1.43 4.95,-0.5112 12.375,-1.2099 16.5,-1.5529 4.125,-0.3429 8.625,-0.7831 10,-0.9782 1.375,-0.1951 8.35,-0.6607 15.5,-1.0347 7.15,-0.374 13.2378,-0.8189 13.5284,-0.9887 0.2906,-0.1697 8.6156,-0.6812 18.5,-1.1366 36.5941,-1.6858 128.6498,-0.5146 130.8544,1.6649 0.4855,0.48 0.5859,1.6465 0.223,2.5922 -0.5965,1.5543 -1.8341,1.6476 -12.8828,0.9718 -22.2573,-1.3614 -104.0107,-1.4004 -124.223,-0.059 -10.45,0.6934 -23.95,1.5733 -30,1.9553 -6.05,0.382 -11.675,0.8615 -12.5,1.0656 -0.825,0.2041 -5.1,0.6399 -9.5,0.9685 -4.4,0.3285 -9.575,0.7893 -11.5,1.024 -1.925,0.2347 -6.2,0.6719 -9.5,0.9716 -18.9094,1.7174 -37.3246,3.5561 -39.5,3.944 -1.375,0.2451 -7.2688,1.1372 -13.0974,1.9824 -5.8286,0.8452 -11.3066,1.8088 -12.1733,2.1414 -0.979,0.3756 -1.9745,-0.1401 -2.6283,-1.3616 z m 420.6163,-36.7755 c -0.1195,-0.1034 -6.9673,-0.4707 -15.2173,-0.8163 -8.25,-0.3456 -17.925,-0.8343 -21.5,-1.0861 -3.575,-0.2517 -10.55,-0.7106 -15.5,-1.0197 -16.8211,-1.0504 -57.4156,-4.7427 -65.5,-5.9577 -1.375,-0.2066 -5.425,-0.6648 -9,-1.0181 -3.575,-0.3533 -11.675,-1.2675 -18,-2.0315 -6.325,-0.764 -15.1,-1.6924 -19.5,-2.0632 -4.4,-0.3708 -8.675,-0.8077 -9.5,-0.9709 -0.825,-0.1632 -2.0625,-0.3312 -2.75,-0.3733 -0.6875,-0.042 -1.25,-0.9765 -1.25,-2.0765 0,-1.7358 0.6667,-2 5.0466,-2 2.7756,0 13.2381,0.8929 23.25,1.9843 10.0119,1.0914 20.5142,2.2323 23.3385,2.5353 2.8242,0.303 6.1992,0.7565 7.5,1.0076 2.5693,0.4962 50.3797,4.9672 63.3649,5.9256 25.7033,1.8972 47.3303,2.785 73.3078,3.0096 29.3757,0.2539 33.3906,0.7392 30.4494,3.6804 -0.783,0.783 -8.5689,1.1924 -24.7327,1.3006 -12.9745,0.087 -23.6877,0.073 -23.8072,-0.03 z m 146.9522,-65.0407 c -0.093,-0.07 -7.8195,-0.4354 -17.1695,-0.8119 -9.35,-0.3764 -18.8,-0.8517 -21,-1.0562 -2.2,-0.2045 -8.05,-0.6466 -13,-0.9823 -4.95,-0.3358 -13.275,-1.0172 -18.5,-1.5144 -5.225,-0.4972 -12.65,-1.1892 -16.5,-1.5379 -9.6822,-0.8769 -49.4027,-5.669 -67.2178,-8.1095 -4.6162,-0.6324 -6.6133,-2.2067 -5.3639,-4.2282 0.6504,-1.0525 4.7909,-0.7963 21.6928,1.3419 11.4889,1.4534 22.0139,2.8207 23.3889,3.0385 3.4972,0.5538 38.1299,4.2637 46,4.9275 23.8669,2.0132 38.8983,2.8557 72.4299,4.0598 12.7536,0.458 16.043,1.4324 13.4751,3.9917 -0.7643,0.7618 -17.3292,1.562 -18.2355,0.881 z m -627.1695,34.0637 c 4.95,-0.2814 10.8,-0.6989 13,-0.9279 2.2,-0.2289 7.375,-0.6864 11.5,-1.0166 8.0345,-0.6431 31.1937,-3.248 34.5,-3.8805 1.1,-0.2104 4.7,-0.6862 8,-1.0573 12.8931,-1.4499 56.4178,-7.6207 63.9096,-9.0609 4.3504,-0.8363 10.2004,-1.7922 13,-2.1243 2.7997,-0.3321 5.3739,-0.7691 5.7204,-0.9712 0.3465,-0.202 6.8715,-1.2579 14.5,-2.3465 7.6285,-1.0886 15.445,-2.2067 17.37,-2.4848 4.8027,-0.6939 35.2418,-4.4146 42,-5.134 46.2616,-4.9241 94.8294,-13.2917 130.9419,-22.5597 8.5569,-2.1961 16.2331,-4.1441 17.0581,-4.3289 0.825,-0.1849 9.375,-2.3489 19,-4.8089 21.1689,-5.4105 29.1559,-7.258 57,-13.185 31.5931,-6.7251 38.7958,-8.0434 49.5,-9.0599 3.85,-0.3656 9.5715,-0.9987 12.7144,-1.4069 20.9453,-2.7205 55.2128,0.2366 81.2856,7.0144 16.472,4.282 46.4242,15.2083 55.261,20.1587 5.5906,3.1319 10.9264,8.7545 11.8901,12.5292 0.5698,2.2317 0.6421,2.2083 3.0831,-1 3.3222,-4.3665 7.3303,-13.3214 10.7632,-24.0475 l 2.8044,-8.7622 -1.9009,-3.5792 c -2.5546,-4.8101 -5.175,-7.3194 -13.161,-12.6031 -9.5206,-6.2992 -31.1876,-15.1648 -42.2841,-17.3018 -1.2368,-0.2382 -3.6454,-0.8837 -5.3523,-1.4344 -7.4526,-2.4044 -33.8705,-6.1601 -45.1035,-6.4121 -19.7467,-0.443 -55.6987,1.9755 -73.5,4.9443 -1.925,0.321 -6.7043,1.1267 -10.6208,1.7903 -3.9164,0.6636 -7.6289,1.0372 -8.25,0.8301 -1.0116,-0.3372 -1.692,-4.2097 -0.7397,-4.2097 0.2143,0 3.9268,-0.6525 8.25,-1.4501 9.344,-1.7237 28.0793,-4.1955 37.8605,-4.9949 3.85,-0.3147 9.925,-0.8261 13.5,-1.1365 17.6189,-1.5297 48.1949,-0.5024 61,2.0495 1.375,0.2741 3.85,0.7509 5.5,1.0596 35.4806,6.6388 68.7017,21.2889 75.3944,33.2482 0.5256,0.9391 1.1508,1.4863 1.3893,1.2159 0.2385,-0.2704 4.1386,-15.3417 8.6668,-33.4917 4.5283,-18.15 10.2787,-39.75004 12.7787,-48.00004 5.4188,-17.8819 8.2348,-30.3541 8.241,-36.5 0,-4.1856 -0.3614,-4.8168 -5.2328,-9.034 -19.4788,-16.8627 -39.777,-23.0952 -79.5837,-24.436 -27.3988,-0.9229 -114.2612,-0.637 -129.1537,0.4251 -30.0703,2.1445 -52.1491,4.1828 -61,5.6315 -6.2509,1.0232 -34.7405,1.6422 -35.2817,0.7667 -1.5681,-2.5373 1.333,-3.7233 9.9525,-4.0688 7.7464,-0.3105 34.4408,-2.5855 44.3292,-3.7779 1.925,-0.2322 7.1,-0.6927 11.5,-1.0234 4.4,-0.3308 9.575,-0.7785 11.5,-0.9949 1.925,-0.2165 11.9613,-0.9301 22.3029,-1.5859 22.3625,-1.4181 138.1186,-0.595 149.1971,1.0609 3.85,0.5754 8.5365,1.2784 10.4144,1.5621 17.1773,2.5956 36.6351,11.2401 46.8206,20.8012 1.7793,1.6702 3.5006,2.7711 3.8252,2.4465 0.3246,-0.3246 0.1517,-5.0188 -0.3842,-10.4316 -0.5359,-5.4128 -0.6278,-10.4694 -0.2041,-11.2369 0.4237,-0.7675 0.152,-3.6925 -0.6039,-6.5 -0.7558,-2.8075 -1.6205,-6.4346 -1.9216,-8.0603 -0.8863,-4.7853 -5.5232,-15.71997 -8.5458,-20.15239 -4.9182,-7.21219 -18.9289,-18.22233 -31.9006,-25.06871 -13.7019,-7.23179 -27.4386,-11.74858 -57,-18.74231 -34.95,-8.2686 -59.8368,-12.29748 -90,-14.57001 -11.6341,-0.87653 -74.9682,-0.58145 -80.5,0.37505 -1.65,0.28531 -9.525,1.01264 -17.5,1.61629 -7.975,0.60366 -16.075,1.27758 -18,1.49762 -1.925,0.22003 -8.45,0.88078 -14.5,1.46834 -6.05,0.58755 -12.125,1.26747 -13.5,1.51092 -1.375,0.24345 -4.075,0.6534 -6,0.91099 -17.2021,2.30194 -28.0373,3.89002 -49,7.18177 -8.525,1.33868 -24.725,3.79681 -36,5.46251 -25.1354,3.71335 -34.196,5.29164 -49,8.53539 -12.747,2.79305 -46.559,13.56217 -60.465,19.25814 -22.248,9.11284 -56.7644,28.4075 -83.9978,46.9548 -15.3456,10.4511 -38.8449,27.9655 -39.3705,29.3435 -0.1834,0.4806 -0.7076,0.8738 -1.1651,0.8738 -0.4574,0 -1.8824,0.8841 -3.1666,1.9647 -1.2843,1.0806 -8.41,6.8694 -15.835,12.8639 -12.8525,10.3764 -24.494,21.0108 -23.7809,21.7238 0.1821,0.1822 4.3699,-0.7819 9.306,-2.1425 4.9362,-1.3605 12.3499,-3.4051 16.4749,-4.5435 4.125,-1.1384 8.1781,-2.2022 9.0069,-2.3639 0.8287,-0.1617 8.0287,-1.9493 16,-3.9723 15.1238,-3.8384 17.7037,-4.4212 33.8735,-7.6513 5.474,-1.0935 7.5886,-0.2647 6.5082,2.5509 -0.2346,0.6111 -7.2804,2.6143 -15.6575,4.4514 -14.9999,3.2896 -55.3751,13.2843 -61.2311,15.1575 -1.65,0.5278 -6.8951,2.0993 -11.6558,3.4923 -9.3332,2.7308 -10.7887,3.9867 -12.718,10.9742 -0.5885,2.1311 -2.1666,4.8018 -3.507,5.9348 -1.9373,1.6375 -3.0599,4.726 -5.474,15.06004 -3.6155,15.4764 -3.8373,16.8999 -4.7466,30.4742 -0.6002,8.9604 -0.4964,10.3595 0.6982,9.4117 0.7718,-0.6123 2.0782,-1.1151 2.9032,-1.1174 2.4652,-0.01 21.1545,-1.2926 26,-1.7888 2.475,-0.2535 7.2,-0.7222 10.5,-1.0415 10.7412,-1.0393 54.1322,-6.5689 66,-8.4107 3.3,-0.5121 9.825,-1.4475 14.5,-2.0787 4.675,-0.6311 13.9,-1.9715 20.5,-2.9787 6.6,-1.0072 13.8,-2.0985 16,-2.4252 7.1003,-1.0542 37.675,-6.784 54,-10.1196 6.1886,-1.2645 69.2739,-13.1415 90,-16.9442 7.15,-1.31194 19.75,-3.72044 28,-5.35224 52.0957,-10.3046 74.1269,-13.902 75.6724,-12.3565 0.6012,0.6012 0.8442,1.742 0.5399,2.5349 -0.5056,1.3177 -2.1461,1.7399 -12.7123,3.2717 -16.9496,2.4572 -40.1988,6.7527 -86,15.88924 -4.125,0.8229 -8.625,1.6807 -10,1.9064 -7.3492,1.2061 -59.6626,11.063 -73,13.7546 -29.9439,6.0431 -68.1182,12.9546 -79.5,14.3935 -2.75,0.3477 -9.05,1.2554 -14,2.017 -4.95,0.7617 -11.25,1.6435 -14,1.9595 -2.75,0.3161 -5.9,0.7592 -7,0.9847 -1.1,0.2255 -4.25,0.6886 -7,1.0291 -2.75,0.3405 -5.675,0.7986 -6.5,1.018 -0.825,0.2194 -3.975,0.6509 -7,0.9588 -3.025,0.308 -6.625,0.7597 -8,1.0038 -1.375,0.2442 -4.3,0.6761 -6.5,0.9598 -31.6956,4.0877 -57.1278,6.4387 -67.1763,6.21 l -7.1762,-0.1634 0.3055,17.5 c 0.4506,25.8163 -1.4605,43.6276 -6.8135,63.5 -0.7408,2.75 -1.6557,6.2748 -2.0331,7.833 l -0.6862,2.8329 10.2899,-0.609 c 5.6595,-0.335 14.3399,-0.8393 19.2899,-1.1206 z m -11.6691,-44.4091 c -7.1486,-0.5651 -8.3918,-1.1232 -7.5262,-3.379 0.4493,-1.1708 3.7893,-1.4507 17.9759,-1.5062 15.2064,-0.06 39.1809,-1.4042 46.7194,-2.6205 1.375,-0.2219 5.875,-0.8747 10,-1.4507 8.8196,-1.2315 30.9817,-4.6749 36,-5.5933 1.925,-0.3523 4.625,-0.806 6,-1.0082 5.9558,-0.8759 32.7541,-6.202 59.5,-11.8255 46.2927,-9.7334 56.1491,-11.6774 57.9095,-11.4214 1.0502,0.1527 2.0219,1.0587 2.1594,2.0134 0.281,1.951 -2.2196,2.8141 -15.1477,5.2283 -4.3566,0.8135 -11.2962,2.1766 -15.4212,3.0291 -4.125,0.8524 -9.075,1.7948 -11,2.0942 -1.925,0.2994 -5.075,0.9389 -7,1.4211 -14.9577,3.7464 -67.6416,14.1636 -83.771,16.564 -2.051,0.3052 -4.854,0.7532 -6.229,0.9956 -8.1556,1.4374 -38.8882,5.6091 -46.5,6.312 -4.95,0.4571 -15.0419,0.9186 -22.4265,1.0256 -7.3846,0.1069 -13.6846,0.2966 -14,0.4216 -0.3154,0.1249 -3.5746,-0.01 -7.2426,-0.3001 z m 62.4664,-83.6949 c -1.2272,-3.1979 -0.9844,-3.2573 44.7027,-10.9409 11.825,-1.98874 23.3,-3.95614 25.5,-4.37204 2.2,-0.4159 9.4,-1.7206 16,-2.8994 6.6,-1.1788 14.835,-2.7414 18.3,-3.4724 5.8667,-1.2378 6.3679,-1.2024 7.2875,0.5159 0.7941,1.4839 0.5396,2.031 -1.3,2.7939 -3.707,1.5374 -24.9515,5.5017 -72.7875,13.58224 -11.275,1.9046 -22.525,3.8947 -25,4.4224 -8.6065,1.8352 -12.1015,1.937 -12.7027,0.3703 z m 625.2027,-10.4453 c -27.1362,-17.89044 -72.824,-30.88704 -108.5794,-30.88704 -10.9223,0 -12.9372,-0.7371 -10.923,-3.9962 1.7889,-2.8944 42.3819,0.618 59.4985,5.1482 2.1979,0.5817 4.7209,1.1972 5.6068,1.3678 12.855,2.4757 39.8272,13.5935 54.3971,22.4223 2.75,1.6663 6.4625,3.79444 8.25,4.72904 1.8485,0.9666 3.25,2.4819 3.25,3.5141 0,3.0279 -4.9095,2.0468 -11.5,-2.2982 z m -397.3514,-41.30754 c -4.4019,-2.3558 -0.7445,-3.8591 12.3514,-5.077 3.3,-0.3068 9.15,-1.0407 13,-1.6308 3.85,-0.5901 17.7169,-2.5182 30.8153,-4.2846 22.7919,-3.0736 23.8571,-3.1335 24.7875,-1.395 1.4416,2.6936 -0.8735,3.3035 -24.1028,6.35 -11.275,1.4787 -21.2798,2.8343 -22.2329,3.0125 -0.953,0.1782 -7.703,1.04 -15,1.9152 -7.2969,0.8752 -14.2324,1.7311 -15.4123,1.902 -1.1798,0.1709 -3.0726,-0.1856 -4.2062,-0.7923 z m -195.6571,-37.5932 c -1.2408,-2.0077 2.3312,-3.9726 7.4496,-4.0981 5.0331,-0.1234 6.9761,-0.2984 21.5589,-1.9418 18.9059,-2.1305 39.0457,-4.8423 63,-8.4829 13.2,-2.0062 25.575,-3.8692 27.5,-4.14 1.925,-0.2708 9.8,-1.5865 17.5,-2.9238 7.7,-1.3373 21.8384,-3.7884 31.4188,-5.4468 11.1791,-1.9353 17.764,-2.6701 18.3827,-2.0514 1.745,1.745 -0.062,3.7969 -3.9645,4.5005 -2.1103,0.3806 -7.437,1.3128 -11.837,2.0715 -4.4,0.7587 -9.35,1.6199 -11,1.9137 -14.765,2.6295 -22.3007,3.9369 -30,5.205 -13.3422,2.1974 -12.856,2.123 -28.6855,4.3924 -8.0771,1.158 -15.5021,2.2566 -16.5,2.4413 -13.743,2.5442 -59.8138,8.2985 -73.4202,9.1704 -8.1677,0.5234 -10.789,0.3831 -11.4028,-0.61 z m 278.5085,-47.89595 c 0,-1.59447 1.1966,-2.10612 7.25,-3.10006 3.9875,-0.65473 12.875,-2.28553 19.75,-3.62399 13.5934,-2.64646 31.9377,-5.56027 50,-7.94205 6.325,-0.83404 12.85,-1.70364 14.5,-1.93245 2.6355,-0.36548 15.5966,-1.606 31,-2.96707 2.75,-0.24299 9.5,-0.69292 15,-0.99984 5.5,-0.30692 14.275,-0.82747 19.5,-1.15678 18.9817,-1.19634 61.9048,-1.85241 78.6643,-1.20238 31.1053,1.20644 57.3001,5.69464 58.1211,9.95844 0.5444,2.82681 -2.6936,2.9525 -12.1245,0.47065 -8.3074,-2.1862 -16.1552,-3.40345 -32.9982,-5.11831 -7.1105,-0.72395 -62.8613,-0.76959 -74.6627,-0.0611 -4.675,0.28065 -13.45,0.76424 -19.5,1.07465 -21.097,1.08243 -42.0502,2.57059 -49,3.48014 -3.85,0.50386 -10.15,1.21439 -14,1.57894 -3.85,0.36456 -7.8017,0.81703 -8.7815,1.00551 -0.9798,0.18847 -7.0548,1.05639 -13.5,1.92872 -12.6565,1.713 -42.2709,6.68415 -53.9263,9.05222 -3.9644,0.80544 -9.0269,1.46444 -11.25,1.46444 -3.3118,0 -4.0422,-0.34507 -4.0422,-1.90965 z m -162.75,-12.9099 c -2.2033,-0.31293 -3.0791,-2.55002 -1.4036,-3.58553 0.8192,-0.50626 19.5173,-3.92408 27.6536,-5.05479 2.2,-0.30573 6.25,-1.00035 9,-1.5436 2.75,-0.54324 9.95,-1.64619 16,-2.45099 6.05,-0.80481 22.475,-3.06583 36.5,-5.02449 14.025,-1.95866 29.1,-4.02299 33.5,-4.5874 4.4,-0.56441 9.125,-1.19437 10.5,-1.3999 4.3251,-0.64653 10.3516,-1.47489 14.5,-1.99305 18.2002,-2.27335 37.4384,-4.71719 39.5,-5.0177 1.375,-0.20043 4.975,-0.64383 8,-0.98534 3.025,-0.34152 15.5654,-2.00573 27.8675,-3.69827 17.8276,-2.45274 22.5278,-2.81788 23.1574,-1.79904 0.4345,0.70305 0.5952,1.786 0.3571,2.40654 -0.3599,0.93787 -11.8264,2.94835 -29.382,5.15166 -1.925,0.2416 -4.9532,0.67441 -6.7293,0.96179 -1.7761,0.28739 -6.7261,0.92645 -11,1.42015 -4.2739,0.4937 -18.5707,2.30792 -31.7707,4.03161 -13.2,1.72368 -25.125,3.25551 -26.5,3.40405 -4.4073,0.47614 -14.4197,1.74438 -17,2.15334 -1.375,0.21792 -6.1,0.87914 -10.5,1.46937 -4.4,0.59023 -9.125,1.25564 -10.5,1.47869 -1.375,0.22305 -7.9,1.13186 -14.5,2.01957 -22.3697,3.00878 -24.9922,3.37149 -31.5,4.35679 -15.367,2.3266 -27.3623,4.22953 -40,6.34562 -7.425,1.24326 -14.5125,2.11667 -15.75,1.94092 z m -209.3569,115.39665 c 4.0906,-7.4531 16.4346,-21.0742 26.1069,-28.8077 2.475,-1.9788 8.325,-6.7045 13,-10.5013 25.4207,-20.6459 60.2545,-45.4871 82,-58.4771 12.1652,-7.26705 32.077,-18.27964 38,-21.01657 11.9788,-5.53523 16.784,-7.62426 23.5,-10.21653 3.85,-1.48604 7.9,-3.10246 9,-3.59206 5.3428,-2.37799 24.3715,-8.44422 36,-11.47658 16.4623,-4.29287 40.5423,-8.66356 71.5,-12.97776 5.5775,-0.77727 8.9668,-1.30919 16,-2.51106 32.2718,-5.5148 87.4778,-12.55256 114,-14.5329 4.675,-0.34908 10.075,-0.79181 12,-0.98386 30.268,-3.01975 85.655,-2.00143 115.5,2.12351 2.2,0.30407 5.125,0.70583 6.5,0.89281 8.5733,1.16584 11.9972,1.70642 16,2.5262 2.475,0.50688 8.1,1.66494 12.5,2.57346 15.9671,3.29693 57.1816,13.54892 64.5,16.04418 11.7989,4.0229 20.6975,8.47848 31.5,15.77213 11.2867,7.62056 22.4483,18.05609 25.9139,24.22802 2.5971,4.62543 7.2239,17.46211 8.1131,22.50941 0.3184,1.8072 0.7331,3.4401 0.9216,3.6286 0.6335,0.6335 3.3216,-5.6065 4.6529,-10.801 1.1488,-4.4822 1.0926,-6.20661 -0.4334,-13.31502 -0.9642,-4.49129 -2.4547,-11.99098 -3.3122,-16.66598 -0.8575,-4.675 -1.7463,-9.50986 -1.9751,-10.74414 -0.2288,-1.23428 -0.7456,-2.19349 -1.1484,-2.13158 -2.2658,0.34822 -3.3836,-0.49886 -5.1126,-3.87428 -4.3467,-8.48579 -16.4367,-21.82966 -28.2256,-31.15312 -14.5917,-11.53995 -16.6157,-12.85765 -30.8387,-20.07631 -29.3554,-14.8989 -64.4242,-23.17653 -122.5555,-28.92795 -23.1232,-2.28777 -32.5054,-2.92525 -68.5,-4.65431 -12.6724,-0.60874 -14.7037,-1.1622 -13.7156,-3.73713 0.6615,-1.7238 12.6844,-1.52003 48.2156,0.81719 31.5582,2.07589 73.9052,6.67065 82.5,8.95147 0.825,0.21893 3.75,0.66839 6.5,0.99879 2.75,0.33041 6.35,0.99353 8,1.4736 1.65,0.48008 6.6,1.63771 11,2.57251 16.3306,3.46952 40.6926,12.41301 56,20.55809 20.8995,11.12059 42.3778,29.9645 53.2641,46.73114 l 4.2642,6.56742 -0.4381,-3.9357 c -0.241,-2.16463 -0.7475,-12.40654 -1.1255,-22.7598 -0.5892,-16.13638 -0.9214,-18.90833 -2.326,-19.41395 -0.9013,-0.32441 -4.1137,-3.11597 -7.1387,-6.20348 -3.025,-3.08751 -7.525,-7.22492 -10,-9.19425 -6.0812,-4.83875 -22.6697,-15.86421 -23.8687,-15.86421 -0.5306,0 -1.1146,-0.35683 -1.298,-0.79296 -1.2775,-3.0391 -44.1799,-21.20704 -50.079,-21.20704 -2.5982,0 -5.0304,-2.96237 -3.7243,-4.53611 1.2645,-1.52366 1.9867,-1.42585 11.47,1.55363 29.9624,9.41359 62.5158,27.81173 79.5,44.93085 l 6.5,6.55163 v -35.5 c 0,-19.525 0.45,-43.375 1,-53 1.1835,-20.7116 1.3185,-78.04427 0.2354,-100 -2.0612,-41.78298 -1.9108,-40.71217 -6.4694,-46.06797 -10.6918,-12.56162 -21.2108,-22.11529 -34.266,-31.12127 -9.1479,-6.31059 -26.9384,-16.00261 -38.2286,-20.82636 -3.9992,-1.70872 -9.0714,-3.96299 -11.2714,-5.00951 -5.6415,-2.68361 -31.8401,-11.21795 -45.5,-14.82188 -17.5476,-4.62964 -48.7454,-9.56007 -74,-11.69477 -4.125,-0.34867 -9.075,-0.8064 -11,-1.01717 -15.4455,-1.69116 -82.2094,-2.43327 -103.7669,-1.15343 -11.8231,0.70193 -13.3354,0.60932 -13.8958,-0.85092 -0.3458,-0.90121 -0.041,-2.00202 0.6781,-2.44625 4.4599,-2.75639 86.3295,-3.08564 115.4846,-0.46444 2.75,0.24724 8.15,0.69107 12,0.98629 16.0513,1.23081 40.2108,4.44082 56.5,7.507 28.6915,5.40069 64.3038,17.59587 90.4434,30.9717 11.5077,5.88853 27.1418,15.19727 28.5566,17.00285 0.275,0.35097 2.75,2.1481 5.5,3.99361 2.75,1.84552 9.9009,8.29934 15.8909,14.34183 10.2493,10.33915 10.8546,10.78559 10.2746,7.57851 -0.3389,-1.8743 -0.9066,-9.70782 -1.2614,-17.40782 -0.3548,-7.7 -0.7849,-15.125 -0.9557,-16.5 -0.1708,-1.375 -0.3416,-4.4125 -0.3795,-6.75 -0.055,-3.36468 -0.4357,-4.25 -1.8296,-4.25 -0.9683,0 -3.7401,-2.4807 -6.1595,-5.51267 -5.3036,-6.64643 -20.2395,-19.48733 -22.6668,-19.48733 -0.3323,0 -1.7987,-0.8464 -3.2586,-1.88089 -1.4599,-1.03449 -5.9169,-3.54009 -9.9044,-5.568 -6.9075,-3.51292 -8.9228,-5.97198 -5.8581,-7.148 0.7656,-0.29377 4.952,1.25587 9.3033,3.44364 12.9884,6.53044 25.6624,15.60069 32.4137,23.19706 3.4112,3.83818 6.4224,6.75824 6.6916,6.48903 0.9728,-0.9728 -2.0709,-18.99781 -3.947,-23.37464 -1.057,-2.46576 -3.4,-6.54758 -5.2069,-9.0707 -1.8068,-2.52313 -3.1013,-5.41203 -2.8767,-6.41978 0.4775,-2.14223 -3.1971,-5.65937 -16.2699,-15.57256 -26.825,-20.3416 -46.9296,-30.73165 -80.2782,-41.48774 -9.6701,-3.11893 -30.0253,-8.43617 -38.2218,-9.98441 -1.375,-0.25972 -5.65,-1.1503 -9.5,-1.97906 -8.6272,-1.85712 -34.2086,-5.29845 -45,-6.05362 -4.4,-0.30791 -11.6,-0.80568 -16,-1.10616 -4.4,-0.30049 -10.925,-0.77048 -14.5,-1.04443 -12.7397,-0.97625 -108.7644,-1.335 -123.5,-0.46141 -23.8821,1.41584 -33.6786,2.06152 -38.5,2.53752 -6.9405,0.68521 -13.8335,1.31893 -21.5,1.97667 -6.4839,0.55627 -42.1059,5.14707 -45.5,5.86384 -0.825,0.17422 -3.75,0.6469 -6.5,1.05039 -39.5597,5.80445 -91.4563,20.54396 -124.1397,35.25779 -34.7948,15.66442 -75.2294,42.45203 -102.2833,67.76201 -31.5403,29.50714 -49.4039,52.22921 -71.5998,91.07345 -1.2571,2.2 -3.4483,6.025 -4.8694,8.5 -4.7106,8.2043 -3.8495,14.73529 6.065,46 8.0616,25.42188 12.2684,40.92844 14.921,55 1.6952,8.99291 4.6069,21.53626 5.2774,22.7343 0.6227,1.11281 1.1899,0.82133 2.6054,-1.33892 5.9341,-9.0566 27.2028,-28.13092 39.3601,-35.2991 13.6664,-8.05798 39.1724,-19.70939 59.1633,-27.02636 6.325,-2.31505 13.075,-4.79781 15,-5.51725 1.925,-0.71943 6.65,-2.30326 10.5,-3.51961 3.85,-1.21635 7.9,-2.59368 9,-3.06073 2.947,-1.25124 26.9987,-9.13629 42.5,-13.93307 7.425,-2.29762 18.9,-5.89513 25.5,-7.99446 14.637,-4.65576 29.9601,-9.32566 38,-11.58099 3.3,-0.92571 8.025,-2.28346 10.5,-3.01723 16.1563,-4.78989 59.4493,-13.90499 61.1248,-12.86948 1.1074,0.68446 1.1394,3.14161 0.049,3.81516 -0.4541,0.28067 -7.6935,1.88175 -16.0874,3.55797 -8.394,1.67621 -20.5908,4.3824 -27.1041,6.01375 -21.2013,5.31017 -24.8538,6.38136 -82.4828,24.19013 -13.8271,4.27291 -53.3697,17.39689 -70,23.23266 -19.4176,6.81382 -22.0391,7.78506 -26,9.63241 -2.2,1.02609 -8.5,3.73206 -14,6.01328 -12.8711,5.3385 -30.5294,14.52397 -39.699,20.65061 -8.6606,5.7865 -24.2989,20.49316 -30.6274,28.80283 -2.5192,3.30775 -4.9778,6.28978 -5.4637,6.62671 -0.4886,0.33886 0.072,5.03099 1.2541,10.5 2.0838,9.63879 7.9398,39.04566 11.6765,58.6355 1.0227,5.36147 2.1207,9.74897 2.44,9.75 0.3192,10e-4 2.0185,-2.0005 3.776,-4.44786 7.2559,-10.10358 30.267,-29.99277 45.3377,-39.18659 38.9064,-23.73481 56.8961,-33.63725 60.24,-33.15908 4.4237,0.63261 1.811,3.36425 -7.9342,8.29532 -19.225,9.72785 -54.6792,31.8437 -69.0687,43.08419 -10.2161,7.98034 -18.0659,15.71126 -26.1567,25.7605 l -5.5107,6.84458 1.5896,8.15542 c 0.8742,4.48547 1.803,9.50541 2.0639,11.15541 0.517,3.269 3.4292,23.16605 4.0982,28 1.1658,8.42382 1.741,18.09654 2.3333,39.2417 l 0.6511,23.2417 4.6996,-5.8107 c 12.1216,-14.9873 24.9247,-26.9955 47.9453,-44.96871 11.106,-8.67092 37.923,-27.20399 39.3636,-27.20399 0.3755,0 1.8772,-0.84735 3.3371,-1.88301 3.2177,-2.28263 11.059,-6.54953 25.4922,-13.87177 9.9886,-5.06742 10.9647,-5.37134 12.4571,-3.87886 1.0188,1.0188 1.2644,1.95569 0.6622,2.52628 -0.5264,0.49881 -7.4821,4.25779 -15.4571,8.3533 -16.1456,8.29147 -27.5603,15.08232 -42.6159,25.35309 -8.8633,6.04645 -29.9981,21.75964 -31.3841,23.33327 -0.275,0.31224 -3.875,3.4593 -8,6.9936 -11.9632,10.2498 -25.2134,24.2353 -34.6513,36.5741 -2.8447,3.7191 -3.1071,4.7726 -3.7358,15 -0.372,6.05 -0.9952,13.925 -1.3851,17.5 -1.2032,11.0346 -0.4027,31 1.2431,31 0.1916,0 2.1816,-3.3403 4.4222,-7.4229 z m 222.4522,-185.11975 c -0.336,-0.87548 -0.2097,-1.99298 0.2807,-2.48333 1.1235,-1.1235 32.7412,-9.02423 49.5933,-12.39254 12.7055,-2.5395 15.7807,-2.54603 15.7807,-0.0335 0,1.69272 -0.8911,2.22814 -4.8767,2.93031 -5.81,1.02358 -35.2066,7.50918 -45.0087,9.93003 -15.721,3.88263 -15.0968,3.80153 -15.7693,2.04904 z m 477.0807,-81.34434 c -30.159,-29.60621 -47.5436,-39.85117 -89.926,-52.99449 -42.6921,-13.23934 -84.2555,-19.10779 -139,-19.6258 -38.0112,-0.35967 -52.5184,0.32802 -86.5,4.10044 -20.6552,2.29301 -50.2826,6.15782 -53,6.9137 -0.825,0.22949 -3.75,0.70036 -6.5,1.04638 -2.75,0.34602 -8.6,1.2548 -13,2.01952 -10.15,1.76406 -9.5,1.82856 -9.5,-0.94265 0,-2.88448 0.8918,-3.08484 36,-8.08796 26.5363,-3.78158 25.7281,-3.67843 47,-5.99804 7.975,-0.86964 16.075,-1.77739 18,-2.01722 15.279,-1.90356 75.0471,-2.67749 99.5,-1.28841 68.4802,3.89008 139.7616,24.18267 172.9375,49.23234 17.7012,13.36535 39.5625,34.29621 39.5625,37.87863 0,3.89924 -3.5538,1.5634 -15.574,-10.23644 z m -464.2551,2.70949 c 0.2954,-2.08485 1.6106,-2.64527 12.8531,-5.47677 16.0517,-4.04273 51.6163,-11.46247 62.426,-13.02377 1.6775,-0.24229 8.225,-1.2755 14.55,-2.29604 6.325,-1.02053 13.6782,-2.15253 16.3405,-2.51555 2.6622,-0.36302 5.6746,-0.8207 6.6943,-1.01707 1.0196,-0.19636 4.9164,-0.66493 8.6595,-1.04127 3.7431,-0.37634 7.4807,-0.80801 8.3057,-0.95927 0.825,-0.15127 6,-0.58613 11.5,-0.96636 5.5,-0.38024 11.1032,-0.86588 12.4516,-1.07921 1.3484,-0.21333 10.4609,-0.69142 20.25,-1.06241 17.6273,-0.66805 17.7984,-0.65435 17.7984,1.42503 0,2.61533 -1.6527,2.90552 -21,3.68728 -29.9102,1.20858 -73.469,6.43243 -104.5,12.53233 -2.75,0.54058 -11.075,2.14422 -18.5,3.56365 -7.425,1.41942 -20.025,4.16634 -28,6.10426 -20.4291,4.96426 -20.2282,4.94273 -19.8291,2.12517 z m -196.9942,-93.5725 c 0.2969,-1.60714 17.2457,-10.84463 28.3233,-15.43684 2.2,-0.91201 7.6,-3.30094 12,-5.30873 17.8375,-8.13953 62.6153,-24.03554 73.0221,-25.92266 1.3723,-0.24884 3.3638,-0.72816 4.4256,-1.06516 1.3114,-0.41624 2.2629,0.008 2.967,1.3241 1.3061,2.44044 3.1563,1.72311 -31.9147,12.37353 -1.925,0.58459 -4.4,1.42995 -5.5,1.87858 -1.1,0.44863 -5.825,2.13999 -10.5,3.75857 -9.7461,3.3743 -23.1573,8.64955 -25.7418,10.12544 -0.967,0.55222 -5.8082,2.75627 -10.7582,4.89789 -4.95,2.14163 -14.3237,6.42093 -20.8305,9.50957 -12.5255,5.94562 -16.0391,6.82232 -15.4928,3.86571 z m 632.4094,-2.88319 c -12.4937,-8.49637 -64.134,-28.89615 -89.4717,-35.34451 -17.7131,-4.50795 -44.5757,-8.36407 -66.6144,-9.56251 -6.05,-0.329 -12.35,-0.78239 -14,-1.00754 -1.65,-0.22515 -17.5051,-0.43031 -35.2336,-0.45591 -17.7285,-0.0256 -32.9078,-0.30523 -33.7317,-0.6214 -1.1369,-0.43628 -1.2529,-1.0329 -0.4812,-2.4749 0.9653,-1.80371 2.5741,-1.8996 31.7317,-1.89137 51.544,0.0145 89.1443,3.60363 120.7148,11.52263 13.7556,3.4504 53.2135,17.66721 68.0654,24.52419 3.814,1.7609 8.0596,3.71677 9.4346,4.34639 4.5193,2.06943 13.8161,7.67163 14.9018,8.97974 0.7597,0.91544 0.7114,1.76389 -0.1687,2.96466 -1.1337,1.54653 -1.5487,1.46754 -5.147,-0.97947 z m -719.9194,-11.03348 c -0.3667,-0.36666 -0.6667,-1.23456 -0.6667,-1.92865 0,-1.31022 13.3336,-19.69179 16.6935,-23.01352 1.0521,-1.04014 6.2133,-7.06616 11.4693,-13.39116 11.3776,-13.69151 24.6486,-26.85718 38.3372,-38.03298 5.5,-4.49035 11.125,-9.11846 12.5,-10.28468 4.8986,-4.15475 26.6406,-19.28732 35,-24.36016 10.2916,-6.24541 30.8857,-16.5891 44.5,-22.35085 5.5,-2.32768 11.35,-4.80814 13,-5.51214 11.3603,-4.8471 47.3812,-18.24624 54.5,-20.27303 1.925,-0.54807 8,-2.43347 13.5,-4.18978 10.7668,-3.43816 12.7444,-4.02988 31,-9.27528 14.7954,-4.25119 14.4616,-4.16011 28.5,-7.77609 13.4774,-3.47147 45.024,-9.94566 56.5,-11.59527 1.65,-0.23718 5.25,-0.84346 8,-1.34729 11.974,-2.19377 24.6371,-3.26531 25.7256,-2.17686 2.2399,2.23996 -1.1687,3.82128 -10.952,5.08084 -23.6684,3.04717 -46.8947,7.41017 -73.2736,13.76423 -7.975,1.92099 -15.175,3.63454 -16,3.80788 -4.3799,0.92028 -18.5143,5.0929 -46,13.57967 -13.8906,4.28899 -38.6907,13.13802 -65.5,23.37128 -8.9256,3.40696 -30.6955,13.11124 -41.5,18.49931 -8.7443,4.36068 -12.2744,6.39198 -28,16.11195 -5.1675,3.19401 -31.204,22.10619 -33.5983,24.40484 -0.604,0.57992 -3.754,3.30262 -7,6.05043 -5.852,4.95397 -14.879,13.23583 -20.709,18.99958 -1.6665,1.64758 -7.9279,8.84758 -13.9141,16 -5.9862,7.15242 -12.1466,14.3544 -13.6898,16.0044 -3.769,4.02996 -12.5216,15.45313 -13.9833,18.25 -1.1526,2.20553 -3.1162,2.90594 -4.4388,1.58333 z m 316.5834,-51.10604 c -2.6106,-1.76536 1.2331,-3.96004 9.7499,-5.56701 27.8623,-5.2571 53.6084,-9.04043 76,-11.16802 3.575,-0.33968 10.325,-1.02504 15,-1.52302 7.4639,-0.79503 21.9116,-2.00715 41.5,-3.4817 12.3948,-0.93304 21.4478,-1.43363 36.5,-2.01828 8.525,-0.33113 17.624,-0.74709 20.2199,-0.92436 3.2,-0.21852 5.1024,0.13854 5.9076,1.10877 2.6997,3.25296 0.1656,3.64883 -31.1275,4.86272 -9.075,0.35202 -17.625,0.79714 -19,0.98915 -2.322,0.32426 -6.4666,0.63679 -27.5,2.07364 -32.2404,2.20245 -73.1818,7.22493 -105.5,12.94218 -20.8419,3.68703 -20.3834,3.62999 -21.7499,2.70593 z m -125.1018,-32.82994 c 0.6636,-3.58012 25.9782,-14.7225 50.9655,-22.43279 26.2738,-8.10727 46.2929,-13.60025 56.8862,-15.60885 1.375,-0.26071 6.325,-1.31636 11,-2.34587 14.3982,-3.17074 40.9496,-6.46021 42.1837,-5.22616 2.7347,2.73471 -0.083,3.84679 -14.3288,5.65608 -13.3209,1.69179 -26.1137,4.06022 -43.3549,8.02668 -3.85,0.88572 -7.9737,1.81988 -9.1638,2.0759 -8.3602,1.79856 -39.8633,11.46251 -56.8799,17.44857 -11.6951,4.1141 -14.595,5.26721 -23.1713,9.21393 -2.3183,1.06684 -4.518,1.86874 -4.8882,1.78202 -0.3703,-0.0867 -0.9849,0.3467 -1.3659,0.96316 -0.381,0.61646 -2.3896,1.39621 -4.4635,1.73276 -3.3234,0.53932 -3.7291,0.38682 -3.4191,-1.28543 z m 270.9618,-22.76467 c -2.7358,-3.29646 0.8735,-3.66791 33.0097,-3.39711 l 31.3802,0.26443 0.3196,2.25 0.3195,2.25 h -31.9471 c -25.7997,0 -32.1655,-0.26311 -33.0819,-1.36732 z m 141.3899,-70.16237 c -4.95,-0.72082 -15.075,-1.7791 -22.5,-2.35175 -12.4976,-0.96387 -21.8663,-1.41055 -55,-2.62223 -45.0525,-1.64755 -45.7077,-1.72088 -44.6422,-4.99633 0.4555,-1.40038 20.0528,-1.11303 70.6422,1.03579 34.1251,1.44949 61.1097,4.17395 63.3298,6.39399 0.973,0.97298 -0.8222,4.20159 -2.2022,3.96066 -0.3452,-0.0603 -4.6776,-0.69932 -9.6276,-1.42013 z"
     style="fill:#000000" />
</svg>
