<?xml version="1.0" encoding="UTF-8" standalone="no"?>
<svg
   xmlns:dc="http://purl.org/dc/elements/1.1/"
   xmlns:cc="http://creativecommons.org/ns#"
   xmlns:rdf="http://www.w3.org/1999/02/22-rdf-syntax-ns#"
   xmlns:svg="http://www.w3.org/2000/svg"
   xmlns="http://www.w3.org/2000/svg"
   xmlns:sodipodi="http://sodipodi.sourceforge.net/DTD/sodipodi-0.dtd"
   xmlns:inkscape="http://www.inkscape.org/namespaces/inkscape"
   version="1.1"
   id="Layer_1"
   x="0px"
   y="0px"
   viewBox="0 0 752.92999 480.69"
   xml:space="preserve"
   sodipodi:docname="kubotans.svg"
   width="752.92999"
   height="480.69"
   inkscape:version="1.0.2 (e86c870879, 2021-01-15)"><metadata
   id="metadata1874"><rdf:RDF><cc:Work
       rdf:about=""><dc:format>image/svg+xml</dc:format><dc:type
         rdf:resource="http://purl.org/dc/dcmitype/StillImage" /></cc:Work></rdf:RDF></metadata><defs
   id="defs1872" /><sodipodi:namedview
   pagecolor="#ffffff"
   bordercolor="#666666"
   borderopacity="1"
   objecttolerance="10"
   gridtolerance="10"
   guidetolerance="10"
   inkscape:pageopacity="0"
   inkscape:pageshadow="2"
   inkscape:window-width="1918"
   inkscape:window-height="1024"
   id="namedview1870"
   showgrid="false"
   inkscape:zoom="1.0202211"
   inkscape:cx="606.56904"
   inkscape:cy="270.88205"
   inkscape:window-x="0"
   inkscape:window-y="27"
   inkscape:window-maximized="0"
   inkscape:current-layer="Layer_1" />
<style
   type="text/css"
   id="style1851">
	.st0{fill:#58595B;}
	.st1{fill:#010101;}
	.st2{fill:#A7A9AC;}
</style>
<g
   id="g1867"
   transform="translate(-18.35,-100.94)">
	<path
   class="st0"
   d="M 708.54,346.53 H 567.69 c -1.29,0 -2.41,1.21 -3.33,3.54 -0.25,-0.19 -0.56,-0.3 -0.9,-0.3 h -43.34 c -0.07,-1.01 -0.41,-1.82 -1.02,-2.4 -0.04,-0.04 -0.08,-0.06 -0.12,-0.1 -0.26,-0.44 -0.74,-0.74 -1.28,-0.74 -0.08,0 -0.16,0.01 -0.23,0.02 -0.51,-0.09 -0.95,-0.06 -1.21,-0.02 H 497.7 c -1.24,0 -2.31,1.1 -3.21,3.24 h -3.81 c -0.07,-1.01 -0.41,-1.82 -1.02,-2.4 -1.01,-0.97 -2.33,-0.91 -2.85,-0.83 h -5.99 c -1.24,0 -2.31,1.1 -3.21,3.24 h -2.49 c -0.07,-1.01 -0.41,-1.82 -1.02,-2.4 -0.04,-0.04 -0.08,-0.06 -0.12,-0.1 -0.26,-0.44 -0.74,-0.74 -1.28,-0.74 -0.08,0 -0.16,0.01 -0.23,0.02 -0.51,-0.09 -0.95,-0.06 -1.21,-0.02 H 452.7 c -1.25,0 -2.33,1.13 -3.24,3.31 -0.13,-0.04 -0.28,-0.07 -0.42,-0.07 h -4.36 c -0.07,-1.01 -0.41,-1.82 -1.02,-2.4 -1.01,-0.97 -2.33,-0.91 -2.85,-0.83 h -5.99 c -1.24,0 -2.31,1.1 -3.21,3.24 h -2.49 c -0.07,-1.01 -0.41,-1.82 -1.02,-2.4 -0.04,-0.04 -0.08,-0.06 -0.12,-0.1 -0.26,-0.44 -0.74,-0.74 -1.28,-0.74 -0.08,0 -0.16,0.01 -0.23,0.02 -0.51,-0.09 -0.95,-0.06 -1.21,-0.02 H 406.7 c -1.24,0 -2.31,1.1 -3.21,3.24 h -3.81 c -0.07,-1.01 -0.41,-1.82 -1.02,-2.4 -1.01,-0.97 -2.33,-0.91 -2.85,-0.83 h -5.99 c -1.24,0 -2.31,1.1 -3.21,3.24 h -2.49 c -0.07,-1.01 -0.41,-1.82 -1.02,-2.4 -0.04,-0.04 -0.08,-0.06 -0.12,-0.1 -0.26,-0.44 -0.74,-0.74 -1.29,-0.74 -0.08,0 -0.15,0.01 -0.23,0.02 -0.51,-0.09 -0.96,-0.06 -1.21,-0.02 h -18.56 c -1.24,0 -2.31,1.1 -3.21,3.24 h -3.81 c -0.07,-1.01 -0.41,-1.82 -1.02,-2.4 -1.01,-0.97 -2.33,-0.91 -2.85,-0.83 h -5.99 c -1.24,0 -2.31,1.1 -3.21,3.24 h -2.49 c -0.07,-1.01 -0.41,-1.82 -1.02,-2.4 -0.04,-0.04 -0.08,-0.06 -0.12,-0.1 -0.26,-0.44 -0.74,-0.74 -1.29,-0.74 -0.08,0 -0.15,0.01 -0.23,0.02 -0.51,-0.09 -0.96,-0.06 -1.21,-0.02 h -18.56 c -1.24,0 -2.31,1.1 -3.21,3.24 h -3.81 c -0.07,-1.01 -0.41,-1.82 -1.02,-2.4 -1.01,-0.97 -2.33,-0.91 -2.85,-0.83 h -5.99 c -1.24,0 -2.31,1.1 -3.21,3.24 h -2.49 c -0.07,-1.01 -0.41,-1.82 -1.02,-2.4 -0.04,-0.04 -0.08,-0.06 -0.12,-0.1 -0.26,-0.44 -0.74,-0.74 -1.29,-0.74 -0.08,0 -0.15,0.01 -0.23,0.02 -0.51,-0.09 -0.96,-0.06 -1.21,-0.02 h -18.56 c -1.24,0 -2.31,1.1 -3.21,3.24 H 225.5 c -0.07,-1.01 -0.41,-1.82 -1.02,-2.4 -1.01,-0.97 -2.33,-0.91 -2.85,-0.83 h -0.56 -80.98 c -1.24,0 -2.31,1.1 -3.21,3.24 h -22.76 c -0.07,-1.01 -0.41,-1.82 -1.02,-2.4 -0.04,-0.04 -0.08,-0.06 -0.12,-0.1 -0.26,-0.44 -0.74,-0.74 -1.29,-0.74 -0.08,0 -0.15,0.01 -0.23,0.02 -0.51,-0.09 -0.96,-0.06 -1.21,-0.02 H 85.72 c -0.01,0 -0.02,0 -0.03,0 -0.05,0 -0.09,0.01 -0.14,0.01 -0.68,0.05 -1.31,0.45 -1.89,1.18 -3.39,2.71 -13.25,11.32 -19.36,24.06 -0.1,0.2 -0.15,0.42 -0.15,0.65 v 0.15 c -11.17,0.46 -21.09,1.8 -29.49,4.02 -10.98,2.9 -16.31,7.01 -16.31,12.57 0,0.99 0.2,1.94 0.56,2.85 -0.14,0.17 -0.26,0.37 -0.32,0.6 -0.16,0.63 -0.24,1.29 -0.24,1.96 0,7.15 9.35,12.13 27.8,14.79 13.42,1.93 26.91,1.99 28.4,1.99 0.47,0 1.28,0 2.35,-0.02 2.92,3.03 5.42,5.16 6.8,6.26 0.72,0.88 1.42,1.16 2.01,1.16 0,0 0,0 0,0 0,0 0,0 0,0 0,0 0,0 0,0 h 24.63 c 0.04,0 0.1,0 0.16,0 0.18,0 0.43,-0.02 0.71,-0.07 0.17,0.04 0.33,0.07 0.49,0.07 0.75,0 1.36,-0.54 1.48,-1.26 0.48,-0.6 0.77,-1.37 0.83,-2.29 h 22.75 c 0.93,2.34 2.04,3.55 3.34,3.55 h 25.17 c -21.3,22.66 -29.72,48.88 -24.47,77.23 4.19,22.63 19.17,41.17 44.5,55.13 18.73,10.32 43.34,18.18 73.14,23.36 35.48,6.17 69.59,7.09 86.78,7.09 0.01,0 0.02,0 0.03,0 6.81,0 11.12,-0.14 11.93,-0.17 6.65,-0.3 163.36,-8.23 206.85,-88.64 11.82,-21.86 14.21,-46.64 7.17,-73.98 h 137.32 c 19.92,0 36.12,-16.2 36.12,-36.12 0.02,-19.99 -16.18,-36.19 -36.1,-36.19 z M 36.21,391.81 c 5.02,-1.42 13.88,-3.19 27.95,-3.8 v 4.85 c 0,0.22 0.05,0.45 0.15,0.65 0.36,0.75 0.75,1.5 1.15,2.25 -13.21,-0.55 -23.01,-2.24 -29.25,-3.95 z m 505.86,89.02 c -36.75,68.01 -184.43,75.51 -185.9,75.58 -0.46,0.02 -46.14,1.66 -93.43,-6.57 -40.78,-7.09 -90.77,-22.98 -97.34,-58.42 -5.06,-27.29 7.87,-51.72 38.41,-72.67 h 17.28 0.63 c 0.04,0 0.1,0 0.16,0 0.52,0 1.64,-0.12 2.51,-1.04 0.6,-0.63 0.93,-1.47 1,-2.51 h 42.95 c 0.93,2.34 2.04,3.55 3.34,3.55 h 18.63 c 0.04,0 0.1,0 0.16,0 0.18,0 0.43,-0.02 0.71,-0.07 0.16,0.04 0.33,0.07 0.49,0.07 0.75,0 1.36,-0.54 1.48,-1.26 0.48,-0.6 0.77,-1.37 0.83,-2.29 h 2.48 c 0.93,2.34 2.04,3.55 3.34,3.55 h 6.06 c 0.04,0 0.1,0 0.16,0 0.52,0 1.64,-0.12 2.51,-1.04 0.6,-0.63 0.93,-1.47 1,-2.51 h 3.81 c 0.93,2.34 2.04,3.55 3.34,3.55 h 18.63 c 0.04,0 0.1,0 0.16,0 0.18,0 0.43,-0.02 0.71,-0.07 0.16,0.04 0.33,0.07 0.49,0.07 0.75,0 1.36,-0.54 1.48,-1.26 0.48,-0.6 0.77,-1.37 0.83,-2.29 h 2.48 c 0.93,2.34 2.04,3.55 3.34,3.55 h 6.06 c 0.04,0 0.1,0 0.16,0 0.52,0 1.64,-0.12 2.51,-1.04 0.6,-0.63 0.93,-1.47 1,-2.51 h 3.81 c 0.93,2.34 2.04,3.55 3.34,3.55 h 18.63 c 0.04,0 0.1,0 0.16,0 0.18,0 0.43,-0.02 0.71,-0.07 0.16,0.04 0.33,0.07 0.49,0.07 0.75,0 1.36,-0.54 1.48,-1.26 0.48,-0.6 0.77,-1.37 0.83,-2.29 h 2.48 c 0.93,2.34 2.04,3.55 3.34,3.55 h 6.06 c 0.04,0 0.1,0 0.16,0 0.52,0 1.64,-0.12 2.51,-1.04 0.6,-0.63 0.93,-1.47 1,-2.51 h 3.81 c 0.93,2.34 2.04,3.55 3.34,3.55 h 18.63 c 0.04,0 0.1,0 0.16,0 0.18,0 0.43,-0.02 0.71,-0.07 0.16,0.04 0.33,0.07 0.49,0.07 0.74,0 1.36,-0.54 1.48,-1.26 0.48,-0.6 0.77,-1.37 0.83,-2.29 h 2.48 c 0.93,2.34 2.04,3.55 3.34,3.55 h 6.06 c 0.04,0 0.1,0 0.16,0 0.52,0 1.64,-0.12 2.51,-1.04 0.6,-0.63 0.93,-1.47 1,-2.51 h 4.26 c 0.18,0 0.35,-0.04 0.51,-0.09 0.93,2.41 2.06,3.65 3.38,3.65 h 18.63 c 0.04,0 0.1,0 0.16,0 0.18,0 0.43,-0.02 0.71,-0.07 0.16,0.04 0.33,0.07 0.49,0.07 0.74,0 1.36,-0.54 1.48,-1.26 0.48,-0.6 0.77,-1.37 0.83,-2.29 h 2.48 c 0.93,2.34 2.04,3.55 3.34,3.55 h 6.06 c 0.04,0 0.1,0 0.16,0 0.52,0 1.64,-0.12 2.51,-1.04 0.6,-0.63 0.93,-1.47 1,-2.51 h 3.81 c 0.93,2.34 2.04,3.55 3.34,3.55 h 18.63 c 0.04,0 0.1,0 0.16,0 0.18,0 0.43,-0.02 0.71,-0.07 0.16,0.04 0.33,0.07 0.49,0.07 0.74,0 1.36,-0.54 1.48,-1.26 0.48,-0.6 0.77,-1.37 0.83,-2.29 h 22.27 c 8.93,26.05 8.99,48.64 -0.18,65.62 z"
   id="path1853" />
	<path
   class="st0"
   d="m 703.58,100.94 c -24.84,0 -47.66,13.61 -59.54,35.51 -0.07,0.14 -0.12,0.28 -0.14,0.42 -1.03,-0.63 -1.59,-1.31 -1.59,-1.89 0,-0.78 -0.63,-1.41 -1.41,-1.41 h -53.65 c -2.9,0 -5.46,1.8 -6.36,4.47 -3.16,9.32 -20.18,16.34 -39.59,16.34 -18.38,0 -34.81,-6.33 -39.06,-15.06 -1.73,-3.55 -5.16,-5.75 -8.94,-5.75 h -1 c -3.78,0 -7.21,2.2 -8.94,5.75 -4.26,8.73 -20.68,15.06 -39.06,15.06 -18.38,0 -34.81,-6.33 -39.06,-15.06 -1.73,-3.55 -5.16,-5.75 -8.94,-5.75 h -1 c -3.78,0 -7.21,2.2 -8.94,5.75 -4.26,8.73 -20.68,15.06 -39.06,15.06 -18.38,0 -34.81,-6.33 -39.06,-15.06 -1.73,-3.55 -5.16,-5.75 -8.94,-5.75 -3.78,0 -7.21,2.2 -8.94,5.75 -4.26,8.73 -20.68,15.06 -39.06,15.06 -21.74,0 -40.11,-8.88 -40.11,-19.4 0,-0.16 -0.03,-0.31 -0.08,-0.45 -0.01,-0.02 -0.01,-0.04 -0.02,-0.05 -0.05,-0.13 -0.13,-0.26 -0.21,-0.37 -0.02,-0.02 -0.03,-0.04 -0.05,-0.06 -0.09,-0.11 -0.2,-0.2 -0.32,-0.27 -0.02,-0.01 -0.04,-0.02 -0.06,-0.03 -0.13,-0.07 -0.27,-0.13 -0.42,-0.15 0,0 -0.01,0 -0.01,0 -0.01,0 -0.02,0 -0.03,0 -0.07,-0.01 -0.14,-0.02 -0.21,-0.02 h -11.81 c -0.13,-0.02 -0.27,-0.02 -0.41,0 l -172.7,27.29 c -3.25,0.51 -5.6,3.27 -5.6,6.56 0,3.29 2.36,6.04 5.6,6.56 l 172.69,27.31 c 0.08,0.01 0.15,0.02 0.23,0.02 0.04,0 0.07,-0.02 0.11,-0.02 h 11.89 c 0,0 0,0 0,0 0.08,0 0.15,-0.01 0.23,-0.02 0.01,0 0.01,0 0.02,-0.01 0.15,-0.03 0.29,-0.08 0.42,-0.15 0.02,-0.01 0.04,-0.02 0.06,-0.03 0.12,-0.07 0.23,-0.16 0.32,-0.27 0.02,-0.02 0.03,-0.04 0.05,-0.05 0.09,-0.11 0.16,-0.23 0.22,-0.37 0.01,-0.02 0.01,-0.03 0.02,-0.05 0.05,-0.14 0.08,-0.3 0.08,-0.46 0,-10.52 18.37,-19.4 40.11,-19.4 18.38,0 34.81,6.33 39.06,15.06 1.73,3.55 5.16,5.75 8.94,5.75 3.78,0 7.21,-2.2 8.94,-5.75 4.26,-8.73 20.68,-15.06 39.06,-15.06 18.38,0 34.81,6.33 39.06,15.06 1.73,3.55 5.16,5.75 8.94,5.75 h 1 c 3.78,0 7.21,-2.2 8.94,-5.75 4.26,-8.73 20.68,-15.06 39.06,-15.06 18.38,0 34.81,6.33 39.06,15.06 1.73,3.55 5.16,5.75 8.94,5.75 h 1 c 3.78,0 7.21,-2.2 8.94,-5.75 4.26,-8.73 20.68,-15.06 39.06,-15.06 19.41,0 36.43,7.02 39.59,16.34 0.91,2.67 3.46,4.47 6.36,4.47 h 53.65 c 0.78,0 1.41,-0.63 1.41,-1.41 0,-0.36 0.23,-0.77 0.64,-1.17 11.41,22.9 35.04,37.62 60.63,37.62 37.33,0 67.69,-30.37 67.69,-67.69 0,-37.32 -30.37,-67.71 -67.7,-67.71 z m 0,118.56 c -15.06,0 -29.34,-6.83 -38.94,-18.22 h 12.55 c 3.56,0 4.54,-2.36 5.77,-5.34 0.01,-0.03 0.03,-0.06 0.04,-0.1 0.17,-0.5 4.07,-12.54 4.07,-28.79 0,-16.16 -3.86,-27.45 -4.08,-28.07 -0.9,-2.68 -2.29,-5.42 -5.8,-5.42 h -10.41 c 9.54,-10 22.8,-15.8 36.79,-15.8 28.05,0 50.87,22.82 50.87,50.87 0,28.05 -22.81,50.87 -50.86,50.87 z"
   id="path1855" />
	<path
   class="st1"
   d="M 708.54,346.53 H 567.69 c -1.29,0 -2.41,1.21 -3.33,3.54 -0.25,-0.19 -0.56,-0.3 -0.9,-0.3 h -43.34 c -0.07,-1.01 -0.41,-1.82 -1.02,-2.4 -0.04,-0.04 -0.08,-0.06 -0.12,-0.1 -0.26,-0.44 -0.74,-0.74 -1.28,-0.74 -0.08,0 -0.16,0.01 -0.23,0.02 -0.51,-0.09 -0.95,-0.06 -1.21,-0.02 H 497.7 c -1.24,0 -2.31,1.1 -3.21,3.24 h -3.81 c -0.07,-1.01 -0.41,-1.82 -1.02,-2.4 -1.01,-0.97 -2.33,-0.91 -2.85,-0.83 h -5.99 c -1.24,0 -2.31,1.1 -3.21,3.24 h -2.49 c -0.07,-1.01 -0.41,-1.82 -1.02,-2.4 -0.04,-0.04 -0.08,-0.06 -0.12,-0.1 -0.26,-0.44 -0.74,-0.74 -1.28,-0.74 -0.08,0 -0.16,0.01 -0.23,0.02 -0.51,-0.09 -0.95,-0.06 -1.21,-0.02 H 452.7 c -1.25,0 -2.33,1.13 -3.24,3.31 -0.13,-0.04 -0.28,-0.07 -0.42,-0.07 h -4.36 c -0.07,-1.01 -0.41,-1.82 -1.02,-2.4 -1.01,-0.97 -2.33,-0.91 -2.85,-0.83 h -5.99 c -1.24,0 -2.31,1.1 -3.21,3.24 h -2.49 c -0.07,-1.01 -0.41,-1.82 -1.02,-2.4 -0.04,-0.04 -0.08,-0.06 -0.12,-0.1 -0.26,-0.44 -0.74,-0.74 -1.28,-0.74 -0.08,0 -0.16,0.01 -0.23,0.02 -0.51,-0.09 -0.95,-0.06 -1.21,-0.02 H 406.7 c -1.24,0 -2.31,1.1 -3.21,3.24 h -3.81 c -0.07,-1.01 -0.41,-1.82 -1.02,-2.4 -1.01,-0.97 -2.33,-0.91 -2.85,-0.83 h -5.99 c -1.24,0 -2.31,1.1 -3.21,3.24 h -2.49 c -0.07,-1.01 -0.41,-1.82 -1.02,-2.4 -0.04,-0.04 -0.08,-0.06 -0.12,-0.1 -0.26,-0.44 -0.74,-0.74 -1.29,-0.74 -0.08,0 -0.15,0.01 -0.23,0.02 -0.51,-0.09 -0.96,-0.06 -1.21,-0.02 h -18.56 c -1.24,0 -2.31,1.1 -3.21,3.24 h -3.81 c -0.07,-1.01 -0.41,-1.82 -1.02,-2.4 -1.01,-0.97 -2.33,-0.91 -2.85,-0.83 h -5.99 c -1.24,0 -2.31,1.1 -3.21,3.24 h -2.49 c -0.07,-1.01 -0.41,-1.82 -1.02,-2.4 -0.04,-0.04 -0.08,-0.06 -0.12,-0.1 -0.26,-0.44 -0.74,-0.74 -1.29,-0.74 -0.08,0 -0.15,0.01 -0.23,0.02 -0.51,-0.09 -0.96,-0.06 -1.21,-0.02 h -18.56 c -1.24,0 -2.31,1.1 -3.21,3.24 h -3.81 c -0.07,-1.01 -0.41,-1.82 -1.02,-2.4 -1.01,-0.97 -2.33,-0.91 -2.85,-0.83 h -5.99 c -1.24,0 -2.31,1.1 -3.21,3.24 h -2.49 c -0.07,-1.01 -0.41,-1.82 -1.02,-2.4 -0.04,-0.04 -0.08,-0.06 -0.12,-0.1 -0.26,-0.44 -0.74,-0.74 -1.29,-0.74 -0.08,0 -0.15,0.01 -0.23,0.02 -0.51,-0.09 -0.96,-0.06 -1.21,-0.02 h -18.56 c -1.24,0 -2.31,1.1 -3.21,3.24 H 225.5 c -0.07,-1.01 -0.41,-1.82 -1.02,-2.4 -1.01,-0.97 -2.33,-0.91 -2.85,-0.83 h -0.56 -80.98 c -1.24,0 -2.31,1.1 -3.21,3.24 h -22.76 c -0.07,-1.01 -0.41,-1.82 -1.02,-2.4 -0.04,-0.04 -0.08,-0.06 -0.12,-0.1 -0.26,-0.44 -0.74,-0.74 -1.29,-0.74 -0.08,0 -0.15,0.01 -0.23,0.02 -0.51,-0.09 -0.96,-0.06 -1.21,-0.02 H 85.72 c -0.01,0 -0.02,0 -0.03,0 -0.05,0 -0.09,0.01 -0.14,0.01 -0.68,0.05 -1.31,0.45 -1.89,1.18 -3.39,2.71 -13.25,11.32 -19.36,24.06 -0.1,0.2 -0.15,0.42 -0.15,0.65 v 0.15 c -11.17,0.46 -21.09,1.8 -29.49,4.02 -10.98,2.9 -16.31,7.01 -16.31,12.57 0,0.99 0.2,1.94 0.56,2.85 -0.14,0.17 -0.26,0.37 -0.32,0.6 -0.16,0.63 -0.24,1.29 -0.24,1.96 0,7.15 9.35,12.13 27.8,14.79 13.42,1.93 26.91,1.99 28.4,1.99 0.47,0 1.28,0 2.35,-0.02 2.92,3.03 5.42,5.16 6.8,6.26 0.72,0.88 1.42,1.16 2.01,1.16 0,0 0,0 0,0 0,0 0,0 0,0 0,0 0,0 0,0 h 24.63 c 0.04,0 0.1,0 0.16,0 0.18,0 0.43,-0.02 0.71,-0.07 0.17,0.04 0.33,0.07 0.49,0.07 0.75,0 1.36,-0.54 1.48,-1.26 0.48,-0.6 0.77,-1.37 0.83,-2.29 h 22.75 c 0.93,2.34 2.04,3.55 3.34,3.55 h 25.17 c -21.3,22.66 -29.72,48.88 -24.47,77.23 4.19,22.63 19.17,41.17 44.5,55.13 18.73,10.32 43.34,18.18 73.14,23.36 35.48,6.17 69.59,7.09 86.78,7.09 0.01,0 0.02,0 0.03,0 6.81,0 11.12,-0.14 11.93,-0.17 6.65,-0.3 163.36,-8.23 206.85,-88.64 11.82,-21.86 14.21,-46.64 7.17,-73.98 h 137.32 c 19.92,0 36.12,-16.2 36.12,-36.12 0.02,-19.99 -16.18,-36.19 -36.1,-36.19 z m -145.08,6.24 c 0.01,0 0.02,0 0.04,0 -1.46,5.63 -2.27,14.98 -2.35,27.63 -2.28,-10.16 -11.36,-17.77 -22.2,-17.77 -12.55,0 -22.75,10.21 -22.75,22.75 0,12.54 10.21,22.75 22.75,22.75 0.24,0 0.47,-0.01 0.71,-0.02 0.54,1.37 1.05,2.74 1.55,4.09 h -22.79 c -0.44,0 -0.86,0.19 -1.14,0.53 -0.2,0.23 -0.31,0.52 -0.34,0.82 -1.18,-3.36 -2.79,-11.5 -2.79,-30.91 0,-20.03 1.71,-28.05 2.9,-31.22 0.03,0.29 0.14,0.57 0.33,0.8 0.29,0.34 0.71,0.54 1.15,0.54 h 44.93 z m -7.65,27.21 c 0,0 0,0 0,0 -2.36,-7.36 -9.14,-12.3 -16.86,-12.3 -6.02,0 -11.34,3.02 -14.54,7.63 -0.05,0.06 -0.09,0.12 -0.13,0.18 -1.91,2.83 -3.03,6.23 -3.03,9.9 0,9.32 7.11,16.91 16.31,17.63 0.3,0.7 0.59,1.4 0.88,2.1 -10.65,-0.28 -19.24,-9.01 -19.24,-19.73 0,-10.89 8.86,-19.75 19.75,-19.75 10.89,0 19.75,8.86 19.75,19.75 0,0.08 -0.01,0.16 -0.01,0.24 -0.89,-1.81 -1.8,-3.62 -2.76,-5.45 -0.03,-0.08 -0.07,-0.14 -0.12,-0.2 z m -339.3,30.86 c 0.46,2.15 0.97,3.75 1.49,4.92 h -9.67 c 2.71,-1.73 5.45,-3.37 8.18,-4.92 z m -12.7,7.92 h 17.28 0.63 c 0.04,0 0.1,0 0.16,0 0.52,0 1.64,-0.12 2.51,-1.04 0.6,-0.63 0.93,-1.47 1,-2.51 h 42.95 c 0.93,2.34 2.04,3.55 3.34,3.55 h 18.63 c 0.04,0 0.1,0 0.16,0 0.18,0 0.43,-0.02 0.71,-0.07 0.16,0.04 0.33,0.07 0.49,0.07 0.75,0 1.36,-0.54 1.48,-1.26 0.48,-0.6 0.77,-1.37 0.83,-2.29 h 2.48 c 0.93,2.34 2.04,3.55 3.34,3.55 h 6.06 c 0.04,0 0.1,0 0.16,0 0.52,0 1.64,-0.12 2.51,-1.04 0.6,-0.63 0.93,-1.47 1,-2.51 h 3.81 c 0.93,2.34 2.04,3.55 3.34,3.55 h 18.63 c 0.04,0 0.1,0 0.16,0 0.18,0 0.43,-0.02 0.71,-0.07 0.16,0.04 0.33,0.07 0.49,0.07 0.75,0 1.36,-0.54 1.48,-1.26 0.48,-0.6 0.77,-1.37 0.83,-2.29 h 2.48 c 0.93,2.34 2.04,3.55 3.34,3.55 h 6.06 c 0.04,0 0.1,0 0.16,0 0.52,0 1.64,-0.12 2.51,-1.04 0.6,-0.63 0.93,-1.47 1,-2.51 h 3.81 c 0.93,2.34 2.04,3.55 3.34,3.55 h 18.63 c 0.04,0 0.1,0 0.16,0 0.18,0 0.43,-0.02 0.71,-0.07 0.16,0.04 0.33,0.07 0.49,0.07 0.75,0 1.36,-0.54 1.48,-1.26 0.48,-0.6 0.77,-1.37 0.83,-2.29 h 2.48 c 0.93,2.34 2.04,3.55 3.34,3.55 h 6.06 c 0.04,0 0.1,0 0.16,0 0.52,0 1.64,-0.12 2.51,-1.04 0.6,-0.63 0.93,-1.47 1,-2.51 h 3.81 c 0.93,2.34 2.04,3.55 3.34,3.55 h 18.63 c 0.04,0 0.1,0 0.16,0 0.18,0 0.43,-0.02 0.71,-0.07 0.16,0.04 0.33,0.07 0.49,0.07 0.74,0 1.36,-0.54 1.48,-1.26 0.48,-0.6 0.77,-1.37 0.83,-2.29 h 2.48 c 0.93,2.34 2.04,3.55 3.34,3.55 h 6.06 c 0.04,0 0.1,0 0.16,0 0.52,0 1.64,-0.12 2.51,-1.04 0.6,-0.63 0.93,-1.47 1,-2.51 h 4.26 c 0.18,0 0.35,-0.04 0.51,-0.09 0.93,2.41 2.06,3.65 3.38,3.65 h 18.63 c 0.04,0 0.1,0 0.16,0 0.18,0 0.43,-0.02 0.71,-0.07 0.16,0.04 0.33,0.07 0.49,0.07 0.74,0 1.36,-0.54 1.48,-1.26 0.48,-0.6 0.77,-1.37 0.83,-2.29 h 2.48 c 0.93,2.34 2.04,3.55 3.34,3.55 h 6.06 c 0.04,0 0.1,0 0.16,0 0.52,0 1.64,-0.12 2.51,-1.04 0.6,-0.63 0.93,-1.47 1,-2.51 h 3.81 c 0.93,2.34 2.04,3.55 3.34,3.55 h 18.63 c 0.04,0 0.1,0 0.16,0 0.18,0 0.43,-0.02 0.71,-0.07 0.16,0.04 0.33,0.07 0.49,0.07 0.74,0 1.36,-0.54 1.48,-1.26 0.48,-0.6 0.77,-1.37 0.83,-2.29 h 22.27 c 8.91,26.05 8.98,48.65 -0.2,65.62 -36.75,68.01 -184.43,75.51 -185.9,75.58 -0.46,0.02 -46.14,1.66 -93.43,-6.57 -40.78,-7.09 -90.77,-22.98 -97.34,-58.42 -5.04,-27.3 7.89,-51.72 38.43,-72.67 z m 321.75,-39.44 c 4.04,6.99 7.58,13.83 10.58,20.48 -6.83,-1.3 -11.9,-7.25 -11.9,-14.42 0,-2.16 0.48,-4.21 1.32,-6.06 z M 561.22,390 c 0.01,0.34 0.02,0.69 0.02,1.02 -0.05,-0.12 -0.11,-0.24 -0.17,-0.36 0.06,-0.22 0.11,-0.44 0.15,-0.66 z m -63.17,-40.47 h 16.53 c -2.24,5.06 -3.45,16.39 -3.45,33.12 0,16.73 1.2,28.06 3.45,33.12 h -16.53 c -0.67,-0.7 -3.91,-5.5 -3.91,-33.12 0,-27.63 3.24,-32.43 3.91,-33.12 z m -4.55,3.24 c -1.54,5.96 -2.36,16.08 -2.36,29.88 0,13.56 0.79,23.57 2.28,29.57 h -4.46 c -0.44,0 -0.86,0.19 -1.14,0.53 -0.03,0.03 -0.05,0.07 -0.07,0.11 -1.19,-3.82 -2.55,-12.14 -2.55,-30.2 0,-18.64 1.47,-26.89 2.66,-30.52 0.02,0.03 0.04,0.07 0.07,0.1 0.29,0.34 0.71,0.54 1.15,0.54 h 4.42 z m -12.33,-3.24 h 4.48 c -2.27,5.03 -3.46,16.34 -3.46,33.12 0,16.76 1.2,28.09 3.46,33.12 h -4.48 c -0.67,-0.7 -3.91,-5.5 -3.91,-33.12 0,-27.63 3.25,-32.43 3.91,-33.12 z m -4.55,3.24 c -1.54,5.96 -2.36,16.08 -2.36,29.88 0,13.56 0.79,23.57 2.28,29.57 h -3.14 c -0.44,0 -0.86,0.19 -1.14,0.53 -0.2,0.23 -0.31,0.52 -0.34,0.82 -1.18,-3.36 -2.79,-11.5 -2.79,-30.91 0,-20.03 1.71,-28.05 2.9,-31.22 0.03,0.29 0.14,0.57 0.33,0.8 0.29,0.34 0.71,0.54 1.15,0.54 h 3.11 z m -23.57,-3.24 h 16.53 c -2.24,5.06 -3.45,16.39 -3.45,33.12 0,16.73 1.2,28.06 3.45,33.12 h -16.53 c -0.67,-0.7 -3.91,-5.5 -3.91,-33.12 0,-27.63 3.24,-32.43 3.91,-33.12 z m -4.55,3.24 c -1.54,5.96 -2.36,16.08 -2.36,29.88 0,13.56 0.79,23.57 2.28,29.57 h -5.46 c -0.44,0 -0.86,0.19 -1.14,0.53 -0.03,0.03 -0.05,0.07 -0.07,0.11 -1.19,-3.82 -2.55,-12.14 -2.55,-30.2 0,-18.64 1.47,-26.89 2.66,-30.52 0.02,0.03 0.04,0.07 0.07,0.1 0.29,0.34 0.71,0.54 1.15,0.54 h 5.42 z m -13.33,-3.24 h 4.48 c -2.27,5.03 -3.46,16.34 -3.46,33.12 0,16.76 1.2,28.09 3.46,33.12 h -4.48 c -0.67,-0.7 -3.91,-5.5 -3.91,-33.12 0,-27.63 3.25,-32.43 3.91,-33.12 z m -4.55,3.24 c -1.54,5.96 -2.36,16.08 -2.36,29.88 0,13.56 0.79,23.57 2.28,29.57 h -3.14 c -0.44,0 -0.86,0.19 -1.14,0.53 -0.2,0.23 -0.31,0.52 -0.34,0.82 -1.18,-3.36 -2.79,-11.5 -2.79,-30.91 0,-20.03 1.71,-28.05 2.9,-31.22 0.03,0.29 0.14,0.57 0.33,0.8 0.29,0.34 0.71,0.54 1.15,0.54 h 3.11 z m -23.57,-3.24 h 16.53 c -2.24,5.06 -3.45,16.39 -3.45,33.12 0,16.73 1.2,28.06 3.45,33.12 h -16.53 c -0.67,-0.7 -3.91,-5.5 -3.91,-33.12 0,-27.63 3.24,-32.43 3.91,-33.12 z m -4.55,3.24 c -1.54,5.96 -2.36,16.08 -2.36,29.88 0,13.56 0.79,23.57 2.28,29.57 h -4.46 c -0.44,0 -0.86,0.19 -1.14,0.53 -0.03,0.03 -0.05,0.07 -0.07,0.11 -1.19,-3.82 -2.55,-12.14 -2.55,-30.2 0,-18.64 1.47,-26.89 2.66,-30.52 0.02,0.03 0.04,0.07 0.07,0.1 0.29,0.34 0.71,0.54 1.15,0.54 h 4.42 z m -12.32,-3.24 h 4.48 c -2.27,5.03 -3.46,16.34 -3.46,33.12 0,16.76 1.2,28.09 3.46,33.12 h -4.48 c -0.67,-0.7 -3.91,-5.5 -3.91,-33.12 -0.01,-27.63 3.24,-32.43 3.91,-33.12 z m -4.56,3.24 c -1.54,5.96 -2.36,16.08 -2.36,29.88 0,13.56 0.79,23.57 2.28,29.57 h -3.14 c -0.44,0 -0.86,0.19 -1.14,0.53 -0.2,0.23 -0.31,0.52 -0.34,0.82 -1.18,-3.36 -2.79,-11.5 -2.79,-30.91 0,-20.03 1.71,-28.05 2.9,-31.22 0.03,0.29 0.14,0.57 0.33,0.8 0.29,0.34 0.71,0.54 1.15,0.54 h 3.11 z m -23.57,-3.24 h 16.53 c -2.24,5.06 -3.45,16.39 -3.45,33.12 0,16.73 1.2,28.06 3.45,33.12 h -16.53 c -0.67,-0.7 -3.91,-5.5 -3.91,-33.12 0,-27.63 3.24,-32.43 3.91,-33.12 z m -4.55,3.24 c -1.54,5.96 -2.36,16.08 -2.36,29.88 0,13.56 0.79,23.57 2.28,29.57 h -4.46 c -0.44,0 -0.86,0.19 -1.14,0.53 -0.03,0.03 -0.05,0.07 -0.07,0.11 -1.19,-3.82 -2.55,-12.14 -2.55,-30.2 0,-18.64 1.47,-26.89 2.66,-30.52 0.02,0.03 0.04,0.07 0.07,0.1 0.29,0.34 0.71,0.54 1.15,0.54 h 4.42 z m -12.32,-3.24 h 4.48 c -2.27,5.03 -3.46,16.34 -3.46,33.12 0,16.76 1.2,28.09 3.46,33.12 h -4.48 c -0.67,-0.7 -3.91,-5.5 -3.91,-33.12 -0.01,-27.63 3.24,-32.43 3.91,-33.12 z m -4.56,3.24 c -1.54,5.96 -2.36,16.08 -2.36,29.88 0,13.56 0.79,23.57 2.28,29.57 h -3.14 c -0.44,0 -0.86,0.19 -1.14,0.53 -0.2,0.23 -0.31,0.52 -0.34,0.82 -1.18,-3.36 -2.79,-11.5 -2.79,-30.91 0,-20.03 1.71,-28.05 2.9,-31.22 0.03,0.29 0.14,0.57 0.33,0.8 0.29,0.34 0.71,0.54 1.15,0.54 h 3.11 z m -23.57,-3.24 h 16.53 c -2.24,5.06 -3.45,16.39 -3.45,33.12 0,16.73 1.2,28.06 3.45,33.12 h -16.53 c -0.67,-0.7 -3.91,-5.5 -3.91,-33.12 0,-27.63 3.24,-32.43 3.91,-33.12 z m -4.55,3.24 c -1.54,5.96 -2.36,16.08 -2.36,29.88 0,13.56 0.79,23.57 2.28,29.57 h -4.46 c -0.44,0 -0.86,0.19 -1.14,0.53 -0.03,0.03 -0.05,0.07 -0.07,0.11 -1.19,-3.82 -2.55,-12.14 -2.55,-30.2 0,-18.64 1.47,-26.89 2.66,-30.52 0.02,0.03 0.04,0.07 0.07,0.1 0.29,0.34 0.71,0.54 1.15,0.54 h 4.42 z m -12.32,-3.24 h 4.48 c -2.27,5.03 -3.46,16.34 -3.46,33.12 0,16.76 1.2,28.09 3.46,33.12 h -4.48 c -0.67,-0.7 -3.91,-5.5 -3.91,-33.12 -0.01,-27.63 3.24,-32.43 3.91,-33.12 z m -4.56,3.24 c -1.54,5.96 -2.36,16.08 -2.36,29.88 0,13.56 0.79,23.57 2.28,29.57 h -3.14 c -0.44,0 -0.86,0.19 -1.14,0.53 -0.2,0.23 -0.31,0.52 -0.34,0.82 -1.18,-3.36 -2.79,-11.5 -2.79,-30.91 0,-20.03 1.71,-28.05 2.9,-31.22 0.03,0.29 0.14,0.57 0.33,0.8 0.29,0.34 0.71,0.54 1.15,0.54 h 3.11 z m -23.57,-3.24 h 16.53 c -2.24,5.06 -3.45,16.39 -3.45,33.12 0,16.73 1.2,28.06 3.45,33.12 h -16.53 c -0.67,-0.7 -3.91,-5.5 -3.91,-33.12 0,-27.63 3.24,-32.43 3.91,-33.12 z m -50.27,0 c 0.09,0 0.21,-0.01 0.3,-0.03 0.13,-0.02 0.31,0 0.35,0.03 0.05,0.05 0.21,0.46 0.03,1.47 -0.08,0.44 0.04,0.89 0.32,1.23 0.29,0.34 0.71,0.54 1.15,0.54 h 43.57 c -1.54,5.96 -2.36,16.08 -2.36,29.88 0,13.56 0.79,23.57 2.28,29.57 h -43.61 c -0.44,0 -0.86,0.19 -1.14,0.53 -0.29,0.34 -0.41,0.78 -0.33,1.22 0.16,0.98 0.04,1.53 -0.11,1.7 -0.1,0.11 -0.31,0.11 -0.29,0.11 -0.05,-0.01 -0.11,-0.01 -0.16,-0.01 h -0.31 c -0.31,-0.34 -1.25,-1.67 -2.12,-6 -0.03,-0.15 -0.09,-0.28 -0.16,-0.41 3.33,-1.82 6.63,-3.5 9.84,-5.05 3.74,2.5 8.08,3.84 12.62,3.84 12.55,0 22.75,-10.21 22.75,-22.75 0,-12.54 -10.21,-22.75 -22.75,-22.75 -11.04,0 -20.38,7.81 -22.36,18.61 -0.58,0.27 -1.16,0.55 -1.74,0.84 0.05,-27.11 3.25,-31.86 3.91,-32.55 h 0.32 z m 12.93,52.12 c 0.07,0.04 0.14,0.08 0.21,0.11 2.13,0.88 4.4,1.32 6.72,1.32 9.76,0 17.7,-7.94 17.7,-17.7 0,-9.76 -7.94,-17.7 -17.7,-17.7 -7.07,0 -13.51,4.3 -16.27,10.75 -0.86,0.38 -1.73,0.78 -2.61,1.18 2.49,-8.23 10.06,-13.98 18.88,-13.98 10.89,0 19.75,8.86 19.75,19.75 0,10.89 -8.86,19.75 -19.75,19.75 -3.32,0 -6.51,-0.82 -9.37,-2.37 0.82,-0.38 1.64,-0.75 2.44,-1.11 z m 4.17,-1.83 c 5.52,-2.36 10.49,-4.24 14.54,-5.68 -2.68,3.6 -6.96,5.94 -11.78,5.94 -0.93,0.01 -1.85,-0.08 -2.76,-0.26 z m 5.23,-28.92 c -3.96,1.42 -8.77,3.25 -14.11,5.52 2.74,-3.54 7.04,-5.74 11.64,-5.74 0.85,0 1.67,0.09 2.47,0.22 z M 135.92,352.77 c -1.31,5.06 -2.1,13.13 -2.3,23.9 -2.65,-3.5 -6.83,-5.77 -11.55,-5.77 -6.58,0 -12.13,4.41 -13.9,10.42 0.07,-19.04 1.73,-26.79 2.89,-29.88 0.03,0.29 0.14,0.57 0.33,0.8 0.29,0.34 0.71,0.54 1.15,0.54 h 23.38 z m -5.56,33.92 c -1.19,-3.65 -5.12,-6.59 -11.9,-8.89 1.1,-0.52 2.32,-0.83 3.61,-0.83 4.63,0 8.4,3.77 8.4,8.41 0,0.44 -0.04,0.88 -0.11,1.31 z m -0.18,6.8 -0.01,-0.1 c 2.1,-2.13 3.3,-5 3.3,-8.01 0,-6.29 -5.12,-11.41 -11.4,-11.41 -2.8,0 -5.37,1.02 -7.35,2.7 -0.03,-0.01 -0.07,-0.02 -0.1,-0.03 2.01,-1.72 4.61,-2.76 7.45,-2.76 6.34,0 11.49,5.16 11.49,11.49 0,3.09 -1.25,5.99 -3.38,8.12 z m -47.71,2.32 c -0.2,-3.91 -0.3,-8.32 -0.3,-13.17 0,-25.13 2.69,-31.37 3.67,-32.81 0.15,-0.12 0.28,-0.22 0.39,-0.3 h 22.39 c -2.24,5.06 -3.45,16.39 -3.45,33.12 0,3.92 0.07,7.57 0.2,10.89 -5.95,1.07 -13.59,1.94 -22.9,2.27 z m 25.87,-2.86 c -0.04,-1.04 -0.07,-2.11 -0.1,-3.21 0.32,1.02 0.76,2.01 1.31,2.95 -0.39,0.09 -0.79,0.18 -1.21,0.26 z m 4.1,-13.82 c 0.03,0.01 0.05,0.03 0.08,0.04 -0.79,1.21 -1.36,2.58 -1.64,4.05 -0.03,0.01 -0.06,0.03 -0.09,0.05 0.27,-1.51 0.84,-2.9 1.65,-4.14 z m -1.47,9.22 c -0.22,-0.82 -0.35,-1.66 -0.38,-2.52 0.03,0.02 0.06,0.04 0.09,0.06 0.04,0.85 0.16,1.68 0.38,2.49 -0.02,-0.01 -0.05,-0.02 -0.09,-0.03 z m 1.64,3.59 c -0.01,-0.02 -0.02,-0.05 -0.04,-0.07 0.05,0.01 0.1,0.03 0.15,0.04 0,0 0,0 0,0 -0.03,0.01 -0.07,0.02 -0.11,0.03 z m 4.96,-1.62 c -0.04,-0.02 -0.07,-0.04 -0.11,-0.05 -0.86,-0.32 -1.81,-0.63 -2.82,-0.93 -0.42,-0.79 -0.71,-1.64 -0.86,-2.53 3.16,0.95 5.01,1.82 6.03,2.44 -0.55,0.33 -1.3,0.7 -2.24,1.07 z M 67.16,372.78 c 4.05,-8.32 9.88,-14.86 14.1,-18.91 -1.37,6.07 -2.1,15.8 -2.1,28.78 0,4.86 0.1,9.31 0.3,13.25 -1.59,0.03 -3.22,0.05 -4.91,0.05 -1.93,0 -3.8,-0.03 -5.62,-0.07 -0.64,-1.11 -1.24,-2.24 -1.78,-3.36 v -19.74 z m -3,12.22 c -17.8,0.76 -27.58,3.38 -31.84,4.89 -0.26,0.09 -0.48,0.25 -0.64,0.45 -1.08,-0.42 -1.92,-0.82 -2.51,-1.19 3.35,-2.22 14.31,-5.82 35,-6.61 V 385 Z m 0,3.01 v 4.85 c 0,0.22 0.05,0.45 0.15,0.65 0.36,0.75 0.75,1.5 1.15,2.25 -13.2,-0.55 -23,-2.24 -29.25,-3.95 5.01,-1.42 13.87,-3.19 27.95,-3.8 z M 35.44,379.5 c 8.15,-2.15 17.82,-3.46 28.72,-3.91 v 3.96 c -22.86,0.86 -35.95,5.13 -38.45,8.78 -0.34,0.5 -0.35,1.16 -0.02,1.67 2.82,4.31 22.31,8.95 48.87,8.95 24.81,0 43.51,-4.07 48.12,-8.12 0.65,-0.17 1.12,-0.75 1.12,-1.45 0,-0.39 -0.15,-0.75 -0.39,-1.01 -0.03,-0.05 -0.06,-0.09 -0.1,-0.14 -0.79,-0.95 -3.08,-2.72 -9.48,-4.54 0.28,-1.37 0.89,-2.62 1.75,-3.65 8.07,2.39 12.18,5.46 12.18,9.13 0,10.11 -31.81,13.78 -53.2,13.78 -21.39,0 -53.2,-3.67 -53.2,-13.78 0,-3.95 4.74,-7.21 14.08,-9.67 z m -13.97,16.07 c 4.13,3.8 12.37,6.61 24.69,8.39 13.42,1.93 26.91,1.99 28.4,1.99 1.49,0 14.98,-0.06 28.4,-1.99 12.11,-1.75 20.27,-4.49 24.47,-8.2 l 0.05,0.43 c -3.2,8.92 -33.28,12.17 -52.92,12.17 -20.67,-0.01 -51.08,-3.44 -53.09,-12.79 z m 64.75,20.19 c -0.1,-0.08 -0.22,-0.17 -0.35,-0.27 -0.36,-0.53 -0.98,-1.75 -1.61,-4.39 6.28,-0.3 14.6,-0.94 22.48,-2.34 0.55,3.24 1.21,5.48 1.89,7 z m -5.17,-4.53 c 0.06,0 0.11,0 0.17,-0.01 0.02,0.07 0.03,0.15 0.05,0.22 -0.08,-0.06 -0.15,-0.14 -0.22,-0.21 z m 31.39,0.98 c -0.44,0 -0.86,0.19 -1.14,0.53 -0.19,0.22 -0.3,0.5 -0.34,0.78 -0.4,-1.15 -0.86,-2.85 -1.27,-5.32 9.86,-2.03 18.46,-5.37 20.57,-10.85 1.39,-0.95 2.56,-2.12 3.52,-3.44 0.33,7.96 1.03,14.11 2.07,18.31 h -23.41 z m 24.12,-29.57 c 0,-27.62 3.24,-32.42 3.91,-33.12 h 77.51 c -2.24,5.06 -3.45,16.39 -3.45,33.12 0,0.31 0,0.61 0,0.91 -6.38,3.21 -13.04,6.9 -19.62,11.1 -10.32,6.59 -19.23,13.65 -26.72,21.1 h -27.73 c -0.66,-0.69 -3.9,-5.49 -3.9,-33.11 z m 424.85,108.67 c -42.69,78.94 -197.77,86.78 -204.33,87.08 -0.79,0.03 -5.05,0.17 -11.81,0.17 -0.01,0 -0.02,0 -0.03,0 -17.1,0 -51.02,-0.92 -86.27,-7.04 -29.47,-5.12 -53.77,-12.87 -72.21,-23.03 -24.5,-13.5 -38.97,-31.35 -42.99,-53.05 -7,-37.76 11.25,-71.73 52.77,-98.25 6.69,-4.27 13.48,-8.02 19.96,-11.25 0.15,-0.05 0.29,-0.12 0.42,-0.21 3.38,-1.68 6.68,-3.22 9.83,-4.62 0.24,-0.04 0.46,-0.14 0.65,-0.29 8.59,-3.79 16.08,-6.56 21.28,-8.33 4.56,2.5 7.66,7.35 7.66,12.9 0,1.71 -0.31,3.34 -0.85,4.87 -10.6,3.59 -30.46,11.21 -49.12,23.2 -1.31,0.84 -2.58,1.69 -3.83,2.54 -0.04,0.03 -0.08,0.05 -0.12,0.08 -31.84,21.72 -45.3,47.24 -39.99,75.91 6.89,37.13 58.06,53.57 99.77,60.82 33.91,5.9 67,6.75 83.41,6.75 6.62,0 10.53,-0.14 10.66,-0.15 1.5,-0.07 150.87,-7.66 188.42,-77.15 13.85,-25.62 7.67,-63.19 -17.37,-105.86 2.69,-3.47 6.89,-5.72 11.61,-5.72 6.42,0 12.05,4.1 14.01,10.21 0.05,0.16 0.14,0.31 0.23,0.44 0.03,0.08 0.06,0.16 0.1,0.24 22.06,42.01 24.8,78.94 8.14,109.74 z M 708.54,415.76 H 570.41 c -1.57,-5.6 -3.54,-11.31 -5.89,-17.12 0.04,-0.15 0.06,-0.3 0.05,-0.46 -0.29,-4.46 -0.44,-9.69 -0.44,-15.53 0,-27.62 3.24,-32.42 3.91,-33.12 h 140.49 c 18.26,0 33.12,14.86 33.12,33.12 0.01,18.26 -14.85,33.11 -33.11,33.11 z"
   id="path1857" />
	<path
   d="m 703.58,100.94 c -24.84,0 -47.66,13.61 -59.54,35.51 -0.07,0.14 -0.12,0.28 -0.14,0.42 -1.03,-0.63 -1.59,-1.31 -1.59,-1.89 0,-0.78 -0.63,-1.41 -1.41,-1.41 h -53.65 c -2.9,0 -5.46,1.8 -6.36,4.47 -3.16,9.32 -20.18,16.34 -39.59,16.34 -18.38,0 -34.81,-6.33 -39.06,-15.06 -1.73,-3.55 -5.16,-5.75 -8.94,-5.75 h -1 c -3.78,0 -7.21,2.2 -8.94,5.75 -4.26,8.73 -20.68,15.06 -39.06,15.06 -18.38,0 -34.81,-6.33 -39.06,-15.06 -1.73,-3.55 -5.16,-5.75 -8.94,-5.75 h -1 c -3.78,0 -7.21,2.2 -8.94,5.75 -4.26,8.73 -20.68,15.06 -39.06,15.06 -18.38,0 -34.81,-6.33 -39.06,-15.06 -1.73,-3.55 -5.16,-5.75 -8.94,-5.75 -3.78,0 -7.21,2.2 -8.94,5.75 -4.26,8.73 -20.68,15.06 -39.06,15.06 -21.74,0 -40.11,-8.88 -40.11,-19.4 0,-0.16 -0.03,-0.31 -0.08,-0.45 -0.01,-0.02 -0.01,-0.04 -0.02,-0.05 -0.05,-0.13 -0.13,-0.26 -0.21,-0.37 -0.02,-0.02 -0.03,-0.04 -0.05,-0.06 -0.09,-0.11 -0.2,-0.2 -0.32,-0.27 -0.02,-0.01 -0.04,-0.02 -0.06,-0.03 -0.13,-0.07 -0.27,-0.13 -0.42,-0.15 0,0 -0.01,0 -0.01,0 -0.01,0 -0.02,0 -0.03,0 -0.07,-0.01 -0.14,-0.02 -0.21,-0.02 h -11.81 c -0.13,-0.02 -0.27,-0.02 -0.41,0 l -172.7,27.29 c -3.25,0.51 -5.6,3.27 -5.6,6.56 0,3.29 2.36,6.04 5.6,6.56 l 172.69,27.31 c 0.08,0.01 0.15,0.02 0.23,0.02 0.04,0 0.07,-0.02 0.11,-0.02 h 11.89 c 0,0 0,0 0,0 0.08,0 0.15,-0.01 0.23,-0.02 0.01,0 0.01,0 0.02,-0.01 0.15,-0.03 0.29,-0.08 0.42,-0.15 0.02,-0.01 0.04,-0.02 0.06,-0.03 0.12,-0.07 0.23,-0.16 0.32,-0.27 0.02,-0.02 0.03,-0.04 0.05,-0.05 0.09,-0.11 0.16,-0.23 0.22,-0.37 0.01,-0.02 0.01,-0.03 0.02,-0.05 0.05,-0.14 0.08,-0.3 0.08,-0.46 0,-10.52 18.37,-19.4 40.11,-19.4 18.38,0 34.81,6.33 39.06,15.06 1.73,3.55 5.16,5.75 8.94,5.75 3.78,0 7.21,-2.2 8.94,-5.75 4.26,-8.73 20.68,-15.06 39.06,-15.06 18.38,0 34.81,6.33 39.06,15.06 1.73,3.55 5.16,5.75 8.94,5.75 h 1 c 3.78,0 7.21,-2.2 8.94,-5.75 4.26,-8.73 20.68,-15.06 39.06,-15.06 18.38,0 34.81,6.33 39.06,15.06 1.73,3.55 5.16,5.75 8.94,5.75 h 1 c 3.78,0 7.21,-2.2 8.94,-5.75 4.26,-8.73 20.68,-15.06 39.06,-15.06 19.41,0 36.43,7.02 39.59,16.34 0.91,2.67 3.46,4.47 6.36,4.47 h 53.65 c 0.78,0 1.41,-0.63 1.41,-1.41 0,-0.36 0.23,-0.77 0.64,-1.17 11.41,22.9 35.04,37.62 60.63,37.62 37.33,0 67.69,-30.37 67.69,-67.69 0,-37.32 -30.37,-67.71 -67.7,-67.71 z m -509.13,66.11 c 0,-15.69 3.31,-27.38 4.34,-30.67 h 9.04 c -1.3,4.3 -4.21,15.57 -4.21,30.67 0,15.22 2.95,27 4.23,31.41 h -9.05 c -1.02,-3.41 -4.35,-15.64 -4.35,-31.41 z m -172.33,0.37 c 0,-1.87 1.34,-3.44 3.19,-3.73 l 170.42,-26.95 c -1.35,4.55 -4.1,15.62 -4.1,30.31 0,14.82 2.8,26.39 4.13,31.05 L 25.31,171.15 c -1.85,-0.29 -3.19,-1.86 -3.19,-3.73 z m 617.64,31.04 h -52.51 c -1.69,0 -3.17,-1.03 -3.69,-2.56 -3.59,-10.58 -21.36,-18.26 -42.27,-18.26 -19.71,0 -36.82,6.84 -41.6,16.64 -1.25,2.57 -3.71,4.17 -6.4,4.17 h -1 c -2.69,0 -5.15,-1.6 -6.4,-4.17 -4.78,-9.8 -21.89,-16.64 -41.6,-16.64 -19.71,0 -36.82,6.84 -41.6,16.64 -1.25,2.57 -3.71,4.17 -6.4,4.17 h -1 c -2.69,0 -5.15,-1.6 -6.4,-4.17 -4.78,-9.8 -21.89,-16.64 -41.6,-16.64 -19.71,0 -36.82,6.84 -41.6,16.64 -1.25,2.57 -3.71,4.17 -6.4,4.17 -2.69,0 -5.15,-1.6 -6.4,-4.17 -4.78,-9.8 -21.89,-16.64 -41.6,-16.64 -20.33,0 -36.93,6.96 -41.61,16.63 -1.37,-5.63 -3.23,-15.45 -3.23,-27.23 0,-11.67 1.83,-21.13 3.19,-26.56 4.62,9.71 21.27,16.71 41.65,16.71 19.71,0 36.82,-6.84 41.6,-16.64 1.25,-2.57 3.71,-4.17 6.4,-4.17 2.69,0 5.15,1.6 6.4,4.17 4.78,9.8 21.89,16.64 41.6,16.64 19.71,0 36.82,-6.84 41.6,-16.64 1.25,-2.57 3.71,-4.17 6.4,-4.17 h 1 c 2.69,0 5.15,1.6 6.4,4.17 4.78,9.8 21.89,16.64 41.6,16.64 19.71,0 36.82,-6.84 41.6,-16.64 1.25,-2.57 3.71,-4.17 6.4,-4.17 h 1 c 2.69,0 5.15,1.6 6.4,4.17 4.78,9.8 21.89,16.64 41.6,16.64 20.9,0 38.68,-7.68 42.27,-18.26 0.52,-1.53 2,-2.56 3.69,-2.56 h 52.51 c 1.21,3.08 6.38,5.27 12.95,5.27 6.57,0 11.73,-2.18 12.95,-5.27 h 11.55 c 1.27,0 2.15,0.56 3.13,3.5 0,0.01 0,0.01 0.01,0.02 0.04,0.11 3.92,11.38 3.92,27.14 0,15.29 -3.65,27.04 -3.92,27.87 -1.35,3.26 -1.75,3.54 -3.14,3.54 h -11.55 c -0.77,-1.95 -3.12,-3.54 -6.41,-4.45 -0.19,-0.09 -0.39,-0.15 -0.6,-0.15 -1.77,-0.43 -3.78,-0.67 -5.94,-0.67 -6.58,0.02 -11.74,2.21 -12.95,5.29 z m 43.21,-2.52 c 0.01,-0.03 0.03,-0.06 0.04,-0.1 0.17,-0.5 4.07,-12.54 4.07,-28.79 0,-16.16 -3.86,-27.45 -4.08,-28.07 -0.9,-2.68 -2.29,-5.42 -5.8,-5.42 h -10.41 c 9.54,-10 22.8,-15.8 36.79,-15.8 28.05,0 50.87,22.82 50.87,50.87 0,28.05 -22.82,50.87 -50.87,50.87 -15.06,0 -29.34,-6.83 -38.94,-18.22 h 12.55 c 3.57,0 4.54,-2.35 5.78,-5.34 z m 20.61,37.56 c -24.59,0 -47.3,-14.19 -58.2,-36.25 1.79,-0.72 4.29,-1.24 7.32,-1.24 1.9,0 3.59,0.21 5.03,0.54 9.73,15.91 27.23,25.77 45.84,25.77 29.61,0 53.69,-24.09 53.69,-53.69 0,-29.6 -24.09,-53.69 -53.69,-53.69 -17.42,0 -33.78,8.51 -43.86,22.78 -1.77,0.65 -4.15,1.12 -7.01,1.12 -2.49,0 -4.62,-0.35 -6.3,-0.88 0.04,-0.05 0.08,-0.1 0.11,-0.16 11.39,-20.99 33.26,-34.03 57.06,-34.03 35.77,0 64.87,29.1 64.87,64.87 0,35.77 -29.09,64.86 -64.86,64.86 z"
   id="path1859" />
	<path
   class="st2"
   d="m 703.58,233.5 c -24.59,0 -47.3,-14.19 -58.2,-36.25 1.79,-0.72 4.29,-1.24 7.32,-1.24 1.9,0 3.59,0.21 5.03,0.54 9.73,15.91 27.23,25.77 45.84,25.77 29.61,0 53.69,-24.09 53.69,-53.69 0,-29.6 -24.09,-53.69 -53.69,-53.69 -17.42,0 -33.78,8.51 -43.86,22.78 -1.77,0.65 -4.15,1.12 -7.01,1.12 -2.49,0 -4.62,-0.35 -6.3,-0.88 0.04,-0.05 0.08,-0.1 0.11,-0.16 11.39,-20.99 33.26,-34.03 57.06,-34.03 35.77,0 64.87,29.1 64.87,64.87 0,35.77 -29.09,64.86 -64.86,64.86 z"
   id="path1861" />
	<path
   class="st2"
   d="m 35.44,379.5 c 8.15,-2.15 17.82,-3.46 28.72,-3.91 v 3.96 c -22.86,0.86 -35.95,5.13 -38.45,8.78 -0.34,0.5 -0.35,1.16 -0.02,1.67 2.82,4.31 22.31,8.95 48.87,8.95 24.81,0 43.51,-4.07 48.12,-8.12 0.65,-0.17 1.12,-0.75 1.12,-1.45 0,-0.39 -0.15,-0.75 -0.39,-1.01 -0.03,-0.05 -0.06,-0.09 -0.1,-0.14 -0.79,-0.95 -3.08,-2.72 -9.48,-4.54 0.28,-1.37 0.89,-2.62 1.75,-3.65 8.07,2.39 12.18,5.46 12.18,9.13 0,10.11 -31.81,13.78 -53.2,13.78 -21.39,0 -53.2,-3.67 -53.2,-13.78 0,-3.95 4.74,-7.21 14.08,-9.67 z"
   id="path1863" />
	<path
   class="st2"
   d="m 21.47,395.57 c 4.13,3.8 12.37,6.61 24.69,8.39 13.42,1.93 26.91,1.99 28.4,1.99 1.49,0 14.98,-0.06 28.4,-1.99 12.11,-1.75 20.27,-4.49 24.47,-8.2 l 0.05,0.43 c -3.2,8.92 -33.28,12.17 -52.92,12.17 -20.67,-0.01 -51.08,-3.44 -53.09,-12.79 z"
   id="path1865" />
</g>
</svg>
