<?xml version="1.0" encoding="UTF-8" standalone="no"?>
<svg
   xmlns:dc="http://purl.org/dc/elements/1.1/"
   xmlns:cc="http://creativecommons.org/ns#"
   xmlns:rdf="http://www.w3.org/1999/02/22-rdf-syntax-ns#"
   xmlns:svg="http://www.w3.org/2000/svg"
   xmlns="http://www.w3.org/2000/svg"
   xmlns:sodipodi="http://sodipodi.sourceforge.net/DTD/sodipodi-0.dtd"
   xmlns:inkscape="http://www.inkscape.org/namespaces/inkscape"
   viewBox="0 0 260.58438 165.67731"
   height="165.67731"
   width="260.58438"
   id="svg355"
   version="1.1"
   sodipodi:docname="laceration.svg"
   inkscape:version="0.92.4 (5da689c313, 2019-01-14)">
  <sodipodi:namedview
     pagecolor="#ffffff"
     bordercolor="#666666"
     borderopacity="1"
     objecttolerance="10"
     gridtolerance="10"
     guidetolerance="10"
     inkscape:pageopacity="0"
     inkscape:pageshadow="2"
     inkscape:window-width="1598"
     inkscape:window-height="867"
     id="namedview356"
     showgrid="false"
     inkscape:zoom="2.8284271"
     inkscape:cx="122.67961"
     inkscape:cy="106.68931"
     inkscape:window-x="0"
     inkscape:window-y="31"
     inkscape:window-maximized="0"
     inkscape:current-layer="svg355" />
  <metadata
     id="metadata361">
    <rdf:RDF>
      <cc:Work
         rdf:about="">
        <dc:format>image/svg+xml</dc:format>
        <dc:type
           rdf:resource="http://purl.org/dc/dcmitype/StillImage" />
        <dc:title />
      </cc:Work>
    </rdf:RDF>
  </metadata>
  <defs
     id="defs359" />
  <g
     transform="translate(-7.1228,-7.2928273)"
     id="g440">
    <path
       id="path446"
       d="m 23.25,171.53768 c -1.2375,-0.9081 -2.25,-2.15264 -2.25,-2.76564 0,-0.61301 -0.715324,-1.90498 -1.589609,-2.87106 -1.065707,-1.17759 -1.733116,-4.33455 -2.025034,-9.57874 C 15.438497,121.34765 14.839284,112.73822 13.465351,100 12.605175,92.025 10.974856,79.298124 9.8424199,71.718053 8.7099842,64.137982 8.0383377,56.961398 8.3498721,55.770089 8.6614065,54.57878 8.4347871,53.023886 7.8462735,52.314771 6.0985653,50.208911 7.6705949,48 10.916993,48 13.720131,48 28.724754,43.849218 32,42.167733 c 0.825,-0.423548 12.075,-0.440786 25,-0.03831 12.925,0.40248 30.568774,0.473986 39.208386,0.158901 19.116454,-0.697174 20.213724,-0.287275 21.159844,7.904551 0.33713,2.918916 0.68137,10.25712 0.76499,16.30712 0.11567,8.368594 0.5832,11.861748 1.95441,14.602341 0.99129,1.981288 1.5611,4.524917 1.26623,5.652509 -0.58177,2.224683 1.1691,11.897457 2.55462,14.113175 0.68792,1.10012 1.2825,0.94099 3.03599,-0.8125 1.19929,-1.199285 2.71491,-2.00261 3.36803,-1.785159 2.21843,0.738603 1.77121,3.349279 -1.2181,7.110839 -3.90227,4.91037 -3.07952,7.97377 2.26386,8.42916 3.26567,0.27831 3.64174,0.062 3.64174,-2.09502 0,-1.32295 0.89057,-3.21133 1.97904,-4.19638 1.08848,-0.98506 2.88756,-4.21924 3.99797,-7.18707 1.11041,-2.967833 2.67169,-6.394123 3.46951,-7.613978 3.53415,-5.403647 10.63563,-23.325645 12.62803,-31.869316 C 158.88424,53.088371 163.16004,42 164.34278,42 c 0.16999,0 4.99991,0.656555 10.73315,1.459012 14.23477,1.992379 35.16658,3.608534 47.47606,3.665649 7.81124,0.03624 11.00448,-0.36106 13.57163,-1.688586 1.84636,-0.95479 6.73637,-2.091732 10.8667,-2.526538 4.13032,-0.434805 8.85968,-1.054536 10.50968,-1.377179 5.59314,-1.093688 5.92745,-0.195719 6.76799,18.178959 0.99255,21.697435 0.99195,21.692042 2.60379,23.634182 1.16616,1.405139 1.13157,2.609146 -0.23077,8.032641 -0.97284,3.8729 -1.59032,10.45494 -1.57143,16.75081 0.0171,5.70408 -0.64012,14.87105 -1.4605,20.37105 -0.82039,5.5 -1.95228,15.03922 -2.51531,21.19826 -1.17681,12.87314 -2.88315,17.89097 -6.55923,19.28861 -5.43262,2.06547 -23.49428,4.01183 -36.96068,3.98294 -19.62408,-0.0421 -54.98104,-1.70156 -61.57386,-2.88994 -7.42383,-1.33817 -29.33354,-3.02572 -41,-3.15795 -13.94088,-0.158 -43.220162,1.8222 -53,3.58447 -4.675,0.84241 -14.8,1.79057 -22.5,2.10701 -12.04199,0.4949 -14.31468,0.34445 -16.25,-1.07572 z m 203.64973,-5.1585 c -1.41682,-1.70716 -3.01632,-1.73881 -6.54822,-0.12957 l -2.7426,1.24961 2.94554,0.53699 c 1.62005,0.29534 3.96803,0.35364 5.21773,0.12957 1.80339,-0.32336 2.03602,-0.69196 1.12755,-1.7866 z M 207.5,167 c -0.33992,-0.55 -1.71648,-1 -3.05902,-1 -1.34254,0 -2.44098,0.45 -2.44098,1 0,0.55 1.37656,1 3.05902,1 1.7847,0 2.80156,-0.41658 2.44098,-1 z M 181,164.5 c -1.57793,-1.90129 -4.0712,-1.91338 -6.55887,-0.0318 -1.79342,1.35647 -1.57036,1.47061 2.93131,1.5 4.21948,0.0275 4.70562,-0.16922 3.62756,-1.4682 z m 72.3895,-1.07265 c 0.42084,-1.09668 0.1,-1.475 -1.06014,-1.25 -0.915,0.17746 -1.85092,0.88515 -2.07983,1.57265 -0.6122,1.83866 2.43058,1.526 3.13997,-0.32265 z M 151.25,163.33772 c -0.6875,-0.27741 -1.8125,-0.27741 -2.5,0 -0.6875,0.27741 -0.125,0.50439 1.25,0.50439 1.375,0 1.9375,-0.22698 1.25,-0.50439 z M 27.860125,160 c 0.661455,0 1.473305,0.70533 1.804113,1.5674 0.489416,1.2754 1.215337,0.97242 3.896564,-1.62633 2.716066,-2.63252 4.193187,-3.23692 8.405879,-3.43947 4.931845,-0.23713 6.93684,-0.93141 5.844452,-2.0238 -1.055102,-1.0551 -23.074633,2.51052 -25.652439,4.15389 -0.187719,0.11968 -0.03446,1.18436 0.340565,2.36598 0.62589,1.972 0.824577,2.01924 2.420047,0.57536 C 25.875303,160.70786 27.198671,160 27.860125,160 Z m 57.684139,1.92838 c 0.454131,-0.7348 -1.126493,-0.91672 -5.028865,-0.57878 -7.53905,0.65285 -8.289193,1.6504 -1.241083,1.6504 3.084208,0 5.905684,-0.48223 6.269948,-1.07162 z m 170.279686,-7.90023 c 0.30841,-0.92522 -0.0889,-1.14044 -1.26929,-0.6875 -0.94503,0.36264 -2.46893,0.69098 -3.38645,0.72964 -1.33216,0.0561 -1.26533,0.24261 0.33179,0.92578 2.47881,1.06032 3.74214,0.77752 4.32395,-0.96792 z m -190.05414,-0.0722 c 3.436103,-0.73692 5.704849,-0.72598 7.712061,0.0372 1.766233,0.67152 3.198475,0.72654 3.779805,0.14521 0.58133,-0.58133 -0.143483,-1.15083 -1.912839,-1.50296 -9.10389,-1.81182 -10.130443,-1.79473 -13.974091,0.23256 -4.337083,2.28754 -2.880013,2.64825 4.395064,1.08803 z m 138.65655,-3.97028 4.92636,-2.79769 -5.65823,-0.70695 c -3.11203,-0.38882 -6.67889,-0.4508 -7.92636,-0.13772 -1.24747,0.31307 -12.10253,-0.0571 -24.12235,-0.82267 -22.22873,-1.41574 -28.51089,-0.9849 -25.75795,1.76652 1.09579,1.09518 4.68648,1.37199 22.01449,1.69712 2.42127,0.0454 5.64533,0.81687 7.16457,1.7143 2.60257,1.53738 3.11814,1.50194 8.91886,-0.61311 6.88236,-2.50944 8.51029,-2.28564 10.18996,1.40083 1.35475,2.97335 2.72605,2.7726 10.25065,-1.50063 z m 42.337,3.44435 C 244.44289,151.10956 217,146.67477 217,148.62024 c 0,1.92757 9.50782,4.34382 14.68154,3.73107 2.9749,-0.35233 5.82849,-0.14884 6.93632,0.49464 1.90922,1.10896 9.19264,1.63122 8.1455,0.58407 z M 33.272884,150.58285 c 3.17438,-1.37043 3.618094,-1.91804 2.797107,-3.45207 -0.536678,-1.00279 -1.398877,-5.23121 -1.915998,-9.39649 -1.121406,-9.03263 -4.746768,-14.73421 -9.368809,-14.73426 -4.34856,-5e-5 -4.941306,2.43495 -4.166304,17.11516 l 0.692101,13.10986 4.094509,-0.50669 c 2.251981,-0.27868 5.792308,-1.23966 7.867394,-2.13551 z m 23.557905,-1.45711 c 0.953243,-0.60429 -0.232584,-1.72595 -4.179851,-3.95365 -3.030851,-1.7105 -7.064113,-4.47398 -8.962803,-6.14105 C 41.789444,137.36397 39.957877,136 39.617985,136 c -1.143632,0 -0.630473,6.03435 0.8054,9.47088 1.259626,3.01471 1.921159,3.45111 5.75,3.79317 8.083547,0.72218 9.325459,0.70606 10.657404,-0.13831 z M 134,149.47028 c 0,-1.15026 -10.306,-5.45508 -15.75354,-6.58025 -5.12349,-1.05824 -6.58715,-1.03513 -8.93672,0.14111 -2.7264,1.3649 -2.5963,1.42237 4.38597,1.93774 5.43952,0.4015 7.6533,1.01924 9.07064,2.53112 1.28053,1.36594 3.35843,2.0645 6.5543,2.20344 2.57364,0.11188 4.67935,0.007 4.67935,-0.23316 z M 256.31747,146.75 c 0.29386,-1.2375 0.83265,-4.74271 1.19731,-7.78935 l 0.66303,-5.53936 -5.33891,-1.67828 c -2.93639,-0.92306 -10.69567,-3.06712 -17.24284,-4.76458 -6.54717,-1.69745 -13.16232,-3.73701 -14.70034,-4.53235 C 219.3577,121.65073 217.87765,121 217.60672,121 c -0.27093,0 0.85083,3.0375 2.4928,6.75 2.10204,4.75271 3.98682,7.4043 6.3698,8.96125 1.86142,1.21619 3.98418,3.46619 4.71724,5 1.06827,2.23517 2.42269,3.03914 6.82314,4.05014 3.01967,0.69376 6.8403,1.66032 8.4903,2.14791 1.65,0.48759 4.41372,0.93246 6.14159,0.98861 2.47644,0.0805 3.25472,-0.37429 3.67588,-2.14791 z m -184.594827,-7 c -3.551433,-3.9875 -7.162215,-8.63277 -8.02396,-10.32283 -0.861745,-1.69006 -2.271481,-3.65766 -3.132746,-4.37245 C 59.704671,124.33994 59,122.61682 59,121.22558 v -2.52953 l -12.645523,0.5975 c -6.955038,0.32862 -13.046132,0.99811 -13.535765,1.48774 -0.999332,0.99933 11.703339,13.85038 17.755595,17.96299 6.613177,4.49377 16.593704,7.77038 24.76559,8.13055 2.758392,0.12158 2.654577,-0.0829 -3.617254,-7.12483 z m 23.327017,5.72432 c 3.678808,-1.90239 3.819832,-4.73048 0.480911,-9.64414 -2.114189,-3.11131 -3.188779,-3.73303 -7.469925,-4.32184 -2.810129,-0.38649 -8.736923,-2.61037 -13.530571,-5.07701 C 69.838534,124.01724 66,122.50053 66,123.06087 c 0,6.03726 18.157571,23.92263 24.29966,23.93539 0.989813,0.002 3.127313,-0.68282 4.75,-1.52194 z m 46.58603,-4.01726 c 2.17985,-1.17424 5.37252,-1.4738 13.36059,-1.25358 l 10.49628,0.28938 0.88404,-4.19068 c 0.83825,-3.97358 0.70453,-4.36191 -2.58128,-7.49642 -1.90593,-1.81817 -3.89341,-4.09047 -4.41661,-5.04956 -0.77141,-1.41409 -1.51167,-1.56952 -3.91499,-0.82203 -1.63005,0.50699 -5.88363,1.44403 -9.45242,2.08231 -3.56878,0.63829 -6.83128,1.37226 -7.25,1.63104 -0.41871,0.25878 -0.7613,3.33681 -0.7613,6.84007 0,4.45717 -0.4718,6.84136 -1.57143,7.94098 C 135,142.85714 135.03506,143 136.81426,143 c 1.07642,0 3.24606,-0.69433 4.82143,-1.54294 z M 226,142.58403 c 0,-0.22878 -1.84201,-1.87487 -4.09335,-3.65797 -4.37952,-3.46864 -5.85843,-3.01077 -5.89134,1.82394 -0.0138,2.03538 0.46163,2.25 4.98469,2.25 2.75,0 5,-0.18719 5,-0.41597 z M 183.98813,141.25 c -0.0178,-1.1269 -11.62532,-7.27948 -12.35565,-6.54915 -0.34786,0.34787 -0.63248,1.88161 -0.63248,3.40832 0,2.53898 0.36265,2.8085 4.25,3.15862 8.10301,0.72983 8.74994,0.72851 8.73813,-0.0178 z m 27.38158,-1.5 c 1.08749,-4.05792 0.68485,-4.55482 -4.23953,-5.2321 C 202.39911,133.86722 190,135.59167 190,136.90035 c 0,1.27007 11.60445,4.84584 16.13337,4.9713 4.01374,0.11119 4.714,-0.17254 5.23634,-2.12165 z m -104.56385,-1.10051 c 2.27495,-1.26249 2.25552,-1.29509 -1.44915,-2.43209 -4.3852,-1.34585 -4.45661,-1.31543 -3.70042,1.57627 0.65379,2.50007 1.83342,2.69612 5.14957,0.85582 z m 20.86206,-3.46086 -0.9856,-4.81138 -5.34116,2.4993 C 118.40352,134.25116 116,135.73271 116,136.16887 c 0,0.43616 1.2375,1.07331 2.75,1.41588 1.5125,0.34257 4.1,0.98556 5.75,1.42887 1.65,0.4433 3.25954,0.84659 3.57676,0.89619 0.31721,0.0496 0.13324,-2.07493 -0.40884,-4.72118 z m 65.59149,-4.04426 c 5.79897,-1.54503 9.36384,-1.91754 14.10971,-1.47436 4.13995,0.38659 6.58633,0.21109 7.02841,-0.50421 0.90011,-1.45641 -2.87357,-8.75076 -4.93672,-9.54247 -3.10557,-1.19171 -9.87188,-0.61058 -17.8007,1.52885 -7.40094,1.99699 -8.65589,2.06324 -17.40354,0.91877 -5.1851,-0.67837 -9.65525,-1.0056 -9.93367,-0.72718 -1.27415,1.27415 1.97415,4.15597 9.25752,8.21309 4.35577,2.42632 8.81958,4.24126 9.91958,4.03319 1.1,-0.20807 5.49174,-1.30863 9.75941,-2.44568 z m -78.55391,-0.66579 c 2.0027,-0.83678 5.25074,-3.25289 7.21788,-5.36913 3.24775,-3.49392 3.46023,-4.06663 2.31075,-6.22858 -0.69622,-1.30948 -1.72061,-3.67893 -2.27641,-5.26545 -0.99635,-2.84405 -1.09095,-2.87523 -6.73414,-2.21919 -3.14797,0.36596 -8.7996,1.6525 -12.55918,2.85898 -6.166427,1.97885 -7.16468,2.68458 -10.197166,7.20901 -3.740705,5.58108 -3.580998,5.89574 3.532766,6.9605 2.475,0.37045 5.625,1.31049 7,2.08897 3.27567,1.85461 7.21103,1.8428 11.7055,-0.0351 z m 145.06196,-8.1078 0.54138,-4.80316 -2.74922,1.80136 c -1.51207,0.99075 -4.31438,2.34323 -6.22736,3.00552 -1.91297,0.66229 -3.4417,1.63646 -3.39716,2.16483 0.11342,1.34578 9.37584,4.3876 10.42794,3.42457 0.47466,-0.43448 1.10665,-2.95139 1.40442,-5.59312 z M 86.896408,121.4652 C 88.603384,119.52107 90,117.03023 90,115.93002 c 0,-1.10021 0.621866,-2.99705 1.381925,-4.2152 0.760058,-1.21815 1.665376,-4.12732 2.011817,-6.46482 0.558115,-3.7657 0.407083,-4.25 -1.325388,-4.25 -1.110291,0 -2.718025,1.29122 -3.720246,2.98785 -0.992062,1.67942 -3.753779,3.90975 -6.306536,5.09308 C 77.229274,111.31166 71,116.63457 71,118.51595 71,119.68517 80.506634,125 82.598034,125 c 0.65713,0 2.591398,-1.59066 4.298374,-3.5348 z m 155.648452,0.46221 c 0.36459,-0.58992 3.95244,-2.57168 7.973,-4.4039 11.39983,-5.19507 13.71303,-10.7665 5.01189,-12.07132 -5.11077,-0.76641 -19.39983,1.02734 -24.02975,3.01653 -1.65,0.7089 -8.33814,1.58982 -14.86252,1.9576 -14.4756,0.81599 -17.63748,1.4015 -17.63748,3.26607 0,0.97932 0.63159,1.24193 1.96729,0.81799 5.29722,-1.68127 17.60125,0.26992 21.44638,3.40099 1.65331,1.34629 13.73032,4.96886 16.77731,5.03246 1.48004,0.0309 2.98929,-0.42649 3.35388,-1.01642 z m -94.40078,-3.33834 8.64409,-2.70069 5.5422,-8.52132 5.5422,-8.521327 -4.08443,0.690061 c -2.24644,0.379534 -5.57832,1.314246 -7.40417,2.077136 -1.82585,0.76289 -5.12815,1.38707 -7.33843,1.38707 -3.68699,0 -4.15343,0.30953 -5.65093,3.75 -0.89772,2.0625 -2.18822,5.55 -2.86778,7.75 -1.13816,3.68467 -1.54267,4.02247 -5.1312,4.28499 -2.1426,0.15675 -4.55802,0.51845 -5.3676,0.8038 -1.29597,0.45677 -1.29597,0.63713 0,1.50837 2.12261,1.42698 8.22528,0.58209 18.11605,-2.50809 z M 22.55,117.08468 c 0.5225,-0.50343 2.058356,-1.06593 3.413013,-1.25 2.13076,-0.28953 2.635763,-1.14406 3.74362,-6.33468 1.809947,-8.4801 2.432776,-16.5 1.281398,-16.5 -1.087695,0 -11.541747,8.95541 -12.257128,10.5 -0.641599,1.38529 1.329575,14.5 2.179387,14.5 0.379341,0 1.11721,-0.4119 1.63971,-0.91532 z M 182.5,117 c 0.33992,-0.55 1.88079,-1 3.42416,-1 3.89105,0 7.92145,-3.47401 10.20152,-8.79321 1.05852,-2.46942 1.78972,-4.62473 1.62488,-4.78956 -0.16483,-0.16484 -2.98864,1.02046 -6.27513,2.63399 -4.22188,2.07278 -8.17638,3.12338 -13.47543,3.58005 -8.94123,0.77056 -14.90905,3.36134 -14.98469,6.50522 -0.0182,0.75757 9.94491,2.55325 15.17567,2.73515 2.03004,0.0706 3.9691,-0.32164 4.30902,-0.87164 z M 70.828955,111.1162 C 73.94803,108.43011 77.625,105.90188 79,105.49792 c 3.420241,-1.00484 6,-3.43536 6,-5.652908 0,-2.451316 -1.696725,-2.327216 -8.129157,0.594578 -5.333692,2.42271 -8.564387,3.30401 -20.684474,5.64252 -5.197016,1.00274 -6.744523,1.78311 -8.75,4.41243 C 46.096366,112.25137 45,113.89263 45,114.14178 c 0,0.24916 2.8125,0.28243 6.25,0.0739 3.4375,-0.20849 7.375,0.0792 8.75,0.63922 4.070201,1.65784 4.891878,1.37415 10.828955,-3.73875 z M 38.579063,112.75 c 2.079591,-1.31767 4.614737,-4.31252 6.118117,-7.22752 C 47.166937,100.7337 51,90.590343 51,88.84345 51,87.22921 45.394792,88.014617 40.96189,90.25 c -4.299028,2.167873 -4.472675,2.432504 -4.757373,7.25 -0.162516,2.75 -0.725016,6.30465 -1.25,7.89922 C 33.944805,108.46609 33.645024,115 34.514024,115 c 0.282714,0 2.111981,-1.0125 4.065039,-2.25 z M 106,108.50119 c 2.475,-0.71744 6.21115,-1.59853 8.30256,-1.95799 4.19661,-0.72127 5.24326,-2.23236 4.25994,-6.15021 -0.538,-2.143553 -1.04201,-2.476246 -2.85785,-1.886447 -1.21256,0.393848 -5.45489,1.187905 -9.4274,1.764567 l -7.222754,1.04848 -0.861615,4.09021 c -1.006795,4.77939 -0.614034,5.97813 1.65827,5.06119 0.906869,-0.36595 3.673849,-1.25236 6.148849,-1.9698 z m 121.12986,-3.99375 C 227.28793,103.23537 211.57191,95 208.98627,95 c -1.33686,0 -2.74623,1.566201 -4.46942,4.966756 C 203.13258,102.69847 202,105.18692 202,105.49663 c 0,1.02622 25.00171,0.0421 25.12986,-0.98919 z M 189,101.16741 c 2.475,-1.2176 6.4673,-3.392323 8.87177,-4.832714 3.80991,-2.282309 4.1443,-2.746197 2.60183,-3.60941 -2.20365,-1.233225 -14.01612,-0.318996 -18.00945,1.393846 C 179.61569,95.340915 172,102.22487 172,103.57786 c 0,1.48653 12.75483,-0.32199 17,-2.41045 z M 61.792158,100.43551 C 69.510918,98.868794 78,95.514929 78,94.032114 78,92.711163 72.876865,91.070193 65.5,90.028291 61.65,89.48452 58.137196,89.030703 57.69377,89.019809 56.902462,89.000367 53.86813,95.317369 52.53959,99.75 c -0.809438,2.70067 -0.711375,2.70793 9.252568,0.68551 z M 230,98 c 0,-0.55 -0.19844,-1 -0.44098,-1 -0.24254,0 -0.7191,0.45 -1.05902,1 -0.33992,0.55 -0.14148,1 0.44098,1 C 229.52344,99 230,98.55 230,98 Z m -79.1875,-1.9375 c 0.25,-0.75 -0.125,-1.125 -0.875,-0.875 -0.72188,0.240625 -1.50938,1.028125 -1.75,1.75 -0.25,0.75 0.125,1.125 0.875,0.875 0.72187,-0.240625 1.50937,-1.028125 1.75,-1.75 z m 27.8646,-9.663425 c 0.88955,-2.318122 -1.83313,-3.67072 -3.6771,-1.826747 -1.33333,1.333333 -1.33333,1.605391 0,2.448523 2.13275,1.348645 2.97568,1.206112 3.6771,-0.621776 z M 38.5,85 c 0.339919,-0.55 0.168034,-1 -0.381966,-1 -0.55,0 -1.278115,0.45 -1.618034,1 -0.339919,0.55 -0.168034,1 0.381966,1 0.55,0 1.278115,-0.45 1.618034,-1 z m 36.229167,0.395833 c -0.332292,-0.332291 -1.194792,-0.367818 -1.916667,-0.07895 -0.797733,0.319226 -0.560776,0.556183 0.604167,0.604167 1.054166,0.04342 1.644791,-0.192928 1.3125,-0.52522 z M 66.75,83.75 C 66.520833,83.0625 65.508333,82.5 64.5,82.5 c -1.008333,0 -2.020833,0.5625 -2.25,1.25 -0.263889,0.791667 0.561111,1.25 2.25,1.25 1.688889,0 2.513889,-0.458333 2.25,-1.25 z M 192.17126,81.345012 C 194.85463,78.916591 194.42246,78 190.59409,78 c -3.27268,0 -3.3607,0.09749 -2.25,2.492198 1.37247,2.959107 1.4746,2.981864 3.82717,0.852814 z M 30,79.440983 C 30,78.583524 29.55,78.160081 29,78.5 28.45,78.839919 28,79.541476 28,80.059017 28,80.576558 28.45,81 29,81 c 0.55,0 1,-0.701558 1,-1.559017 z M 184,79 c 0,-0.55 -0.45,-1 -1,-1 -0.55,0 -1,0.45 -1,1 0,0.55 0.45,1 1,1 0.55,0 1,-0.45 1,-1 z m 21,0 c 1.1647,-0.752686 0.87209,-0.972797 -1.30902,-0.984687 C 202.0699,78.006476 201.14333,78.422899 201.5,79 c 0.76737,1.241631 1.57871,1.241631 3.5,0 z M 46,78 c 0,-0.55 -0.3375,-1.006145 -0.75,-1.013655 -0.4125,-0.0075 -1.7625,-0.284994 -3,-0.616631 -1.280896,-0.343267 -2.25,-0.153611 -2.25,0.44033 0,0.979938 1.89986,1.809459 4.75,2.073955 C 45.4375,78.947799 46,78.55 46,78 Z M 254.72072,76.772615 260,75.545229 v -5.61899 c 0,-3.090444 -0.29481,-9.772348 -0.65514,-14.848675 -0.62069,-8.744339 -0.7653,-9.199675 -2.75,-8.65898 -1.15217,0.313888 -5.24486,0.85785 -9.09486,1.208803 -4.2101,0.38378 -7.74367,1.282666 -8.8659,2.255355 -1.59461,1.382109 -4.59869,1.58926 -20.66084,1.424702 -10.33721,-0.105905 -24.34755,-0.879335 -31.13409,-1.718732 -6.78655,-0.839397 -14.31535,-1.652747 -16.73068,-1.807444 L 165.71698,47.5 163.86239,54 c -1.02002,3.575 -1.83041,7.85 -1.80088,9.5 0.0484,2.70522 0.30009,2.459569 2.5612,-2.5 1.37912,-3.025 2.76719,-6.776177 3.08458,-8.335948 0.3174,-1.559772 1.19383,-3.072616 1.94763,-3.361876 1.88274,-0.722472 4.34508,1.515445 4.34508,3.949052 0,2.964666 -5.13022,17.970885 -6.83705,19.998772 -1.3641,1.620701 -1.17602,1.75 2.54557,1.75 2.21018,0 6.43222,-0.457753 9.38232,-1.017228 9.97055,-1.890876 36.21741,-1.318458 47.90058,1.044664 5.77028,1.167139 10.68278,2.313432 10.91667,2.547317 0.89108,0.891082 11.76017,0.372512 16.81263,-0.802138 z M 224,63.576923 C 224,61.730221 229.73022,56 231.57692,56 c 2.28777,0 1.64279,3.161233 -1.26401,6.195281 C 227.45222,65.181198 224,65.93675 224,63.576923 Z M 183.70185,63.368517 C 182.02744,61.694108 191.20761,53 194.65004,53 c 2.9573,0 1.07989,3.774713 -3.62407,7.286545 -5.01961,3.74749 -6.17318,4.23291 -7.32412,3.081972 z M 28.399223,72.916368 C 29.993796,72.412366 35.287402,72 40.162792,72 c 5.260664,0 9.661756,-0.497991 10.825817,-1.224959 1.547793,-0.966613 2.219819,-0.966613 3.186432,0 1.949057,1.949057 6.41956,1.449876 16.721532,-1.867144 C 79.906878,66.006768 81.272019,65.836924 93,66.157897 L 105.5,66.5 105.03655,64 c -0.2549,-1.375 -0.4799,-5.804073 -0.5,-9.842385 L 104.5,46.815229 91,47.072192 C 83.575,47.213522 68.244566,46.963025 56.932368,46.515533 L 36.364736,45.701911 33.824015,50.100955 C 32.426619,52.52043 30.98598,55.7375 30.622595,57.25 c -0.688163,2.864311 -3.305937,3.738772 -4.202001,1.403668 -0.28415,-0.740483 0.160045,-3.310412 0.987098,-5.710953 0.827054,-2.400542 1.406356,-4.462 1.287338,-4.581019 -0.119018,-0.119018 -2.686589,0.636221 -5.705714,1.678308 -3.019124,1.042087 -6.268243,1.909395 -7.220264,1.92735 -2.391559,0.0451 -3.158507,3.918175 -2.349839,11.866641 1.157121,11.373454 0.995805,11.128282 6.924582,10.524149 2.835913,-0.288974 6.460855,-0.937774 8.055428,-1.441776 z m 10.993405,-12.33558 c -0.671464,-1.749806 2.19402,-6.289201 4.876163,-7.72464 3.588079,-1.920282 3.916705,1.121835 0.576736,5.338889 -3.217999,4.063056 -4.580503,4.659178 -5.452899,2.385751 z M 62.25,57.303399 c -1.946161,-0.731859 -1.474797,-3.032537 0.972506,-4.746695 3.143484,-2.201781 4.978559,-1.970774 4.597045,0.578697 -0.35982,2.404501 -3.670569,4.882114 -5.569551,4.167998 z m 99.01443,17.098835 c 0.90144,-0.901434 -0.3398,-3.473688 -1.36921,-2.837473 -0.49237,0.3043 -0.89522,1.201715 -0.89522,1.994256 0,1.47259 1.19141,1.91624 2.26443,0.843217 z m -77.878699,-1.96505 c 0.479083,-1.248469 -0.03704,-1.499895 -2.566,-1.25 C 76.646396,71.599567 75.784425,74 79.809678,74 c 1.776318,0 3.21814,-0.630108 3.576053,-1.562816 z M 92.5,72 C 92.839919,71.45 92.416476,71 91.559017,71 90.701558,71 90,71.45 90,72 c 0,0.55 0.423442,1 0.940983,1 0.517541,0 1.219098,-0.45 1.559017,-1 z M 112,48.559017 c 0,-0.792541 -0.45,-1.719098 -1,-2.059017 -0.55,-0.339919 -1,0.308524 -1,1.440983 C 110,49.073442 110.45,50 111,50 c 0.55,0 1,-0.648442 1,-1.440983 z"
       style="fill:#787878;fill-opacity:1" />
    <path
       id="path444"
       d="m 22.808301,168.89406 c -1.382281,-1.86673 -2.840568,-3.97174 -3.240637,-4.6778 -0.400069,-0.70605 -1.344952,-12.40605 -2.099739,-26 C 15.972956,111.29142 13.792708,88.131797 11.281393,72.5 10.397794,67 9.5996527,59.4625 9.5077447,55.75 L 9.3406393,49 12.42032,48.981897 c 1.693824,-0.01 7.408304,-1.476977 12.698844,-3.260044 l 9.619165,-3.24194 23.380835,0.818376 C 70.978624,43.748396 88.1375,43.855013 96.25,43.535216 104.93954,43.192671 111,43.330183 111,43.869894 c 0,0.503871 -0.65832,1.168748 -1.46292,1.477505 -1.1812,0.453268 -1.36846,2.207083 -0.97237,9.106989 C 108.8876,60.079143 108.69557,63 108.00288,63 c -1.78404,0 -2.94941,-4.677703 -2.72094,-10.921685 L 105.5,46.118814 70.954358,45.504853 C 31.825733,44.809441 35.016018,44.188221 30.991401,53.286536 29.844656,55.878941 28.508881,58 28.023011,58 c -0.973029,0 0.107343,-4.506534 1.869912,-7.799925 1.704685,-3.185234 -0.306309,-3.69775 -6.750868,-1.720508 -8.91674,2.735728 -10.505029,3.75134 -11.202902,7.163557 -0.587678,2.873423 1.392254,19.021616 2.4636,20.092962 0.259491,0.259491 3.987527,-0.07997 8.284524,-0.75436 11.14596,-1.749295 30.582762,-2.787205 32.021764,-1.709937 1.488074,1.114004 5.117498,0.399563 17.052917,-3.356816 7.006022,-2.204973 11.146712,-2.904277 17,-2.871061 8.645664,0.04906 20.734502,1.336311 23.647972,2.51809 1.8384,0.745701 1.8874,0.297833 1.30833,-11.957531 -0.45498,-9.629268 -0.31117,-12.635913 0.59007,-12.336964 1.65689,0.549602 2.53094,7.312379 2.61493,20.232493 0.0393,6.05 0.73647,13.925 1.5492,17.5 0.81273,3.575 1.95084,8.975 2.52913,12 1.40818,7.36609 2.39746,8.88431 4.71994,7.24364 5.43611,-3.840239 6.62339,-2.500684 2.41979,2.73013 -2.412,3.00141 -3.04023,4.58084 -2.56894,6.45859 0.90971,3.62457 2.43926,4.43952 6.92762,3.69103 3.19597,-0.53297 4,-1.0923 4,-2.78262 0,-1.16357 0.75194,-2.95374 1.67098,-3.97817 0.91904,-1.02443 2.64206,-4.3376 3.82894,-7.3626 1.18688,-3.025 2.98045,-6.85 3.98573,-8.5 3.55287,-5.831498 10.66363,-24.103754 12.453,-32 1.94521,-8.583956 4.58784,-14.876787 5.32729,-12.685763 0.24395,0.72283 -0.45116,4.32283 -1.54469,8 -2.77466,9.330212 -4.32264,15.348829 -4.53774,17.642856 -0.31209,3.32835 4.12894,4.120331 14.5854,2.60106 5.0771,-0.737677 16.77881,-1.540633 26.00381,-1.784346 15.39081,-0.406607 17.82132,-0.22066 29.5,2.256904 7,1.48501 15.20033,2.633045 18.22296,2.551189 5.3959,-0.146128 12.52545,-1.707247 14.51085,-3.177362 0.89386,-0.661872 0.0658,-29.665585 -0.87383,-30.605171 -1.01186,-1.011856 -19.18192,1.834154 -21.48111,3.364626 -4.2888,2.854867 -28.97202,2.18063 -62.15159,-1.697707 -5.225,-0.610746 -9.9275,-1.528012 -10.45,-2.038367 -1.32965,-1.298745 2.04559,-1.181893 15.49154,0.53632 6.30215,0.805332 19.40644,1.941479 29.12064,2.52477 17.89199,1.07433 20.9276,0.828401 29.33782,-2.376794 2.2,-0.838436 6.025,-1.554917 8.5,-1.592179 2.475,-0.03726 6.1418,-0.449317 8.14844,-0.915676 6.06742,-1.410117 6.27155,-0.918444 7.10222,17.106709 0.41287,8.958912 0.76147,17.61577 0.77468,19.237461 0.0132,1.621692 0.70554,3.701602 1.53851,4.622023 1.35277,1.494794 1.35169,2.14098 -0.0101,6.05147 -1.00839,2.895635 -1.52464,8.102474 -1.52469,15.377977 -5e-5,6.05 -0.91318,17.975 -2.02919,26.5 -1.11601,8.525 -2.46557,19.05587 -2.99902,23.40194 -1.54243,12.56626 -1.70518,12.67985 -22.44138,15.66268 -9.90001,1.42408 -56.98447,0.42642 -73.55944,-1.55864 -6.325,-0.75749 -14.425,-1.62719 -18,-1.93265 -3.575,-0.30546 -11.675,-1.05908 -18,-1.67471 -13.70356,-1.33381 -43.556339,0.16579 -62.555525,3.14237 -6.630539,1.0388 -18.145692,2.19437 -25.58923,2.56793 l -13.533705,0.6792 -2.513239,-3.39406 z m 14.99907,0.14672 C 45.321155,167.96387 62.90916,166.02285 70.5,165.43281 88.974187,163.99679 93,163.03111 93,160.03565 93,156.91603 102.84335,149 106.72251,149 c 3.03142,0 2.87802,0.7852 -0.91868,4.70239 L 102.60767,157 h 2.46097 c 1.35354,0 4.19321,-0.92842 6.31039,-2.06316 4.40545,-2.36118 7.10667,-1.90217 6.32804,1.07531 -0.72025,2.75426 1.62171,2.57125 6.93375,-0.54181 3.22637,-1.89078 6.34236,-2.68588 12.33786,-3.14821 9.50452,-0.73294 10.53787,0.53968 3.05281,3.75967 -5.09517,2.19188 -7.81076,4.47227 -6.67651,5.60652 0.352,0.35199 4.35362,-0.20081 8.8925,-1.22844 6.33398,-1.43405 8.94996,-2.56066 11.25252,-4.8461 2.74824,-2.72779 3.65155,-2.99891 10.7638,-3.23058 l 7.7638,-0.2529 1.51754,3.63198 c 0.83465,1.9976 1.32528,4.13301 1.09029,4.74538 -1.16239,3.02914 -16.20995,4.76471 -17.2738,1.99234 -0.31659,-0.825 -1.76496,-1.49749 -3.21862,-1.49442 -3.74821,0.008 -10.14301,1.9134 -10.14301,3.02237 0,1.4551 4.69379,2.27884 9.3104,1.63393 2.30428,-0.32189 7.87511,0.0947 12.37962,0.9257 4.50451,0.83103 11.02951,1.3763 14.5,1.21169 L 186.5,167.5 v -3.40878 -3.40877 l 11.85867,-4.3072 c 9.91983,-3.60299 12.61752,-4.20899 16.5,-3.70655 2.55273,0.33036 5.40875,1.26662 6.34672,2.08059 1.6734,1.45218 4.33513,1.37878 11.10597,-0.30625 2.23624,-0.55653 3.36542,-0.16883 5.51983,1.89523 1.99908,1.91524 3.33675,2.43057 5.10731,1.96756 1.99304,-0.52119 2.28503,-0.33072 1.72604,1.12597 -0.48093,1.25329 -0.0896,1.90579 1.37223,2.28807 1.12476,0.29413 1.87656,1.03998 1.67066,1.65745 -0.66473,1.99354 -17.62316,1.65765 -21.76891,-0.43118 -3.44631,-1.73641 -3.70046,-1.73221 -7.8592,0.12971 -5.26747,2.35832 -7.45015,2.40888 -11.09303,0.25698 -2.63553,-1.55685 -3.10898,-1.55621 -7.1543,0.01 -5.29586,2.0498 -7.45358,3.36936 -6.71584,4.1071 3.70477,3.70478 52.58452,2.44576 60.06231,-1.54705 2.23663,-1.19426 4.02389,-10.60456 6.34401,-33.40243 0.16792,-1.65 0.72124,-5.60595 1.2296,-8.79099 0.50837,-3.18504 0.55266,-6.02068 0.0984,-6.3014 -1.08005,-0.66752 -15.8505,6.34522 -15.8505,7.52552 0,0.49838 2.3625,1.67262 5.25,2.60942 5.7366,1.86116 8.97909,4.05251 4.75,3.21016 -8.2535,-1.64394 -30.74758,-8.14191 -34.50613,-9.96795 -2.44749,-1.18909 -4.72064,-1.89132 -5.05143,-1.56053 -0.3308,0.33079 1.05088,4.03678 3.0704,8.23553 2.72114,5.65749 4.6603,8.28821 7.4895,10.16049 2.09971,1.38952 4.07743,3.56144 4.39494,4.82648 0.79233,3.15691 5.5838,4.8968 19.85272,7.20895 2.0625,0.33421 3.75,1.05693 3.75,1.60604 0,1.17307 -5.45927,0.55573 -15.5,-1.75276 -8.30965,-1.91048 -23.95605,-3.57507 -38.5,-4.09593 -5.775,-0.20682 -19.86902,-0.85864 -31.32005,-1.4485 l -20.82004,-1.07247 -4.35803,2.55397 c -5.56179,3.25942 -6.87149,3.21184 -14.89112,-0.541 -12.11138,-5.66759 -18.75198,-5.16165 -28.919033,2.20332 -6.356942,4.60495 -10.529052,5.2933 -23.054588,3.80374 -9.77304,-1.16222 -11.368561,-1.12175 -15.644267,0.39685 C 57.794995,152.44472 53.108716,153 46.721121,153 c -6.804209,0 -11.424774,0.59127 -16.237891,2.07789 -4.58382,1.4158 -7.053261,1.75208 -7.74998,1.05536 -0.696719,-0.69672 -0.100194,-1.22975 1.872105,-1.67283 3.815541,-0.85716 11.692659,-3.61952 12.65777,-4.43883 0.419719,-0.35631 0.33884,-1.96943 -0.179731,-3.58472 -0.518571,-1.61528 -1.239953,-6.01788 -1.603073,-9.78355 -0.575461,-5.96774 -1.112919,-7.34777 -4.186631,-10.75 C 28.58612,122.90636 27.020821,122 24.552617,122 c -5.521445,0 -5.98628,2.19296 -4.666812,22.01666 0.628491,9.44246 1.622109,18.06387 2.208038,19.15869 1.018245,1.90261 1.150902,1.91313 3.001645,0.23823 1.846467,-1.67103 1.997772,-1.6683 3.260644,0.0588 1.241293,1.69757 1.585622,1.57506 5.491924,-1.95405 3.508657,-3.16986 4.651869,-3.66833 7.230444,-3.15261 1.942742,0.38855 4.202948,0.023 6.180382,-0.99957 2.44134,-1.26247 3.517958,-1.36208 4.963626,-0.45924 1.160253,0.72459 3.671102,0.9108 6.758555,0.50123 C 64.85476,156.62895 69,157.49279 69,159.496 c 0,2.33781 -4.952282,4.93139 -9.915883,5.19309 -29.180488,1.53852 -37.590842,2.72925 -32.834117,4.64863 1.969044,0.79453 4.372972,0.73276 11.557371,-0.29694 z m 142.859299,-9.70745 c -1.63895,-1.63894 -0.34409,-3.57554 3.55915,-5.32307 2.3242,-1.04058 4.36668,-1.7511 4.53884,-1.57894 0.17215,0.17216 -0.71696,1.9265 -1.97582,3.89852 -2.14061,3.35331 -4.57706,4.54861 -6.12217,3.00349 z m -53.67649,3.1785 c 1.76167,-2.12269 -0.7925,-2.92931 -4.56773,-1.44251 -2.69662,1.06201 -2.7679,1.21428 -0.92245,1.97053 2.98849,1.22465 4.12642,1.11521 5.49018,-0.52802 z M 58.106522,149.94299 C 60.629564,148.5927 60.497519,147.29098 57.75,146.42835 54.332277,145.35529 45.688826,139.6072 41.886529,135.87879 L 38.5,132.55807 l -0.322646,3.92696 c -0.444575,5.41097 0.606096,10.29842 2.654168,12.34649 2.001915,2.00192 14.150665,2.78356 17.275,1.11147 z m 23.198793,-1.58164 c 0.351256,-0.35125 -2.524686,-3.56741 -6.390982,-7.14701 -3.866297,-3.57959 -8.093584,-8.60797 -9.393973,-11.17416 -1.300389,-2.5662 -3.074447,-5.25514 -3.942352,-5.97544 C 60.710104,123.34444 60,121.92604 60,120.91274 60,117.32932 56.619871,116.70807 44.126456,117.99528 31.926827,119.25223 31,119.47562 31,121.15919 c 0,1.45648 14.236078,15.21914 19.46155,18.81436 5.875698,4.04258 14.265913,7.04186 22.327321,7.98142 3.691121,0.4302 6.973629,0.84132 7.294462,0.9136 0.320834,0.0723 0.870725,-0.15596 1.221982,-0.50722 z m 14.010426,-1.51105 c 4.522092,-2.38025 4.906579,-6.47899 1.120297,-11.9426 -2.131001,-3.07503 -3.348944,-3.81751 -7.212566,-4.3969 -5.769466,-0.86518 -11.386367,-3.05928 -17.169253,-6.70671 C 67.51866,120.94337 64,120.17262 64,122.03984 c 0,4.90956 11.431874,18.43368 19.5,23.06887 5.400248,3.10247 8.392393,3.5435 11.815741,1.74159 z m 46.949899,-3.98582 c 3.74561,-1.91087 5.20793,-2.06855 13.90046,-1.49889 5.58131,0.36576 9.95594,0.24597 10.28196,-0.28155 0.31211,-0.505 0.82429,-2.868 1.13818,-5.25111 0.54573,-4.14322 0.34685,-4.56939 -4.54233,-9.73341 -4.78599,-5.05505 -5.26642,-5.31839 -7.51101,-4.11712 -1.31889,0.70584 -3.02808,1.04156 -3.79821,0.74603 -0.77013,-0.29552 -4.28799,0.25105 -7.81746,1.21461 l -6.41723,1.75193 -0.5,7.19078 c -0.46076,6.62639 -1.55389,9.03614 -4.12756,9.09894 -1.68559,0.0411 -3.10805,-3.49149 -3.60277,-8.94733 -0.56423,-6.22248 -1.80862,-7.50274 -4.33441,-4.45935 -0.7203,0.8679 -3.4754,2.67548 -6.12245,4.01684 -2.64704,1.34136 -4.81281,2.86971 -4.81281,3.39632 0,1.43483 5.51055,4.00253 8.70034,4.05402 1.53981,0.0249 4.82466,1.12952 7.29966,2.45481 5.59246,2.99461 7.02663,3.03723 12.26564,0.36448 z M 227,143.70821 c 0,-0.71049 -2.05392,-3.29799 -4.56428,-5.75 -4.44055,-4.33736 -4.60439,-4.404 -6.04405,-2.45821 -0.81388,1.1 -1.34745,3.35 -1.18572,5 0.26102,2.66305 0.74331,3.0683 4.29405,3.60809 6.58067,1.00042 7.5,0.95141 7.5,-0.39988 z m -38,-1.55652 c 0,-0.46657 -1.6875,-1.56262 -3.75,-2.43566 -2.0625,-0.87305 -5.86976,-2.84905 -8.46058,-4.39112 -5.18046,-3.08344 -6.45158,-2.69693 -6.97154,2.11985 -0.24886,2.30536 0.22494,3.22496 2.18212,4.23525 2.76116,1.42532 17,1.82038 17,0.47168 z M 212.4528,140.75 c 1.19461,-5.47534 1.05889,-6.11375 -1.4528,-6.83387 -3.83267,-1.09886 -12.99011,-0.88796 -17.99111,0.41435 -6.23579,1.62385 -6.35333,3.86785 -0.28849,5.50793 2.62878,0.71089 5.4546,1.6866 6.2796,2.16825 0.825,0.48165 4.07893,0.90219 7.23095,0.93453 5.15408,0.0529 5.78036,-0.16767 6.22185,-2.19119 z m -105.41296,-0.77032 c 5.82607,-2.97224 5.38743,-3.83914 -2.77319,-5.48082 -5.181818,-1.04243 -5.42008,-0.66281 -3.21845,5.12791 1.09218,2.87267 1.05661,2.87057 5.99164,0.35291 z M 134,131.41667 c 0,-4.01891 -0.35024,-5.46833 -1.25,-5.17288 -1.66557,0.54691 -2.09195,4.72661 -0.82272,8.06495 1.5355,4.03866 2.07272,3.28908 2.07272,-2.89207 z m 56.83909,1.57043 c 4.34516,-1.36206 9.15187,-1.9871 15.28139,-1.9871 7.07324,0 9.06404,-0.31727 9.52479,-1.51796 0.79915,-2.08255 -1.29987,-6.80893 -4.25814,-9.58807 -3.13826,-2.94824 -10.144,-2.93402 -19.96585,0.0405 -3.91973,1.18709 -8.43912,1.89885 -10.42128,1.64126 -1.925,-0.25017 -6.7625,-0.76913 -10.75,-1.15324 -6.79734,-0.65477 -7.25,-0.57457 -7.25,1.28457 0,1.09062 0.91351,2.80966 2.03002,3.82009 3.17841,2.87642 15.25184,9.38484 17.46998,9.41754 1.1,0.0162 4.85259,-0.86471 8.33909,-1.95761 z m -76.56073,-1.04751 c 2.0781,-0.57709 5.96204,-2.98867 8.63098,-5.35907 4.62324,-4.1061 5.09021,-4.28698 9.8793,-3.82681 3.73372,0.35877 7.24314,-0.22276 13.64366,-2.26081 10.26631,-3.269 12.42932,-4.82183 16.35097,-11.73839 1.63859,-2.88998 4.4952,-6.59738 6.348,-8.23868 4.27461,-3.786631 2.55617,-4.302736 -6.27955,-1.885957 -3.49345,0.955539 -9.04786,1.992217 -12.34315,2.303737 -5.92942,0.56053 -6.01419,0.61296 -8.19071,5.06639 -1.2096,2.475 -2.50778,5.99843 -2.88484,7.82984 -0.76892,3.73473 -0.86822,3.78943 -8.25625,4.54725 l -5.32324,0.54603 -1.97356,-4.46156 -1.97356,-4.46156 -5.2032,0.0428 c -2.86177,0.0235 -9.00646,1.27457 -13.65489,2.78007 -7.82412,2.53402 -8.658252,3.06917 -11.233794,7.20721 -3.704576,5.95201 -4.163849,6.95394 -3.49444,7.62335 0.31194,0.31194 3.561647,1.19486 7.221572,1.96204 3.659924,0.76719 7.397792,1.82887 8.306372,2.3593 2.17343,1.26885 5.77833,1.2567 10.43033,-0.0352 z m -27.28253,-8.78157 c 1.56309,-1.56309 3.340704,-4.69409 3.950251,-6.95778 0.609548,-2.26369 1.54604,-4.38635 2.081094,-4.71703 C 93.562229,111.15252 94,109.82033 94,108.52277 94,105.53239 94.95736,103 96.087858,103 c 0.480635,0 0.596324,2.025 0.257088,4.5 -0.727693,5.3091 -0.633706,5.33625 8.655054,2.5 3.575,-1.0916 7.7375,-1.98816 9.25,-1.99236 1.5125,-0.004 3.62559,-0.88323 4.69575,-1.95339 1.60197,-1.60197 1.78174,-2.51766 1.01745,-5.18255 -1.34581,-4.692592 -2.30648,-5.262666 -5.81285,-3.449449 -1.91004,0.98772 -7.10616,1.838824 -13.6831,2.241238 -10.410392,0.636961 -10.647496,0.706271 -13.009091,3.802481 -1.32299,1.73453 -4.573439,4.1335 -7.22322,5.33105 -5.43129,2.45464 -11.813071,8.45853 -10.775467,10.1374 1.047954,1.69563 10.803987,7.0456 12.867451,7.0562 1.004808,0.005 3.105816,-1.26951 4.668907,-2.8326 z m 173.68062,-10.78697 c 2.10802,-3.21725 1.3395,-6.64639 -1.67645,-7.48038 -6.04086,-1.67045 -23.20936,0.0361 -28.515,2.83434 -1.09175,0.57581 -7.93621,1.22695 -15.20991,1.44697 -11.33237,0.34281 -13.61302,0.68982 -15.93695,2.42488 -5.16465,3.85597 -4.29665,4.6242 4.37046,3.86816 7.24216,-0.63174 8.48347,-0.45618 14.35943,2.03096 3.53758,1.49736 9.7654,3.7361 13.83959,4.97498 l 7.40762,2.25251 9.9417,-5.04851 c 5.46794,-2.77667 10.60672,-6.06344 11.41951,-7.30391 z M 27.985993,115.9813 c 1.540695,-0.70669 4.632912,-12.34307 5.176902,-19.4813 0.268752,-3.526557 0.03097,-4.039063 -2.009001,-4.33003 -1.72024,-0.245365 -3.813672,1.169808 -8.160222,5.516358 l -5.846388,5.846392 0.560259,6.48364 c 0.308142,3.566 0.953546,7.24818 1.434232,8.18261 0.811972,1.57844 1.103973,1.58422 4.116099,0.0815 1.783169,-0.88963 3.910823,-1.92424 4.728119,-2.29912 z m 154.859717,2.58448 c 1.45986,-0.78881 3.87043,-1.69203 5.35683,-2.00713 1.48639,-0.31511 3.83246,-1.58222 5.21348,-2.81579 2.67881,-2.3928 7.03892,-12.34366 5.75597,-13.13656 -0.42192,-0.26077 -3.8374,1.07114 -7.58996,2.95979 C 185.94947,106.40095 183.65164,107 178.4104,107 c -7.17602,0 -13.45601,2.61379 -16.14679,6.72043 -2.04921,3.1275 -0.65485,4.19278 5.73639,4.38257 2.475,0.0735 5.85,0.47715 7.5,0.897 4.41951,1.12458 4.46594,1.12183 7.34571,-0.43422 z M 70.524398,112.9779 c 3.050065,-2.76215 7.347117,-5.74293 9.549005,-6.62395 3.981841,-1.59321 7.084,-5.64405 6.206058,-8.10395 -0.688051,-1.927841 -4.506161,-1.491474 -10.408618,1.189588 -5.205145,2.364322 -7.793977,3.077642 -20.267618,5.584462 -4.705489,0.94566 -6.57324,1.92154 -9.245223,4.83051 -5.084198,5.53514 -4.575327,6.38048 3.391998,5.63478 4.869082,-0.45572 7.864618,-0.21357 10.75,0.86899 2.2,0.82541 4.107736,1.53245 4.239413,1.57121 0.131678,0.0387 2.734921,-2.18948 5.784985,-4.95164 z m -31.170114,0.47775 c 2.553039,-1.94939 5.574388,-5.43689 6.714109,-7.75 3.140894,-6.374565 6.883057,-16.975188 6.316235,-17.892326 -0.967342,-1.565192 -7.92722,-0.767886 -12.742203,1.459716 l -4.857576,2.247305 -0.204274,5.989828 c -0.112351,3.294407 -0.762612,8.581997 -1.445025,11.750207 -1.895458,8.79996 -0.789222,9.54625 6.218734,4.19527 z m 189.483976,-7.92554 c 1.1028,-1.05319 0.28686,-1.91677 -4.63727,-4.90802 C 216.70867,96.070753 211.79568,94 208.48966,94 c -2.17238,0 -3.03,0.962964 -5.48973,6.16408 -1.60334,3.39024 -2.74135,6.4453 -2.52891,6.78902 0.75833,1.22702 26.96917,-0.0878 28.36724,-1.42299 z m -42.73748,-1.66924 c 1.86957,-0.62652 6.69103,-3.19862 10.71435,-5.71579 6.55872,-4.103425 7.13352,-4.709458 5.55887,-5.860873 -2.45012,-1.791572 -13.06989,-1.607165 -18.74178,0.32544 C 179.56558,93.995293 169,102.53415 169,104.43508 c 0,1.0386 13.65642,0.58005 17.10078,-0.57421 z M 62.73306,101.42011 c 4.206809,-0.86894 9.85595,-2.698369 12.553648,-4.065396 4.754217,-2.409144 4.851,-2.545067 3.150294,-4.424326 -2.065409,-2.282251 -6.404863,-3.504606 -15.707073,-4.424433 l -6.770072,-0.669442 -1.986942,4.491813 c -1.092819,2.470497 -2.265037,5.882282 -2.604929,7.581744 -0.748255,3.74128 0.04969,3.8473 11.365074,1.51004 z M 238.5,100 c 1.28507,-2.485049 1.31263,-3 0.16054,-3 -1.99253,0 -6.78731,3.98587 -6.11105,5.08007 1.21138,1.96007 4.44598,0.82938 5.95051,-2.08007 z m 22.78346,1.25 c 0.22082,-0.4125 0.13009,-1.80935 -0.20163,-3.10411 -0.60284,-2.353021 -0.60423,-2.353212 -3.00158,-0.411953 -1.36847,1.108114 -2.09007,2.441153 -1.68034,3.104113 0.79833,1.29173 4.25643,1.58344 4.88355,0.41195 z m -29.76775,-3.321506 c 0.76756,-3.494688 0.0104,-4.854658 -1.73238,-3.111827 -2.38726,2.387268 -4.07509,1.392128 -3.39619,-2.00239 l 0.63715,-3.185724 -2.3266,2.185724 c -2.78496,2.616338 -4.26114,2.765731 -5.12348,0.518506 -0.51972,-1.354354 -0.86819,-1.424725 -1.85699,-0.375 -0.78935,0.837986 -0.85287,1.428315 -0.18069,1.679394 0.57009,0.212948 3.27009,1.931903 6,3.819901 2.72991,1.887998 5.49022,3.457522 6.13401,3.487822 0.6438,0.0303 1.47413,-1.327078 1.84517,-3.016406 z M 250.81955,98.25 c 0.38365,-2.701302 -0.12861,-2.77122 -3.91526,-0.534392 -3.81952,2.256247 -3.68227,3.486122 0.34571,3.097752 2.49095,-0.24017 3.32463,-0.838859 3.56955,-2.56336 z m -94.46286,-0.990575 c 6.19519,-1.587828 7.03847,-2.113672 8.74082,-5.450552 1.96413,-3.85002 1.73953,-6.273691 -0.66694,-7.197143 C 162.97872,84.054603 160,88.57495 160,91.33533 c 0,1.680093 -4.86455,5.138743 -5.83676,4.149886 C 153.79846,95.114192 153.5,93.390735 153.5,91.655313 c 0,-4.655982 -1.65668,-4.493777 -4.6714,0.457378 -4.61686,7.58241 -3.89655,8.074869 7.52809,5.146734 z M 92.437091,93.754996 C 90.821691,91.970244 89.350708,90.283451 89.168239,90.006568 88.759741,89.386702 86,93.059794 86,94.223354 c 0,1.114106 3.885702,2.633896 6.937091,2.71326 L 95.374182,97 Z m 8.391989,0.412062 c 0.181,-1.27188 0.0632,-3.005464 -0.26183,-3.852408 C 99.619374,87.84453 97,90.694374 97,94.195769 c 0,2.270757 0.403342,2.874005 1.75,2.617339 0.9625,-0.183446 1.89809,-1.374169 2.07908,-2.64605 z M 106.80833,95.925 C 106.61125,95.33375 106.0225,94.85 105.5,94.85 c -0.5225,0 -1.11125,0.48375 -1.30833,1.075 -0.19709,0.59125 0.39166,1.075 1.30833,1.075 0.91667,0 1.50542,-0.48375 1.30833,-1.075 z M 25.042276,92.456383 C 27.890764,89.517489 28.22288,88.75217 26.988442,87.971695 24.475802,86.383075 23.115616,86.875743 21.52568,89.95034 19.866664,93.158524 19.527618,96 20.803833,96 c 0.442108,0 2.349408,-1.594628 4.238443,-3.543617 z m 90.023464,1.508433 c 2.34598,-1.255532 2.52867,-3.799491 0.33334,-4.641918 -1.75592,-0.673807 -3.3598,1.187612 -3.38377,3.927102 -0.0178,2.029037 0.40826,2.128865 3.05043,0.714816 z m 130.67567,-1.751952 c 1.23278,-0.787398 1.99682,-1.827407 1.69786,-2.311133 -0.67766,-1.096468 -5.06929,1.691735 -5.84385,3.710199 -0.59213,1.543063 -0.31266,1.448757 4.14599,-1.399066 z m -73.3232,1.180147 c 2.14624,-0.823587 1.99203,-2.052469 -0.33388,-2.660708 C 170.2205,90.244901 168,91.586498 168,93.2 c 0,0.948341 2.19946,1.044425 4.41821,0.193011 z M 18.794507,86.0773 c -0.297975,-3.46301 -2.164638,-5.245272 -3.005454,-2.869564 -0.251549,0.710745 -0.251504,3.290988 1.01e-4,5.733872 0.424496,4.121532 0.559879,4.30169 1.878661,2.5 0.781659,-1.067884 1.28867,-3.481823 1.126692,-5.364308 z M 109,89.440983 c 0,-1.451367 -0.43284,-2.291506 -1,-1.940983 -0.55,0.339919 -1,1.491476 -1,2.559017 C 107,91.126558 107.45,92 108,92 c 0.55,0 1,-1.151558 1,-2.559017 z m 71.99503,-4.671931 c 0.008,-2.789545 -4.7709,-3.437624 -7.22828,-0.980245 l -2.05129,2.051291 2.39227,3.009147 2.39227,3.009146 2.24503,-2.679195 c 1.23477,-1.473558 2.24727,-3.458123 2.25,-4.410144 z m 33.02503,4.706782 c 1.93237,-2.328369 0.55355,-2.767153 -1.51451,-0.481965 C 211.50701,90.097241 211.15467,91 211.72257,91 c 0.5679,0 1.60177,-0.685875 2.29749,-1.524166 z m 26.02043,-0.663892 C 241.66822,87.608509 243,86.033509 243,85.311942 243,84.590374 243.64844,84 244.44098,84 c 1.56727,0 3.08334,-1.809015 2.23066,-2.661692 -1.52055,-1.520551 -6.71009,1.061687 -8.61202,4.285212 -3.37188,5.714916 -2.76268,6.695484 1.98087,3.188422 z M 40.010249,86.494806 c 8.808516,-4.463612 10.24258,-11.988454 2.152642,-11.29537 -4.597793,0.393904 -5.080975,2.274444 -1.111769,4.327 2.134985,1.104044 2.847862,1.97458 2.171139,2.651303 -0.676723,0.676723 -1.720467,0.625997 -3.178824,-0.154492 -1.670737,-0.894151 -2.514926,-0.876835 -3.661956,0.07511 -2.119607,1.759118 -3.57929,4.772559 -2.868708,5.922305 0.823477,1.332413 0.88585,1.317766 6.497476,-1.525861 z M 76.450174,87.08062 C 77.135406,85.971891 74.352156,83 72.628571,83 71.952857,83 70.86,83.54 70.2,84.2 69.266667,85.133333 69,84.733333 69,82.4 c 0,-1.65 -0.50079,-3.50079 -1.112868,-4.112868 -1.539205,-1.539205 -0.280974,-3.202885 1.975958,-2.612684 1.11626,0.291909 2.103837,-0.145878 2.467619,-1.09388 C 73.058522,72.68392 72.580928,72.653499 67.866168,74.2962 63.486455,75.822166 61,77.75588 61,79.636014 c 0,0.765118 -0.545465,2.264552 -1.212145,3.332076 -1.689563,2.705421 -0.759532,3.237772 6.268092,3.587857 3.376537,0.168204 6.39526,0.561926 6.708272,0.874939 0.879542,0.879542 3.053573,0.67295 3.685955,-0.350266 z M 199.79183,86.363256 c -0.9243,-0.924297 -2.35101,-1.362655 -3.27767,-1.007063 C 194.15832,86.260212 195.64498,88 198.7733,88 c 2.45884,0 2.53419,-0.121085 1.01853,-1.636744 z M 85,86 c 0,-0.55 -0.45,-1 -1,-1 -0.55,0 -1,0.45 -1,1 0,0.55 0.45,1 1,1 0.55,0 1,-0.45 1,-1 z m 9,-0.5 C 94,84.675 93.564123,84 93.031385,84 c -0.532739,0 -0.709594,0.675 -0.393011,1.5 0.316582,0.825 0.752459,1.5 0.968615,1.5 C 93.823145,87 94,86.325 94,85.5 Z m 11.03421,-0.563922 C 106.49,82.215907 104.49078,79.347796 102.36732,81.110114 100.21842,82.893541 100.7512,87 103.13148,87 c 0.43899,0 1.29521,-0.928765 1.90273,-2.063922 z m 88.9021,-2.496917 c 1.80144,-2.508462 2.9816,-4.854589 2.62257,-5.213615 -1.04233,-1.042334 -16.77223,-0.412198 -17.90156,0.717131 -1.57549,1.575496 0.066,2.511868 4.40329,2.511868 2.62371,0 3.93939,0.447021 3.93939,1.338469 C 187,83.592265 188.87545,87 189.86566,87 c 0.43742,0 2.26921,-2.052378 4.07065,-4.560839 z m 39.56924,1.554708 c 2.12822,-2.351662 1.72789,-2.921936 -3.27422,-4.664151 C 226.76878,78.123726 218,77.470258 218,78.418213 c 0,1.770975 1.41772,3.358723 2.59549,2.906769 0.78649,-0.301803 2.05621,-0.02901 2.82159,0.606202 0.78842,0.654331 2.51669,0.872558 3.98727,0.503467 2.17946,-0.54701 2.59565,-0.313403 2.59565,1.456941 0,2.647784 1.17098,2.681948 3.50555,0.102277 z m 23.84008,-0.170031 c 1.7349,-1.196889 3.31193,-2.29195 3.50451,-2.433469 0.19257,-0.141519 0.0765,-0.699996 -0.25786,-1.241061 -0.83618,-1.352956 -7.74228,0.558893 -9.31025,2.5774 -2.81027,3.617776 1.32527,4.366048 6.0636,1.09713 z M 31.499633,82.640905 c 2.106952,-3.215616 0.964362,-5.832533 -2.37738,-5.445 -2.961527,0.34344 -4.121382,3.895292 -2.076572,6.359137 1.673501,2.016445 2.667423,1.812451 4.453952,-0.914137 z M 158.80287,82.367062 c 0.35873,-2.502093 -2.1857,-3.815636 -3.74701,-1.934369 -1.46041,1.759684 -0.2138,4.743495 1.81997,4.356183 0.89329,-0.170119 1.76046,-1.259935 1.92704,-2.421814 z M 54.809629,82.25 C 54.597025,81.146037 53.559812,80.5 52,80.5 c -1.559812,0 -2.597025,0.646037 -2.809629,1.75 C 48.927052,83.617305 49.54147,84 52,84 c 2.45853,0 3.072948,-0.382695 2.809629,-1.75 z m 116.361631,0.09501 c 1.00581,-0.910243 1.82874,-2.035243 1.82874,-2.5 0,-1.120385 -4.11961,-1.055086 -5.9357,0.09409 -1.18984,0.7529 -1.21168,1.178393 -0.12755,2.484688 1.63521,1.97031 1.97733,1.963945 4.23451,-0.07877 z M 79.212151,78.645108 C 78.98984,76.602248 79.362101,76 80.847141,76 82.473326,76 86,72.259819 86,70.535183 86,70.240832 84.061008,70 81.69113,70 c -4.534681,0 -8.88642,2.143236 -6.875375,3.38613 0.666281,0.411785 0.871024,1.929973 0.506247,3.753861 -0.415593,2.077966 -0.163963,3.346148 0.782754,3.944971 2.200667,1.391976 3.420185,0.434439 3.107395,-2.439854 z M 206,80.5 c 0.75964,-0.915309 2.95124,-1.5 5.62244,-1.5 6.07914,0 5.49018,-1.587776 -0.87244,-2.352017 -10.11797,-1.21531 -12.77109,-0.424421 -10.81806,3.224843 C 201.2565,82.34779 204.21288,82.653351 206,80.5 Z M 20.418213,80.393011 C 22.652613,79.535591 22.384246,78 20,78 c -1.111111,0 -2,0.666667 -2,1.5 0,1.683053 0.183146,1.750687 2.418213,0.893011 z M 114.53513,79.943165 C 115.33088,78.655605 114.26866,74 113.17914,74 c -0.43052,0 -0.82741,1.575 -0.88197,3.5 -0.097,3.423561 0.93542,4.550705 2.23796,2.443165 z M 58,77.559017 C 58,76.503542 56.080887,76.060106 55.510081,76.983688 55.164618,77.54266 55.583524,78 56.440983,78 57.298442,78 58,77.801558 58,77.559017 Z M 109.25955,72.25 C 108.35656,71.5625 106.86,71 105.93387,71 c -0.92613,0 -3.08319,-0.279864 -4.79347,-0.62192 -2.377542,-0.475508 -3.262194,-0.224266 -3.757782,1.067217 -1.046626,2.727462 1.232372,4.213107 3.422492,2.231074 2.5051,-2.267081 2.89696,-2.15318 4.71984,1.371883 l 1.57632,3.048255 1.90004,-2.298255 c 1.74918,-2.115761 1.76968,-2.39751 0.25824,-3.548254 z M 93.700598,73.107811 C 95.168164,70.757864 94.468959,70 90.833333,70 88.477778,70 88,70.421569 88,72.5 c 0,1.929025 0.516036,2.5 2.259453,2.5 1.242699,0 2.791215,-0.851485 3.441145,-1.892189 z M 164.60772,67.828002 C 164.96868,65.447601 165.93323,61.925 166.75115,60 c 0.81793,-1.925 1.78947,-4.85 2.15899,-6.5 0.36952,-1.65 1.1034,-2.905325 1.63086,-2.789611 1.79723,0.394281 1.62889,4.487056 -0.4172,10.143319 -1.12337,3.10546 -2.17328,6.766695 -2.33314,8.136076 -0.16804,1.439407 -1.03919,2.63247 -2.06495,2.828002 -1.55552,0.296516 -1.69337,-0.195421 -1.11799,-3.989784 z M 226,62.842079 c 0,-1.90278 3.49347,-5.177588 4.99085,-4.678462 0.60862,0.202872 -0.26534,1.683243 -1.94214,3.289712 C 226.91464,63.497899 226,63.914537 226,62.842079 Z m -41,-0.769275 c 0,-1.384891 7.22322,-7.073217 8.97784,-7.070099 0.86278,0.0015 -0.42717,1.715805 -2.97784,3.957362 -4.58649,4.030666 -6,4.76398 -6,3.112737 z M 41,58.88226 c 0,-1.901703 3.732582,-5.483011 4.703101,-4.512493 0.379961,0.379962 -0.522798,1.904475 -2.006131,3.387809 C 41.721435,59.733111 41,60.033962 41,58.88226 Z M 63.1875,54.9375 c 0.240625,-0.721875 1.028125,-1.509375 1.75,-1.75 0.75,-0.25 1.125,0.125 0.875,0.875 -0.240625,0.721875 -1.028125,1.509375 -1.75,1.75 -0.75,0.25 -1.125,-0.125 -0.875,-0.875 z"
       style="fill:#323232;fill-opacity:1" />
    <path
       id="path442"
       d="m 129.3832,165.23469 c -0.61424,-0.40408 -1.06424,-1.84742 -1,-3.20743 0.0934,-1.97742 -0.46283,-2.57836 -2.77687,-3 l -2.89366,-0.52726 3.89366,-1.87348 c 5.0383,-2.42423 9.08866,-3.5982 9.83598,-2.85088 0.32607,0.32608 -0.81564,2.04607 -2.53714,3.8222 -1.72151,1.77614 -2.82786,3.71823 -2.45857,4.31575 0.36929,0.59753 2.66988,1.08641 5.11242,1.08641 3.28087,0 4.44098,0.39184 4.44098,1.5 0,1.1448 -1.24319,1.49637 -5.25,1.48469 -2.8875,-0.008 -5.75256,-0.34592 -6.3668,-0.75 z M 33,164.23465 C 33,162.83189 37.475929,159 39.114451,159 c 0.817052,0 1.930023,0.44447 2.473269,0.98772 0.650294,0.65029 2.272811,0.29895 4.749458,-1.02845 3.71143,-1.98921 6.331669,-1.8505 5.023643,0.26593 -0.467455,0.75635 0.364076,0.84813 2.733688,0.3017 6.549949,-1.5104 8.377032,-1.22812 8.741746,1.35057 0.314306,2.22228 0.103071,2.33373 -3.235985,1.70732 -1.964733,-0.36859 -4.366048,-0.25966 -5.336256,0.24206 C 51.822806,164.08926 33,165.33544 33,164.23465 Z M 92.5,164 c 1.1,-0.47269 3.446667,-0.89106 5.214816,-0.92971 C 99.857667,163.02344 101.28654,162.33311 102,161 c 0.5887,-1.1 2.00577,-2 3.14903,-2 1.14326,0 3.8224,-0.98003 5.95363,-2.17785 4.00181,-2.24915 6.08226,-1.95482 3.99128,0.56466 -0.89647,1.08018 -0.90531,1.61174 -0.0357,2.14916 1.9435,1.20115 -1.11502,2.40267 -4.42894,1.73988 -2.38799,-0.4776 -2.85077,-0.29548 -2.37824,0.9359 0.46374,1.2085 -0.49648,1.65902 -4.58217,2.14988 -2.84287,0.34154 -6.96885,0.59327 -9.16885,0.55939 -3.145857,-0.0484 -3.572929,-0.24511 -2,-0.92102 z m 142,-0.97857 c -6.93572,-0.77864 -9.5,-1.7225 -9.5,-3.49675 0,-1.78414 8.07665,-2.72892 9.99073,-1.16868 0.8301,0.67664 2.74677,1.84939 4.25927,2.60611 2.47189,1.23671 3.87955,3.26755 2,2.8854 -0.4125,-0.0839 -3.45,-0.4556 -6.75,-0.82608 z m -74.84914,-3.15701 c -1.01703,-0.59112 -3.26703,-0.81087 -5,-0.48832 l -3.15086,0.58644 2.45295,-2.0559 c 2.13099,-1.78605 3.24666,-1.96424 8.5,-1.35755 6.97687,0.80575 10.54705,1.9655 10.54705,3.42616 0,1.36253 -10.97093,1.27144 -13.34914,-0.11083 z M 211,160 c 0,-0.55 0.47656,-1 1.05902,-1 0.58246,0 0.7809,0.45 0.44098,1 -0.33992,0.55 -0.81648,1 -1.05902,1 C 211.19844,161 211,160.55 211,160 Z M 38.8,150.8 c 0.933333,-0.93333 1.466667,-0.93333 2.4,0 0.933333,0.93333 0.666667,1.2 -1.2,1.2 -1.866667,0 -2.133333,-0.26667 -1.2,-1.2 z M 84,149.43045 c 0,-1.04234 0.729464,-1.46221 2.171672,-1.25 C 89.373168,148.65153 89.71605,151 86.583333,151 84.902826,151 84,150.45147 84,149.43045 Z M 61.597766,149.26443 C 60.524743,148.19141 60.968393,147 62.440983,147 c 0.792541,0 1.689956,0.40285 1.994256,0.89522 0.636215,1.02941 -1.936039,2.27065 -2.837473,1.36921 z m 166.861114,-3.33096 c -1.17263,-1.89735 0.53762,-2.36554 2.27922,-0.62395 1.55894,1.55895 1.56168,1.69048 0.0352,1.69048 -0.9104,0 -1.95188,-0.47994 -2.31442,-1.06653 z M 99.657916,144.44907 C 100.26488,142.86734 102,142.45539 102,143.89301 c 0,0.49116 -0.65208,1.14324 -1.44907,1.44907 -0.968524,0.37166 -1.26467,0.0755 -0.893014,-0.89301 z m 112.800964,0.4844 c -0.36253,-0.58659 -0.41903,-1.30665 -0.12555,-1.60014 0.71632,-0.71631 2.66667,0.54583 2.66667,1.72569 0,1.27797 -1.72641,1.19267 -2.54112,-0.12555 z M 191,141.96482 c 0,-1.70225 0.31642,-1.86584 1.93426,-1 1.06384,0.56935 2.86384,1.03518 4,1.03518 1.13616,0 2.06574,0.45 2.06574,1 0,0.55 -1.8,1 -4,1 -3.35638,0 -4,-0.32747 -4,-2.03518 z M 167,142 c 0,-0.55 0.42344,-1 0.94098,-1 0.51754,0 1.2191,0.45 1.55902,1 0.33992,0.55 -0.0835,1 -0.94098,1 C 167.70156,143 167,142.55 167,142 Z m 59.96421,-1.16435 c -1.14512,-2.23286 -1.1183,-2.25968 0.60945,-0.60946 0.99401,0.94941 1.53304,2.00045 1.19784,2.33565 -0.3352,0.3352 -1.14849,-0.44159 -1.80729,-1.72619 z m -95.30962,-1.29339 c -0.41478,-1.08089 0.022,-1.54226 1.46013,-1.54226 1.13951,0 1.87593,0.52804 1.65611,1.1875 -0.6172,1.85161 -2.46128,2.06155 -3.11624,0.35476 z M 112,138.44098 c 0,-0.85746 0.45734,-1.27636 1.01631,-0.9309 0.55897,0.34546 0.75742,1.04702 0.44098,1.55902 C 112.60006,140.45614 112,140.19751 112,138.44098 Z m 71.25,-0.10326 C 181.29039,137.547 181.78671,136 184,136 c 1.11111,0 2,0.66667 2,1.5 0,1.54095 -0.57392,1.71579 -2.75,0.83772 z m -72.0625,-3.40022 c 0.24062,-0.72188 1.02813,-1.50938 1.75,-1.75 0.75,-0.25 1.125,0.125 0.875,0.875 -0.24062,0.72187 -1.02813,1.50937 -1.75,1.75 -0.75,0.25 -1.125,-0.125 -0.875,-0.875 z M 95.654592,132.54226 C 95.239815,131.46137 95.676615,131 97.114718,131 c 1.139516,0 1.875935,0.52804 1.656115,1.1875 -0.617202,1.85161 -2.461288,2.06155 -3.116241,0.35476 z M 213.74196,133.25 c -0.20684,-0.4125 0.65728,-1.82359 1.92028,-3.13575 2.10203,-2.18386 2.35416,-2.23509 2.97953,-0.60539 0.92519,2.41099 -3.76942,5.99545 -4.89981,3.74114 z M 35.606989,130.41821 c -0.866646,-2.25844 -0.783914,-2.42333 0.893011,-1.77984 0.825,0.31659 1.5,1.20246 1.5,1.96862 0,1.89454 -1.643311,1.76491 -2.393011,-0.18878 z M 169.5,131 c -0.33992,-0.55 -0.14148,-1 0.44098,-1 0.58246,0 1.05902,0.45 1.05902,1 0,0.55 -0.19844,1 -0.44098,1 -0.24254,0 -0.7191,-0.45 -1.05902,-1 z m -86.935239,-2.89522 c -0.664146,-1.0746 2.233249,-2.34765 3.525481,-1.54901 C 86.590609,126.86502 87,127.54148 87,128.05902 c 0,1.19836 -3.699302,1.23654 -4.435239,0.0458 z m 52.074719,-1.79863 C 133.5133,125.17996 133.95359,124 135.5,124 c 0.825,0 1.5,0.42344 1.5,0.94098 0,1.26098 -1.56159,2.1641 -2.36052,1.36517 z m 106.93536,-0.18505 c -0.30984,-0.50134 0.10906,-1.16956 0.9309,-1.48493 0.82184,-0.31537 1.49426,-0.16408 1.49426,0.3362 0,1.35555 -1.7771,2.19731 -2.42516,1.14873 z m -113.4316,-1.01141 c -0.85112,-0.53929 -0.97792,-1.09383 -0.34024,-1.48793 1.37119,-0.84745 4.32674,0.35929 3.63224,1.48302 -0.68653,1.11083 -1.54462,1.11211 -3.292,0.005 z M 18,122.5 c 0,-0.825 0.660877,-1.5 1.468615,-1.5 0.894593,0 1.243635,0.58629 0.893011,1.5 -0.316582,0.825 -0.977459,1.5 -1.468615,1.5 C 18.401855,124 18,123.325 18,122.5 Z m 43,-1.9 c 0,-2.07619 0.472222,-2.4 3.5,-2.4 1.925,0 3.5,0.405 3.5,0.9 0,0.495 -0.914123,0.9 -2.031385,0.9 -1.117261,0 -2.290406,0.675 -2.606989,1.5 C 62.46834,123.82787 61,123.26829 61,120.6 Z m 90,0.43784 c 0,-0.52919 1.9125,-1.81631 4.25,-2.86026 3.78859,-1.69203 4.43743,-1.73591 5.97642,-0.40419 2.34514,2.0293 1.30818,3.28353 -2.14391,2.59311 -1.60194,-0.32039 -3.13651,-0.0881 -3.52025,0.53276 C 154.72572,122.25282 151,122.36599 151,121.03784 Z M 23.244995,119.75 c 0.226413,-0.6875 1.501413,-1.40562 2.833333,-1.59582 1.33192,-0.1902 2.94411,-0.77455 3.582644,-1.29856 0.749665,-0.6152 1.405129,-0.55768 1.850138,0.16236 0.379041,0.6133 -0.143396,1.74584 -1.160972,2.51675 -2.356898,1.78558 -7.67536,1.94672 -7.105143,0.21527 z M 184,119.5 c 0,-0.84545 0.89441,-1.5 2.04966,-1.5 1.12731,0 3.32026,-0.65705 4.87322,-1.46012 C 193.57006,115.17097 195,115.35783 195,117.07266 195,117.76568 186.6179,121 184.82186,121 184.36984,121 184,120.325 184,119.5 Z m 25.53654,-1.85416 c -1.80642,-0.77046 -2.52245,-1.53652 -1.83392,-1.96205 1.4112,-0.87217 6.29738,0.90579 6.29738,2.29146 0,1.29846 -0.78209,1.24074 -4.46346,-0.32941 z M 38,116.5756 c 0,-0.74889 0.675,-1.62064 1.5,-1.93723 0.880739,-0.33797 1.5,-0.0135 1.5,0.78603 0,0.74889 -0.675,1.62064 -1.5,1.93723 -0.880739,0.33797 -1.5,0.0135 -1.5,-0.78603 z m 88,0.36538 c 0,-0.58246 0.45,-0.7809 1,-0.44098 0.55,0.33992 1,0.81648 1,1.05902 0,0.24254 -0.45,0.44098 -1,0.44098 -0.55,0 -1,-0.47656 -1,-1.05902 z m 9,-0.33399 c 0,-0.21616 0.69837,-0.661 1.55194,-0.98855 0.88992,-0.34149 1.29132,-0.17385 0.94098,0.39301 C 136.90566,116.96166 135,117.4169 135,116.60699 Z m -43,-1.48455 c 0,-1.30341 2.582838,-3.20627 3.333333,-2.45577 C 96.083828,113.41716 94.180965,116 92.877555,116 92.3949,116 92,115.6051 92,115.12244 Z m 168.65777,0.13284 c -0.26423,-0.42753 0.15468,-1.64588 0.93091,-2.70744 1.37731,-1.88358 1.41132,-1.87871 1.41132,0.20201 0,2.22806 -1.51325,3.84675 -2.34223,2.50543 z m -123.4286,-4.44278 c 0.2177,-0.65313 0.93051,-1.36573 1.58401,-1.58356 0.73075,-0.24358 0.95424,0.21359 0.58051,1.1875 -0.69752,1.81771 -2.76448,2.19592 -2.16452,0.39606 z m -16.04029,-1.93833 c -2.13995,-0.79162 -2.17599,-0.96421 -0.67861,-3.2495 1.08818,-1.66077 2.20508,-2.25036 3.58128,-1.89048 1.25121,0.3272 2.53243,-0.18029 3.42238,-1.3556 0.78235,-1.03322 1.43677,-1.37797 1.45427,-0.76609 0.0175,0.61187 -1.21721,2.68416 -2.74377,4.60509 -2.30719,2.90323 -3.15694,3.35152 -5.03555,2.65658 z M 198,109 c 0,-0.55 0.45,-1 1,-1 0.55,0 1,0.45 1,1 0,0.55 -0.45,1 -1,1 -0.55,0 -1,-0.45 -1,-1 z m -32.9277,-2.1351 c 0.88345,-1.65074 1.33018,-1.83171 1.9692,-0.79775 1.02479,1.65814 0.31386,2.93285 -1.6357,2.93285 -1.19743,0 -1.2604,-0.40317 -0.3335,-2.1351 z M 47.1875,104.9375 c 0.240625,-0.72187 1.028125,-1.50938 1.75,-1.75 0.75,-0.25 1.125,0.125 0.875,0.875 -0.240625,0.72187 -1.028125,1.50938 -1.75,1.75 -0.75,0.25 -1.125,-0.125 -0.875,-0.875 z M 238,103.33915 c 0,-0.81049 2.64656,-4.030863 5.88125,-7.156384 3.23469,-3.125521 5.67219,-6.245266 5.41667,-6.932766 -0.94277,-2.536587 -5.05948,-1.256324 -8.61498,2.679183 -1.95238,2.16105 -4.40009,4.384256 -5.43936,4.940458 -1.59113,0.851546 -1.87806,0.665295 -1.81658,-1.179183 0.0615,-1.845141 -0.43605,-2.167572 -3.15608,-2.045285 -2.81115,0.126384 -3.10508,-0.08652 -2.27102,-1.644995 0.68087,-1.272215 0.54634,-2.131874 -0.46497,-2.971187 -1.13289,-0.94022 -1.68738,-0.757739 -2.71953,0.894995 -1.51423,2.42467 -3.63558,2.708197 -4.44675,0.594328 C 219.64924,88.643541 216,90.328278 216,92.535184 216,93.340833 215.325,94 214.5,94 c -2.06937,0 -1.87662,-1.349184 0.5,-3.5 2.5661,-2.322287 2.63255,-5.5 0.11501,-5.5 C 213.10273,85 210,88.921512 210,91.464817 c 0,1.951742 -1.09731,1.933289 -5.33977,-0.0898 -2.3457,-1.118588 -3.2695,-2.153159 -2.9644,-3.319857 0.60835,-2.326358 -2.1663,-4.389541 -5.139,-3.821273 -2.41393,0.461451 -2.42954,0.42065 -0.9408,-2.458264 l 1.51387,-2.927504 2.3873,2.57594 c 2.87033,3.097136 4.57398,3.237653 6.9828,0.57594 2.80639,-3.101023 3.8239,-2.357114 1.35097,0.987701 -1.21489,1.643236 -1.88178,3.314819 -1.48197,3.714631 1.16593,1.165932 4.03569,-1.178488 4.6478,-3.796972 0.76386,-3.267622 5.47458,-3.958333 6.26932,-0.919242 0.44022,1.68339 1.0538,1.966672 3.1307,1.445402 C 222.41973,82.928822 223,83.157223 223,84.448296 c 0,1.520964 0.1924,1.530349 2.22251,0.108408 2.72826,-1.910948 3.88063,-1.989049 3.2006,-0.216918 -0.28277,0.736883 0.16242,1.90127 0.98931,2.587528 1.23931,1.028536 1.95003,0.801146 4.04551,-1.294332 C 234.85607,84.234842 236,82.395455 236,81.545455 236,80.695455 236.675,80 237.5,80 c 2.08615,0 1.89168,0.959321 -1.08139,5.334583 -4.16711,6.132461 -1.33181,8.87911 4.62188,4.477359 C 242.66822,88.608509 244,87.081654 244,86.41893 244,85.266627 246.13735,84 248.08179,84 248.5868,84 249,84.644676 249,85.432612 c 0,2.237735 3.81191,2.938043 6.29896,1.157219 1.21057,-0.866813 3.21089,-2.307258 4.44515,-3.200988 2.12017,-1.535223 2.34854,-1.495988 4.13521,0.710448 1.0401,1.284477 1.67557,3.025104 1.41215,3.86806 -1.56086,4.994848 -2.69555,7.059488 -3.6784,6.693106 -0.61219,-0.228207 -2.56883,0.961574 -4.34809,2.643958 -3.45007,3.262225 -5.54425,2.973675 -3.39502,-0.467791 1.63113,-2.611855 0.17114,-4.301831 -2.87984,-3.333488 -3.25225,1.032225 -9.95749,7.418324 -9.3771,8.930794 0.28271,0.73672 -0.39387,1.53701 -1.55646,1.84103 -1.38832,0.36305 -2.05656,0.059 -2.05656,-0.93581 z m 21.52138,-12.362779 c 1.36517,-1.50849 1.54269,-2.312299 0.69737,-3.157618 C 258.73667,86.336672 256,88.479751 256,91.122445 c 0,2.433126 1.23355,2.381956 3.52138,-0.146074 z M 15.675813,102.34248 C 15.304116,101.97078 15,100.39167 15,98.833333 c 0,-3.079312 1.532784,-3.626672 4.362203,-1.557751 1.630725,1.192415 1.58945,1.421209 -0.633057,3.509148 -1.307636,1.22846 -2.681636,1.92945 -3.053333,1.55775 z M 88,98.5 c 0,-0.916667 0.48375,-1.505417 1.075,-1.308333 0.59125,0.197083 1.075,0.785833 1.075,1.308333 0,0.5225 -0.48375,1.11125 -1.075,1.308333 C 88.48375,100.00542 88,99.416667 88,98.5 Z m 112.53978,0.564358 c -0.89309,-1.445048 0.77131,-3.460663 2.40733,-2.915321 0.78035,0.260116 0.7012,0.949662 -0.25986,2.26399 -1.02623,1.403461 -1.57901,1.57112 -2.14747,0.651331 z M 108.19167,96.925 c 0.19708,-0.59125 0.78583,-1.075 1.30833,-1.075 0.5225,0 1.11125,0.48375 1.30833,1.075 C 111.00542,97.51625 110.41667,98 109.5,98 c -0.91667,0 -1.50542,-0.48375 -1.30833,-1.075 z m 55.99808,-1.543324 c 0.89008,-0.890079 2.11885,-1.308985 2.7306,-0.930902 C 168.54821,95.456848 167.2203,97 164.7267,97 c -1.98583,0 -2.02805,-0.127225 -0.53695,-1.618324 z M 173,95.5 c 0,-0.862179 0.90249,-1.5 2.12244,-1.5 1.77324,0 1.91763,0.246798 0.87756,1.5 -0.68469,0.825 -1.63979,1.5 -2.12244,1.5 C 173.3949,97 173,96.325 173,95.5 Z M 80.710251,94 C 80.370329,92.700137 80.679569,92 81.59362,92 82.367129,92 83,91.535877 83,90.968615 83,89.45493 79.911452,88.52524 79.122682,89.801496 c -0.436223,0.705824 -1.197408,0.762859 -2.149075,0.16103 -1.114889,-0.705049 -1.14998,-0.935628 -0.144152,-0.947213 0.942099,-0.01085 1.145788,-0.851547 0.699086,-2.885367 -0.523482,-2.383398 -0.260893,-2.966675 1.548616,-3.439872 1.710042,-0.447186 2.073661,-1.120787 1.689586,-3.129946 C 80.441215,77.857236 80.720129,77 81.599717,77 c 0.727305,0 2.228033,-0.972112 3.334951,-2.160249 l 2.012579,-2.16025 -1.162602,3.080082 c -0.905956,2.400153 -0.883994,3.415783 0.09949,4.600809 C 87.614026,82.444783 90,81.304289 90,78.393011 90,77.076855 90.527067,76 91.171259,76 c 0.644193,0 1.988187,-0.739309 2.986653,-1.642909 1.726387,-1.562358 1.803791,-1.453935 1.578741,2.21143 -0.324318,5.282121 2.249075,5.78164 4.582017,0.88941 1.81869,-3.813828 3.97709,-4.179654 4.4838,-0.759955 0.20093,1.356059 -0.37125,2.2175 -1.70446,2.566144 -2.12746,0.556341 -3.702414,4.718446 -2.73724,7.233644 1.5435,4.022303 7.45319,-0.277179 6.32275,-4.599997 C 106.36599,80.683545 106.7054,80 107.62584,80 c 0.79124,0 1.88611,-1.0125 2.43307,-2.25 0.85047,-1.92424 0.92072,-1.773948 0.48516,1.038057 -0.57974,3.742887 1.07436,5.021703 4.27783,3.30726 2.20548,-1.180338 3.1781,0.164039 3.1781,4.392851 0,1.834321 -0.42294,2.213993 -2.00533,1.800188 -1.10293,-0.288422 -2.67793,0.03381 -3.5,0.716064 C 111.24829,90.038828 111,89.892318 111,88.122445 111,86.679335 110.37112,86 109.03518,86 c -2.23941,0 -4.30088,3.144019 -3.47412,5.298515 0.30463,0.79387 -0.1125,1.699113 -0.92696,2.011651 -0.99889,0.383311 -1.8143,-0.388328 -2.50545,-2.370958 C 100.54177,86.387068 96,87.69194 96,92.7 96,96.004301 94.495115,95.537181 91.968178,91.448511 89.196163,86.963297 86.810907,87.266224 85.573635,92.260618 84.549663,96.393998 81.611129,97.444961 80.710251,94 Z m 5.106171,-8.327119 C 86.070745,83.52457 85.721136,83 84.035038,83 c -2.591691,0 -3.691565,2.504007 -1.996828,4.54604 1.755413,2.115143 3.402752,1.298426 3.778212,-1.873159 z m 9.981835,0.729398 c 0.164041,-1.14251 -0.41753,-2.671341 -1.292382,-3.397403 -2.222372,-1.844405 -3.947628,0.09891 -3.096931,3.488352 0.792539,3.157725 3.932209,3.092669 4.389313,-0.09095 z m 59.019313,4.034638 c 0.34707,-2.972884 0.0653,-3.654775 -1.7008,-4.116632 C 151.93688,86.011737 151,84.95928 151,83.942386 c 0,-2.877895 1.87593,-3.284912 2.56093,-0.555642 0.87439,3.483851 3.53285,4.215664 5.68031,1.563661 C 160.20856,83.75582 161,82.169118 161,81.4244 161,79.696244 157.28525,77.676563 155.42186,78.391612 154.63984,78.691702 154,78.351354 154,77.635282 c 0,-2.215275 1.03543,-2.498603 3.82069,-1.045465 1.47362,0.768824 3.46681,1.400634 4.42931,1.404022 2.38715,0.0084 2.19069,1.774017 -0.72391,6.506161 -1.35502,2.2 -2.47772,4.771667 -2.49488,5.714816 C 159.00584,91.608936 156.31189,94 154.76654,94 c -0.20072,0 -0.17775,-1.603388 0.051,-3.563083 z M 180,91 c 0,-0.55 0.45,-1 1,-1 0.55,0 1,0.45 1,1 0,0.55 -0.45,1 -1,1 -0.55,0 -1,-0.45 -1,-1 z M 29,90.081787 c 0,-0.505016 -0.250451,-1.570877 -0.556558,-2.368578 -0.34774,-0.906196 0.215052,-1.652146 1.5,-1.988168 C 31.67048,85.273411 32,85.652926 32,88.09362 32,90.010402 31.489263,91 30.5,91 29.675,91 29,90.586804 29,90.081787 Z M 167.75525,87.5 c -0.36206,-1.894003 -0.055,-2.5 1.26679,-2.5 2.22391,0 3.28697,3.667445 1.28566,4.435417 -2.07048,0.794519 -2.02383,0.829891 -2.55245,-1.935417 z M 187,88.468615 c 0,-0.842261 -0.7875,-1.821938 -1.75,-2.177058 C 181.98406,85.086568 181.40913,82 184.45061,82 c 0.73292,0 1.61493,1.125 1.96003,2.5 0.34511,1.375 0.98288,2.5 1.41728,2.5 0.4344,0 1.66333,0.660688 2.73095,1.468197 1.85929,1.406298 1.82519,1.469537 -0.80887,1.5 C 187.93333,89.989206 187,89.48026 187,88.468615 Z M 20,85.811006 C 20,83.849642 20.675,81.684689 21.5,81 22.325,80.315311 23,78.910211 23,77.877555 23,76.8449 23.646708,76 24.437129,76 c 1.083289,0 1.297626,0.859664 0.870532,3.491536 -0.363162,2.2379 -0.0713,4.100376 0.81287,5.187231 1.209914,1.487271 1.16525,1.61542 -0.363374,1.042595 -1.11932,-0.419445 -2.460928,0.117674 -3.75,1.501331 L 20,89.377123 Z m 34,0.295983 c 0,-0.491156 0.706028,-1.16394 1.568951,-1.495074 C 56.613278,84.211169 56.924601,83.3378 56.5,82 c -0.429014,-1.351702 -0.110008,-2.212424 0.974177,-2.628464 2.309809,-0.886357 3.149871,0.399557 1.737968,2.660374 C 58.545465,83.099434 58,84.653968 58,85.486431 58,86.333333 57.11908,87 56,87 54.9,87 54,86.598145 54,86.106989 Z M 46.5,85 c 0.339919,-0.55 0.816476,-1 1.059017,-1 C 47.801558,84 48,84.45 48,85 48,85.55 47.523442,86 46.940983,86 46.358524,86 46.160081,85.55 46.5,85 Z M 13.63948,81.306147 C 12.403271,80.069938 13.016753,77 14.5,77 c 0.825,0 1.5,0.873442 1.5,1.940983 0,2.087228 -1.317931,3.407752 -2.36052,2.365164 z M 70,79.616631 c 0,-1.478684 0.702829,-2.567162 1.851585,-2.867569 1.472669,-0.385111 1.868271,0.102632 1.933117,2.383369 C 73.847138,81.32838 73.413474,82 71.933117,82 70.563018,82 70,81.305846 70,79.616631 Z M 34.013655,79.75 c 0.03706,-3.392424 1.359523,-5.75 3.225421,-5.75 1.642746,0 1.787059,0.263583 0.797279,1.456195 -0.664694,0.800907 -0.887142,1.976219 -0.49433,2.611804 0.392813,0.635584 0.09405,1.548406 -0.66391,2.028492 -1.934273,1.225148 -2.880378,1.110706 -2.86446,-0.346491 z M 261.5,79 c -0.39915,-0.645846 -0.27574,-1.624265 0.27426,-2.174265 0.66667,-0.666666 1.24192,-0.608578 1.72574,0.174265 0.39915,0.645846 0.27574,1.624265 -0.27426,2.174265 C 262.55907,79.840931 261.98382,79.782843 261.5,79 Z M 48.656295,76.79367 c -0.689257,-2.63572 -0.824826,-2.462283 2.595755,-3.320794 3.191952,-0.801129 3.820396,1.311821 1.176521,3.955695 -2.13625,2.136251 -3.089562,1.975802 -3.772276,-0.634901 z m 9.984119,-0.288353 c -0.624883,-1.628418 1.380978,-2.998186 3.403324,-2.324071 0.657963,0.219321 0.314603,1.089473 -0.843456,2.137501 -1.744655,1.578892 -2.017941,1.598809 -2.559868,0.18657 z M 114.2,73.8 c -1.63321,-1.633206 -1.50819,-2.8 0.3,-2.8 0.83333,0 1.5,0.888889 1.5,2 0,2.331024 -0.18621,2.413786 -1.8,0.8 z m 52.83063,-11.3 c 0,-0.55 0.43621,-1.675 0.96937,-2.5 0.53316,-0.825 0.96937,-1.05 0.96937,-0.5 0,0.55 -0.43621,1.675 -0.96937,2.5 -0.53316,0.825 -0.96937,1.05 -0.96937,0.5 z M 31,46.035184 c 0,-1.222985 3.972169,-3.396349 4.762646,-2.605872 0.325244,0.325244 -0.275797,1.247392 -1.335647,2.049217 C 32.16516,47.189715 31,47.378974 31,46.035184 Z"
       style="fill:#000000;fill-opacity:1" />
  </g>
  <g
     id="g440-2"
     transform="rotate(83.188063,126.15112,-4.548989)">
    <path
       id="path446-9"
       d="M 134.31566,67.180225 C 133.00898,66.354606 125,46.102894 125,43.6244 c 0,-1.241401 0.64294,-1.668896 2.17167,-1.443951 1.55096,0.228216 2.57516,1.534292 3.58334,4.569551 1.43914,4.332734 3.19346,5.658138 3.30903,2.5 0.0941,-2.572508 1.72613,-23.539668 2.52965,-32.5 0.50112,-5.588182 1.08005,-7.75 2.0754,-7.75 2.80013,0 3.31698,4.66488 1.8553,16.745033 C 138.50142,42.463916 137.5578,59 138.6267,59 c 0.49481,0 2.85042,-2.497765 5.23471,-5.550588 2.38428,-3.052823 4.85336,-5.377823 5.48683,-5.166667 2.54658,0.848862 0.85483,4.889419 -4.66177,11.134093 -6.20426,7.023099 -8.64764,8.85216 -10.37081,7.763387 z"
       style="fill:#787878;fill-opacity:1" />
    <path
       transform="translate(214.59479,163.39602)"
       d="m -75.429688,-152.39648 c -0.549299,0 -1.012596,1.9125 -1.029296,4.25 -0.0167,2.3375 -0.502902,6.67414 -1.082032,9.63671 -0.57914,2.96257 -1.056547,7.91257 -1.060546,11 -0.01029,8.12965 -1.164553,19.11329 -2.007813,19.11329 -0.39858,0 -1.925331,-2.77052 -3.394531,-6.15821 -1.78528,-4.1165 -3.003838,-5.82819 -3.673828,-5.1582 -0.67,0.66999 0.153845,3.95742 2.484375,9.91016 1.91792,4.89882 3.723218,9.69375 4.011718,10.656246 0.92976,3.101918 3.977068,1.875902 8.585938,-3.455076 7.01032,-8.1087 8.275167,-9.85374 7.617187,-10.51172 -0.33645,-0.33645 -3.040072,2.04982 -6.007812,5.30273 -2.96775,3.25292 -5.743489,5.57783 -6.167969,5.16602 -0.42448,-0.41181 -0.191372,-8.73681 0.517578,-18.5 2.23264,-30.74646 2.251961,-31.25195 1.207031,-31.25195 z"
       style="fill:#323232;fill-opacity:1"
       id="path444-1" />
  </g>
  <g
     id="g440-2-3"
     transform="matrix(-0.11861084,0.99294082,0.99294082,0.11861084,158.38689,-128.09157)">
    <path
       id="path446-9-6"
       d="M 134.31566,67.180225 C 133.00898,66.354606 125,46.102894 125,43.6244 c 0,-1.241401 0.64294,-1.668896 2.17167,-1.443951 1.55096,0.228216 2.57516,1.534292 3.58334,4.569551 1.43914,4.332734 3.19346,5.658138 3.30903,2.5 0.0941,-2.572508 1.72613,-23.539668 2.52965,-32.5 0.50112,-5.588182 1.08005,-7.75 2.0754,-7.75 2.80013,0 3.31698,4.66488 1.8553,16.745033 C 138.50142,42.463916 137.5578,59 138.6267,59 c 0.49481,0 2.85042,-2.497765 5.23471,-5.550588 2.38428,-3.052823 4.85336,-5.377823 5.48683,-5.166667 2.54658,0.848862 0.85483,4.889419 -4.66177,11.134093 -6.20426,7.023099 -8.64764,8.85216 -10.37081,7.763387 z"
       style="fill:#787878;fill-opacity:1" />
    <path
       transform="translate(214.59479,163.39602)"
       d="m -75.429688,-152.39648 c -0.549299,0 -1.012596,1.9125 -1.029296,4.25 -0.0167,2.3375 -0.502902,6.67414 -1.082032,9.63671 -0.57914,2.96257 -1.056547,7.91257 -1.060546,11 -0.01029,8.12965 -1.164553,19.11329 -2.007813,19.11329 -0.39858,0 -1.925331,-2.77052 -3.394531,-6.15821 -1.78528,-4.1165 -3.003838,-5.82819 -3.673828,-5.1582 -0.67,0.66999 0.153845,3.95742 2.484375,9.91016 1.91792,4.89882 3.723218,9.69375 4.011718,10.656246 0.92976,3.101918 3.977068,1.875902 8.585938,-3.455076 7.01032,-8.1087 8.275167,-9.85374 7.617187,-10.51172 -0.33645,-0.33645 -3.040072,2.04982 -6.007812,5.30273 -2.96775,3.25292 -5.743489,5.57783 -6.167969,5.16602 -0.42448,-0.41181 -0.191372,-8.73681 0.517578,-18.5 2.23264,-30.74646 2.251961,-31.25195 1.207031,-31.25195 z"
       style="fill:#323232;fill-opacity:1"
       id="path444-1-0" />
  </g>
</svg>
