<?xml version="1.0" encoding="UTF-8" standalone="no"?>
<svg
   xmlns:dc="http://purl.org/dc/elements/1.1/"
   xmlns:cc="http://creativecommons.org/ns#"
   xmlns:rdf="http://www.w3.org/1999/02/22-rdf-syntax-ns#"
   xmlns:svg="http://www.w3.org/2000/svg"
   xmlns="http://www.w3.org/2000/svg"
   viewBox="0 0 799.04272 799.10791"
   height="799.10791"
   width="799.04272"
   id="svg1035"
   version="1.1">
  <metadata
     id="metadata1041">
    <rdf:RDF>
      <cc:Work
         rdf:about="">
        <dc:format>image/svg+xml</dc:format>
        <dc:type
           rdf:resource="http://purl.org/dc/dcmitype/StillImage" />
        <dc:title></dc:title>
      </cc:Work>
    </rdf:RDF>
  </metadata>
  <defs
     id="defs1039" />
  <path
     id="path1045"
     d="M 373.24588,798.54304 C 227.93603,788.42717 101.24929,702.32079 38.581791,571.07873 -10.192727,468.93221 -12.848958,349.11694 31.334479,244.17252 41.820732,219.2656 50.574882,203.14168 67.218739,178.07873 90.928852,142.37515 117.88524,112.98569 151.62606,86.052828 c 10.62159,-8.47846 39.25831,-27.771387 51.5,-34.696237 112.40934,-63.58743 251.53248,-68.43486 368,-12.82213 55.27175,26.39201 103.31011,64.630849 142.01428,113.044269 9.45243,11.82364 28.31735,40.07671 36.00663,53.92539 21.45657,38.644 37.00505,82.86933 44.44186,126.40822 7.27085,42.56726 7.27189,92.71681 0.003,135.33278 -29.93662,175.50725 -174.55293,311.23841 -351.39981,329.80996 -18.40554,1.93286 -52.10737,2.6602 -68.94594,1.48796 z m 62.88018,-53.4703 c 138.38476,-14.67448 254.44749,-108.13825 298.02309,-239.99401 13.20573,-39.95929 18.11488,-73.83415 17.17307,-118.5 -0.57536,-27.28676 -1.87143,-39.49522 -6.70601,-63.16804 C 725.86395,231.58899 670.57462,150.66194 591.4886,99.277638 541.95714,67.095731 488.09341,48.752471 427.67185,43.489941 c -17.09671,-1.48906 -55.30658,-0.66688 -72.04579,1.55026 -79.04516,10.46968 -149.39384,44.956877 -205.03934,100.516909 -49.20787,49.13229 -82.574304,111.22 -96.356474,179.29852 -5.21394,25.75482 -6.029106,35.05434 -6.067874,69.2231 -0.03697,32.58002 0.387032,38.37774 4.570742,62.5 11.637177,67.09715 44.097398,131.00927 92.230716,181.59643 56.73017,59.62228 134.30531,97.83044 216.93395,106.84669 17.05043,1.86051 56.90539,1.88783 74.22828,0.0509 z m -124.5,-163.99401 v -98.5 h -98.5 -98.5 V 394.72382 306.8689 l 92.25,-0.0589 c 50.7375,-0.0324 95.0625,-0.0977 98.5,-0.14508 l 6.25,-0.0862 v -98.5 -98.5 h 88 88 v 98.5 c 0,78.08846 0.25903,98.51744 1.25,98.58415 0.6875,0.0463 43.775,0.0693 95.75,0.0511 51.975,-0.0182 95.7375,0.20471 97.25,0.4953 l 2.75,0.52835 v 87.42055 87.42054 h -98.5 -98.5 v 98.5 98.5 h -88 -88 v -98.5 z"
     style="fill:#000000;fill-opacity:1" />
</svg>
