<?xml version="1.0" encoding="UTF-8" standalone="no"?>
<svg
   xmlns:dc="http://purl.org/dc/elements/1.1/"
   xmlns:cc="http://creativecommons.org/ns#"
   xmlns:rdf="http://www.w3.org/1999/02/22-rdf-syntax-ns#"
   xmlns:svg="http://www.w3.org/2000/svg"
   xmlns="http://www.w3.org/2000/svg"
   viewBox="0 0 2253.6895 2114.686"
   height="2114.686"
   width="2253.6895"
   id="svg6661"
   version="1.1">
  <metadata
     id="metadata6667">
    <rdf:RDF>
      <cc:Work
         rdf:about="">
        <dc:format>image/svg+xml</dc:format>
        <dc:type
           rdf:resource="http://purl.org/dc/dcmitype/StillImage" />
        <dc:title></dc:title>
      </cc:Work>
    </rdf:RDF>
  </metadata>
  <defs
     id="defs6665" />
  <path
     id="path6671"
     d="m 1529.4075,2113.8529 c -48.2709,-2.6424 -102.3283,-17.1918 -147.0368,-39.5746 -12.2232,-6.1194 -49.3517,-28.1572 -66.8759,-39.6945 -25.0679,-16.5039 -92.2094,-65.9819 -118.7091,-87.4793 -15.9458,-12.9358 -48.0354,-41.2319 -61.3844,-54.1278 -21.9804,-21.2345 -51.0936,-54.0936 -72.6519,-82 -17.9959,-23.2951 -66.78095,-83.9233 -78.45415,-97.5 -6.1476,-7.15 -16.2939,-19.3 -22.5474,-27 -6.2535,-7.7 -19.5236,-23.675 -29.4892,-35.5 -9.9655,-11.825 -24.3679,-29.375 -32.0053,-39 -19.1244,-24.1014 -34.3112,-42.3214 -52.9287,-63.5 -8.7028,-9.9 -21.4772,-24.975 -28.3876,-33.5 -28.9428,-35.7056 -55.8204,-65.5879 -74.128,-82.4149 -13.4809,-12.3907 -44.0866,-34.1169 -57.5233,-40.8343 -22.964,-11.4804 -53.2462,-17.0192 -75.5893,-13.8257 -11.285,1.6129 -31.4396,6.6173 -38.9636,9.6745 -3.3572,1.3642 -12.0313,3.6523 -19.2756,5.0847 -11.16974,2.2086 -15.98306,2.6159 -31.6715,2.6799 -21.03209,0.086 -31.07634,-1.3299 -50,-7.0469 -37.60561,-11.361 -96.39066,-43.1838 -130.58802,-70.6928 -9.47087,-7.6185 -37.46308,-34.0981 -52.24024,-49.4174 -11.89868,-12.3351 -47.71544,-52.8577 -60.10928,-68.0068 -12.60669,-15.4093 -46.27417,-61.1354 -60.89102,-82.7003 -37.77447,-55.7304 -55.0575,-86.8177 -81.627741,-146.82527 -22.65934,-51.1749 -32.38847,-78.6758 -51.53617,-145.6747 -28.1964297,-98.661 -33.6466997,-129.69671 -34.68351967,-197.5 -0.67769,-44.31818 1.74355997,-73.86604 8.35822997,-102 11.1011297,-47.21607 38.1227097,-88.3213 78.0486897,-118.72768 5.16727,-3.93523 10.86951,-8.54558 12.67165,-10.24521 1.802141,-1.69964 6.611291,-4.71818 10.687021,-6.70789 4.07572,-1.9897 24.5104,-12.16412 45.4104,-22.60983 20.9,-10.44571 53.075,-26.07536 71.5,-34.73256 18.425,-8.6572 51.95,-24.73384 74.5,-35.72588 22.55,-10.99203 51.31755,-24.92749 63.9279,-30.96768 12.61034,-6.04019 45.46034,-22.39222 73,-36.33785 27.53965,-13.94563 63.5721,-31.61911 80.0721,-39.2744 16.5,-7.65528 43.05,-19.98425 59,-27.3977 15.95,-7.41344 39.35,-18.00545 52,-23.53779 46.8773,-20.50128 149.2188,-69.779247 205.5,-98.949357 20.8421,-10.8023 53.729,-26.00895 67,-30.9802599 3.575,-1.33919 8.1385,-3.55813 10.1411,-4.93097 4.3785,-3.00151 12.4146,-4.32814003 26.3589,-4.35142003476 C 975.53465,-0.06194693 1029.1585,11.346863 1072.7857,28.615843 c 30.0066,11.87756 57.0199,26.26252 87,46.3288 15.6462,10.47229 22.0707,15.33127 55,41.597387 28.7337,22.91947 45.2506,38.81883 66.9375,64.4347 27.1963,32.12331 42.6643,56.09409 69.0456,107 32.3081,62.34211 51.0663,109.33728 70.6501,177 25.6177,88.51047 31.5532,128.47792 31.7063,213.5 0.065,36.21934 -0.657,50.15521 -4.4313,85.5 -5.2658,49.31304 -17.0319,101.7426 -30.98,138.0462 -2.843,7.3996 -6.6276,17.2788 -8.4103,21.9538 -1.7826,4.675 -3.5766,9.2875 -3.9865,10.25 -0.666,1.5636 -0.053,1.75 5.7511,1.75 15.8527,0 34.9075,5.9567 60.2175,18.8244 27.4293,13.9453 50.0394,30.1439 78,55.88167 16.9525,15.6048 24.3907,23.921 49.3141,55.135 20.0083,25.0585 30.6333,39.4499 79.4829,107.6589 12.6046,17.6 24.5568,34.0102 26.5603,36.467 2.0035,2.4569 4.19,5.5165 4.8589,6.7992 0.669,1.2827 10.1583,14.7976 21.0875,30.033 10.9291,15.2354 26.2939,37.3297 34.1439,49.0984 7.85,11.7687 18.8651,27.7437 24.478,35.5 5.6129,7.7563 16.8897,24.0024 25.0596,36.1024 51.8247,76.755 95.3325,130.5471 148.4378,183.5253 23.7439,23.6871 33.0197,31.7528 59.077,51.3701 28.3056,21.3099 47.8174,33.195 72,43.8569 20.2657,8.935 35.3666,13.4176 69.5785,20.6539 24.1316,5.1042 32.7126,6.1067 59.9215,7.0003 23.8912,0.7847 26.9874,1.4783 29.3053,6.5656 1.7855,3.9187 1.4805,6.4333 -1.5538,12.8113 -2.5032,5.2615 -4.4212,7.1281 -21.2515,20.6825 -10.175,8.1946 -25.25,20.3461 -33.5,27.0035 -18.7235,15.1092 -43.7785,32.0222 -100,67.5039 -56.9336,35.931 -68.9613,43.7083 -126.2528,81.6362 -61.3583,40.6204 -84.1926,55.1022 -108.2472,68.6517 -41.7937,23.5417 -101.8072,56.2258 -129,70.255 -124.5195,64.2416 -128.7643,66.495 -150.6374,79.9674 l -9.2958,5.7257 -14.7834,-0.037 c -8.1309,-0.02 -21.0286,-0.3786 -28.6616,-0.7964 z m 49.7341,-27.6262 c 10.0084,-6.0621 10.8384,-6.7772 8.1441,-7.0167 -1.65,-0.1466 -7.5362,-0.9769 -13.0805,-1.8449 l -10.0805,-1.5783 -12.6695,8.1979 c -6.9682,4.5088 -12.6695,8.3765 -12.6695,8.5949 0,0.2184 6.5727,0.3971 14.6059,0.3971 h 14.6059 z m -37.8704,-3.5 c 7.9133,-5.0875 14.0788,-9.5062 13.7011,-9.8193 -0.3776,-0.3132 -3.956,-1.8181 -7.9519,-3.3444 -7.0491,-2.6925 -9.4422,-4.754 -8.5162,-7.3363 0.7063,-1.97 3.4186,-1.5057 13.1434,2.25 4.9845,1.925 9.8698,3.5 10.8563,3.5 0.9865,0 11.4423,-6.0932 23.2351,-13.5405 11.7929,-7.4472 22.9209,-14.4547 24.729,-15.5721 3.9985,-2.4713 7.5893,-1.7726 7.126,1.3865 -0.2228,1.5194 -6.0493,5.7233 -21.0169,15.1642 -11.3897,7.184 -21.2315,13.5887 -21.8706,14.2325 -1.2389,1.2481 -1.5653,1.1833 16.4249,3.2606 l 8.8456,1.0214 38.1544,-19.6224 c 20.9849,-10.7923 38.5189,-19.9437 38.9645,-20.3365 0.4457,-0.3928 -9.3031,-4.1384 -21.6638,-8.3235 -32.4078,-10.9725 -51.3424,-18.6656 -75.0495,-30.4925 -20.1835,-10.069 -20.9926,-10.3758 -23.5,-8.9126 -1.4283,0.8335 -18.7969,10.6155 -38.5969,21.7379 -19.8,11.1224 -43.1042,24.4598 -51.7871,29.6388 -8.6828,5.1789 -18.2471,10.6228 -21.254,12.0975 -5.057,2.4802 -5.5893,2.5588 -7.0996,1.0485 -2.3765,-2.3764 -1.2119,-4.1355 4.8011,-7.2516 2.9368,-1.5219 11.1896,-6.2735 18.3396,-10.559 7.15,-4.2856 30.325,-17.5331 51.5,-29.4389 21.175,-11.9059 38.8174,-21.9625 39.2054,-22.348 0.3879,-0.3856 -5.9121,-4.7051 -14,-9.5989 -30.0047,-18.1551 -45.8186,-29.4688 -73.5513,-52.6209 -18.4893,-15.4355 -32.6541,-28.685 -32.6541,-30.5442 0,-0.7458 0.8877,-1.831 1.9728,-2.4117 1.7081,-0.9142 3.3514,0.1989 12.25,8.2969 33.6451,30.6186 60.2214,50.4592 98.5926,73.6046 l 15.3155,9.2382 20.6845,-11.6934 c 11.3765,-6.4314 30.0843,-17.1138 41.5727,-23.7388 l 20.8881,-12.0454 -2.8877,-2.0884 c -8.4059,-6.0789 -14.8112,-11.3169 -15.7886,-12.9113 -0.8759,-1.4288 -0.7076,-2.0855 0.8263,-3.2247 2.2383,-1.6622 2.8697,-1.337 14.1873,7.3079 3.7876,2.8931 7.8728,5.5228 9.0782,5.8438 1.5853,0.4221 6.6647,-1.9323 18.3595,-8.5102 15.6905,-8.8254 19.1512,-10.1933 20.4543,-8.0849 1.5623,2.5278 -1.5076,5.0601 -15.6375,12.8994 -16.8883,9.3697 -16.5091,8.6121 -6.8052,13.5935 5.3669,2.7549 7.3827,4.8948 6.5805,6.9855 -0.9736,2.5369 -4.4843,1.7212 -12.857,-2.9873 -4.4011,-2.475 -8.4523,-4.5 -9.0026,-4.5 -0.5504,0 -10.9643,5.7712 -23.1422,12.8249 -12.1778,7.0537 -30.354,17.4584 -40.3915,23.1216 -10.0375,5.6631 -18.25,10.6305 -18.25,11.0386 0,1.1758 33.2121,17.2985 47.2648,22.9444 17.0376,6.8452 42.2077,15.8328 58.5415,20.9037 l 13.3062,4.131 26.9187,-13.7321 c 14.8053,-7.5527 26.93,-13.9751 26.9438,-14.272 0.014,-0.297 -2.266,-1.872 -5.0662,-3.5 -5.485,-3.1891 -7.252,-5.4021 -6.2982,-7.8877 0.9446,-2.4617 2.9679,-1.9132 11.0569,2.9972 4.1402,2.5132 8.1368,4.3357 8.8814,4.05 0.7446,-0.2857 17.2382,-9.2566 36.6525,-19.9352 64.3795,-35.4114 62.0889,-34.0822 60.1141,-34.8817 -13.3932,-5.4217 -39.2143,-17.2624 -56.6073,-25.9582 -49.3289,-24.6625 -87.9379,-47.9409 -119.0195,-71.7603 -7.5962,-5.8213 -14.803,-11.2022 -16.0152,-11.9576 -2.0434,-1.2734 -5.0081,0.1375 -40.6888,19.3645 -21.1666,11.4059 -46.8097,25.3491 -56.9847,30.985 -44.2014,24.4827 -58.393,31.7658 -59.9651,30.7741 -3.3488,-2.1123 -1.6584,-4.6043 5.9651,-8.7941 30.9335,-17.0005 101.607,-55.4075 120.5,-65.4848 12.65,-6.7474 23.1904,-12.4291 23.423,-12.626 0.2327,-0.1969 -3.4798,-4.1398 -8.25,-8.762 -6.5538,-6.3505 -8.673,-9.0444 -8.673,-11.025 0,-5.3246 2.773,-4.0806 12.9784,5.8222 5.4523,5.2907 10.3883,9.6195 10.9688,9.6195 0.5806,0 21.1924,-10.8812 45.8042,-24.1804 66.8984,-36.1493 61.8189,-33.6407 63.9141,-31.5656 1.6944,1.678 1.6858,1.8388 -0.1972,3.7157 -2.0431,2.0363 -20.7695,12.3775 -72.5824,40.0819 -16.7123,8.9361 -30.6109,16.4455 -30.8859,16.6875 -0.6131,0.5398 2.3552,3.0035 16.5,13.6954 27.275,20.6167 64.882,43.4088 108.5,65.7573 32.6831,16.7458 68.7378,32.5065 71.7333,31.3571 6.4297,-2.4674 90.098,-56.051 89.0919,-57.0571 -0.1912,-0.1911 -3.9426,-2.6791 -8.3364,-5.5288 -4.3938,-2.8497 -10.3163,-6.9599 -13.161,-9.1337 l -5.1721,-3.9524 -25.3279,16.8857 c -31.43,20.954 -39.0306,25.4882 -42.0165,25.065 -3.4856,-0.494 -2.9446,-3.9 1.0018,-6.3069 1.8223,-1.1114 16.3258,-10.5899 32.23,-21.0634 l 28.9169,-19.0427 -2.7181,-2.7181 c -2.1501,-2.1501 -2.4967,-3.0691 -1.6585,-4.3978 1.6503,-2.6163 2.9249,-2.5833 6.1851,0.1599 1.6611,1.3978 3.4922,2.5414 4.0691,2.5414 0.5769,0 6.812,-3.5194 13.8557,-7.8209 7.0437,-4.3015 13.5812,-8.1074 14.5278,-8.4575 2.0945,-0.7748 4.9083,1.7777 4.1469,3.7618 -0.3009,0.784 -6.3567,4.9172 -13.4575,9.1848 -7.1008,4.2675 -12.9105,8.0988 -12.9105,8.514 0,1.7249 24.4931,17.8178 27.1185,17.8178 0.3667,0 16.3526,-10.4269 35.5242,-23.1709 19.1715,-12.744 40.3724,-26.6399 47.1131,-30.8798 l 12.2558,-7.7088 -12.0499,-4.1316 c -21.8169,-7.4802 -49.5719,-20.6853 -77.3413,-36.7967 -5.9837,-3.4717 -11.5126,-6.3122 -12.2864,-6.3122 -0.7737,0 -9.7077,4.3095 -19.8533,9.5766 -10.1455,5.2672 -19.2416,9.4235 -20.2136,9.2363 -1.1244,-0.2165 -1.7671,-1.2446 -1.7671,-2.8266 0,-2.2117 1.8773,-3.4414 17,-11.135 9.35,-4.7568 17,-9.116 17,-9.687 0,-0.5711 -4.05,-3.8389 -9,-7.2619 -17.3916,-12.0264 -48.549,-38.7212 -50.6972,-43.4358 -1.2496,-2.7426 -0.47,-5.4666 1.5645,-5.4666 0.7866,0 3.63,2.1375 6.3188,4.75 12.2934,11.9447 29.8201,26.7818 42.2353,35.754 8.1044,5.8569 17.0132,11.496 18.1617,11.496 0.5586,0 23.4013,-11.475 50.7616,-25.5 27.3603,-14.025 50.9149,-25.5 52.3436,-25.5 2.9799,0 4.2245,2.1276 2.493,4.2613 -0.6497,0.8007 -20.3063,11.162 -43.6813,23.0251 -23.375,11.8631 -45.3712,23.1246 -48.8805,25.0257 l -6.3805,3.4564 8.8805,5.2549 c 13.3833,7.9194 39.3259,21.181 53.3805,27.2875 17.4973,7.6024 37.8759,14.1292 40.7122,13.0392 3.2917,-1.2649 50.4475,-31.1949 83.1294,-52.7625 l 28.6584,-18.9125 -12.0403,-2.2056 c -6.6221,-1.2131 -14.6819,-2.9736 -17.9106,-3.9122 -3.2287,-0.9386 -6.5898,-1.5184 -7.469,-1.2885 -0.8793,0.2299 -13.153,8.7802 -27.2748,19.0006 -39.9259,28.8954 -43.3069,30.964 -45.3108,27.7217 -1.3354,-2.1607 0.8037,-4.6785 7.8831,-9.279 15.6753,-10.1864 56.8217,-40.6962 55.5,-41.1529 -12.7239,-4.396 -26.8227,-9.9507 -36.9967,-14.576 -23.518,-10.6919 -57.2222,-30.6157 -77.9743,-46.0935 -12.0656,-8.999 -14.2852,-12 -9.904,-13.3905 1.4853,-0.4714 4.3916,1.1583 11.25,6.3082 33.3716,25.0588 76.9681,48.4598 111.9856,60.1099 l 9.7382,3.2398 21.5958,-15.3006 c 11.8776,-8.4153 21.2204,-15.4101 20.7618,-15.5439 -0.4587,-0.1339 -10.509,-2.3196 -22.334,-4.8572 -54.3408,-11.6611 -90.6314,-28.6515 -139.5,-65.3106 -17.305,-12.9815 -26.4859,-20.3856 -37.681,-30.3883 -4.7746,-4.2661 -9.2095,-7.7565 -9.8553,-7.7565 -0.6459,0 -10.9288,5.85 -22.851,13 -11.9222,7.15 -22.209,13 -22.8595,13 -1.5578,0 -3.3008,-3.3237 -2.4334,-4.6402 0.6007,-0.9118 21.5622,-14.0305 37.3375,-23.3677 l 5.6572,-3.3484 -18.8021,-19.5719 c -10.3412,-10.7645 -23.85,-25.1968 -30.0197,-32.0718 -6.1697,-6.875 -11.6245,-12.385 -12.1218,-12.2445 -1.4779,0.4177 -83.5149,43.0205 -94.3709,49.008 -22.6206,12.476 -36.499,20.5033 -36.4826,21.1015 0.033,1.1961 12.2027,14.6345 25.1953,27.8213 12.1607,12.3425 13.1566,13.1238 15.5629,12.2089 3.2366,-1.2305 6.2974,1.1802 4.7045,3.7055 -1.0142,1.6078 -17.8776,10.7826 -55.4775,30.1833 l -21.4975,11.0923 17.8436,17.9437 c 17.86,17.9602 20.0329,21.0977 15.2498,22.0188 -1.3408,0.2582 -7.2233,-4.9775 -20.5515,-18.2918 l -18.673,-18.6536 -20.437,10.9066 c -74.6773,39.8529 -139.8612,79.6038 -180.1843,109.8811 -9.6704,7.2612 -13.2791,8.7167 -14.396,5.8062 -0.8486,-2.2115 0.8595,-3.8801 14.1433,-13.8166 35.1952,-26.3264 111.2157,-72.5641 173.7357,-105.6707 11.9444,-6.325 21.7277,-11.8441 21.7407,-12.2648 0.013,-0.4206 -6.3244,-7.9586 -14.083,-16.7511 -13.9093,-15.7628 -15.2848,-18.1292 -11.4033,-19.6187 2.1001,-0.8059 2.9523,0.01 18.243,17.3846 7.3798,8.3875 13.9464,15.2462 14.5924,15.2415 0.9468,-0.01 66.4675,-33.4609 67.4567,-34.4425 0.1552,-0.1541 -4.7948,-5.4236 -11,-11.7101 -6.2052,-6.2866 -14.8533,-15.5678 -19.218,-20.6251 l -7.9359,-9.195 -5.5641,3.1757 c -13.577,7.7488 -12.8358,7.457 -14.5626,5.733 -2.4542,-2.4501 -0.9949,-4.2886 7.0644,-8.8997 4.1069,-2.3499 7.6784,-4.6143 7.9366,-5.0321 0.2582,-0.4177 -2.144,-4.0752 -5.3383,-8.1276 -16.1446,-20.4818 -40.2898,-54.6169 -68.8724,-97.3681 -19.7042,-29.4717 -53.2282,-77.6424 -71.9516,-103.3874 -0.155,-0.2131 -5.9614,2.8494 -12.9033,6.8056 -6.9419,3.9561 -13.3675,7.0508 -14.2793,6.8771 -0.9117,-0.1736 -1.7984,-1.3002 -1.9704,-2.5034 -0.3447,-2.4116 1.1062,-3.4914 15.8127,-11.7687 4.675,-2.6312 8.6431,-4.9059 8.8179,-5.0548 0.1748,-0.149 -1.8765,-3.3528 -4.5586,-7.1196 -2.682,-3.7669 -14.4897,-20.7988 -26.2393,-37.8488 -25.2975,-36.7094 -36.3047,-52.1204 -47.8549,-67 -10.2277,-13.176 -31.2354,-38.5 -31.9379,-38.5 -0.8141,0 -29.3207,15.513 -49.0833,26.7106 -18.6471,10.5656 -22.3563,11.805 -22.9466,7.6676 -0.2571,-1.8014 2.422,-3.6612 17.7408,-12.3158 9.9239,-5.6066 24.6334,-13.7351 32.6877,-18.0632 8.0543,-4.328 15.1121,-8.3371 15.684,-8.909 1.2002,-1.2002 -14.6146,-17.1992 -31.1123,-31.4746 l -10.2674,-8.8845 -10.2151,4.7434 c -29.0445,13.4866 -86.9116,44.3783 -86.0074,45.9139 0.36,0.6114 5.2284,8.5366 10.8188,17.6116 14.6778,23.8269 33.0588,54.2972 34.8866,57.8317 1.914,3.7014 1.1158,6.3866 -1.7751,5.9712 -1.5698,-0.2256 -6.3207,-7.2248 -18.6227,-27.4355 -13.7694,-22.6215 -28.3824,-46.3761 -31.1737,-50.6752 -0.768,-1.1828 -21.8176,10.3203 -66.3415,36.2539 -17.05,9.9311 -31.6034,18.4342 -32.3409,18.8958 -1.0139,0.6347 2.1789,6.0597 13.0939,22.2487 7.9391,11.7752 21.3022,32.3193 29.6958,45.6536 8.3936,13.3343 15.5513,24.0867 15.9061,23.8942 0.3548,-0.1925 11.7701,-5.8376 25.3674,-12.5448 13.5972,-6.7071 24.9367,-12.5418 25.1988,-12.966 0.2622,-0.4241 -2.5785,-5.9597 -6.3126,-12.3012 -21.1467,-35.9138 -23.131,-40.113 -19.5958,-41.4697 2.2017,-0.8448 3.948,0.994 8.0519,8.4784 2.01,3.6657 8.367,14.6365 14.1266,24.3796 l 10.4719,17.7148 17.1685,-8.586 c 9.4426,-4.7223 31.3434,-16.12 48.6684,-25.3281 41.7195,-22.1737 51.1584,-27.0154 52.6672,-27.0154 0.6943,0 1.7138,0.8434 2.2654,1.8741 1.4198,2.653 0.4281,3.3367 -21.9326,15.1202 -10.725,5.6518 -30.011,15.8615 -42.8577,22.6882 -12.8468,6.8266 -29.7218,15.5917 -37.5,19.478 -7.7783,3.8863 -14.3061,7.2163 -14.5064,7.4001 -1.2578,1.1546 48.7906,77.0902 51.4929,78.1272 0.6311,0.2422 11.6603,-5.4856 24.5093,-12.7283 12.8491,-7.2428 36.3526,-20.1984 52.23,-28.7902 15.8775,-8.5918 29.0617,-16.1258 29.2983,-16.7422 0.2365,-0.6165 -2.8922,-6.4773 -6.9528,-13.024 -4.0606,-6.5467 -7.9057,-12.883 -8.5447,-14.0807 -2.3533,-4.411 1.7875,-7.3666 5.0052,-3.5724 0.8163,0.9625 5.004,7.4875 9.3061,14.5 4.302,7.0125 8.0666,12.75 8.3657,12.75 0.2991,0 8.4914,-4.275 18.2052,-9.5 9.7137,-5.225 18.1209,-9.5 18.6827,-9.5 1.6639,0 3.3461,2.6283 2.7224,4.2535 -0.318,0.8289 -8.6346,5.8588 -18.4813,11.1776 l -17.9031,9.6705 4.4641,7.1733 c 4.4637,7.1727 5.3515,10.0586 3.4552,11.2306 -2.1682,1.34 -4.6658,-0.7891 -8.8043,-7.5056 -2.3722,-3.8499 -4.7452,-6.9999 -5.2733,-6.9999 -1.9669,0 -101.8435,54.8126 -104.7108,57.4657 -1.0455,0.9674 -0.027,2.9243 5.25,10.0842 6.7053,9.0983 7.7413,11.7779 4.9655,12.8431 -2.7648,1.061 -3.0891,0.7811 -10.0154,-8.643 -3.7391,-5.0875 -6.9715,-9.4747 -7.1833,-9.7494 -0.2117,-0.2746 -4.5102,1.6541 -9.5522,4.2861 -9.1841,4.7942 -12.0084,5.5885 -13.1728,3.7044 -1.4369,-2.325 0.9932,-4.7442 9.0093,-8.9687 4.6729,-2.4627 8.4962,-4.8001 8.4962,-5.1942 0,-0.394 -7.8024,-12.3291 -17.3387,-26.5223 -9.5363,-14.1933 -21.0521,-31.7684 -25.5907,-39.0559 -4.5385,-7.2875 -8.4396,-13.25 -8.6689,-13.25 -0.485,0 -50.715,25.0499 -51.281,25.574 -0.2086,0.1932 2.445,5.1234 5.897,10.9559 5.8566,9.8954 6.1649,10.716 4.6106,12.2704 -2.4878,2.4877 -4.2949,0.8338 -10.8206,-9.9033 -3.4764,-5.72 -6.311,-9.3436 -7.2442,-9.2607 -1.7721,0.1577 -91.4343,45.9696 -121.0635,61.8562 -35.8674,19.2313 -82.5,46.7496 -82.5,48.6838 0,0.5548 5.7602,9.8546 12.8004,20.6662 7.0402,10.8116 18.3708,28.59 25.179,39.5076 6.8082,10.9175 12.9632,20.0744 13.6778,20.3486 0.7146,0.2742 4.7585,-1.3674 8.9865,-3.6479 8.3306,-4.4935 11.6698,-4.862 12.1703,-1.343 0.2673,1.8794 -1.0379,2.8868 -8.7735,6.7718 -8.6304,4.3345 -9.0279,4.6754 -7.9034,6.7766 0.6513,1.2169 5.3868,8.7955 10.5235,16.8414 9.298,14.5639 10.745,18.1491 7.7839,19.2853 -2.3476,0.9009 -4.9933,-2.3737 -15.4445,-19.115 -5.225,-8.3697 -9.9148,-15.229 -10.4217,-15.2428 -0.507,-0.014 -10.632,5.1004 -22.5,11.3649 -11.8681,6.2646 -27.2033,14.1864 -34.0783,17.604 -6.875,3.4177 -21.4402,10.9692 -32.3671,16.781 -15.591,8.2927 -20.2185,10.3454 -21.5,9.5371 -2.6816,-1.6916 -1.8886,-4.4967 1.8671,-6.6042 1.925,-1.0802 18.8,-9.8331 37.5,-19.4507 37.8801,-19.4823 65.5654,-34.0886 66.8413,-35.2645 1.261,-1.1621 -49.2094,-80.9927 -51.2051,-80.9927 -0.5083,0 -6.2489,3.1634 -12.7568,7.0297 -6.5079,3.8663 -12.5181,6.9 -13.356,6.7414 -0.8379,-0.1585 -1.6523,-1.4094 -1.8098,-2.7797 -0.255,-2.2187 1.0298,-3.2576 11.7383,-9.4914 6.6135,-3.85 12.0299,-7.5049 12.0363,-8.1221 0.012,-1.1432 -20.504,-31.3846 -30.6915,-45.2408 -3.0884,-4.2004 -11.6686,-15.2108 -19.0673,-24.4676 -12.3906,-15.5023 -13.6603,-16.7842 -16.0908,-16.2445 -2.4242,0.5383 -68.13855,32.6603 -68.13855,33.307 0,0.1564 2.7497,3.5432 6.1105,7.5262 3.3607,3.983 10.3499,12.8668 15.5315,19.7418 9.5722,12.7005 10.9805,16.1968 6.7665,16.7988 -1.6258,0.2322 -3.7228,-1.8831 -9.4177,-9.5 -8.3091,-11.1134 -23.5496,-29.9081 -24.9581,-30.7786 -1.0402,-0.6429 -35.506,16.3485 -49.498,24.4021 -9.2975,5.3516 -13.0347,6.0906 -13.0347,2.5777 0,-2.8604 7.2006,-7.3212 34.271,-21.231 l 23.271,-11.9575 -9.5562,-10.8537 c -5.2559,-5.9695 -9.424,-11.5521 -9.2625,-12.4057 0.1616,-0.8537 1.4691,-1.6889 2.9055,-1.856 2.2268,-0.2591 3.9773,1.2884 11.8768,10.5 5.0958,5.9421 9.5763,10.928 9.9568,11.0796 0.3805,0.1516 16.2971,-7.4249 35.3702,-16.8367 23.11505,-11.4064 34.44625,-17.5002 33.98245,-18.2757 -1.0977,-1.835 -30.34505,-35.5638 -31.40855,-36.2211 -0.5251,-0.3245 -4.4313,1.2973 -8.6806,3.604 -31.9872,17.3638 -63.8331,34.3414 -93.7178,49.9627 -19.2455,10.06 -44.4455,23.4731 -56,29.807 -11.5544,6.3338 -22.3978,12.2557 -24.0964,13.1598 l -3.0883,1.6438 5.3564,5.9403 c 2.9461,3.2671 13.707,16.1728 23.9131,28.6792 18.8652,23.1171 49.836,59.0065 51.4074,59.5717 0.4751,0.1709 8.8823,-4.1523 18.6827,-9.607 28.6419,-15.9415 31.3763,-17.0976 32.6413,-13.8009 0.9312,2.4266 -1.4294,4.2114 -16.3243,12.3425 -27.1622,14.828 -30,16.4355 -30,16.9939 0,0.3071 2.0915,3.0789 4.6478,6.1596 2.5563,3.0806 12.7339,15.6824 22.6168,28.0039 9.883,12.3215 29.279,35.9639 43.1022,52.5388 13.8233,16.5748 29.8034,35.8304 35.5115,42.7901 l 10.37825,12.6541 12.6217,-6.3571 c 6.9419,-3.4964 24.9967,-12.9266 40.1217,-20.9559 15.125,-8.0293 28.175,-14.4758 29,-14.3255 1.937,0.3528 2.4817,4.1084 0.7983,5.5044 -2.7222,2.2573 -72.6016,39.0395 -76.7835,40.4162 -1.0916,0.3594 0,2.1911 4.1026,6.9106 3.0733,3.5319 11.5976,14.0716 18.9428,23.4216 7.3452,9.35 18.1359,22.85 23.9795,30 5.8435,7.15 17.0677,21.325 24.9426,31.5 37.5481,48.515 72.2619,84.4473 121.9326,126.2124 10.5066,8.8344 11.7332,9.5951 13.568,8.4144 15.2041,-9.7841 78.757,-45.7937 81.1781,-45.9961 0.8592,-0.072 2.0682,0.6505 2.6867,1.6054 1.6812,2.5956 -0.4798,4.1865 -21.3477,15.7166 -29.7068,16.4136 -58.0592,33.3651 -57.7017,34.4989 0.8292,2.6302 78.6883,60.2781 107.5047,79.5979 33.1771,22.2434 71.3431,43.1357 97.6303,53.4434 27.4984,10.7827 76.8929,22.0977 97.8656,22.4184 5.6659,0.087 6.129,-0.1235 20.1866,-9.1613 z M 1367.4524,1997.31 c -1.7587,-1.7587 -0.1858,-4.2328 4.8452,-7.6211 6.5335,-4.4002 10.4881,-4.9107 10.4881,-1.3538 0,4.0096 -12.8041,11.5041 -15.3333,8.9749 z m -75.3348,-70.9108 c -0.8057,-2.0996 -1.1997,-1.7991 25.3265,-19.3136 13.8876,-9.1696 23.8956,-15.1503 25,-14.9397 1.0129,0.1932 1.9825,1.3369 2.1547,2.5416 0.2655,1.8578 -3.2356,4.5507 -23.0645,17.7398 -23.3751,15.5478 -27.9738,17.732 -29.4167,13.9719 z m -76.9703,-50.9225 c -0.9337,-2.4332 0.1547,-3.8569 4.8984,-6.4074 7.7167,-4.1491 11.1827,0.4959 4.0079,5.3713 -4.1855,2.8441 -8.0404,3.2926 -8.9063,1.0361 z m 538.3051,-5.1667 c -2.4548,-2.4547 -0.041,-4.4904 13.9805,-11.7917 8.056,-4.1948 21.4857,-11.4327 29.8439,-16.0843 8.3581,-4.6515 15.6617,-8.4573 16.2303,-8.4573 0.5685,0 1.5939,0.675 2.2786,1.5 2.3988,2.8903 -0.598,4.8784 -36.4816,24.2015 -19.4304,10.4632 -24.1,12.3836 -25.8517,10.6318 z m -364.49,-5.6203 c -1.8987,-2.2879 -0.4327,-4.3435 4.4193,-6.1965 5.0749,-1.9381 7.404,-1.4886 7.404,1.4291 0,3.8535 -9.427,7.6547 -11.8233,4.7674 z m -146.3174,-18.963 c -1.8674,-1.5327 -12.8207,-14.6255 -27.8169,-33.25 -6.1999,-7.7 -11.6564,-14.1452 -12.1256,-14.3227 -0.4691,-0.1775 -9.6059,4.4684 -20.3038,10.3242 -19.8321,10.8558 -24.6357,12.4266 -25.4156,8.3116 -0.379,-1.9996 -0.7008,-1.7947 22.5526,-14.3582 10.0375,-5.4231 18.25,-10.1959 18.25,-10.6062 0,-0.4102 -3.6639,-5.345 -8.142,-10.966 -16.0628,-20.1625 -18.858,-24.093 -18.858,-26.5174 0,-3.8146 2.9972,-4.2347 5.6907,-0.7976 19.7337,25.1813 27.772,34.8742 28.6933,34.5993 0.6138,-0.1832 19.566,-10.5839 42.116,-23.1126 63.6295,-35.3526 78.3711,-43.2259 80.2548,-42.8631 1.096,0.2111 1.7452,1.2508 1.7452,2.7952 0,2.137 -1.899,3.4903 -14.5,10.3332 -24.8784,13.5101 -102.6627,56.7132 -104.4143,57.994 -1.4753,1.0787 -0.034,3.2287 12.5331,18.7026 7.8099,9.616 16.6032,20.3218 19.5406,23.7906 5.5571,6.5626 6.1471,7.9866 4.1406,9.9931 -1.5093,1.5093 -2.0492,1.5025 -3.9407,-0.05 z m 235.4048,-25.9448 c -16.896,-20.2171 -26.9528,-33.291 -37.3504,-48.5552 -4.964,-7.2875 -9.1874,-13.25 -9.3853,-13.25 -0.6958,0 -68.264,40.4701 -88.5284,53.0243 -11.275,6.985 -21.4799,13.2105 -22.6776,13.8343 -2.9278,1.525 -5.5035,0.4107 -5.1253,-2.2173 0.379,-2.6329 9.3711,-8.3854 67.8029,-43.3756 24.475,-14.6562 44.6666,-26.7657 44.8701,-26.9101 0.2036,-0.1444 -3.9853,-7.2925 -9.3087,-15.8847 -5.3234,-8.5922 -9.5338,-16.3756 -9.3565,-17.2965 0.197,-1.023 1.2765,-1.6744 2.7748,-1.6744 2.0675,0 3.8321,2.1966 11.2462,14 4.8366,7.7 9.2191,14.675 9.7387,15.5 0.8307,1.3187 1.3227,1.2885 4.0712,-0.25 3.8797,-2.1718 5.3474,-2.1981 7.0663,-0.127 1.1731,1.4135 0.8414,2.0473 -2.5697,4.9111 l -3.9166,3.2882 7.336,10.8388 c 9.4598,13.9769 22.8056,31.3363 37.9992,49.4272 12.2988,14.644 14.016,18.0599 9.4086,18.7169 -1.6839,0.2401 -4.69,-2.7457 -14.0955,-14 z M 1075.4524,1721.31 c -1.735,-1.735 -0.3222,-4.3438 3.5833,-6.6166 2.3375,-1.3603 21.8,-11.8168 43.25,-23.2366 21.45,-11.4199 48.225,-25.8123 59.5,-31.9832 24.5433,-13.4327 62.9378,-33.4796 90.75,-47.3832 11.1375,-5.5678 20.25,-10.6372 20.25,-11.2655 0,-0.6282 -1.4985,-2.9886 -3.33,-5.2452 -6.6016,-8.1339 -19.7436,-26.6917 -32.7229,-46.208 -7.2771,-10.9422 -13.3973,-20.0875 -13.6003,-20.3229 -0.2031,-0.2353 -2.1129,0.5522 -4.2441,1.75 -4.5416,2.5525 -6.4086,2.7192 -8.0678,0.72 -1.2619,-1.5205 0.599,-3.8756 6.0031,-7.5977 l 2.2586,-1.5557 -8.5111,-13.4657 c -4.6811,-7.4062 -12.6229,-19.6778 -17.6483,-27.2703 -5.0255,-7.5926 -9.1372,-14.6223 -9.1372,-15.6217 0,-1.9645 2.236,-3.2681 4.25,-2.4777 1.4113,0.5539 0.9713,-0.097 20.5925,30.4467 7.9498,12.375 14.9921,23.0887 15.6498,23.8082 0.9808,1.0733 1.836,1.0029 4.7608,-0.3918 6.8394,-3.2616 9.7692,1.8678 3.2603,5.7082 -2.9503,1.7407 -3.3285,2.3524 -2.4589,3.9772 4.0143,7.5008 40.4555,59.7331 47.9249,68.6924 l 1.9127,2.2942 5.304,-2.6648 c 2.9171,-1.4656 18.2531,-9.6163 34.0798,-18.1125 15.8267,-8.4963 29.5517,-15.2999 30.5,-15.1192 0.9483,0.1807 1.8617,1.2891 2.0299,2.463 0.3607,2.5183 1.3511,1.9191 -39.008,23.6017 l -28.7022,15.42 9.028,11.149 c 9.1241,11.2677 10.412,14.3801 6.1999,14.983 -1.6938,0.2424 -4.1317,-2.1163 -11.3696,-11 -5.0674,-6.2197 -9.5282,-11.433 -9.9128,-11.585 -0.3847,-0.152 -18.3007,8.7179 -39.8134,19.7108 -39.3783,20.1223 -46.2735,23.7583 -89.2277,47.0519 -46.5601,25.249 -89.8127,48.0137 -91.2256,48.0137 -0.7926,0 -1.7411,-0.3 -2.1077,-0.6667 z m 788,-15 c -1.784,-1.7839 -0.1863,-4.3691 4.7089,-7.6193 7.3755,-4.8971 10.6244,-5.2919 10.6244,-1.2911 0,3.8677 -12.8872,11.3566 -15.3333,8.9104 z m -354.4414,-43.7543 c -13.5466,-13.5184 -24.9276,-24.579 -25.2912,-24.579 -0.6322,0 -36.6509,20.3661 -43.9341,24.8417 -1.925,1.183 -4.7375,2.1525 -6.25,2.1546 -2.2551,0 -2.75,-0.4386 -2.75,-2.4541 0,-1.844 1.0614,-3.0644 4.25,-4.8862 2.3375,-1.3356 13.1617,-7.4696 24.0537,-13.6311 10.892,-6.1615 19.667,-11.5883 19.5,-12.0596 -0.167,-0.4713 -5.5184,-6.6188 -11.892,-13.6611 -6.3736,-7.0423 -12.9745,-14.3792 -14.6687,-16.3042 l -3.0803,-3.5 -11.3313,5.9238 c -28.3505,14.8211 -83.6071,44.5683 -95.9663,51.6632 -17.6092,10.1086 -22.2927,12.3466 -24.259,11.5921 -0.8833,-0.339 -1.6061,-1.4815 -1.6061,-2.5389 0,-1.4555 4.9191,-4.711 20.25,-13.4017 18.5147,-10.4955 86.5955,-47.1359 101.5,-54.6263 3.4375,-1.7275 6.2461,-3.472 6.2414,-3.8766 0,-0.4046 -4.9857,-6.8106 -11.0686,-14.2356 -16.9914,-20.7401 -28.0972,-35.2174 -38.3557,-50 -12.8209,-18.4752 -26.5671,-40.0027 -26.5671,-41.6062 0,-1.645 3.2729,-3.495 4.5539,-2.574 0.5203,0.3741 7.2008,10.1302 14.8455,21.6802 18.8042,28.4103 31.811,45.6927 61.1482,81.2484 l 2.0476,2.4817 19.6844,-10.1919 c 10.8264,-5.6055 20.48,-10.0386 21.4524,-9.8513 1.1253,0.2167 1.768,1.2443 1.768,2.8268 0,2.2165 -2.0078,3.5173 -18.5,11.9863 -10.175,5.225 -18.5,10.0553 -18.5,10.7341 0,1.0514 28.3111,33.2659 29.2352,33.2659 0.1794,0 6.1174,-3.15 13.1956,-7 7.0781,-3.85 13.1071,-7 13.3978,-7 1.3679,0 3.5248,3.2184 3.0268,4.5163 -0.3078,0.8021 -5.6769,4.188 -11.9314,7.5242 -6.2544,3.3363 -11.6442,6.5067 -11.9772,7.0455 -0.3329,0.5388 10.2601,11.7813 23.5402,24.9833 24.2346,24.0922 26.4597,27.0085 21.1805,27.7597 -1.8675,0.2658 -7.0476,-4.3966 -26.9422,-24.25 z m 426.8799,-2.9523 c -0.6268,-0.7552 -0.8829,-1.9927 -0.569,-2.75 0.7913,-1.9086 24.1691,-15.8767 26.5722,-15.8767 2.4142,0 3.5218,2.5358 1.9401,4.4416 -1.7743,2.1379 -23.6126,15.5584 -25.3171,15.5584 -0.8176,0 -1.9994,-0.618 -2.6262,-1.3733 z m -303.1052,-6.101 c 0,-1.7854 0.9049,-2.9352 3.25,-4.1295 1.7875,-0.9103 10.7525,-6.1366 19.9223,-11.6139 9.2511,-5.526 17.4858,-9.8022 18.5,-9.6069 1.1644,0.2242 1.8277,1.2224 1.8277,2.7504 0,2.0477 -2.7694,4.056 -18.9424,13.7363 -20.0307,11.9893 -24.5576,13.6232 -24.5576,8.8636 z m -76.8484,-60.4108 c -3.4577,-2.1913 -0.178,-4.7902 21.3539,-16.9217 53.0541,-29.8918 106.8172,-59.1932 108.6094,-59.1932 2.4228,0 3.5103,2.5418 1.9116,4.468 -1.2369,1.4905 -14.6527,9.1436 -50.0265,28.5382 -11.275,6.1818 -31.075,17.1963 -44,24.4766 -20.6453,11.6289 -35.3564,19.5495 -36.2215,19.5019 -0.1532,-0.01 -0.8853,-0.3999 -1.6269,-0.8698 z M 959.45245,1568.31 c -1.835,-1.835 -0.1859,-4.5675 4.9961,-8.2783 5.6352,-4.0352 8.654,-4.9695 9.8427,-3.0461 1.2002,1.9419 -0.5938,4.5218 -5.7308,8.2411 -4.9685,3.5974 -7.6771,4.5143 -9.108,3.0833 z m 585.68995,-28.846 c -0.8438,-2.199 0.8034,-3.7181 7.5041,-6.9208 6.5509,-3.131 9.469,-2.9099 8.9593,0.679 -0.2154,1.5172 -1.9553,3.1462 -5.3201,4.9811 -5.5753,3.0404 -10.2571,3.5701 -11.1433,1.2607 z m -107.9951,-15.9873 c -0.9969,-2.5978 0.3148,-4.1692 6.3121,-7.5616 3.2045,-1.8127 18.4263,-10.7933 33.8263,-19.9569 15.4,-9.1637 36.1,-21.312 46,-26.9964 9.9,-5.6844 18.1527,-10.4466 18.3393,-10.5828 0.1866,-0.1361 -3.4134,-5.0496 -8,-10.9188 -4.5866,-5.8692 -8.913,-11.4632 -9.6141,-12.431 -1.7201,-2.3745 -0.5269,-5.0525 2.2514,-5.0525 1.7136,0 4.5972,3.0203 11.8849,12.4483 l 9.6223,12.4482 16.2581,-9.2961 c 34.8633,-19.9343 47.5138,-26.6314 49.1323,-26.0103 2.6074,1.0005 1.9553,4.7921 -1.1242,6.5364 -1.5125,0.8568 -15.4625,8.7127 -31,17.4576 -15.5375,8.7449 -28.25,16.2591 -28.25,16.6983 0,0.4392 0.9984,2.149 2.2187,3.7996 1.6868,2.2814 1.9694,3.3963 1.1786,4.65 -1.7841,2.8283 -3.3062,2.5637 -6.5902,-1.1457 -1.7463,-1.9725 -3.5254,-3.5863 -3.9536,-3.5863 -0.9702,0 -36.1061,20.349 -69.8535,40.4557 -38.4762,22.9243 -37.3605,22.3743 -38.6384,19.0443 z m 760.6042,189.25 21.0951,-17.25 -15.2805,-1.0974 c -8.4042,-0.6035 -16.6323,-1.4025 -18.2846,-1.7754 -2.6975,-0.6089 -4.8916,0.6619 -21.5,12.4527 -25.7566,18.2854 -25.4839,18.0688 -23.8663,18.9654 0.7538,0.4179 6.0955,1.6908 11.8705,2.8288 13.5659,2.6731 14.6093,2.8276 20.1853,2.9897 4.6462,0.1351 4.8613,-0.01 25.7805,-17.1138 z m -421.1222,-144.109 c 21.3299,-12.1652 34.5748,-19.2517 73.1564,-39.1415 18.975,-9.782 36.4248,-18.8724 38.7774,-20.2007 l 4.2774,-2.4152 -5.6181,-6.6918 c -20.8403,-24.823 -49.151,-61.3995 -64.3916,-83.1918 -4.0388,-5.775 -8.4347,-11.9764 -9.7686,-13.7808 l -2.4253,-3.2808 -5.1756,2.9231 c -2.8466,1.6077 -19.1256,10.2335 -36.1756,19.1685 -17.05,8.9351 -35.427,18.9165 -40.8378,22.1811 -5.4108,3.2645 -10.4733,5.6916 -11.25,5.3936 -0.7767,-0.2981 -1.4122,-1.6474 -1.4122,-2.9984 0,-3.5551 7.1741,-7.7361 68.75,-40.0666 12.2375,-6.4253 22.25,-11.9197 22.25,-12.2099 0,-0.8999 -24.7817,-37.0633 -35.8601,-52.3298 -5.7872,-7.975 -15.6944,-22.375 -22.0161,-32 -9.1799,-13.9766 -54.1154,-77.9346 -57.1354,-81.3224 -0.8669,-0.9724 -22.9884,9.8988 -22.9884,11.2972 0,0.527 3.3318,6.0358 7.4039,12.2417 10.058,15.3283 23.5961,39.7427 23.5961,42.553 0,2.8011 -2.6428,4.0163 -4.5616,2.0974 -0.7736,-0.7736 -5.2165,-8.2583 -9.873,-16.6327 -8.5498,-15.3761 -20.2834,-33.9253 -22.7602,-35.9809 -1.4985,-1.2436 -18.0886,7.4774 -43.0724,22.6419 -11.3913,6.9142 -13.9985,8.1292 -15.2377,7.1007 -3.6934,-3.0652 -1.3906,-5.1327 19.0218,-17.0778 7.6369,-4.4691 18.5043,-10.6213 24.1497,-13.6715 l 10.2644,-5.5459 -3.2155,-4.0796 c -1.7685,-2.2438 -7.153,-8.0542 -11.9655,-12.9119 -4.8125,-4.8578 -8.75,-9.1995 -8.75,-9.6483 0,-0.4488 0.6903,-1.3889 1.5341,-2.0892 1.2436,-1.0321 1.9974,-1.0252 3.9813,0.036 2.5431,1.3611 14.2805,13.1892 20.8109,20.9716 l 3.759,4.4799 11.2074,-5.8873 c 6.164,-3.238 11.3696,-6.0163 11.568,-6.1739 0.1984,-0.1576 -9.7016,-14.3475 -22,-31.533 -12.2984,-17.1855 -24.3857,-34.076 -26.8607,-37.5344 -2.475,-3.4585 -5.0302,-6.2978 -5.6781,-6.3096 -1.8277,-0.033 -39.3992,17.8752 -63.8219,30.4208 -12.1,6.2156 -31.9,16.3069 -44,22.4251 -12.1,6.1182 -22.6267,11.5297 -23.3927,12.0255 -1.0794,0.6987 1.0101,3.779 9.2895,13.6939 20.3458,24.3651 36.0999,45.8743 76.1093,103.9132 8.7204,12.65 17.5891,25.3639 19.7084,28.2531 l 3.8531,5.253 4.2162,-2.1246 c 2.3189,-1.1685 14.2399,-7.5137 26.491,-14.1005 12.4546,-6.6961 22.9252,-11.7264 23.75,-11.4099 2.3774,0.9123 1.6989,4.335 -1.2748,6.4312 -1.5125,1.0662 -13.1,7.4576 -25.75,14.2032 -12.65,6.7455 -23.1158,12.3571 -23.2573,12.4702 -0.1415,0.113 3.4224,5.3398 7.9199,11.6149 18.4447,25.7353 43.7667,62.2827 64.3727,92.9094 34.8539,51.8035 72.3519,103.9242 74.8083,103.9806 0.4639,0.011 7.4389,-3.7422 15.5,-8.3396 z m -7.1769,-86.3077 c -1.7307,-1.7307 -0.4347,-4.4763 2.853,-6.0441 3.1462,-1.5003 3.6807,-1.5174 5.0367,-0.1613 1.9264,1.9263 1.0413,4.2787 -2.1585,5.7367 -2.8232,1.2863 -4.7556,1.4444 -5.7312,0.4687 z m -88.4167,-93.0538 c -0.6875,-0.2454 -1.25,-1.4955 -1.25,-2.7781 0,-1.838 1.853,-3.5182 8.75,-7.9338 9.1268,-5.8431 12.5317,-6.6003 13.0583,-2.9037 0.2448,1.7184 -1.136,3.0981 -6.7076,6.7023 -8.9936,5.818 -12.2982,7.4674 -13.8507,6.9133 z m -41,-77.9418 c -2.7486,-1.1091 -1.1783,-4.4273 3.5,-7.3955 5.6513,-3.5856 8.75,-3.5666 8.75,0.054 0,1.9645 -1.0648,3.0776 -5,5.2267 -5.2989,2.8938 -5.3111,2.8974 -7.25,2.115 z m -97.8388,-58.7085 c -0.9597,-2.501 0.1546,-4.3034 3.1208,-5.0479 1.4815,-0.3718 7.6778,-2.9249 13.7697,-5.6735 11.6197,-5.2427 15.1983,-5.8096 15.1983,-2.4078 0,1.5575 -2.619,3.2957 -11.8386,7.857 -12.864,6.3644 -19.1982,8.0136 -20.2502,5.2722 z m -435.182,223.9562 c 36.6869,-22.228 72.4308,-41.7236 132.6912,-72.3731 50.0205,-25.4414 56.622,-28.9893 56.3047,-30.2606 -0.7475,-2.994 -41.6495,-66.4571 -53.9581,-83.7207 l -4.4696,-6.2689 -3.4803,2.151 c -12.5938,7.7833 -17.7689,9.4792 -19.0152,6.2311 -0.7948,-2.0709 1.536,-4.0106 11.2875,-9.3935 l 7.4368,-4.1052 -2.208,-3.1728 c -3.279,-4.7115 -25.0799,-32.5738 -28.9878,-37.0472 l -3.3847,-3.8745 -20.9728,11.9461 c -22.8685,13.0257 -46.3016,25.8623 -53.6168,29.3709 -5.2374,2.5121 -8.1618,2.0516 -7.6762,-1.2088 0.2425,-1.6287 3.7134,-3.9574 14.3201,-9.6079 24.2813,-12.9355 63.594,-35.4732 63.291,-36.2843 -0.4531,-1.2128 -41.8696,-47.967 -42.4908,-47.967 -1.1356,0 -49.3002,26.3246 -49.3002,26.9453 0,0.3561 2.4688,3.5517 5.4861,7.1011 5.9501,6.9993 7.1206,10.9536 3.2424,10.9536 -1.5539,0 -4.3924,-2.3418 -8.9853,-7.4129 l -6.7138,-7.4128 -14.7647,8.026 c -34.2681,18.6279 -135.68285,72.0642 -143.18215,75.4438 -4.4794,2.0188 -8.0179,3.9913 -7.8634,4.3834 0.1545,0.3921 5.4559,4.9125 11.7809,10.0453 6.325,5.1328 18.629,16.4412 27.3423,25.1298 9.3662,9.3396 16.6222,15.7974 17.75,15.7974 1.0492,0 1.9651,0.3375 2.0353,0.75 0.07,0.4125 0.2304,1.6916 0.3559,2.8424 0.1256,1.1508 6.2557,9.0326 13.62235,17.5151 7.3668,8.4824 14.6025,16.8783 16.0795,18.6575 1.477,1.7793 3.1966,3.235 3.8212,3.235 0.6247,0 7.7413,-4.0491 15.8146,-8.998 14.2761,-8.7511 17.392,-10.0841 18.6843,-7.9931 1.4466,2.3406 -1.0551,4.8976 -10.255,10.482 -5.3628,3.2552 -12.1156,7.4169 -15.0062,9.2482 l -5.2557,3.3296 10.3476,12.7157 c 13.4897,16.577 28.389,36.6594 42.6342,57.4656 6.3074,9.2125 11.5247,16.75 11.594,16.75 0.069,0 7.1185,-4.2366 15.6648,-9.4146 z m 41.6848,-79.7741 c -13.2293,-19.8378 -32.8123,-47.8113 -33.4706,-47.8113 -0.2245,0 -3.299,1.7694 -6.8321,3.9319 -11.9285,7.301 -14.2775,8.259 -16.0081,6.5285 -2.4547,-2.4548 -0.9228,-4.1556 9.0061,-9.9991 5.1649,-3.0397 9.3907,-5.8534 9.3907,-6.2526 0,-1.8771 -19.8665,-25.1835 -32.2983,-37.8906 -13.8882,-14.1959 -15.8891,-17.4322 -11.1915,-18.1017 1.4149,-0.2016 5.7945,3.5547 15.1572,13 14.0249,14.1486 16.8838,17.3491 27.744,31.0588 3.8013,4.7986 7.044,8.7248 7.206,8.7248 0.162,0 2.5842,-1.35 5.3826,-3 6.3944,-3.7702 10,-3.9849 10,-0.5955 0,1.8717 -1.2188,3.0924 -5.5,5.5086 -3.025,1.7072 -5.5,3.3531 -5.5,3.6575 0,0.3044 5.563,8.513 12.3621,18.2414 20.9833,30.0232 31.8439,46.8788 31.4697,48.8408 -0.1937,1.016 -1.3319,1.9873 -2.5293,2.1585 -1.8263,0.2612 -4.1448,-2.6392 -14.3885,-18 z m -352.07425,55.249 c 2.4649,-2.8797 26.9117,-16.19 107.1603,-58.3447 43.6973,-22.9542 73.3272,-39.1972 73.7353,-40.4216 0.7673,-2.3018 -31.6876,-33.1522 -48.1053,-45.7271 l -7.3797,-5.6524 -5.7496,2.5428 c -6.833,3.0219 -8.1197,3.123 -9.3957,0.7388 -1.2935,-2.4168 -0.2635,-3.8141 4.18,-5.6707 2.0433,-0.8537 3.715,-1.9214 3.715,-2.3726 0,-1.4111 -25.0746,-15.8568 -39.0999,-22.5259 -7.3701,-3.5044 -17.3184,-7.8492 -22.1075,-9.655 l -8.7074,-3.2833 -6.2926,2.7884 c -11.1576,4.9442 -37.7926,18.6224 -37.7926,19.4081 0,0.419 3.1654,2.9247 7.0343,5.5682 7.815,5.3397 9.784,7.8558 7.9126,10.1106 -0.6555,0.7899 -1.6086,1.4361 -2.118,1.4361 -0.5094,0 -4.9997,-2.925 -9.9784,-6.5 -4.9788,-3.575 -9.6699,-6.5 -10.4247,-6.5 -0.7549,0 -13.422,5.7655 -28.1491,12.8121 -14.7272,7.0467 -31.1642,14.7778 -36.5267,17.1802 -5.3625,2.4025 -9.7484,4.6245 -9.7465,4.9379 0,0.3134 4.3894,2.6733 9.75,5.2442 5.3606,2.571 11.8015,5.8637 14.3131,7.3173 l 4.5666,2.6429 10.9104,-6.0673 c 6.0007,-3.337 11.4281,-6.0673 12.0609,-6.0673 1.7143,0 3.5057,2.5492 2.9003,4.127 -0.2914,0.7592 -4.8097,3.7676 -10.0407,6.6853 l -9.5109,5.3049 7.7734,5.5725 c 14.5775,10.4502 28.7561,22.7204 47.0234,40.6946 18.2679,17.9747 20.7618,21.4378 16.591,23.0383 -1.215,0.4663 -6.0995,-3.734 -18.25,-15.6931 -21.9354,-21.5899 -38.8518,-35.9857 -54.1854,-46.1116 l -5.5944,-3.6944 -24.254,13.9617 -24.2539,13.9617 3.3483,1.727 c 5.5832,2.8797 23.5588,15.1318 37.8484,25.7972 13.681,10.2112 33.332,28.6178 47,44.0236 4.125,4.6495 7.6529,8.4878 7.8397,8.5295 0.1868,0.042 1.0868,-0.7971 2,-1.8639 z m 3.4103,-81.7226 c -2.2776,-0.919 -1.297,-4.2004 2,-6.6925 1.7875,-1.3511 11.3088,-7.0642 21.1585,-12.6958 13.8685,-7.9294 18.2674,-10.0128 19.5,-9.2353 3.3199,2.0941 1.7491,4.6051 -5.4085,8.6458 -3.85,2.1735 -13.3514,7.7066 -21.1141,12.2959 -7.7628,4.5893 -14.2878,8.3087 -14.5,8.2653 -0.2123,-0.043 -0.9484,-0.306 -1.6359,-0.5834 z m -264.36401,3.6261 c 27.27231,-2.7987 54.74721,-16.559 76.70711,-38.4174 14.6708,-14.603 24.2134,-29.8169 31.3011,-49.9039 17.9589,-50.8962 22.4665,-142.1943 11.0173,-223.1425 -2.481,-17.5408 -9.9464,-59.624 -14.5356,-81.93787 -11.3077,-54.9819 -34.1779,-126.3058 -55.2226,-172.21923 -7.4332,-16.21704 -26.3756,-54.11784 -34.9067,-69.84287 -6.89803,-12.71493 -39.15283,-64.8462 -52.59139,-85 -12.80105,-19.19773 -35.53918,-48.84244 -53.60612,-69.88869 -12.60902,-14.6883 -44.78054,-48.27048 -57.6595,-60.18777 -24.88266,-23.02465 -61.33634,-51.39154 -85.38959,-66.44697 -57.05609,-35.7126 -98.38079,-51.0951 -141.5,-52.67126 -23.87739,-0.87281 -34.95219,1.86574 -50.8046,12.56283 -41.955851,28.31152 -71.142381,71.09425 -80.589951,118.13186 -5.48168,27.29219 -7.57803,56.25832 -6.80199,93.98563 1.32667,64.49563 6.74285,94.9663 33.64819,189.2998 20.64134,72.37107 31.37379,101.75977 59.786911,163.71457 18.67542,40.72167 30.10559,61.42457 55.91177,101.26977 19.28866,29.7821 21.05068,32.2619 63.75842,89.7302 8.6442,11.6318 43.64056,52.4686 61.2741,71.5 14.03572,15.1484 44.45478,44.6528 55.95332,54.271 19.27213,16.1206 46.66036,33.3435 78.36383,49.2785 29.76175,14.9591 50.17331,22.3045 69,24.8309 4.675,0.6273 9.625,1.2996 11,1.4939 5.33319,0.7538 16.22311,0.5811 25.88599,-0.4105 z m -37.73438,-23.7723 c -0.74162,-0.5121 -1.19162,-1.7443 -1,-2.7382 0.30973,-1.6065 1.67999,-1.8337 12.34839,-2.0475 24.05504,-0.482 46.721,-7.7735 67.5,-21.7143 7.4049,-4.968 24.2096,-20.947 31.2258,-29.6915 3.4143,-4.2554 3.7058,-4.4074 5.3605,-2.7962 1.6635,1.6197 1.6059,1.9123 -1.1683,5.9341 -5.0337,7.2976 -18.3832,20.7016 -27.3258,27.4373 -14.6983,11.0711 -34.0927,19.9174 -52.5922,23.9886 -8.29683,1.8259 -32.40703,2.9684 -34.34839,1.6277 z m -37.15161,-20.0257 c -1.55632,-0.4706 -2.5,-1.4939 -2.5,-2.7109 0,-1.7971 0.62921,-1.9319 7.79642,-1.6693 8.69447,0.3185 17.29067,-0.9719 26.04941,-3.9103 4.46833,-1.499 6.17176,-1.6906 7.22899,-0.8132 4.61326,3.8287 -9.18272,8.9572 -25.57482,9.5073 -5.775,0.1938 -11.625,0.012 -13,-0.4036 z m 80.2,-23.3658 c -2.02958,-2.0296 -1.44185,-2.626 6.05,-6.1396 3.9875,-1.8701 10.769,-6.3575 15.0701,-9.972 7.5147,-6.3152 10.6799,-7.4793 10.6799,-3.9278 0,2.9906 -16.7341,16.559 -24.34362,19.7385 -4.34305,1.8146 -5.88059,1.8767 -7.45638,0.3009 z m -74.36486,-2.4072 c -1.85939,-0.5659 -3.14166,-3.0878 -2.27937,-4.483 0.30925,-0.5004 4.37968,-0.9098 9.04541,-0.9098 25.52726,0 50.31494,-12.4367 66.13557,-33.182 3.52425,-4.6213 6.40757,-6.0115 7.79892,-3.7603 1.84223,2.9808 -14.63387,20.8181 -26.03567,28.1868 -13.26455,8.5725 -28.18402,13.4002 -43.86176,14.1929 -5.02603,0.2542 -9.88743,0.2341 -10.8031,-0.045 z m -25.83514,-21.0545 c -28.85654,-3.7364 -62.63692,-15.7137 -83.14353,-29.4797 -7.22332,-4.849 -8.90524,-6.5679 -8.20699,-8.3875 0.91887,-2.3946 2.90302,-1.7458 10.71923,3.505 27.14241,18.2338 74.98661,31.7328 104.85366,29.5838 11.30532,-0.8134 22.49291,-3.6833 31.4171,-8.0592 8.48124,-4.1586 10.63058,-4.4227 10.18008,-1.2507 -0.39559,2.7854 -13.62758,9.6655 -23.66271,12.3037 -6.56387,1.7255 -33.73093,2.8756 -42.15684,1.7846 z m -18.88656,-28.7016 c -2.57195,-3.099 0.2639,-4.6367 8.55116,-4.6367 8.09877,0 18.96168,-1.947 27.76881,-4.9771 6.00974,-2.0676 8.85852,-1.7773 8.35229,0.8514 -0.7016,3.6431 -18.63694,8.8428 -33.79981,9.7991 -8.07585,0.5093 -9.71946,0.3526 -10.87245,-1.0367 z m -17.11344,-28.2876 c -27.54984,-3.5483 -53.71853,-10.5673 -55.36158,-14.849 -0.28575,-0.7446 0.12515,-1.8889 0.91311,-2.5429 1.13186,-0.9393 2.7465,-0.6399 7.69056,1.426 7.4847,3.1276 23.15699,6.8999 38.25791,9.2086 16.65637,2.5466 39.22636,2.2719 52.5,-0.6388 11.91986,-2.6139 17.13093,-2.9865 17.71872,-1.2667 1.44085,4.2155 -18.03799,8.3746 -41.21872,8.8009 -9.35,0.172 -18.575,0.1098 -20.5,-0.1381 z m 132.44552,-17.4373 c -0.37469,-0.6062 2.41592,-4.0383 6.30157,-7.75 7.20281,-6.8803 17.61771,-21.6851 25.74931,-36.6027 15.3352,-28.1328 25.0772,-63.9798 30.0463,-110.5591 0.9094,-8.525 2.0291,-15.8973 2.4882,-16.3828 0.4591,-0.4855 1.5399,-0.6121 2.4019,-0.2814 2.0298,0.779 2.0408,6.3448 0.045,22.6941 -3.5104,28.7529 -9.4119,56.1397 -16.4784,76.4701 -4.6586,13.4031 -15.8124,35.4357 -24.8057,49 -11.4123,17.2128 -23.04307,27.7883 -25.74788,23.4118 z m -166.06191,-3.892 c -20.90675,-4.7832 -52.32722,-16.8245 -53.77988,-20.6101 -0.73936,-1.9267 0.0508,-3.4097 1.81686,-3.4097 0.71641,0 5.07735,1.7623 9.69099,3.9161 12.19001,5.6909 33.5903,12.6519 47.38842,15.4143 10.23572,2.0493 12,2.6794 12,4.286 0,2.6363 -6.67006,2.7935 -17.11639,0.4034 z m 29.11639,-5.7024 c -21.3597,-2.7268 -37.5956,-7.8239 -60,-18.8367 -21.34942,-10.4941 -33.73057,-18.0449 -33.29523,-20.3055 0.5701,-2.9602 3.71327,-2.4062 10.43574,1.8394 9.11429,5.7562 38.26604,20.2029 47.35949,23.4699 11.8701,4.2645 27.34303,7.4181 42.5,8.662 36.76106,3.017 75.09,-7.5364 102.83459,-28.3141 6.46154,-4.839 9.66541,-5.6569 9.66541,-2.4674 0,3.1352 -13.48774,12.8501 -27.85573,20.064 -15.81593,7.9408 -33.34226,13.061 -53.11804,15.5181 -7.95517,0.9885 -31.88247,1.2184 -38.52623,0.3703 z m 3,-16.4496 c -32.58403,-4.0923 -57.2178,-13.4498 -87.23507,-33.1374 -25.28374,-16.5831 -42.3798,-32.0637 -67.06751,-60.7304 -17.26001,-20.0418 -24.68066,-30.1437 -34.52555,-47 -4.65777,-7.975 -9.64902,-15.9228 -11.09165,-17.6617 -9.95898,-12.0045 -47.44942,-101.20597 -61.2943,-145.83827 -7.99344,-25.7688 -14.57936,-57.70122 -17.94336,-87 -2.42419,-21.11356 -2.45848,-61.00563 -0.0652,-75.8733 4.84511,-30.09924 14.60387,-55.82589 29.84105,-78.6689 17.92744,-26.87613 46.29404,-44.309 79.81111,-49.04842 11.19651,-1.58322 32.7493,-0.58136 45.57049,2.11831 33.43425,7.04002 71.71334,25.75403 108.56248,53.0744 14.83384,10.99798 51.60612,47.23813 65.34349,64.39791 19.92156,24.88465 41.56094,60.27198 62.67884,102.5 28.37897,56.7475 46.58688,116.2476 55.54158,181.5 2.4814,18.08177 2.5284,57.48057 0.087,73.08477 -4.6002,29.4039 -13.1807,50.6895 -27.71855,68.7612 -26.76248,33.2676 -90.6401,55.7833 -140.49504,49.5218 z m 46.73524,-22.8342 c 26.72695,-5.2284 54.62066,-18.0788 70.55829,-32.5055 10.44678,-9.4564 20.4576,-26.9467 25.59454,-44.7171 17.63143,-60.9933 -2.99245,-171.25097 -49.34635,-263.81097 -24.0959,-48.11498 -44.44667,-80.50802 -66.594,-106 -14.1571,-16.29508 -45.07289,-45.95451 -56.64748,-54.34543 -61.76655,-44.77721 -115.6256,-59.98257 -158.06759,-44.62527 -11.54327,4.17685 -23.81702,11.91753 -32.34355,20.39812 -17.51045,17.41609 -31.89482,48.13437 -37.4954,80.07258 -1.93831,11.05355 -2.27549,16.44371 -2.25197,36 0.0594,49.40865 8.0636,92.7671 27.04463,146.5 7.54805,21.3676 25.06548,63.8243 27.90752,67.6391 1.28626,1.7264 3.65505,6.4514 5.26397,10.5 7.31082,18.3961 24.28657,50.31047 36.62816,68.86087 12.4488,18.7115 42.96121,53.2079 59.90295,67.7243 12.97503,11.1176 36.11162,26.779 50.41331,34.1253 15.39174,7.9062 35.04902,13.6441 55.19773,16.1119 11.24797,1.3777 31.94959,0.4755 44.23524,-1.9279 z m -39.83647,-21.49 c -15.07028,-2.341 -28.27753,-7.3886 -41.64988,-15.9177 -2.88689,-1.8413 -7.72389,-4.5359 -10.74889,-5.9879 -7.85212,-3.7691 -19.83539,-13.9022 -40.59913,-34.3309 -32.05684,-31.5396 -45.60556,-46.7514 -63.16047,-70.9134 -31.31416,-43.09967 -52.58262,-86.32007 -66.13431,-134.39367 -16.29582,-57.80828 -23.12309,-117.59767 -17.24478,-151.02028 4.91981,-27.97283 13.60104,-46.26224 30.06335,-63.33678 22.22417,-23.05065 50.77443,-33.08852 80.15167,-28.18019 34.6826,5.79475 72.1229,27.81338 108.00197,63.51591 32.09132,31.93342 79.59884,108.5683 104.46982,168.52134 12.86793,31.019 24.76734,70.549 29.37418,97.5816 10.07133,59.09777 5.24646,101.89797 -14.62809,129.76187 -12.3498,17.3143 -34.2402,33.7156 -54.4076,40.7647 -15.20613,5.3149 -27.46569,6.4244 -43.48784,3.9354 z m 34.10123,-22.9534 c 9.81775,-3.1158 21.31466,-9.5781 30.74245,-17.2801 24.07125,-19.6648 32.97381,-44.5384 31.42825,-87.8101 -1.90603,-53.36387 -19.52703,-113.80587 -51.74756,-177.49997 -14.14909,-27.97018 -38.37842,-66.76431 -59.95792,-96 -19.60623,-26.56233 -53.87422,-55.90371 -81.46522,-69.75321 -17.79929,-8.93448 -37.78967,-13.98131 -51.04812,-12.88776 -31.94384,2.63473 -59.17244,27.43255 -67.90025,61.83859 -3.52091,13.87985 -4.55276,23.10893 -4.542,40.62474 0.0171,27.79982 5.20972,63.03342 15.13241,102.67764 16.25268,64.9345 50.17285,126.5974 98.44879,178.96837 14.71384,15.9619 42.85031,43.1912 46.67268,45.1679 1.6752,0.8662 5.78871,3.8917 9.14115,6.7232 8.06051,6.8081 23.98649,17.0324 32.91932,21.1338 6.33487,2.9086 15.97301,5.5493 25.17602,6.8979 6.65213,0.9747 19.2069,-0.3277 27,-2.801 z m 156.9026,66.0167 c -0.294,-0.7662 0.8053,-5.1891 2.4428,-9.8286 3.6149,-10.2417 7.5872,-27.8425 9.265,-41.0519 1.3087,-10.3029 2.8078,-13.2368 5.4257,-10.6189 3.809,3.809 -8.4211,58.6557 -13.8491,62.1071 -1.7612,1.1199 -2.6872,0.9485 -3.2844,-0.6077 z m -390.09124,-62.8569 c -2.52043,-2.7836 -15.37789,-20.5713 -25.47977,-35.25 -12.26046,-17.8153 -22.30074,-34.3556 -37.63505,-62 -7.93221,-14.3 -16.20835,-29.06667 -18.39142,-32.81497 -4.04733,-6.949 -4.33057,-9.685 -1.00263,-9.685 1.38714,0 4.75989,5.1905 13.1582,20.25 29.92759,53.66477 42.34191,73.66137 64.40735,103.74567 5.84758,7.9727 10.63196,15.2852 10.63196,16.25 0,2.4866 -3.2443,2.2039 -5.68864,-0.4957 z m 359.95974,-5.8789 c -0.8718,-0.8718 -0.3183,-2.8129 2.2643,-7.9415 4.5119,-8.9594 6.9499,-18.0799 8.9904,-33.6336 2.0527,-15.6459 1.9511,-15.296 4.4428,-15.296 1.1173,0 2.0943,0.5625 2.1712,1.25 0.7111,6.3594 -3.5489,31.9798 -6.8466,41.177 -2.5494,7.1102 -6.9002,14.628 -8.8307,15.2589 -0.5706,0.1865 -1.5567,-0.1801 -2.1914,-0.8148 z m -389.25209,-99.6211 c -5.62535,-8.9526 -34.97517,-68.74237 -41.60232,-84.74997 -7.15472,-17.2819 -8.21889,-22 -4.96206,-22 1.58063,0 3.12565,2.8701 8.07471,15 8.53274,20.9133 19.48555,44.0458 33.53946,70.8358 9.49804,18.10547 11.75922,23.16647 10.84341,24.26997 -1.83218,2.2076 -2.71236,1.7064 -5.8932,-3.3558 z m -45.68017,-54.49997 c -6.83685,-10.9678 -26.2986,-58.1411 -35.49598,-86.0386 -5.784191,-17.5446 -6.083831,-18.899 -4.525731,-20.4571 1.07468,-1.0747 2.01285,-1.3243 2.63579,-0.7014 0.53197,0.532 3.968491,9.9627 7.636731,20.9572 7.94941,23.826 16.33646,44.961 26.87858,67.7329 4.2631,9.2087 7.49087,17.4212 7.17282,18.25 -0.70119,1.8273 -3.22923,1.9783 -4.30221,0.257 z m 477.86866,-7 c -0.5705,-0.6875 -1.9601,-4.85 -3.088,-9.25 -2.87,-11.1967 -7.3789,-25.7487 -10.5191,-33.9497 -1.4636,-3.8223 -2.4366,-7.5348 -2.1621,-8.25 0.7291,-1.9002 4.2314,-1.5886 5.0541,0.4497 7.4187,18.3802 16.0418,48.9014 14.3812,50.9022 -1.3917,1.677 -2.3347,1.7021 -3.6661,0.098 z m -40.9513,-109 c -0.5438,-0.6875 -2.464,-5.75 -4.2672,-11.25 -16.1136,-49.15024 -36.45071,-92.94315 -58.14428,-125.20484 -5.22387,-7.7687 -6.12366,-11.29516 -2.88198,-11.29516 4.48941,0 27.75411,39.34269 41.09776,69.5 11.8041,26.67794 29.6132,75.3019 28.573,78.0126 -0.6956,1.8127 -3.0311,1.9394 -4.3773,0.2374 z m -40.99491,-30 c -0.54099,-0.6875 -4.44571,-8.14355 -8.67718,-16.56899 -21.35564,-42.52212 -51.24802,-88.34076 -77.98978,-119.54169 -7.79862,-9.09903 -9.5107,-13.05626 -5.39028,-12.45887 4.13158,0.59901 27.91774,30.44179 46.48353,58.31955 23.61562,35.46039 51.56025,85.80583 49.9526,89.9953 -0.70131,1.82758 -3.03444,1.96329 -4.37889,0.2547 z M 98.889669,760.60195 c -0.75784,-0.91315 -1.16241,-7.54506 -1.20482,-19.75 -0.1802,-51.85754 18.677141,-104.50654 51.400081,-143.50715 25.0111,-29.80931 51.243,-43.81683 87.77839,-46.87261 13.76327,-1.15115 36.49678,2.35254 55.92243,8.61877 13.11225,4.22969 27.71935,10.71202 28.45438,12.62748 0.99047,2.58112 -1.07365,3.84961 -4.21835,2.59236 -1.50481,-0.60162 -7.23603,-2.92208 -12.73603,-5.15657 -46.17277,-18.75862 -88.6471,-17.23309 -121.08281,4.34889 -31.87953,21.21191 -60.89173,65.20102 -72.3505,109.69987 -5.86257,22.76661 -7.3396,33.54977 -7.67871,56.05867 -0.17222,11.43172 -0.58153,21.21922 -0.90957,21.75 -0.83354,1.34871 -2.03633,1.20267 -3.374491,-0.40971 z m -37.68797,-28.11316 c -3.4209,-5.22094 -2.81953,-34.47334 1.08981,-53.01206 2.09302,-9.92541 7.949,-27.22176 13.37343,-39.5 3.81654,-8.63878 5.05841,-10.55957 7.00595,-10.83608 2.10726,-0.29918 2.30988,-0.0247 1.8457,2.5 -0.28679,1.55984 -3.02347,8.91108 -6.08152,16.33608 -6.68201,16.22406 -10.25783,28.24634 -12.19475,41 -1.66411,10.95734 -1.93791,36.59851 -0.43307,40.55654 0.72565,1.90863 0.69019,3.08592 -0.12245,4.0651 -1.6329,1.96752 -2.62835,1.72114 -4.4831,-1.10958 z M 485.69428,710.27882 c -11.78135,-16.72809 -42.17505,-57.04976 -51.48481,-68.30209 -12.12667,-14.65702 -25.00647,-27.53588 -35.22165,-35.2191 -5.11386,-3.84632 -9.12916,-7.50802 -8.92288,-8.13711 0.87892,-2.68045 5.33368,-1.58877 11.00997,2.69811 20.70642,15.63802 38.95702,36.89699 79.97524,93.1581 16.41067,22.50907 18.56432,26.53604 14.59588,27.29187 -1.11836,0.213 -4.28254,-3.44019 -9.95175,-11.48978 z M 87.100389,679.35428 c -0.86507,-2.25432 2.25689,-15.04347 6.43901,-26.37755 11.339471,-30.73136 28.721351,-58.4422 50.230111,-80.0787 9.96066,-10.01982 24.4744,-21.9213 26.73282,-21.9213 0.57119,0 1.57374,0.64489 2.22789,1.43309 1.42658,1.71892 0.70486,2.48798 -10.23899,10.91068 -21.14461,16.27349 -43.61862,45.70291 -56.82365,74.40982 -4.67247,10.15765 -12.881831,33.81031 -12.881831,37.11487 0,4.97607 -4.22141,8.32409 -5.68536,4.50909 z m -32.39506,-34.97445 c -1.54381,-1.86017 0.5725,-10.04597 5.79195,-22.4031 4.04851,-9.58492 4.94159,-11 6.9423,-11 2.79546,0 2.52645,3.21579 -0.90249,10.78826 -3.50894,7.74916 -4.73321,11.19212 -6.70595,18.85892 -1.17055,4.54921 -3.22069,6.05144 -5.12581,3.75592 z m 29.38546,-76.05056 c -1.39402,-3.63276 4.67372,-14.29611 15.80443,-27.77444 12.025481,-14.56181 24.890531,-24.41979 24.890531,-19.07262 0,0.82801 -5.09597,6.56551 -11.32437,12.75 -10.31048,10.23778 -18.866141,21.44431 -24.879121,32.5876 -1.87896,3.4821 -3.52254,4.03446 -4.49147,1.50946 z m 37.694961,-16.7025 c 0,-6.18547 15.22813,-21.11664 31.50626,-30.89188 7.56651,-4.54379 23.29263,-10.93156 25.96879,-10.54822 1.23241,0.17653 2.02495,1.04431 2.02495,2.21717 0,1.48135 -1.85045,2.65117 -8,5.05745 -18.69445,7.31499 -34.50651,18.2844 -43.10761,29.90532 -5.09411,6.88264 -8.39239,8.55691 -8.39239,4.26016 z M 73.452419,522.31006 c -1.51856,-1.51855 -0.41979,-4.44867 3.83615,-10.22996 10.46874,-14.22078 33.313911,-33.43429 50.575431,-42.53554 8.52725,-4.49605 9.21953,-4.69677 10.76746,-3.12189 1.54063,1.56744 1.50425,1.79889 -0.52945,3.36857 -1.20105,0.92702 -5.72015,3.61221 -10.04244,5.96709 -16.45948,8.96751 -39.477031,28.95552 -47.753651,41.4684 -3.57115,5.39898 -5.27448,6.66236 -6.8535,5.08333 z m 237.388841,-28.95 c -17.68088,-12.86543 -34.01804,-22.00097 -46.31907,-25.90104 -5.53619,-1.75526 -7.23644,-2.72759 -7.23644,-4.13831 0,-6.31194 21.31301,1.87898 44.5,17.10204 13.72349,9.00995 20.05144,14.25635 19.36208,16.05279 -0.96915,2.52556 -3.68047,1.70598 -10.30657,-3.11548 z m -229.388841,-23.05 c -2.70111,-2.70111 1.61849,-8.31538 12.82898,-16.67406 15.678591,-11.69017 35.392831,-19.1372 57.449221,-21.70139 12.20333,-1.41872 24.86863,-0.87767 26.10014,1.11495 1.82251,2.94888 -1.04408,3.6633 -16.80834,4.18902 -17.49199,0.58333 -28.38559,2.82816 -42.75635,8.81072 -9.67812,4.02901 -23.310731,13.06704 -29.942731,19.85118 -5.05615,5.17215 -5.69705,5.58346 -6.87092,4.40958 z M 717.53575,1355.2065 c 12.2375,-6.9496 22.25,-12.9968 22.25,-13.4383 0,-0.9242 -27.9793,-14.7915 -29.844,-14.7915 -1.2655,0 -65.2386,29.2508 -64.8415,29.6478 0.1206,0.1206 4.7281,1.1382 10.239,2.2612 9.8352,2.0043 29.6226,8.0817 34.3422,10.5478 1.9642,1.0263 2.6847,0.9957 4,-0.1698 0.8824,-0.7819 11.6168,-7.1076 23.8543,-14.0572 z m -37.25,-38.2399 c 19.25,-8.9138 35.9961,-16.5908 37.2136,-17.0599 5.6213,-2.1658 13.838,-27.3116 21.7903,-66.686 0.7611,-3.7682 1.5572,-3.909 -12.1659,2.1515 -8.9327,3.9448 -12.0818,4.4356 -13.0061,2.027 -0.966,-2.5174 1.5969,-4.2321 14.7786,-9.8877 l 12.3895,-5.3157 1.7487,-10.8595 c 0.9619,-5.9728 2.4654,-16.2596 3.3414,-22.8596 1.8012,-13.5722 3.0322,-55.3665 1.9659,-66.7455 l -0.7045,-7.5186 -8.6105,3.5104 c -8.9764,3.6597 -11.741,3.5889 -11.741,-0.3007 0,-1.3615 2.3155,-2.8213 8.9546,-5.6456 4.925,-2.095 9.3474,-4.202 9.8275,-4.6821 0.8335,-0.8335 -0.8987,-14.8029 -3.6107,-29.1179 -1.5368,-8.1121 -1.198,-10 1.7949,-10 1.2759,0 2.6414,0.7875 3.0345,1.75 0.3931,0.9625 1.9522,8.95 3.4646,17.75 1.8491,10.7593 3.1411,15.9124 3.9444,15.7326 1.588,-0.3555 65.365,-33.1658 66.3831,-34.1511 1.0503,-1.0164 -2.2725,-15.8327 -6.6883,-29.8232 -1.9515,-6.1829 -3.2878,-11.9204 -2.9694,-12.75 0.7016,-1.8283 3.7346,-1.9807 5.1394,-0.2583 1.4442,1.7707 7.8207,22.3212 9.8361,31.7 l 1.6937,7.8815 35.0978,-17.7049 c 36.7483,-18.5374 53.3513,-26.4618 108.5877,-51.82727 18.4195,-8.4585 33.92725,-15.8165 34.46185,-16.3511 1.1535,-1.1535 -0.8814,-11.81 -7.02965,-36.8144 -2.3486,-9.5513 -4.0312,-17.9888 -3.7392,-18.75 0.6777,-1.7658 3.7354,-1.7896 5.18715,-0.04 1.0723,1.2922 8.7354,31.7716 11.1016,44.1566 0.6305,3.3 1.3251,6.5478 1.5434,7.2173 0.4978,1.5261 0.8695,1.3723 32.2167,-13.3361 13.4697,-6.3201 25.453,-11.3539 26.6293,-11.1862 3.6115,0.515 2.6235,3.9674 -1.8611,6.5032 -2.2,1.244 -15.25,7.4926 -29,13.8859 -13.75,6.3933 -25.2868,11.9148 -25.6372,12.27 -0.3505,0.3553 0.4849,7.5121 1.8563,15.9041 2.6626,16.29257 2.5144,20.24177 -0.7596,20.24177 -2.7154,0 -3.3979,-2.1774 -5.7398,-18.3091 -1.1025,-7.59497 -2.2234,-14.02787 -2.4908,-14.29527 -0.4635,-0.4635 -36.99875,16.04317 -82.22885,37.15117 -11.55,5.3901 -38.0726,18.3885 -58.9392,28.8852 l -37.9391,19.0849 0.2662,10.711 c 0.3171,12.7554 -0.1546,14.7721 -3.4553,14.7721 -2.5584,0 -2.7936,-0.6587 -2.4481,-6.8567 0.1029,-1.8461 -0.1186,-5.9905 -0.4922,-9.2097 l -0.6793,-5.8531 -34.1565,17.4389 c -30.3849,15.5133 -34.1369,17.6897 -33.979,19.7098 2.1918,28.0467 1.1029,58.0035 -3.1723,87.2708 -1.3657,9.35 -2.4881,17.3145 -2.4942,17.699 -0.017,1.0763 4.908,-1.171 40.989,-18.7035 29.9757,-14.5658 88.9743,-41.7138 101.1388,-46.5387 3.9986,-1.586 4.8956,-1.6491 6.5,-0.4569 1.3949,1.0365 1.6105,1.7931 0.8605,3.0199 -0.5505,0.9004 -16.9755,8.8222 -36.5,17.604 -19.5246,8.7818 -47.1993,21.6494 -61.4993,28.5946 -14.3,6.9452 -32.075,15.4725 -39.5,18.9495 l -13.5,6.3219 -2.2023,10.7551 c -4.1829,20.4269 -7.5716,33.7944 -11.3455,44.7541 -2.0831,6.0495 -3.6707,11.1158 -3.528,11.2585 0.5657,0.5658 21.445,-9.6135 100.2117,-48.8563 45.1747,-22.5067 82.6104,-41.4931 83.1904,-42.1919 0.58,-0.6989 1.5314,-5.917 2.1141,-11.5959 2.6878,-26.1913 0.038,-59.1371 -7.9251,-98.5427 -1.5482,-7.6611 -2.5869,-14.5236 -2.3081,-15.25 0.2787,-0.7264 1.5663,-1.3207 2.8612,-1.3207 2.7453,0 3.3058,1.6451 6.9832,20.4972 6.4779,33.2087 9.3411,66.7628 7.5176,88.1004 -0.5978,6.9949 -0.9269,12.878 -0.7314,13.0736 0.4589,0.4588 84.61945,-43.2284 86.06785,-44.6772 2.0221,-2.0229 0.5062,-39.4154 -1.6868,-41.6085 -0.2211,-0.221 -3.8778,1.2041 -8.12615,3.167 -4.2483,1.9629 -8.4821,3.4229 -9.4085,3.2445 -2.1176,-0.4079 -2.2546,-4.7761 -0.1842,-5.8757 0.825,-0.4382 21.52495,-10.7745 45.99995,-22.9697 24.475,-12.1951 49.5003,-24.8275 55.6118,-28.0719 l 11.1119,-5.8989 0.6432,-5.2404 c 2.9259,-23.8392 0.5785,-77.29517 -3.9076,-88.98597 -0.7397,-1.9276 2.1519,-4.8408 4.0732,-4.1036 0.811,0.3113 2.1313,2.8797 2.9339,5.7076 3.1703,11.1708 4.024,23.0143 4.0288,55.89147 0,18.0124 0.1417,32.7499 0.3089,32.75 0.1673,0 10.5173,-5.3368 23,-11.8596 12.4828,-6.5229 39.6834,-20.5098 60.4459,-31.082 l 37.75,-19.22217 v -8.2956 c 0,-6.1539 0.3873,-8.617 1.5,-9.5405 2.8125,-2.3342 4.5,0.5242 4.5,7.6224 0,3.5077 0.2362,6.3776 0.525,6.3776 0.2887,0 3.6525,-1.575 7.475,-3.5 7.5427,-3.7985 10.7389,-4.344 11.6433,-1.9873 0.9063,2.362 -1.3874,4.338 -10.0875,8.69 -4.4307,2.2164 -8.2808,4.2384 -8.5558,4.4933 -0.5224,0.4842 -1.7163,35.30887 -1.2104,35.30577 0.1592,-10e-4 7.3592,-4.214 16,-9.3622 8.6407,-5.1482 22.4604,-13.3607 30.7104,-18.25 l 15,-8.88957 5.7151,-24.5 c 5.1455,-22.0585 11.3376,-56.0061 10.5806,-58.0076 -0.1626,-0.4301 -8.605,3.0448 -18.7607,7.7221 -18.8575,8.6848 -21.535,9.2719 -21.535,4.7222 0,-1.421 4.7129,-4.0559 20.4975,-11.4596 l 20.4974,-9.6143 0.9104,-4.9314 c 1.4509,-7.8592 1.297,-87.74366 -0.2002,-103.9314 -4.021,-43.4744 -10.1533,-80.92107 -20.227,-123.51583 -5.2907,-22.37075 -5.7478,-25.75159 -3.5934,-26.57829 0.9024,-0.3463 2.2787,-0.10017 3.0585,0.54696 3.7312,3.09662 18.7331,76.34112 24.0257,117.30171 4.5121,34.92007 6.6324,89.52115 4.6461,119.64595 -0.6311,9.5703 -0.9833,17.5645 -0.7828,17.765 0.2005,0.2005 11.1083,-5.0559 24.2395,-11.6808 13.1313,-6.6249 24.562,-11.913 25.4017,-11.7513 0.8806,0.1696 1.5266,1.346 1.5266,2.7803 0,2.2479 -2.493,3.7455 -26,15.6194 l -26,13.133 -0.8305,5.367 c -3.7452,24.2034 -6.1578,37.1379 -10.1991,54.679 -2.5738,11.1716 -4.4771,20.5145 -4.2296,20.762 0.7235,0.7236 53.8778,-30.8071 55.7622,-33.0777 1.3425,-1.6176 4.6089,-18.2179 3.7531,-19.0737 -0.3456,-0.3455 -4.8836,1.6725 -10.0844,4.4845 -9.439,5.1035 -12.6717,5.6496 -12.6717,2.1408 0,-2.4565 2.0691,-3.9939 14.1975,-10.5494 12.2813,-6.6381 11.1304,-4.505 14.2979,-26.4986 1.672,-11.6097 3.0443,-14.7743 5.9271,-13.6681 2.0518,0.7873 2.0505,5.9544 0,18.883 -0.8703,5.4744 -1.3588,10.1771 -1.0856,10.4503 0.2732,0.2733 1.4058,0.01 2.5167,-0.5842 2.7303,-1.4612 6.8771,-1.3672 7.4549,0.169 0.949,2.5228 12.4109,-25.6874 18.1822,-44.75 6.1853,-20.4301 16.0995,-61.24814 15.1155,-62.23218 -0.152,-0.15196 -6.1794,1.97561 -13.3943,4.72794 -13.7097,5.22994 -18.8424,6.11774 -19.8711,3.43702 -0.9432,-2.45799 0.6865,-3.40661 14.5285,-8.45703 21.1594,-7.72027 20.3911,-7.159 21.8683,-15.97575 2.1367,-12.75387 7.4928,-63 6.7156,-63 -0.224,0 -4.9745,2.025 -10.5567,4.5 -10.8829,4.8252 -13.6158,5.38192 -14.5442,2.96275 -1.0122,-2.63771 2.2366,-4.92714 14.0389,-9.89332 l 11.4124,-4.80216 0.7141,-5.63364 c 1.0773,-8.49969 0.7729,-69.97959 -0.4562,-92.13363 -2.4974,-45.01547 -6.2853,-68.22891 -19.4998,-119.5 -14.9796,-58.11918 -32.0957,-108.46626 -53.0341,-156 -11.4242,-25.93474 -47.262,-95.5 -49.1986,-95.5 -0.7129,0 -13.5948,6.51307 -22.9254,11.59101 -4.4558,2.42494 -8.7882,4.40899 -9.6276,4.40899 -2.0296,0 -3.938,-2.40244 -3.2753,-4.12325 0.2917,-0.75721 7.7288,-5.12512 16.527,-9.70646 10.5116,-5.4735 15.7607,-8.73099 15.3081,-9.5 -12.723,-21.62088 -31.8929,-46.43198 -57.0001,-73.77387 -15.1955,-16.54797 -23.5888,-23.97865 -55.8303,-49.42755 -34.2345,-27.021957 -54.5905,-41.016437 -81.3462,-55.924437 -45.2137,-25.19263 -105.1937,-43.55663 -155.47375,-47.60124 -17.6393,-1.41893 -29.1957,-0.9552 -32.6921,1.31186 -1.3686,0.88735 -7.6633,3.61744 -13.9883,6.06685 -6.325,2.44941 -15.1,6.12385 -19.5,8.16543 l -8,3.71195 11.5,3.76672 c 30.3369,9.93659 73.8714,34.48542 114.75795,64.711377 6.1919,4.57744 11.4544,8.32262 11.6946,8.32262 0.2401,0 10.3834,-4.75378 22.5406,-10.56395 12.1573,-5.81017 22.8697,-10.418077 23.8055,-10.239777 0.9357,0.17829 1.8476,1.35109 2.0264,2.60623 0.2935,2.060257 -1.7246,3.270307 -20.7633,12.449997 -11.5986,5.59237 -20.9699,10.45543 -20.8251,10.80679 0.1448,0.35136 4.5383,4.15177 9.7633,8.44535 13.384,10.99812 52.7145,50.60201 65.0432,65.49536 20.4098,24.65533 47.9568,63.66481 47.9568,67.91187 0,2.60608 -2.4792,3.76523 -4.4878,2.09825 -0.8043,-0.6675 -5.2232,-6.90534 -9.8198,-13.86188 -10.5385,-15.94889 -26.3711,-37.13303 -39.7634,-53.20355 -17.5516,-21.0617 -61.439,-63.79607 -74.5275,-72.56949 -1.9321,-1.29515 -5.8551,0.40523 -49.49995,21.45508 -55.4716,26.75394 -72.9015,35.41299 -72.9015,36.21707 0,0.32141 7.9199,8.42975 17.5997,18.01852 18.7835,18.6067 35.5792,37.11889 46.2115,50.93413 3.5979,4.675 6.9124,8.92757 7.3654,9.45015 0.5005,0.5773 3.9209,-0.55992 8.7165,-2.89805 8.4217,-4.10603 11.4787,-4.1918 10.927,-0.30657 -0.2346,1.65218 -2.2544,3.268 -7.5605,6.0483 l -7.2404,3.79383 7.8064,11.70617 c 13.6682,20.49632 18.60935,29.29293 17.4695,31.10013 -1.8856,2.98923 -4.5942,1.79783 -7.7161,-3.39396 -6.3458,-10.55302 -19.6167,-31.1279 -21.8422,-33.86353 l -2.3296,-2.86353 -8.4536,4.34661 c -11.6738,6.00239 -11.6852,6.00603 -13.3825,4.3087 -2.4805,-2.48047 -0.7149,-4.33597 8.5567,-8.99242 4.8797,-2.45074 8.8722,-4.8572 8.8722,-5.34767 0,-1.36824 -12.6677,-17.42356 -22.5561,-28.58816 -11.2397,-12.69019 -33.8875,-35.8683 -42.7542,-43.75517 l -6.8103,-6.05774 -3.4736,1.65646 c -7.1792,3.42351 -10.6867,0.627 -5.3394,-4.25704 l 3.052,-2.78756 -13.8092,-11.32608 c -7.6001,-6.22975 -18.9892,-15.18195 -25.3142,-19.89417 -14.3635,-10.70103 -44.8202,-31.0791 -46.4503,-31.0791 -0.6692,0 -28.4041,13.98683 -61.6332,31.08184 -33.2291,17.09501 -66.154,34.03002 -73.1665,37.63337 -7.0125,3.60334 -12.75,6.9199 -12.75,7.37012 0,0.45022 2.0315,2.21627 4.5144,3.92455 6.939,4.7742 26.8825,21.00902 27.8146,22.64223 0.9183,1.60907 -0.8322,4.34789 -2.7788,4.34789 -0.6628,0 -4.3202,-2.4778 -8.1276,-5.50621 -15.0624,-11.98056 -27.9868,-21.48763 -29.2155,-21.49063 -0.7111,-0.002 -16.0111,7.58045 -34,16.84932 -17.9889,9.26886 -44.8144,23.06073 -59.6123,30.64859 l -26.90514,13.79611 5.40517,4.50136 c 9.87677,8.22526 36.28517,35.55456 44.76497,46.32595 11.98,15.21742 21.0515,28.00849 21.7717,30.69873 0.7603,2.8396 -0.7864,4.59917 -3.2808,3.73233 -1.0179,-0.35371 -5.1511,-5.30734 -9.1849,-11.00806 -19.4358,-27.46732 -43.65947,-53.59695 -64.26585,-69.32243 -1.33503,-1.01881 -7.70513,1.75774 -38.45968,16.76351 -20.2728,9.8915 -37.32778,18.16105 -37.89995,18.37677 -0.57218,0.21572 1.14041,2.64361 3.80575,5.39532 3.06238,3.16162 4.71447,5.68648 4.48852,6.85974 -0.70174,3.64385 -3.85459,2.66496 -9.857,-3.06037 l -5.88478,-5.61313 -29.29641,14.63725 c -16.11302,8.05049 -34.38733,17.34 -40.60959,20.64336 l -11.31319,6.00611 8.28688,4.98146 c 21.19495,12.74086 41.35621,28.66358 63.82308,50.40545 19.99756,19.35223 48.79824,53.62285 71.59285,85.19003 8.61982,11.93718 9.87518,15.4112 5.77993,15.99505 -1.71588,0.24463 -3.69409,-1.85068 -9.9132,-10.5 C 446.83552,428.76003 402.41878,384.06603 358.72885,357.94271 l -11.67214,-6.97907 -24.61954,12.50654 c -13.54075,6.8786 -25.70357,12.50655 -27.02849,12.50655 -2.48512,0 -3.9337,-2.02656 -3.06561,-4.28877 0.272,-0.70883 3.52038,-2.57618 7.21861,-4.14968 8.75643,-3.72561 39.22407,-19.74458 39.22407,-20.62284 0,-0.37299 -6.8625,-4.09789 -15.25,-8.27755 -14.16637,-7.05939 -28.41908,-12.66116 -32.21407,-12.66116 -1.86614,0 -61.53773,28.04235 -61.53232,28.91679 0.002,0.32076 3.71449,2.05111 8.25,3.84521 14.79695,5.85319 23.21149,10.49221 23.56653,12.99247 0.571,4.02112 -2.50803,3.68383 -13.61658,-1.49162 -5.88696,-2.74272 -14.61033,-6.44702 -19.38527,-8.23178 l -8.68171,-3.24502 -24.81829,12.2392 -24.81829,12.23919 9,1.34486 c 30.37297,4.53859 55.16361,12.65678 86.5,28.32616 25.49824,12.75008 55.06587,31.03959 77.5,47.93879 36.97422,27.85199 56.80117,45.41536 87.37685,77.40129 21.56252,22.55706 31.58064,33.94236 47.27308,53.72446 26.3409,33.20569 33.27166,43.15013 62.02836,89 22.13641,35.29439 29.40631,48.17775 46.73111,82.814 22.6545,45.29169 29.919,62.5937 44.7933,106.686 17.1086,50.7151 25.716,84.4582 36.2228,142.00187 8.8279,48.3486 12.3062,77.0894 14.22,117.4981 2.1364,45.1063 -2.8959,105.3675 -11.7102,140.23 -5.4971,21.7421 -14.5211,43.6432 -23.3231,56.6048 -2.2617,3.3305 -4.1122,6.3533 -4.1122,6.7173 0,0.8597 -2.6738,2.0406 37.5,-16.5622 z m 26.75,-308.6314 c -0.6875,-0.2888 -1.25,-1.5778 -1.25,-2.8643 0,-1.7893 0.8277,-2.6123 3.5217,-3.5014 1.937,-0.6392 12.0362,-5.62407 22.4428,-11.07747 10.4066,-5.4534 19.8609,-9.9153 21.0097,-9.9153 2.5708,0 3.6827,2.5036 2.008,4.5215 -1.5561,1.8749 -40.5876,22.15197 -43.9822,22.84887 -1.375,0.2823 -3.0625,0.277 -3.75,-0.012 z m 141.9016,-79.24357 c -4.0239,-2.5501 1.0477,-6.2214 20.5288,-14.8606 l 7.1804,-3.1842 -2.8701,-10.7851 c -3.3485,-12.5826 -8.453,-27.6216 -13.0424,-38.4262 -3.412,-8.0327 -3.3898,-10.8588 0.085,-10.8588 1.6293,0 2.8392,1.6155 5.4299,7.25 4.264,9.2737 8.7874,22.1061 13.0954,37.15 1.8742,6.545 3.5782,12.0705 3.7866,12.279 0.2085,0.2084 17.8785,-7.8064 39.2667,-17.8107 21.3882,-10.0044 62.5127,-29.0871 91.38765,-42.406 l 52.5,-24.2162 -0.3415,-2.87306 c -0.5664,-4.76474 -10.7253,-44.5671 -16.6854,-65.37304 -5.433,-18.96602 -18.6551,-59.60313 -20.5376,-63.12049 -0.8465,-1.58168 -2.153,-1.17242 -13.6857,4.28698 -7.0124,3.31957 -22.64975,10.5312 -34.74975,16.02585 -12.1,5.49465 -29.5518,13.6313 -38.7818,18.08145 -14.9416,7.20395 -16.9468,7.92615 -18.2867,6.58623 -0.8868,-0.88675 -1.2272,-2.22878 -0.8288,-3.26709 0.6502,-1.69434 20.6056,-11.88344 39.9202,-20.38299 14.2356,-6.26448 61.89835,-28.41066 62.72805,-29.14616 1.9713,-1.74718 -45.68865,-118.06378 -48.37545,-118.06378 -0.4927,0 -7.7536,2.8797 -16.1354,6.39934 -8.3818,3.51964 -26.0397,10.76943 -39.2397,16.11064 -13.2,5.34122 -24.1409,9.83987 -24.313,9.997 -0.1722,0.15713 1.9148,4.94484 4.6378,10.63936 10.5751,22.11599 11.5453,25.85366 6.711,25.85366 -1.8874,0 -2.9393,-1.57186 -6.5251,-9.75 -6.9076,-15.7544 -10.9365,-23.25 -12.4967,-23.25 -2.6449,0 -102.847,43.00181 -104.9192,45.02613 -0.536,0.52361 2.0348,7.23693 6.3029,16.45899 13.9197,30.07646 25.28,57.51778 35.8159,86.51488 2.498,6.875 4.9127,13.48481 5.366,14.68847 0.8009,2.12689 0.9364,2.14436 4.8147,0.62092 4.6394,-1.82243 7.1057,-1.22957 7.1057,1.70812 0,1.48202 -1.2222,2.62788 -4.25,3.98443 -3.9195,1.75607 -4.25,2.19947 -4.25,5.70111 0,3.14112 -0.3769,3.85061 -2.1823,4.10763 -1.4633,0.20831 -2.5788,-0.45071 -3.3855,-2 -0.6617,-1.27087 -1.3101,-2.44117 -1.441,-2.60066 -0.1308,-0.15949 -3.7379,1.10039 -8.0157,2.79973 -9.0553,3.59712 -11.9755,3.61083 -11.9755,0.0562 0,-2.13453 1.0767,-2.85188 8.75,-5.82985 5.0896,-1.97523 8.75,-3.96893 8.75,-4.76581 0,-2.99293 -17.2974,-48.10993 -27.9323,-72.8562 -4.6152,-10.73884 -20.006,-44.69465 -20.5801,-45.40437 -0.2954,-0.36523 -38.8344,17.22469 -68.4876,31.25908 -24.8725,11.77176 -42.5026,20.85088 -69.3806,35.72952 -9.8343,5.44391 -18.6093,9.75924 -19.5,9.58963 -2.0322,-0.38702 -2.6509,-4.10861 -0.9177,-5.52075 0.7141,-0.58178 7.5983,-4.55038 15.2983,-8.81911 34.0357,-18.86878 58.8403,-31.19476 112,-55.65547 14.3,-6.57995 26.4051,-12.35271 26.9003,-12.82836 1.1156,-1.07174 -18.9138,-41.4643 -31.47,-63.46428 -5.0225,-8.8 -12.4904,-21.04519 -16.5953,-27.21153 l -7.4635,-11.21152 -9.4281,4.68342 c -8.501,4.22284 -9.58,4.53155 -10.9725,3.13907 -2.4687,-2.46871 -0.9101,-4.28022 7.5707,-8.79897 4.3771,-2.33223 7.9531,-4.54643 7.9466,-4.92045 -0.01,-0.37401 -3.4058,-4.73002 -7.5542,-9.68002 -9.5115,-11.34937 -9.8471,-11.944 -7.8626,-13.92857 2.3474,-2.34737 4.3099,-0.83325 13.5446,10.45021 4.4916,5.4881 8.6844,9.97836 9.3172,9.97836 0.6328,0 7.6567,-3.19852 15.6086,-7.10782 7.952,-3.9093 29.5332,-14.28883 47.9582,-23.06563 28.1883,-13.42758 121.5816,-60.07482 122.8836,-61.37679 1.1415,-1.1415 -19.4365,-27.28552 -39.2199,-49.82814 -14.0861,-16.05077 -45.3989,-48.6216 -46.7437,-48.6216 -0.4904,0 -30.4856,14.6663 -66.6558,32.59178 -36.1703,17.92548 -72.9642,35.97145 -81.7642,40.10217 -33.0052,15.49263 -58.6361,28.2781 -58.1945,29.02923 0.2511,0.42725 2.3102,3.82225 4.5756,7.54443 4.107,6.74807 5.0224,10.05595 3.11,11.23792 -2.1978,1.35826 -4.6856,-0.87575 -8.9393,-8.02711 -2.4465,-4.11313 -4.7576,-7.47842 -5.1357,-7.47842 -0.3781,0 -1.9199,0.63939 -3.4262,1.42087 -5.5356,2.87189 -8.0638,-1.09606 -3.4079,-5.34857 l 3.0675,-2.80177 -7.0747,-8.81774 c -7.1512,-8.91299 -8.3642,-11.74402 -5.5024,-12.84222 2.5403,-0.97477 4.5497,0.74121 11.4276,9.75884 3.575,4.68719 6.9978,8.54655 7.6062,8.57637 0.6084,0.0298 5.3334,-2.1642 10.5,-4.87561 5.1666,-2.71141 19.7438,-9.73291 32.3938,-15.60335 12.65,-5.87043 43.025,-20.58209 67.5,-32.69257 24.475,-12.11048 55.9074,-27.62466 69.8498,-34.47596 l 25.3498,-12.45692 -2.3498,-2.54097 c -9.3154,-10.07325 -42.9504,-35.25486 -52.6701,-39.43261 -3.5004,-1.50455 -4.2594,-2.28497 -4,-4.11237 0.2213,-1.55813 1.0932,-2.3401 2.8203,-2.52933 5.3293,-0.58389 29.457,15.58774 48.3424,32.40148 4.8633,4.32984 10.1696,8.95706 11.7917,10.28272 l 2.9492,2.4103 21.7933,-10.69227 c 22.0226,-10.80483 25.581,-11.83997 24.9263,-7.25104 -0.2376,1.66513 -4.7581,4.37062 -20.97,12.55052 l -20.667,10.4278 7.167,7.695 c 3.9419,4.23226 13.8645,14.83975 22.0503,23.5722 16.5648,17.67113 35.8459,40.40125 47.9009,56.46948 l 7.9468,10.59227 43.1346,-21.65011 c 54.51595,-27.36272 150.73835,-71.03444 156.51085,-71.03444 2.6987,0 3.8813,2.67117 2.0103,4.54098 -0.7627,0.76224 -12.8617,6.36794 -26.8867,12.45711 -48.0139,20.84596 -81.5272,36.42358 -123.99995,57.63747 -23.375,11.67512 -43.3299,21.84576 -44.3442,22.60142 -1.7363,1.29354 -1.4089,2.04366 5.5941,12.81848 16.5204,25.41846 37.2801,62.69332 49.1474,88.24628 3.2436,6.98404 6.4314,12.69826 7.0842,12.69826 1.3796,0 31.82155,-13.49742 62.01845,-27.49782 11.55,-5.35501 21.9659,-10.10485 23.1465,-10.55519 2.9713,-1.1334 6.2501,1.28716 4.8486,3.57938 -1.025,1.67648 -26.9445,14.01762 -65.4951,31.18439 -11.82495,5.26573 -21.67395,9.72147 -21.88665,9.90165 -0.2126,0.18017 3.6923,9.67858 8.6775,21.10759 12.95165,29.69231 31.55185,75.8123 38.52345,95.52068 0.554,1.5661 1.3966,1.38024 8.4007,-1.85296 22.6171,-10.44036 34.0366,-15.58845 56.785,-25.59941 13.75,-6.05101 39.85,-17.6604 58,-25.79864 62.0301,-27.81354 65.5,-29.08734 65.5,-24.04473 0,2.15573 -1.3092,3.26143 -6,5.06731 -5.2281,2.01276 -155.8057,68.96337 -168.25,74.80823 -5.9125,2.77699 -10.75,5.3684 -10.75,5.75868 0,0.39027 3.3517,10.65712 7.4483,22.81522 10.3786,30.80245 25.9137,86.22027 29.0617,103.67048 0.3537,1.96067 0.9801,4.11017 1.3921,4.77666 0.5329,0.86237 19.1822,-7.18036 64.6734,-27.89127 35.1585,-16.00669 64.337,-29.50366 64.8411,-29.99327 1.2279,-1.19249 -0.6569,-9.35793 -5.9749,-25.88563 -4.3749,-13.59668 -4.5647,-17.07135 -0.9322,-17.07135 2.4435,0 6.4575,10.3259 11.8563,30.5 1.6578,6.19489 2.826,8.89854 3.748,8.67446 0.7367,-0.17905 13.1167,-5.69155 27.511,-12.25 14.3944,-6.55845 26.6123,-11.92446 27.151,-11.92446 1.6397,0 3.2949,2.65206 2.6706,4.27897 -0.3234,0.84286 -11.2437,6.36717 -24.2672,12.27626 -13.0236,5.90909 -25.7656,11.7832 -28.3156,13.05358 l -4.6364,2.30978 1.4274,6.7907 c 4.6824,22.27578 11.2718,71.43421 10.0144,74.71081 -0.6845,1.7839 -4.2079,2.135 -5.2068,0.5188 -0.3606,-0.5836 -1.5293,-8.7961 -2.597,-18.25 -2.599,-23.0123 -8.6365,-58.79355 -10.1811,-60.33816 -0.2951,-0.29509 -27.4572,11.72587 -60.3603,26.71323 -32.9031,14.98736 -62.1376,28.27693 -64.9655,29.53233 l -5.1417,2.2827 0.9961,4.6704 c 0.8118,3.8059 0.7135,4.9529 -0.5307,6.1972 -2.2734,2.2734 -4.4413,0.8609 -5.6675,-3.6927 l -1.0903,-4.0491 -3.2121,1.3653 c -5.3745,2.2843 -104.99235,48.3849 -141.42665,65.4486 -18.818,8.8132 -35.1818,16.331 -36.364,16.7063 -1.862,0.5909 -2.0602,1.1699 -1.4819,4.3286 1.8757,10.246 1.8781,11.0873 0.034,11.795 -2.4087,0.9242 -5.1096,-2.5351 -5.974,-7.6514 -0.3714,-2.1985 -1.0352,-3.9972 -1.475,-3.9972 -0.4399,0 -6.6776,2.7 -13.8616,6 -7.184,3.3 -13.197,5.9931 -13.3623,5.9847 -0.1654,-0.01 -0.9074,-0.3999 -1.649,-0.8698 z m -46.847,-297.4939 c 20.9267,-9.2601 60.6464,-26.28187 76.1954,-32.65331 4.4,-1.80297 8.1365,-3.38228 8.3033,-3.50957 0.1669,-0.12729 -1.8004,-3.64031 -4.3716,-7.80671 -4.913,-7.96118 -5.263,-11.05046 -1.1862,-10.47155 1.488,0.21129 3.6145,2.41495 6.2545,6.4814 2.2,3.3887 4.45,6.83945 5,7.66834 0.8491,1.27961 5.6035,-0.36673 31.5,-10.90765 43.2045,-17.58599 50,-20.57639 50,-22.00292 0,-2.09052 -23.2641,-47.79565 -32.9386,-64.7119 -9.4569,-16.53564 -24.0083,-39.86484 -27.7541,-44.49608 l -2.1928,-2.71105 -5.3072,2.82829 c -18.0442,9.61593 -81.0062,41.29881 -100.8073,50.72689 -49.5154,23.57621 -79.5279,38.08378 -80.233,38.7835 -0.4032,0.40005 2.1359,5.01759 5.6424,10.26121 10.691,15.98719 21.904,35.91157 36.3284,64.55153 7.5692,15.02889 13.8993,27.3305 14.0668,27.33692 0.1675,0.006 9.8425,-4.20889 21.5,-9.36734 z m -92.7479,287.1565 c -0.8562,-1.2224 -1.5567,-2.7544 -1.5567,-3.4044 0,-3.8828 -14.1422,-43.6624 -24.0193,-67.5623 l -3.1777,-7.6891 -4.2954,2.0869 c -2.3624,1.1477 -5.0181,1.8095 -5.9015,1.4705 -2.7009,-1.0364 -1.8892,-4.6153 1.4688,-6.4756 6.5347,-3.6202 6.4484,-2.7821 1.4826,-14.4073 -4.7161,-11.04039 -4.9314,-13.7962 -1.0778,-13.7962 1.9273,0 2.9681,1.62492 6.9678,10.87847 l 4.702,10.87843 15.6753,-7.2589 c 24.979,-11.56747 69.1314,-30.498 71.1315,-30.498 2.6587,0 3.4658,3.04646 1.3326,5.03042 -0.9839,0.91513 -12.5889,6.30999 -25.7889,11.98857 -26.8228,11.53901 -57.406,25.48701 -58.6818,26.76281 -0.4597,0.4597 2.9557,10.3022 7.5898,21.8721 8.4585,21.1179 18.102,49.5068 19.26,56.698 0.442,2.7454 0.2197,4.1055 -0.7739,4.7347 -2.0631,1.3064 -2.624,1.137 -4.3374,-1.3091 z m 451.47255,-1.2422 c -2.122,-2.5568 -0.4704,-4.2323 8.1599,-8.2784 4.571,-2.1429 21.5858,-10.8899 37.8108,-19.4378 16.225,-8.5478 46.4082,-24.149 67.0737,-34.6694 34.2838,-17.4531 37.7424,-19.0027 39.5,-17.6974 1.5153,1.1253 1.6996,1.8165 0.8641,3.2391 -0.5843,0.9947 -16.5735,9.6836 -35.5316,19.3086 -18.9581,9.625 -46.1551,23.6563 -60.4377,31.1806 -29.8224,15.711 -51.0295,26.4042 -54.0773,27.2673 -1.2836,0.3635 -2.5992,0.01 -3.3619,-0.9126 z m 168.6374,-212.20197 c -0.3667,-0.36666 -0.6667,-1.51048 -0.6667,-2.54182 0,-2.74552 12.348,-8.21084 15.1558,-6.70811 1.197,0.64061 1.7676,1.67396 1.4218,2.57508 -0.3177,0.8278 -0.5776,1.69897 -0.5776,1.93592 0,0.74666 -11.1679,5.4056 -12.9578,5.4056 -0.9399,0 -2.0089,-0.3 -2.3755,-0.66667 z M 593.19655,652.22673 c -0.8229,-1.5125 -5.7033,-11.3 -10.8452,-21.75 -5.142,-10.45 -9.9822,-19.82568 -10.756,-20.83484 -1.3563,-1.76887 -1.5762,-1.75254 -6.1183,0.45418 -4.351,2.11388 -4.836,2.16456 -6.3382,0.66238 -2.2568,-2.25682 -1.1505,-4.33427 3.5982,-6.75686 2.2268,-1.13603 4.0487,-2.33882 4.0487,-2.67287 0,-0.95687 -9.6502,-13.72545 -11.9385,-15.79633 -4.1854,-3.78778 -1.3488,-9.27119 3.1617,-6.11188 1.9404,1.35908 11.5332,13.51169 13.6465,17.28786 0.8892,1.58891 1.5482,1.4526 7.9506,-1.64469 7.5358,-3.64562 10.5333,-3.59809 9.9998,0.15858 -0.2261,1.59267 -2.0814,3.18969 -6.3201,5.44039 -3.3,1.75225 -5.9912,3.55225 -5.9804,4 0.011,0.44774 4.6158,10.03908 10.2332,21.31408 10.7067,21.48997 12.5403,26.56757 10.1424,28.0859 -2.1932,1.38877 -2.8838,1.10605 -4.4844,-1.8359 z m 789.21845,-22.0408 c -0.3077,-0.49784 -2.1378,-8.73607 -4.0668,-18.30718 -6.2624,-31.07066 -15.3233,-61.02436 -31.5652,-104.34805 -4.4673,-11.91621 -7.9756,-22.42817 -7.7962,-23.3599 0.2008,-1.04255 1.2689,-1.69407 2.7772,-1.69407 2.191,0 2.9089,1.16667 6.7691,11 8.4222,21.45429 21.1184,58.24318 26.0808,75.57216 5.8684,20.49304 12.168,48.94623 12.4648,56.29961 0.1844,4.56706 -0.029,5.16184 -1.9486,5.43542 -1.1856,0.16895 -2.4074,-0.10014 -2.7151,-0.59799 z m -119.298,-43.73098 c -2.7425,-2.0383 -0.5685,-4.89828 4.02,-5.28859 3.2945,-0.28023 3.6487,-0.0713 3.6487,2.15218 0,3.23 -4.8655,5.21993 -7.6687,3.13641 z M 628.10445,575.44579 c -1.4416,-1.07158 -1.5897,-1.7254 -0.7145,-3.15296 1.273,-2.07623 6.5525,-3.85368 8.8396,-2.97603 1.7498,0.67144 2.1066,4.20172 0.5236,5.18006 -2.9034,1.79442 -6.9186,2.23497 -8.6487,0.94893 z m 680.86485,-8.00395 c 0.3361,-2.6926 0.1129,-2.57507 26.6826,-14.04943 10.8725,-4.6954 14.5136,-5.00407 13.9421,-1.18192 -0.3804,2.54422 0.1405,2.25539 -19.4085,10.7611 -8.8552,3.85283 -17.3226,7.00514 -18.8165,7.00514 -2.3237,0 -2.6704,-0.36621 -2.3997,-2.53489 z m -199.4751,-49.78379 c -0.8172,-0.64973 -3.3798,-5.45632 -5.6946,-10.68132 -4.003,-9.03555 -15.6049,-31.15029 -18.5421,-35.34375 -0.9755,-1.39268 -1.0889,-2.50325 -0.3891,-3.81086 2.7914,-5.21564 6.8306,0.0715 19.513,25.54118 5.1723,10.38761 9.4043,20.12697 9.4043,21.64301 0,3.12492 -2.0798,4.41007 -4.2915,2.65174 z m -656.04178,-4.34799 c -2.49805,-2.49805 0.0183,-4.54026 16.40389,-13.31317 9.38881,-5.0268 17.82631,-8.99409 18.75,-8.8162 1.03115,0.19858 1.67944,1.27539 1.67944,2.78956 0,2.15582 -2.01322,3.5621 -16,11.17631 -14.95997,8.14401 -19.19381,9.80303 -20.83333,8.1635 z M 1127.1424,497.464 c -0.8524,-2.22139 1.2929,-4.28161 7.9663,-7.65032 5.2892,-2.67 6.108,-2.83449 7.4466,-1.49594 2.2325,2.23248 0.9374,4.21335 -4.9695,7.60074 -5.8112,3.33256 -9.5455,3.88521 -10.4434,1.54552 z M 532.54005,476.72673 c -0.89099,-2.42283 0.5076,-3.89104 6.0351,-6.33557 4.87806,-2.1573 5.76739,-2.28621 7.03408,-1.01952 2.07944,2.07944 0.86439,4.21352 -3.73492,6.55991 -4.52433,2.30814 -8.64867,2.65949 -9.33426,0.79518 z m 658.60725,-8.25 c -0.3166,-0.825 -0.3515,-2.08395 -0.078,-2.79767 0.2739,-0.71372 8.647,-5.05714 18.607,-9.65203 9.9599,-4.5949 18.109,-8.43645 18.109,-8.53679 0,-0.96382 -11.6909,-31.90911 -13.1183,-34.72367 -1.035,-2.04059 -1.8817,-4.86721 -1.8817,-6.28139 0,-2.93787 2.3496,-4.29314 4.438,-2.55989 1.701,1.41173 7.4147,14.83687 12.1513,28.55144 1.8995,5.5 3.6533,10.55831 3.8972,11.24068 0.3135,0.87681 2.7268,0.18916 8.2285,-2.34465 29.6179,-13.64045 52.7935,-23.36941 54.4309,-22.84973 2.1138,0.6709 2.468,3.72098 0.6041,5.2021 -0.6875,0.54631 -6.425,3.23737 -12.75,5.98014 -6.325,2.74277 -19.6788,8.68577 -29.6752,13.20666 l -18.1751,8.2198 2.6616,7.40035 c 2.5269,7.02593 2.5737,7.48821 0.9251,9.13679 -1.6332,1.63322 -1.8373,1.63554 -3.4337,0.0391 -0.9336,-0.93354 -2.6842,-4.29247 -3.8903,-7.46429 -1.3551,-3.56381 -2.6994,-5.6439 -3.5189,-5.44485 -0.7293,0.17715 -8.5832,3.66465 -17.453,7.75 -8.8697,4.08534 -16.8865,7.4279 -17.8151,7.4279 -0.9285,0 -1.9472,-0.675 -2.2638,-1.5 z m 154.9703,-68.07754 c -0.808,-2.10561 1.0384,-3.58351 7.8814,-6.30829 6.6551,-2.64999 9.161,-2.47554 9.6093,0.66899 0.6152,4.31611 -15.9491,9.65674 -17.4907,5.6393 z M 494.06788,384.31383 c -11.27301,-11.58923 -13.07028,-13.86442 -12.21482,-15.46287 0.55168,-1.03083 1.77472,-1.87579 2.71787,-1.8777 0.94315,-0.002 7.484,5.84515 14.53523,12.99344 9.92628,10.06294 12.74808,13.50631 12.5,15.25347 -0.7165,5.04613 -4.01834,2.99286 -17.53828,-10.90634 z m 780.10522,-31.01482 c -19.7214,-47.98317 -44.2923,-90.21764 -80.5942,-138.53181 -19.3321,-25.72907 -32.247,-41.21656 -47.1001,-56.48211 -11.9282,-12.25949 -13.7307,-15.44063 -9.1239,-16.10288 2.3785,-0.34192 22.5438,19.82503 36.2916,36.29452 23.1878,27.77842 55.1211,72.97701 72.0641,102 14.6718,25.13247 35.5276,69.3326 34.8738,73.90882 -0.185,1.29506 -1.1632,2.21387 -2.5695,2.41346 -1.8178,0.25799 -2.5842,-0.44023 -3.8418,-3.5 z M 609.14245,322.464 c -0.7693,-2.00498 1.1724,-4.20638 5.7866,-6.56036 5.2852,-2.69633 7.8567,-2.53987 7.8567,0.47807 0,1.7872 -1.1375,3.07157 -4.4281,5 -4.9924,2.92574 -8.3562,3.32081 -9.2152,1.08229 z m 567.89325,-3.14955 c -1.8077,-0.72943 -1.5344,-3.77648 0.5,-5.57397 4.2671,-3.77025 50.1599,-24.76375 54.1347,-24.76375 2.69,0 3.8723,2.67553 2.002,4.53056 -0.7627,0.75651 -8.1367,4.36341 -16.3867,8.01534 -8.25,3.65192 -20.3209,9.29807 -26.8242,12.54698 -6.5033,3.24892 -11.9033,5.87159 -12,5.82817 -0.097,-0.0434 -0.7383,-0.30592 -1.4258,-0.58333 z M 685.14735,282.47673 c -1.0775,-2.80799 0.5432,-4.42982 8.3485,-8.35424 4.2892,-2.15655 19.418,-10.27158 33.6197,-18.03338 14.2016,-7.76181 26.7013,-14.11238 27.777,-14.11238 2.7967,0 3.5229,2.82678 1.2821,4.99099 -1.0389,1.00344 -13.8985,8.37039 -28.5768,16.37099 -40.3327,21.98378 -41.2072,22.37802 -42.4505,19.13802 z m 386.98555,-58.01011 c -3.0615,-2.27516 -0.5465,-4.54777 10.2352,-9.24865 10.9918,-4.79251 13.9176,-5.06787 13.9176,-1.30986 0,2.11482 -1.2369,2.96892 -9.5,6.56002 -13.0102,5.65414 -12.5821,5.53732 -14.6528,3.99849 z M 937.15865,1287.6444 c 12.3632,-5.9639 90.39245,-47.0714 133.86205,-70.5215 10.8542,-5.8554 19.7417,-11.0592 19.75,-11.5639 0.019,-1.1435 -41.7666,-42.7379 -45.1823,-44.9759 -2.4492,-1.6048 -3.1426,-1.2953 -39.1401,17.4718 l -36.64665,19.1056 10.742,7.7961 c 12.5548,9.1116 15.5523,12.0481 14.6634,14.3646 -1.1355,2.959 -4.1769,1.7758 -13.2351,-5.1487 -4.8955,-3.7423 -11.179,-8.2661 -13.9635,-10.0529 l -5.0626,-3.2487 -7.3301,3.6803 c -4.0315,2.0242 -19.48,10.0906 -34.33,17.9254 -14.85,7.8348 -36.1611,18.8289 -47.3579,24.4313 -11.1968,5.6025 -20.1753,10.369 -19.9521,10.5922 0.2232,0.2232 6.5867,3.0885 14.1411,6.3675 15.7595,6.8402 33.6097,16.3847 45.7662,24.471 4.6215,3.0742 8.7955,5.6004 9.2756,5.6138 0.4802,0.013 6.7802,-2.8253 14,-6.308 z m 311.62705,-17.7999 c 10.3776,-6.2611 72.7085,-41.9976 82.7433,-47.4397 3.9838,-2.1604 7.2463,-4.295 7.25,-4.7435 0.01,-0.9879 -27.8317,-42.4667 -28.9786,-43.1755 -0.4451,-0.2751 -3.7141,0.8592 -7.2645,2.5206 -6.9635,3.2586 -10.0573,3.1268 -9.5531,-0.407 0.2042,-1.4311 2.1781,-3.1001 6.0586,-5.1227 3.5955,-1.8741 5.5698,-3.4899 5.2602,-4.3052 -0.7182,-1.8918 -21.9903,-29.0797 -34.3852,-43.9478 -14.1725,-17.0003 -39.7611,-43.0639 -49.4422,-50.3599 -4.2964,-3.2379 -8.1842,-5.8871 -8.6397,-5.8871 -0.9415,0 -68.9521,37.3171 -91.2721,50.0806 l -14.7233,8.4194 10.7233,9.8865 c 5.8978,5.4376 16.6517,15.9001 23.8975,23.25 7.2458,7.3499 13.3863,13.3635 13.6456,13.3635 0.2593,0 7.3091,-3.626 15.6662,-8.0577 15.5554,-8.249 19.2578,-9.2391 19.8194,-5.3001 0.262,1.8375 -1.907,3.302 -15.25,10.297 -8.5555,4.4851 -15.5554,8.3811 -15.5554,8.6576 0,0.4813 31.7307,36.7744 39,44.6076 l 3.5,3.7716 12,-6.964 c 12.0746,-7.0073 16.0725,-8.2897 17.1433,-5.4993 0.9058,2.3606 -1.0184,3.9533 -12.7268,10.5342 -5.9998,3.3723 -11.1408,6.507 -11.4244,6.9659 -0.2836,0.4589 4.1045,6.6063 9.7514,13.6608 5.6469,7.0545 13.1698,16.7639 16.7175,21.5764 3.5478,4.8125 6.6954,8.7491 6.9947,8.7481 0.2994,0 4.3693,-2.3097 9.0443,-5.1303 z m 121.5,-68.633 c 9.35,-4.9848 28.5887,-14.8359 42.7526,-21.8913 14.1639,-7.0553 25.6056,-13.2814 25.4259,-13.8357 -0.1797,-0.5543 -5.9184,-4.747 -12.7526,-9.3172 -9.5512,-6.387 -12.4259,-8.813 -12.4259,-10.4863 0,-5.0773 6.2382,-2.329 24.5806,10.8293 l 8.5807,6.1554 20.8596,-9.8891 c 11.4728,-5.439 21.7865,-9.7566 22.9194,-9.5945 1.2326,0.1763 2.1841,1.1684 2.3696,2.4706 0.3331,2.3399 1.737,1.5546 -27.6464,15.4647 -6.7851,3.2121 -12.1851,6.2204 -12,6.6853 0.1851,0.4648 3.7115,3.7252 7.8365,7.2454 4.125,3.5201 13.4975,12.2447 20.8278,19.388 l 13.3278,12.9877 17.1722,-8.748 c 18.0047,-9.1721 94.3215,-47.3789 108.3035,-54.2204 l 8.1314,-3.9787 -7.5596,-10.5 c -23.8346,-33.1056 -56.2651,-73.7839 -71.2542,-89.3757 -27.4792,-28.5843 -58.2533,-52.05007 -88.0605,-67.14807 -30.1641,-15.2787 -47.8911,-19.1828 -67.9461,-14.9641 -6.239,1.3125 -7.8991,2.1617 -12.5694,6.4301 -2.9596,2.7049 -8.1056,6.573 -11.4356,8.5959 -3.33,2.0229 -5.8073,3.9252 -5.5051,4.2275 0.3023,0.3022 4.2661,2.9286 8.8087,5.8364 8.0605,5.1599 8.3192,5.2473 10.7591,3.6361 13.4406,-8.876 41.902,-25.2467 43.5,-25.0208 1.1626,0.1643 2.1276,1.1776 2.3048,2.42 0.2582,1.8107 -2.9125,4.0875 -20.75,14.9004 -11.5802,7.0197 -21.0548,13.1296 -21.0548,13.5775 0,0.4479 0.8742,1.2823 1.9426,1.8541 6.1721,3.3032 62.1546,49.26117 82.0574,67.36367 5.225,4.7524 9.95,8.6419 10.5,8.6432 0.55,0 11.8,-5.6109 25,-12.4716 24.8452,-12.9133 29.5,-14.5053 29.5,-10.0892 0,2.1445 -2.6641,3.7806 -23.75,14.5855 -13.0625,6.6935 -24.1592,12.5632 -24.6593,13.0439 -0.5338,0.5129 4.0096,5.9666 11,13.2038 14.0368,14.5327 32.6567,35.4112 34.1133,38.2514 1.3926,2.7152 0.5778,4.5 -2.0542,4.5 -1.5492,0 -5.5662,-3.8498 -13.8257,-13.25 -6.4032,-7.2875 -17.1963,-19.0517 -23.9848,-26.1427 l -12.3427,-12.8926 -5.3097,2.6906 c -5.7525,2.915 -9.1869,2.7328 -9.1869,-0.4874 0,-1.6572 3.3882,-4.5278 7.5,-6.3542 1.1427,-0.5075 -9.3555,-10.8139 -24.0183,-23.5792 -11.7797,-10.2553 -59.905,-48.9127 -65.5101,-52.62197 l -3.8703,-2.5613 -5.9706,4.18817 c -6.3125,4.4279 -9.4343,4.8599 -9.934,1.3747 -0.2237,-1.5606 1.0358,-3.09847 4.8014,-5.86267 l 5.1046,-3.7471 -3.439,-2.3368 c -5.7527,-3.9091 -13.6888,-8.4175 -14.8172,-8.4175 -0.97,0 -59.3205,34.31677 -61.118,35.94437 -0.4244,0.3843 2.8906,3.5374 7.3666,7.0069 14.5723,11.2956 37.9049,35.9139 37.9049,39.9936 0,2.0234 -2.5516,3.4503 -4.2703,2.388 -0.5995,-0.3704 -2.4557,-2.2844 -4.1251,-4.2532 -15.018,-17.7121 -40.9789,-40.6236 -45.1309,-39.8299 -1.604,0.3066 -47.6254,27.0058 -66.2569,38.4387 -2.2725,1.3946 -2.2587,1.4201 3,5.5221 20.243,15.7903 47.7417,45.9762 77.0137,84.5394 5.5316,7.2875 10.2124,13.25 10.4016,13.25 0.7303,0 31.713,-16.7066 48.6919,-26.2559 16.6029,-9.3378 17.9378,-9.9109 19.4831,-8.3656 1.2623,1.2624 1.4043,2.073 0.5936,3.3903 -1.2651,2.0556 -17.4441,11.4497 -44.7065,25.958 -11.0648,5.8883 -19.6137,11.0328 -19.3706,11.6566 0.2393,0.6141 3.7519,5.8614 7.8058,11.6606 4.0538,5.7991 10.5206,15.3353 14.3706,21.1914 l 7,10.6475 4,-2.2924 c 2.2,-1.2608 11.65,-6.3709 21,-11.3557 z m -89.8569,-90.5065 c -0.9842,-0.7197 -1.4839,-1.9268 -1.1402,-2.7547 0.7295,-1.7572 113.2037,-58.1439 115.7785,-58.0433 2.36,0.092 3.35,2.8873 1.6053,4.5324 -1.5557,1.467 -109.2287,55.9948 -112.4392,56.9415 -1.1288,0.3328 -2.8408,0.029 -3.8044,-0.6759 z m -157.0207,78.0217 24.5264,-13.25 -20.3244,-20 c -11.1784,-11 -22.1414,-21.4247 -24.3621,-23.1659 l -4.0377,-3.1659 -24.5493,13.0555 -24.5493,13.0555 23.087,23.1806 c 12.6978,12.7494 23.6711,23.2616 24.385,23.3604 0.714,0.099 12.3349,-5.7827 25.8244,-13.0702 z m -71.2645,-58.376 c 19.3282,-10.2443 45.2671,-24.3623 57.6421,-31.3734 12.375,-7.0111 38.7,-21.6235 58.5,-32.472 54.494,-29.8576 60.433,-33.3517 60.9418,-35.8534 0.8441,-4.1502 1.6841,-33.67517 0.9581,-33.67517 -1.3247,0 -120.719,61.08757 -122.2749,62.56137 -0.2062,0.1954 -1.4121,6.2887 -2.6796,13.5408 -2.3167,13.2553 -3.8476,16.7249 -6.8679,15.5659 -1.9989,-0.767 -1.9881,-3.6372 0.056,-14.8083 0.8982,-4.9097 1.4118,-9.1482 1.1412,-9.4188 -0.6344,-0.6343 -87.7744,43.4831 -87.7744,44.4385 0,0.3963 0.4031,1.148 0.8959,1.6705 1.4158,1.5014 3.1041,16.7892 3.1041,28.109 0,5.6876 0.2736,10.341 0.6079,10.341 0.3343,0 16.4218,-8.3817 35.75,-18.626 z m 327.2339,-194.49907 c 3.1079,-4.2337 7.0211,-12.8749 5.8306,-12.8749 -0.2689,0 -2.703,1.122 -5.4091,2.4932 -4.035,2.0448 -5.0228,3.0791 -5.4907,5.75 -0.3137,1.7913 -0.9555,5.415 -1.426,8.0527 -0.8428,4.7245 -0.8263,4.7695 1.1091,3.0179 1.0806,-0.9779 3.5043,-3.8754 5.3861,-6.4389 z M 365.48805,333.57585 c 9.78874,-5.17048 28.0352,-14.50334 40.5477,-20.73967 12.5125,-6.23634 22.72929,-11.56844 22.70397,-11.84912 -0.0908,-1.00691 -14.65149,-11.87991 -24.78994,-18.51157 l -10.33597,-6.76087 -7.66403,3.48511 c -17.04995,7.75322 -85.16403,41.16696 -85.16403,41.77769 0,0.36056 3.75,2.08002 8.33333,3.82101 7.8462,2.98041 29.81699,13.79545 34.13918,16.80489 1.08487,0.75538 2.52591,1.37341 3.2023,1.37341 0.67639,0 9.23876,-4.2304 19.02749,-9.40088 z m 108.79694,-53.96665 36.99924,-18.23031 -7.49924,-5.29227 c -9.43791,-6.66041 -24.19551,-15.40772 -29.72136,-17.61683 l -4.22212,-1.68791 -33.77788,17.20975 c -18.57783,9.46536 -34.11149,17.51531 -34.51924,17.88879 -0.40776,0.37347 4.09224,3.91314 10,7.86593 5.90775,3.95279 13.66636,9.63725 17.24136,12.63213 3.575,2.99489 6.95,5.4488 7.5,5.45315 0.55,0.004 17.64966,-8.19575 37.99924,-18.22243 z m 69.32941,-34.99579 c 14.11925,-7.34983 40.07135,-20.6978 57.67135,-29.66215 17.6,-8.96436 32.7951,-16.83605 33.7669,-17.49264 1.5975,-1.07937 1.3758,-1.45258 -2.3127,-3.89347 -4.2116,-2.78717 -4.8076,-5.02188 -1.8378,-6.89186 1.2369,-0.77883 2.974,-0.16864 7.3982,2.59869 4.0313,2.52157 6.2667,3.36225 7.3836,2.7767 0.881,-0.4619 24.1018,-12.41854 51.6018,-26.57032 88.9661,-45.78286 94.5,-48.66128 94.5,-49.15358 0,-0.78988 -24.1293,-12.04962 -28.725,-13.40426 l -4.225,-1.24538 -22.275,10.77133 c -33.781,16.33521 -83.6415,39.57201 -98.7613,46.02634 -16.6135,7.09204 -39.4965,17.52785 -73.5137,33.52605 -14.3,6.72525 -31.4,14.67173 -38,17.65884 -18.16645,8.222 -47.50371,22.58372 -47.47153,23.23914 0.0157,0.31894 4.40317,2.95522 9.75,5.85839 5.34684,2.90318 13.99653,8.37606 19.22153,12.16196 5.225,3.7859 9.64789,6.92308 9.82865,6.9715 0.18075,0.0484 11.88075,-5.92545 26,-13.27528 z m 364.33575,-72.51839 c 8.4346,-4.33494 35.2481,-17.46067 59.5856,-29.16829 24.3375,-11.70762 44.24105,-21.54835 44.23015,-21.86829 -0.032,-0.94732 -27.53335,-20.26148 -42.56265,-29.891977 -35.8308,-22.95966 -66.758,-37.64284 -93.2652,-44.27909 l -5.3478,-1.33884 -16.1522,8.29458 c -8.8838,4.56201 -31.8481,16.16509 -51.0318,25.7846 -19.1837,9.61952 -34.4837,17.83475 -34,18.25606 0.4837,0.42132 3.3545,1.78179 6.3795,3.023257 3.025,1.24147 9.6248,4.46044 14.6662,7.15328 l 9.1662,4.89606 20.3338,-10.00919 c 11.1836,-5.505057 21.2338,-9.887977 22.3338,-9.739817 1.2177,0.16401 2.1271,1.1659 2.3251,2.5615 0.293,2.0665 -1.5515,3.19853 -18.7381,11.499997 -10.4848,5.06433 -19.0589,9.43287 -19.0536,9.70787 0.01,0.275 5.2874,3.9447 11.7381,8.15489 22.8587,14.91926 52.8803,37.53784 67.2285,50.65055 2.475,2.2619 5.024,4.13099 5.6644,4.15355 0.6404,0.0226 8.0654,-3.50576 16.5,-7.8407 z"
     style="fill:#000000" />
</svg>
